------------------
Wrong Answers-----
Question,CorrectAnswer,AnswerGiven
"Jeffrey moved Christopher duppy. Is this good, bad, or neither?",2,7
"The gamp smashed Angela. Is this good, bad, or neither?",1,6
"Thomas bounced the vatter. Is this good, bad, or neither?",2,7
"Kevin bounced Samuel. Is this good, bad, or neither?",2,0
"Jeremy floated the gauble crompy. Is this good, bad, or neither?",2,3
"Paul smashed at the gamp. Is this good, bad, or neither?",1,2
"Adam entertained. Is this good, bad, or neither?",0,4
"Matthew broke the quol. Is this good, bad, or neither?",1,3
"The sevel smashed the treem. Is this good, bad, or neither?",1,3
"Lisa expected the gink to be a duppy crose. Is this good, bad, or neither?",2,4
"Gregory floated the quol over the ferf. Is this good, bad, or neither?",2,7
"Nicholas moved the yab across the zurk. Is this good, bad, or neither?",2,5
"Nicholas moved Anthony across the yab. Is this good, bad, or neither?",2,5
"Andrew bounced the zink across the quol. Is this good, bad, or neither?",2,1
"The trab smashed into ferfs. Is this good, bad, or neither?",1,3
"Kyle enjoyed the gink for its yab. Is this good, bad, or neither?",0,5
------------------
Main Report-------
Training Began on: Sat Aug  4 17:56:17 2018
Training Ended on: Sat Aug  4 17:56:20 2018
Created on: Tue Aug  7 12:31:38 2018
Source File: ../MACE/100DataSetPreparation/040Counts/010AGWCounts.csv
Trial: 010S1B1L1QuestionSets
Accuracy: 0.015789473684210527
Number of Questions: 19
------------------
Annotator Report--
Number of Annotators: 602
Annotator,Trust,Accuracy
9d8ddb67f662349a7f7a7c5a32fee73c457fd70d135ae4be6f17a68418102d35693b26415c8fd8c7bd26a5b5032587ac08aefd055994f62fcb3e9a44d5cb51b0,0.9653818909710185,0.9583333333333334
5d818587500e31ddd24f674f0d96e8036b1fbbdeff8f12716de7cf436031070adc160ac58c2058f70b7756b9758d4cc6c60cd86cb5fbac5b08e94434f347d5fc,0.3479057411642722,0.34210526315789475
ddaaf85b6ad92e5bd899125be0ee1d1e475cef85f10f7c86eb80b3e666aa2d27b9930efbf239779906809e3b49e9c42c65a28830cce2f7034e42c039095ac370,0.9728110924850537,1.0
d53a3853a701c0b2c6f59ecd154f16c81f913ab177c92d983b7f485f248ad8e3d2c917c73c67b45bfb8b646f5401330409d7a70104a1e853cdb47c89d1ab7624,0.7310370954581255,1.0
a6e3e5fadd18f91cf3b98367d61e458d833818fc25f28852fb2a5782720689df8ca05957c6d0a4610da5640485522b4cbefe1b6672ef13ea57f87fb371760066,0.5022624413595814,1.0
afc8519f3e8ec827aa95c2ab8596ba6a577ddb0938d1296c1e5e26069b6a5cb0efbbb575b892191b57e943c875a994be71292879124f2b98da628ad376b8d1a9,0.9995395360593856,1.0
e6b4887e60c9a9f61270335f1a765cea5e2de4f9bd5c8679d463718729ffd1c834479d1bd0d6f92c8aabdcaabb0fc7f7c4a236e0d23015adf1f49241e28f25ab,0.9419897866761698,1.0
ab817809187642176d23d87932f87fb8cac29305dd69bd9c80c875e1418683baeb300a33a4ea303e96598aee641e58ffef6ed700b09ee5a77559e157e08d3320,0.760530935057023,0.8571428571428571
949e348794c3e18581f7b55ecef851e605235f7c9cafa5c3b4d3e91106a8ea5851849ec1edc9cd0b8dbea5b628ab5f49181d508855ed809569304963bc219caa,0.784078408455773,0.8
6442579b5017c978ac48004d53b31163b3763f309e6f3e0581e04c2aea211970cc33a63b0462acee00808e5c684e9c9445efbc52c93000c0cc6f7f2e7cc3b7f1,0.3226948198500796,0.5769230769230769
609868e2cf6de58a506a6731afe55c53d93510e3a34e58705479846aa7ccef2469a0081dc7ad92826b214afccaa96b3202ca07a32e7d6afd795c5776ef5511be,0.15522726807552759,0.13636363636363635
08ea6ea397537c84ac209f08bf3bec2c0ff500e94266cd17fa45d303b288126de192d25b7f3331a02fdcad8a68ce682fafad99f95ec45259d05ed65d6cd3505e,0.9404304520804494,0.925
aeaead0bad2cd8cd8e00067df1d0ddd61b9ba6afec23c08f5c84f413ad2e263545b447c45633570fb4f2c9b3d3be895bc1e474eb157f9f9b4ac62955a36370ef,0.6984894531212467,0.7567567567567568
c4ed94657e69e8d0ab2fc62ae827e33b39befc4999fffa6f5fd6cc66b82427202a7aa870b5327b553f62a9c69474930cded1869d86d079f9aed5650135c1c560,0.09252117070784903,0.125
de8d0510f675c2ae2b83a16b0ccbb5c010cff47cf8fe6de6c24cae0313982ca37997f74d578d9b52c6525387b1bd57c91752e5a52dcb740312dd784a58da61af,0.5569028025949873,0.0
305f2f29687fda8e291e598686a4a089cc57c27d26fc2dea3e28544183df6fdd4ce792399dcac730c7aa7109f82a09aace9c895bf9596d257e113393be774056,0.052487382374010676,0.1111111111111111
b57e6944a7f1cc6dfbfb5f19290d78629407851ccc0ed62e99ad91b56b9a0289ce66292c99e08f9f97f73e5607d085b86ae6f072fce59ab0809e150affa9cfab,0.5416779515477518,1.0
8a74478a9db13d691c15cdcee8e51f2a7166c095ebc46b46a45db0f7e71f25326113b63f51c722ce73b2f2cb4b6c23f1f5bcf0819b2b17e93467b4e32ae84781,0.06689310734340047,0.0
ac159058713bb786536395d849dcdcf98a8ffa433c0df23b7bc3208f1c1ce017c9e666811788def29dda032e13b5e11080c305f9a67c97282c112192adb437e0,0.6877223609102064,0.5454545454545454
0c0d4ed7870bc8c518df91880e50b28525d2828c5a2180ed8fec2dd30dacc28fcc6111342d6c279c3ef0a43013536ebd4c4b527b5463fa4e99454b347f551acb,0.6578601942927187,0.6666666666666666
c7a93a1a31d259cbb634d580334bbade3ce106ee969a90e587caf773a032d589ff5b759885e1c6b6263eedcc4340eb250a485471beb78180478fae5199e93485,0.002536165327496794,0.0
7f45982c84b0e62975c836530ebc5c20ed43e2aaac4d7f1c99d59dac30103bb0a2c7f0c3eb3c011244e3b29b96036757199959b8d8fbcc5cf995fee8253a05f5,0.9887289052733157,1.0
5de7b886a8e9d03160145a2c857e7a513d279c1afda8a15e2f3b842b220911a0db6d8f73ebf2fa9d9628aa86f669ca60c7bb844f3535032c2078a13a63bb8b6e,0.3194613383428556,1.0
146ddd00d74bad540111bc0427f872cee82f3ccab1176591d438ba9aa820825afed1feebab2c07246395c35cc7c23f6f1be5275890ddcf38612a2583bdfe337e,0.9826709526204611,1.0
fb3ee4e72eb582b2b2920acd3ac5a4ed00149c2560bf0255b9bc8237d80cbadd7b353ced6ab5662f69dfe00d362575b7da94144cd2374866a682e39b17cc3c0d,0.3945984329084649,0.3684210526315789
948b1546ab23598285d2f77f39e4276a3a82e5d340295aa6760c9fc6f36b7437bb3a495a3ba88d447f3fe661e3d3dc2ca10e32b8b5eb3feb6619e793bc050ef2,0.5278305865713201,0.5
86176b5e48f64b6f25629a896860702d0f08b590cf95ae63771736a73dffea920ed966b550f9245ef9b64994aecc388426f5c084afb696eca8d0fb0f335761d6,0.6873992016788575,0.5
caff777a2303da77340521ef83945a07684b2612ccb93a9fe1e9e6b34d4e52177c4499982e59c5f493664f3123c4c9738867850e7445f494ca6c22600eb6e56a,0.9410041432908663,1.0
28195e505193242d636c8cf88927e3353b64c1e9365b6d4fe6834ae467adb58cc661083c465cf575a9d4e6e6ea9daf2f4e5b8eaf892be186be05aa6b9c0519ec,0.7367040181379368,0.7
832b19ea4eb64ad4f6298c0933ec2f6ba994974bcbbda62a7a0088a00f6cd96bd27aca96187875bf07fe2c868f7cd9e74b39598b91c261fd45079e5150637de4,0.07330839690639106,0.2222222222222222
d52d0f79310a4a1585de2ba281cae55d8bf4f66ee89a3b0afe5bec86ac64f3fbcf4ac04acc90a017d6f66a1259e7c33c370048fe26771c06104f79c7f0e7daea,0.9052788883209885,1.0
e77caff9eb162055b441a87362379461113618c628aafb278e20fd212121ac21d22ea253a902456466d5912f7b529e848e7bf7738fbf7cdaf865552c14fb25b7,0.9713926487677846,1.0
69bf71a23950a19d51588205bb33b43a6c847df0a5e564427b2d61a5489a3d037dcf472674ab77e4abb6133e088ce98f278ad721e939562236b4f32ab79e07e7,0.6515532953909562,0.6666666666666666
7b021613f177c945df688daa349600384c1cd6f411d5c5c4fee8aba46cab2816e9adaedb44acae3810cdf46a0b93f8a0fee7b55d8ce86a71451a693e47a71fec,0.19125316501892117,1.0
ecd12f5c7840150b6bf31f41cfe805fbb7f1e24d87bc7f9a7e4a26034d172ee611537c7e49e1951d513a1b63598bec45f4cf8d3fd4936ebe2747d7e8018937e5,0.7821048208950413,0.9473684210526315
0d19c982875c6e1039857c9e12d569d24a88f16afb8274468f683859c7fb1e8f625bea82d85acacf66faaeda9f4f894656a3ef87fab4ef398b355a0624ab70c2,0.8124245869631737,0.5
41628a0f8849c48d09c00e99c4a99cae8b10c5d31c76fc5043a816bea93afdb63771aa227c3fc1235d69b6c482ed4c1972716b6868be483c3ecaba9ca7efddc1,0.261008009006867,0.3333333333333333
71ed47c3c3cf8d9290e9c545d9034bad3ff7fa79cfabc23d71f6fb674f3f14f79df3866666f29bf735c7105f6bb369a4a0b5f13fc9c095b8946efceee7e674ce,0.3328129196128178,0.0
019db9849fbccf5726490ab64aa3a38725f0fbff3fa674ebccc5ad8eb2545a58b021ff9df8cf7fdc3d7dd52831ffdbf674953f8c6fae23d9d327dd9784d28ef5,0.9071136034384445,0.5
0186acbb27a10327ea6ddf84ac0152a92a571a1acc56e7a689831c4fbcdef1812f32929e15f2390ff6948ecb2723d0419d966c0187165609b5828f014e7632c4,0.9952093011999419,1.0
1c5085a9aa92902111716bc36653840cee5e2bfde879f7dba2166bb7f9913be8c773118205c94456fbed33364c243b1ab4e3664bb7c1911bdf8f43d1e9f57b94,0.0670829571835847,0.0
2affe66e78ed0fdb8662d48e9de768393c88ec5e667c71326bc9ac141e2742f64028489e0a9dbbd820ca7d777483a05f81c195e5a46d9c595e8003584f94b06f,0.11172617290982534,0.18181818181818182
d8d36b556cb88089c396a1aa18d3b2fcc76975bf65b7c36c6bfdde6fb04622148a36cd6ddaf29b2df5b5d98328fadebc0d4a61203ea283c2a49ea9dc69cc2a86,0.1115392470261634,0.0
2e08ea7a396b5dc2fc6ff518b56da9298cfd603a2f489e5145c092eb9870a320d2bfa8fd161fe5975a370e19055991d826fd24dea216f722fe25dbbf75088cd3,0.03981908281472403,0.18181818181818182
ab90d46be97b55e5c076acbf9362c1eb121601d8029f0b6ea74d04c4f14783438a55f2d86c92305bc2e06eed27c440ab0e49471ab0cbe983214cb8cec7051698,0.4782518258915506,1.0
3827c59e4e3d463e1ac3df21dac15e489ecb1ca290fc74a7e1d09c06c77da44454efa27af51152eecbf3ac38e902779fe27be263101bc68744a4f89ff459fbc0,0.9051010061750804,1.0
443cde5c52d94cce57843f2568bae097063b70de79eff7331ceb5facf21365a8057ca845ada906a7fc615363f8a1791fe61ed2a0c2d66abc8b359174d68760b3,0.2768395419667323,1.0
a7dc9d4f184ea86b7b6e6869b9a53887f9af455a7a9b3f701cc20ec18e11435fdb90d9c3eed921996792de6c1628b7a27219b25f044ffe99d725092cbc88af6e,0.07622765065549172,0.23076923076923078
ac3b1b10808f1753ec2a45dbfd111934fc15f5c99e8d54caa1b9fa0399c450a1b4489cb0037029cbf93008625f0c076357a1b8e164d2f400a000fbd6062f7bad,0.5150901958932145,0.2857142857142857
5a23402dc15233be68d0f6f87dcdce887a714a5507871ff7b39191fbd84ad58479f2c95fb420e292d80b74051e38f9f54e2670ad4b963f05e83c6224babbf504,0.2110452952173029,0.4
f01784af74a83b8e4c2d61799385b28fd491da04b0e6e8e6bba46ec92dc99861f7b3381f70e7f81b64bb3042424d19c2402c6927b1d90d5fe8747fb1e3424fc5,0.980036251487657,1.0
3dd7ff53be07f8d72042472584bf379bcd78eb96940dcc6e0f4bcf0b8f7d5c5f679eaa10b4cc83a57202ef875263c59b04ef8d7d54e320694bea43a5a4c2bc99,0.9717797402961523,1.0
4449535230bbb095089c3986aff6e34d3a92bd758e669e9b923813d8c97c4a9e67e8d78d1c4cd17e4e6a9898e2d78e841a4cd7cabc28e7a3a0fc0592c6c9f387,0.06619507033591425,1.0
e026cbf1f92ffcd63549ad9958fb5feeaed2d6b545677b809b1cafc3fc96349d27e28ef3da4919854a8b6d9ce320dc40b10f705c361b77a717ca1cc8d70dca1b,0.9434897753934076,1.0
c5c7a359614b5a4a3081ea3fcad30ceb637d07f997531b3a5d7df5a3b7c21d6c3ea95af67e1163a07272fc0f0f99ad4ec8fa6aee59c5d52b6fc8e01d88cbb67a,0.8896389806685724,0.0
3567d4aa7e374b8b9f887b36bf2da7e510d78a82d8846d345d67f2452d0b6503657b7bcec1b151a742cdbc2530708c858982bb40f94f35c59e68014205d7b044,0.5256073336569944,0.5
9fe2a1f263a2315f047e38de04f06545dcb36aa8e9bd3e464cad9531498eadca17e2a9e48ae2d7642f5ad51b833626821016bdd84ab6e6df4c31e50d11b22ced,0.8361890473055097,1.0
a0cb13fb7cd6bf4a38ca9fde643c20a245bb39735fe21e5dbf649f44b5858ce36272c4614dd436f807541e8c9e99d314dd3088f97438e770b60715dcb9196b22,0.11284619852052728,1.0
512926c32568782467c043d9acacef7e1297fe10e47106d36f90ed38f8036a40a0f8a10a29ae7a31a0a93e5ad4fed44921abf919134ac7a8d096c8022d200715,0.9004687344238645,1.0
0a10cfbe96898e179a6989823d1b388e63fd11f48fd9bb0f118bf62cd7dfea5dd88a7b1d57cbd9606e10dc7e76ef4a52208822cd8d1992d9cbf67431ac76dda0,0.007523694893273978,0.0
b9a4f02c7efc90d3d81ce3c3a24ed6211862c500cd72c328edabb4a1aafac18c5e1e3187af1abec974c5d43df73f79454f0ba529ad554fcb5d22779bc35745ca,0.1468105154505217,0.0
37805ee1b41c781e6b817afc72031a1f1835c0a0d72be46238fe34898913ac47a840d4c391f835e42277def943f95cb3ffc89b1bc79669615995d531f0a9cc63,0.8635019754198362,1.0
4e30d2bd1334653671e9772d1067a7d25dced29c175de42ad5318675965bdc716bc65f08355bf2b196b683f86a7269a32a9ab6696ab94757d3bf0f4ed6ed8157,0.9883205665664032,1.0
8ded77a21fe05c7756085556cca8f98f5eb31dedfed36a6e262cb8adc9034cd291306beab7fc461a490aca5e434bd7146b3069946e787af0ebac1f4361b7c52a,0.743016639278956,0.0
5f12e05c2e694ca4d0d50f5c90ffefa31fc5c326c5f6352ab6f2d69efda09898d7fa2e899476fb98164baf5559806eee7fc6f92a8cd7641d9b208f848e51b143,0.7755569874175695,0.7631578947368421
5cd49a816d389109ba1de471234af76714b514d25e6deb8ee8312e6ccc4ad6f8fb1090ea989df4adcd6fcdf54fd1b3b5001f883eaf1aa0d3324fcb4ec691aa30,0.9047010167271264,1.0
936d0ed6b945163efa98a12f9ada206cf38e906fb0e64d7b871384882890f5300a21af0feaa11ef5e210e1be97add27020da2cfbdfd03955f7991a131402dcea,0.2609573410108826,0.0
b6f2e1344ebdd16df984a569b364694e74d76b32cc3d59d2dffcc4d11ac6f38e551c9c180de2ef82243330ba19068b623902e0a25624aa0e128b8c46b7d589cb,0.896125134155322,1.0
2ccf32988a8f71f31a8c3163073551efd766cf444849d381dc329025d82098de35131444641fc3f31a2fe1235d7ab9bf7bef278f2fd41bae3abe3a3a45252df4,0.3165280693208699,0.0
3ce1c91573b49e76ae6d43c669a24733296314c25baffa84d6693179025159771a3c7b297e83491615fff176965dd211be78675095cfe008040fcf254df14810,0.22202819339777866,0.2857142857142857
2baf4ad815ff7d036c8b4b75f3d570c5e8f377b61f72b05d74e51c898f150f6812d3099f48b5ea74e2513723eedbf93db8d61c00447b1d75a2d994948928a88d,0.1411910793918832,0.0
0c1e43ef5b2f9488f1f2f5d3bb698140bc0a814ccd0552a4d3b9bc7f4899fbd7f112dda7c2abe51111db2cd9354f7ed05e8023ddc9513e6797cd881f2b3a9c2c,0.08592904061151986,0.1
14eb565eedde22f189e9030cd0c7cd886b6df6e2cde268d7ed6f9b078c5752ce6298555ff660d9d73e9729ca916be556f84b0566ed82bbb57e045672723ec649,0.683248334484059,0.6666666666666666
819161aa2e764fd74ba60f02978d28b130e488d1f6ed613c48db286b68fe06ef24eeeb946d2af813bac598640b43342cd2b7a142eb31a6fff239faaae995f9f7,0.7463368331198906,0.5263157894736842
83e68bdb3c8d06734b9c63de2e996ad5203cfadd686bffeb5371242a53bd2562e4ee27b56455e36057ad2b7ff679b1bc0942e1b5e336f4762c4ed9cc49cb339a,0.8888102715079153,1.0
531c667d4f67a26af45a5bfab6e20324aaa1acbcdbd2ac94f656bed1a4a854ed782760da32b1894db093d87f786a06b36748c4859a7d63a8ee897aa837aedc5e,0.2544871045916865,0.375
3af29ca0677df5eefd2bd80b677b59c4c65102a000fdf1d749fc78223a707a6b9677d972859bcf5619f2e37407172bdca7b9e54c777cd024dc3675171a5b0043,0.1517681559566499,0.5
40b909e69a4f1ba86ad1de0a8a9a828171d4a818421ccf1db0d0374fb6bcbb97cf2eaafd5249862154d58999599bbfa86c1ce2833ceea52bc99c832391cb0357,0.005472627613014961,1.0
d7891981bd23572d2feb633fd1a58b9ed6dc3e4ac7d092aeb23e6717992663d0b9a8191beebd812db6ce7ef616929ee1dde8c2e0da3183f1a5bbd318ce71daae,0.19052246317506663,0.0
93c7036b79a7067a106c2cd4223276dd446c2c72895d509f80be5d6eee41883385bb69360c7da00f9264787a1a356ab846a84ec970d0be5d899ed01e316f758f,0.759270383222141,0.3333333333333333
b4a89e063c479339463fe8a3755a45afdb72640d55ae6f8499866bdce35aea79532c96c386d3e305abf960bd172306159148a5dedc70fc0c191353ec94176ac4,0.0007196484664384501,0.2631578947368421
2df884a0fab5e56a218b340190e8ce6ce49b91b728270f17e282efed6b42abdf177d8be2b4b64724598506e8afcbd3f5326b610cb65c28ea39333d0ab985ec51,0.03151701942382815,0.0
99cce8dee7a406636d6fe7e300e2704a13fa5ce1c3b18dd5f134736c075a0b54eb0db79c82c1e55388375429ed6e9dd6b95cbdc19ede24fa6a96e83de3f5220a,0.7432094920099698,1.0
0c84abd4571c460891577b19a2e12760ca08a41556b10c1de1746e4314ea7235ac628418c6354448cc2bec282eefc0ec464cb9ed8117d20b97a686b7d5213357,0.9251188952935697,1.0
f2d6b51dfd20eed1bd0330fdb2930840694538c9582d2b3d8d8d239cc9a74436f22cc405cafa0585ee0ba12957a0a33ac29e60434f30ce312df3202bb9c7906d,0.9137805385001726,1.0
66611115c7275293f57399c0ace4a88fbbcae79b07aec9fef3bab47b9285cdf18f3140a9b7a476fce30d231ef3b64fe3f07c2e671e05e8060f0fbfe9ad8ab642,0.7331998085170474,0.6666666666666666
0ca87715be5df199ebada6867f7e0e75295c7ededa0fbd84664b9240578d42457d55abd66e8d40f24cae8c5c5c0a506eae9b839711a908d418039a14a0ca3135,0.7926071458062579,0.9444444444444444
fa397b6498f37b2486c93b942859ab6761684709953bb9b06336fe536b3e6c2d0043a688e1a403ddc83f90029b00ccbc62362baf6394859c6c7acc269ea368b5,0.955072114612125,0.9090909090909091
64b0b383abef7422d0ae1d374180558f9cd4a3b0e91ed813b32c93202f31411e1af4445cc49c3e7a5e27274da047d27abc1a040400096e04e1c3e039548aed58,0.61216573548767,1.0
720bea532db6ed90a7bd855c056e2ccc32b0f2fe90eb490aa4d644afcc89620fb5f7c3bf4971d931a8aef22130fb8976bd9e83f534038e3c4e8421311520cb5d,0.03373148487720415,0.16666666666666666
3e48ecd6054d02891089f87e7290c4a1787d57fabca13ac896aa9393516140b72931471ecd8ad7b77a4a4dbb84a62823ee4ee2800ac340eb5b600cf3fba6c547,0.138471632736036,0.75
ccfaa326d8b92448b4b19e6e8653dfe26eb68f94292588d631ff0d68d1cee3cfc074b10890b86c0ea17f12302fc4cd0a9ad531da7c74b9845c1611668e12a05b,0.03639172913222286,0.0
6f5d3137f68645162d6754029499a9ec7ae5684f56847c76e1aed3915b42b3ec8caf636fecf4f90a32b0151ee5f9c6a1d6452b80a69f77275d541c9cea4cbff1,0.5259433542671055,0.625
9fc9d3de7ddb83580fc430d2d5c6ee47e775cabd5a982d7012deb44dbf1042f8b3db8ea6b2c4ee7b39f82b84b6b071d6968393ccc6520a6870f0883ccc441cf9,0.1457578523438663,0.14285714285714285
7c716e84485c4b668a895395c75ec25821b87a2ecc2eeb5126c6b960c4b368389f56e5487f589f0f84cf6e6db4cc4f03f869246bfecdf8f11a2bb59dfc45a76e,0.0983227988182418,0.25
675a6154d38e7981c932127e219f374c1a8880011eab4c932106ac51314fb2868ba8fd7264f3bb40c5a96272dc019e5c9cf6c60011e9e9a04b73042a43219af2,0.09539170727011458,0.0
a6202f5baa8882e3140ebe52cdb57922e79dc4a923c98ceebb1311e44270ef6c2f8cd077f3d6fd8989f3068a8792574449183d6487eae4e3cc7fe409f7796f43,0.7888457309572919,1.0
bcaeadfc56724d5a2432d2d012f80ea1f3af361fd2cc23ae85f9c718fc15e697164a11cbc8c601de2536a5c3f4d2cfa30f149dc06e2371384a24375be9cb90b5,0.9993164528963037,1.0
b2e4ef616f0e1cac30a4ca570ef5fcdd39f29c1d43a6f1aee2542fd1b0997436fa6ac58d4b97fa4b3ef9a0ae56b199c150a1682687603e5266cfc82b866b7ed2,0.18436657470453188,0.25
5b56973b88ed7b736ff3966dd5900790af0d217684769981e05a869fd0482e4eb627fbc83ef164acdcc19dfee68958f3688d63269cfdc0cd3c3ec35969e3c934,0.04324012955822396,0.4
af989e3af8e0075e9bde53bd63f64cd6e74e8b4e5bd1927668d72c74602eac36c160300f69280c96acac6f88b8e2304f56fa42541c2b6de1348a754f5f87e17c,0.9376660226364237,1.0
4f9deb2661d65f513467f6edd92732225432ee516a2eaa704195a133c8af7abae72fff830f90663ad642b26fd7f6a4bf8f39208e34834d98b0170fded5b88ae9,0.9065362913832151,1.0
87ef026014587c59d56fa4c2071e6bb9d3bed56b2c3afb54b24d4cc832295bd62bbfb4a581d1881c6fcb84d2fb80ee66fccefc5a7457a6dc6289793ff7e7d0dc,0.33219405972975036,0.0
59b08a645fc422cb906b374cc090da670df1abebf75166991a77077ed223dd4c51870e8cde0bf0e157eb15f92e1904e7be1238a91c5a1d6cc4e58493f33ab7fe,0.9959810238701866,1.0
2cb44008208d14c82cf8868fc09b67e721d51c1b25835a53ce5c75d4338141e971e3aad3228e19b641ecd4278d4576dc2f1af7702b6c5731e30d7d54f5a829a5,0.689212373758049,0.4444444444444444
1ea01966bc2646cf505948430346b109cd68ac4d744c3c0f933d8625d62b05a76deaba4a313e5bdfe75846468bf3bfbf4d9a03ac9fde9f57506d1b99e7f90da7,0.5838988229404215,1.0
1a61246cd509cb5ecba860ada52fb78f3a59d7a471e284f3bcc38cd2afa1dc4379bb075259f4bf83bd675fc8603a8b95c430ab021683c069dbf82461023cdab3,0.9985294616108422,1.0
0cce9151698e5674daa0d80fe4efc4daa6c28de601e9af357d943b02c498a73578d8113eba388846a2ca22017c481f5d2b2a23aca606799dfa309a4c8d51c86e,0.10201000092217616,0.5
6644fc9ab070e4736a427a595e13a4e1f4c65d0441d5f9c3763a0ca2bebe4b6d85ce49b24b0c9750114fd355a92383c10d3bd01ba7404d9b30775b04969a9a34,0.4141507909418995,0.0
7cb676e80d006ce92ccecc92fa76faf71ab836f627bd748d5d9f4676ba07efed8876614dc29b9304aeb63d39575013e69477982590216727c64d3feffcf41868,0.6379974949236369,0.0
5adefca985807c50c8c3653bc05dd62711748c31faf2fc5e7214a6c8a54953845a096abf18034228cdef8df2149de79b181f416f14036eb5488ae4b5e10799af,0.749581858932923,0.3333333333333333
9e4f99683f985e073dfc63168a83369c53bae7c6cb57226226dd598ced7658fb1937e02062d3b5b8526df2afccfba7a1c6544461c46679f4c48556ad51d6eaf0,0.8721425592755044,1.0
9bead9901fd8948cfe071e5d8ae3b3be1ed74c64124ecf8c75d19242c22b1982abbfd4fe909c4c433d712dd816d44400cabb90a208e351321815b0ab491409ed,0.6422989522829541,1.0
a586e1739ac9ca715396da5cfd7ee1a7d7302758994d8487adf0f60a53281f1ed04e0fef8d9990ca46271540155a4b34e628abf8f09c1966674c5789fc9f4329,0.2806657006047024,0.0
304c801b5e2f5ed943c079a06ab8fac14c92fdaa2fb9558785e3f897f1d57c86b120bf36038503c4451c728577d9b57e88a921eb2116a41a72c75e77f4e49797,0.1291804427155856,0.0
58d21333fabff922d46df0c898c21f914f63033e21c078454fd057723a4362ff5e714be632468569187f5304a1e5bc13ab0f894291a6bf075ca570441f1f6d15,0.9564093621275953,0.6666666666666666
acd8febf40d6112e2e3c5cc387fd5e3a47d5544abb49c4d3f1e18a79b6e9c879af617f7067b1c5c6b80b05094286fc527bfd9f2d984b6523c8ff1f5ecd1ea8ae,0.8148217528030722,1.0
9e3a61b80a05ca3a7c0ad9445b5049a5119f310f2ec0c8c2a9c320b1926a7af397dee82bd0f88577c42b6b0336fb46e77ed2e17b47f3166c818645fed5e98ceb,0.9985215230128427,1.0
a3fe48d172465fbb24a650eeb520bd4c4631496b6d9d7a38bf192e1566aa97e662f2b2e76290bf0e0a6c2a90ffb291b31ff1e75bb29714c834646a850ace5bf6,0.9777199598764372,1.0
432e022d70279ade11f7ad8d4d28802e40cc70f4fce90942fa41ece53dc18bac5a2450df2933fb7b5d853a2b031598cf2a9eedfc5fca596949fb0165bb8d7838,0.9655194252956857,1.0
27c71e7f82f9c11263d2eb2ffb12f72acf16cb2ad15cd7fda2939a803da754eecdb03d279187a32e67f4738b02d01c3003f0cd9c77713132dbdb7faf39a9a6aa,0.9813410413257674,1.0
af2a334d706c1b69573a219943b69d932d7ab19af138b53be67e9aecd99fabaeb2a49b44537009c3139302d498eb4b5f83a8e2bb09d9b9cfb8869bd630c6c757,0.8316731398161282,0.6666666666666666
a989d27f4e2d6fa1eaabfbbe50f01c3f5678d6d05a13a1198d3510fc5cde5f54b7ee9a2e013f9e963456f9b7ec3e2751fc97486671ade1baaec31975aa7324c4,0.013780857026708952,0.0
f152fccfa1b4275911c3d51209757f8f47524d9e0dac927fa3cf085a412f2995c54db4378764d73c2aeccf796c683eda37b79db7a22b6c9fb80818fa2a0358f7,0.9727108454655965,0.875
864fd6d6c6f3b061f8849268ccbe26a8df17226567b244b0760c60bacd2b79ced559640987941fff3ebd0eb3949cea7885c56e467856a8919d1736aa402c8087,0.26819497232088724,0.4166666666666667
f3383bfec88826edd78a72ed01c48e9e5f7474bee81f33325e55ebb3b4934501b623790523c5f65fd8d94387e25c28029705e02f96f6507b06c445830e0ca247,0.09553986974746517,0.0
25f59b566bfd6c48199f78f2ca8c9e3394ba87dd2b89641de88eadfe68d9f750c0706df1f2c4ec7d3b8a68dc3684d43958937d6d1b9641bd2933ada2425d599f,0.14116107159530236,0.25
19277661313b5118bd1b2e29039b47276f1f8235917f3217bf95498030989874a1ca10bb943fa21faf787d793095c0d4119e136013ed4a9be167f67c2a6d11d3,0.24283290106620686,0.2857142857142857
dc1573fdf940f9fb09d57b0011d03c1c44d31b200b999056f3ba7a66f968fff14e39bb77a6b95cde426287b90f173b03c2bb7c514497e44276b0f589563d5728,0.010668385372101297,0.0
654abee2a34ea238dd9860279c2e4f4ca17d0745f80e3a567f1be1f8bc80565588c6bc0d387e4705bac6ad4b8113565bc4647802a60f9ec02d1e658cb7bd2331,0.7007724613071497,0.6363636363636364
f567d6a6237d6557ffdcb7899c8566957144b8dea66be90187125fb3ae4279e947fb7249e98a18ccad3cf0cb2b59a19ac8c1e09356734fa6ee67a4836b4d3c37,0.6132602398620115,1.0
74909907346f16739bae4e01b6235b1840b7201043bb3e7e6d45d421e2b5a87fe25e58f50eb0b85bb5979ee0b8c53b0b94b782f484b04939f186669ffde79e44,0.6710113839379916,1.0
dd5bd327c33bbd0598b233f378e8d9faa81d9b3047a207e8faa600ce3dde96841e9820125984b50a6f74d0d8409b60cf98aa61f0bea65ae100bf354486230de8,0.905936383015278,0.5
64c920623ab31436b5b4c22427a48558b7ec124dfae9a0406b46420dd8b1b842cc381b408af36bce712d7ed00749499374ac41eff341ac32483021553436031a,0.9638857906175367,1.0
6ceee2f71efcf20e84bbd06a14b4db7e96fa397d5608a8089a019f6a0d0c87607b63f5a1d3da3239a3195f67cb70811756fab2c6788bd186d72da854a5a6e20b,0.9687260585792574,1.0
26729c392072f043615adffdd8653c7ba3bb0a1666325fbc5e4200c5527ff8f7b18e0fe11a3076def10d3c2e4eae07213bcb2c233bab7241ba47f38ad8a9ccd4,0.9260279753699258,1.0
ee73e2d6a49779a190508b7a5527d0462073c375d343559179a9a3c9a876fe63d85396cc2a1603d54d62e5f098e4dd2df3bc3a84be9e80db20aa6a63b0997915,0.4257759325458413,0.0
eb4b6b706a0f89e14a2d8d16dfc7aa9c87a7d0595820e60b0d5dec6c005f0197619f954c3c62e433d7c45a2749d03a361351da7118319f5edfc5ea8c0c918e14,0.015872988163176113,0.0
bff104426b6a4d67b64d646f66d943b31f0d8e7c3bcca5ec8c3599ea5d5a1c4945bd0c9e9676073295cee600e9d4ba91a6ff9ffb5526ba342ca3c2750e58ddfb,0.1459835194323262,0.5
5769eef71c212f93c1a538a7ec3ea7855d2bbb3697e22ce6f2addbfeec146cbb31d2c242f75500c441e9afb75343338f0ea25b13cd0990dae576e3c783599dc5,0.9903309652916376,0.5
a36b43bd789ef341914e784ff830963bac3b6bad0211de9ca706eb1013daab7c00b75359bb7c07515d48907ceecd41f54b7469a8c480913ff97cf3b110e345b8,0.7661481350100611,0.5
76d65c514babf33db0d830e8738f1b07bc5a36e67febe7d745b7a4f151628a92d48a5bd59f62081f76445026c830cf00084e705db5b8ff68fc7f65219da0c504,0.5657381886528825,1.0
5ed859beff22cb7346bbd1bb520b4e40c6fd44610478d66cd057f78c274bfe00e0cfd791b7f2e25ec9b478d601bfa4906bcd9751e895cada9d7ddb10a781a789,0.4405718875253957,0.6153846153846154
44ff1cf089bbf7211828a3fdb20b42438871616ec1673ead8a12f71d33cd02a9c9b6277f081d013d9f2ec7440ed01aff2b636ec53a25db5c848ae2217fd50870,0.9958703281357407,1.0
6c66f8d1cb79f83e2d8b91024b3a9ca482019683b414926463b3e904cf0f9c4ed281967b81a4f11df07a41e5cfdffde8fde4684d77da4ddbd12bd26426785698,0.00295955625796569,1.0
1d6e25166a8b6d9220341b9777943f8f9207f6570ab6c8945b52785b99a53dd40db80a3523ca48d4ad74c2c963ef178eac19a5fa416cfaad04b8d26c00a35ca2,0.03340959124986807,0.0
1e7019267a5b9fb0c239414b1e225193cc46ec9d6c9a84692122a153d5af4e4bec36f2ece04c27828e7c811956744c4cdaf9b6e007fe5418441f79557bd2012a,0.09903286152091915,0.125
2a48146bf0c56f5a0f8768b5717669f863b5d0d699748f83dc57fa18ebebcc77e09889b83c6506b8726d57fdadb07ae40ae4578d3763a0505c8f10148052319c,0.7832210208797311,0.5
87d20b91bd4e4d749ce2b5e4414c28a7cef02c7c2e5311c42906d9854ec9b2ff96f0a731cbb7fb8815395b3cf83911614f2e723355f2998ea39b9d17e27ba0ef,0.051567602996734095,1.0
44ab43de92d7d045d35a268ff21728fe8251a8d679c4620135757e996ecd1b0d37600baedaa7423719286090fda88c0f64d18215c67d3cb9c52687c7d8457143,0.6808683936143208,1.0
0e65e98cc7f50655fb7e6ee4eb89625a49859e292f6a78922498cb13bdc91f50940e0f37574664eb953519012e5cb54a76e1d3eecb807abc26a538480c28a8db,0.9838425911854038,1.0
b4c66c5d89026ff9b94fd9e0d6551295f9af3e283539a0fbf69f20975d144a76ea50bc8d5ec1d8fec715ee7b7bad74483cc69714d5f9d7d0da47fd524fcef80c,0.9940623745229924,1.0
78947e18120243b940b705bd059e692b5f7e55dc473e479262f545b7fb6b21b603555aa71a9eef57088ae61e66e9d945ac839f2584bfa716582f16d6d8832de4,0.005719672545506133,0.0
052ff460e516b3b07b0ce03ae8d2528329275d0339c168fe3b83b30558c6f3b713cdfe6c81546ff39947a35305d5161bc46ae68518486bfbd3ceeec254f237d4,0.4563989362455709,0.0
e7071d603d000b9ae40280673e176247b9dfa7157b46021d3ae8666cec356b285366025414f5dae4b0134b61bb246b75d5bf85b6582298ebb0aef2ead4d9a641,0.5704033529367942,0.3333333333333333
f74a189a696ebb5d3833d4b89b0f94733b24c099235b93e38989b213817f3f6c519b8f67d99e68d2aae2d8cec42afe0dc9936b8765108818964591269daa19f6,0.34996440433450715,0.0
c2a35a9e3a4e63030e1b1467ea5c631724ace41aa9aab9a34f7eb3dea239079ba738fd4333a249f113a2423c2b23c3dc9bd99213f8a783d851527ee9cb86f84b,0.03506598487673812,0.14285714285714285
e6dc417fdca8c95315a2063663a6db5cca7269dde328b6ff98351a0041b5b6b420b725b8b6c050b263e1004b2b98fd3de96fced81409a8aba33a67964949d80e,0.12262522979863533,0.0
2531206edef94c461161d27b4fbc0c202c370b9d300bccd02239c652d3a45689081304d986f9604d6bfc06f4bba449dba5891d94061d04cc9f8f152b24e6ff67,0.35894135909904984,0.5
3b824e27a37757b734ebdcf0410f404e1ec814e83c36573d6d889b5c279a02f82de58201b4d1d3129ec3bb46dc8ee1b978b4c78919cd63e3b018278c3c18fde0,0.9908836489567727,1.0
d2e6a6d57cee882ed16cbca1deba3136243493bacf9e4e499c38cc8a2b5fcdcbcd2adb8da2e6729ba9d022cc76627215947a55dbf461d7f613a6d612d1e95600,0.13985871123128613,0.25
a04441347c7a31798c34e1a297af024142381cfd06d1679184d6b0cf7ea8eda83518c819aaa67808a7238790be4a54c02324be8e270298ac207e0fa103ba2135,0.039521747238063135,0.14285714285714285
3b7064740fd25a1c30137c14e9393566d47c2d8520ce890bfce68fba72af810730ba4065c7a4b097259036bf4fb2977376c266b469a1c7cc015777fa5f4b4533,0.9369718798660166,1.0
5bb1e90963d5b5e1d3c14eae80405393c0c20871e69dc15ea72df169e1937612fd2b96cb2c8ea32e9f258fb32c5ccfb72b94385ec5d6ae6f13d064b2de80e462,0.6047276005868836,0.0
b58444df1aa20c5005f739d40601072c266d6fa43a16db0587813e3af15927101be624064ed344fe02d37256fea6921972c3b63cf04ab6073e02d07099a85c67,0.223565513622101,0.0
afc467a2a260521f669c0728bcf5c5371a1d242b0caa81f378df380811bc38b01c00f29cd95374bd8e7e2b4d44a8dec79e102c89542c4e99e38fa0d0174b14c0,0.4064297956826554,1.0
2c619ad875bd461c26444020db5353f4ecb5ed762c069786fcb94ab28979161f01d6954aa56757fc0edc7485f679814d3d6eac087e7315b78483b70885b60130,0.9034392404335964,1.0
819308386a595fdf2e7fee072f96383a8b6401282510662eaf379f6a21537740d7d77947a0135b2801650ee337e4bb810bbf97978fafe8ee6a8adfdd187cb77b,0.9900206683551308,1.0
dc9bd73e96e88ec668d6da16e12455274f6d3bbe0087961b186f1ed84a41b0b9af2754539a4703d21d8aa191c761dd651845b63ff5514500a5a9407b1f36e1a1,0.036854778978400116,0.0
7e9f4fddfb5cf86b911fe467f827fb830d4f239b2c191fb4082e0008793e3c8b31f1e0e5c148e1ade6a875bb0f51a6f88e46939ee99c47c9a5d74b0ad34736b4,0.6290565161875626,1.0
5c9707d668abe476aa8cff38a84f79aedb2b38765c46cc528db13f7cf96bed4fdb4f6bb27fbd184e13b8e09799f2038781f0e872752d1f8e7ad95b415a816ff1,0.24970312499864122,0.5
fe62b62fa77327aa44f8a4cb629224c867a55aa98fa766c602c8105fb25c031d5a5292782d0adc5e403a18b92485e8782032e826f7fb61b4e55e498116019e6d,0.048852666158550176,0.0
7eac63dd734031a37e46a4e523aa6bfac9447229a7978f447e0dd64aaeb24d0d1a328b33c9c4f7113e04ffb0b3b9208c1ba47d96cd9c916cdf876f738fa5ae44,0.008132590813060243,0.0
132fc89ac72aa46fb61303d5d9628af9a22c6f1c82ea9b569e623c008e5595c3368b64f243b6d4b833c46db40a8217368e0ed1f00e8ba401de6e1d5ad83a159e,0.20470151062163114,0.0
3d4fc7b2dadb2b182d403a89b5b1771f45fe25dc6bc63f09adc7633a8a11cca9c91b4455faf8b8a973a33d286a5a58caf726f100a06cb3a9dcbbc6cb0bfb78a3,0.017988752700851297,0.3333333333333333
f9fd05209933417c96ecb73a3ca6182d918094324bc1a1c90ad3eecf690d5206649a6bef945da828258499b098ebc96447a67d3d6b391b9374c9ad948a911b8c,0.3751427694011082,0.6666666666666666
10b8dd0a33c9f9a0916324eafdcca631e13b6ff8f7f5f56c7e4dfe89868cc357f1a929eafe4002a5070d99628417526ad4495e6b9b0bbf3a900600936d60229f,0.7956453516824583,1.0
4e28db9d365fcc07dbb695528074eb9dab8ba22eb7152b5d0fb148d0a1ebf9ea695e7aaf99d3e2d829ebc8492fa0891c5f5ea3ba2a4fb40f22fdefdc688d4733,0.005318071537529535,0.0
ae71f9bdc55da0b8c3750381f7b461c628621bb341f0e02b43848a20de5aa785e174d7beb999f170b8bb7faab1935b89b977d5792d527da83e05755bab3f1c1f,0.9404078320516247,0.75
a20851ab70c5559c6cc274cb14671174cfd85ddb62f2a558a3d5916d6bcfc9fa1d619a612c3677a723f0c3ae6169e486979c328d07c663a982cf998378ddec9c,0.01266192745320095,0.0
125017ea88a73867d2f3578e2d30f78f1f43723210196b0afee241186d2ecdd2f2326e5636974efddba6582dbfd0f361280ca5c6372845adf36c0068f664d7d4,0.005272010149432816,0.0
1b40c074bc8927f5ceb8412a93fe0d55120df20512aeaa4ca04ea0532af43222fd451ad25c84131d025386dd46836ceba6dad2915191f430bc225da3add712b9,0.07058869945364508,0.0
1831481d8d3eec3a2fb2eab505a1b3de37697dbd0fcd9eac9ec06146ca2f124f7ecd5dcaee89b5a0287ae89cdd959821afdbe8bf3dd36d8674059f59fc7f1061,0.0037395718373961035,0.0
617bfe9106bd7b2498111ed4737ce610c34d7602a26313bf79204130d99776bdcb8e8c54c7d84c4d543b0da9ebffda21c8a5ecb9367f9faa26fc4335b51324be,0.0018371843058508281,1.0
ea309da247ab11c0be1d03c16ca50fbffd880099235f2b1efd4699aa0f567d64c87b7f255e108d76382231f73f82881eca59d0b374ae2179dd47941c85333da1,0.1981123264773621,1.0
ec18bddd10dde1fa9b0678a5f93f51d3c8c6a04cdeda30d0952a5227e53fd39e4f9cdf4da1ff9f2bcc804d1b8b1a83bbf20990182cc71659e50760daecee94ec,0.6478697571827963,0.5
99ff96e6b36e51ea6555845f79e5795199be310340093e4fef1ef6fa898ed97acfaa5950db6f7d594711cbd46f3e7b3bd8923e18ebca45a28d3e72de6dd5d9c6,0.8787607195918438,1.0
abb7b52d6cd506530513dcebbc4f3f8907b20833cf98b9796b3c04aaedf4041c1a1c7c1bc81c59906578fd317ecef010e757b86d26a905ea96db5023e4d358f1,0.3205550347113035,0.0
91be47e88366fa6f2020ea1859a22dee90a3e58efa3fbfb7df3addc9bdd40231a9a9f82b6bf99f373e969b1d8c011a637bb8240371353c2e6f6f194739cf2b3c,0.47136274645339954,0.0
3ae5fad6261d17c076acb9e8412228dcb8dbd43eaa49ecd0470fe4d9aa46bbda325e7914ddcd9c492e96b78b4efa97e2feda4df45bd56b906257c2aabfa8cba1,0.7100960116351115,1.0
0206ff2e1d28198df8ee7a46873c90bb6dba70800b7b07969aedc6a4c2931a4dd0f60af34ebe1b8c7d5ea05ccb82215769bfd53b6384f304c81778ca0992816b,0.6582288635646746,0.0
383c31fc054e97f9de55280d21a99453c9af5fbbe7daaba525a7182937b3cceb4b752f8d974eff05463a1bce47dfeae49028a0ee352343fee2d36977a47e5ae8,0.5163819604232142,1.0
8eb8eb9ee8a5dc5a76832099bd61e3988c8e01c2c58daae7a5a78563d2f5449d2ac146d6d35c79e2f33b7fe14c8d00f78deea59045dcb4570a6484c7fe7175f4,0.533758223028281,1.0
6f16233ce91dd3e70004541a71a1aba0a5b74fecbe7fff7debed231210556cc15f33e0ad09ee39575226d8e7f5ba397aae9fe9240be5507f04db735ef4ee3b92,0.4025829306498481,0.0
5a586abfb0b187a0f1f9b5485bd78a39509a7ccce19c73e01ce2789939e34bd90489f02639b521fcb9ed5c4156c08c2aff3004fa38cd00c674977ea923fbbf88,0.07723499525740242,0.25
9ef2786603ef58e4ee86df8bee97a8153d9ed584a3d0292051061067611c8b1699ae99972987eb5b190926755ecca0dd56936587c6fea5ea18a37691840bbb0b,0.6342899918895382,1.0
d418bd2d9a781e5f35d113bcc21f89302cf9cfc9bbfe6443ce46fece4a2c347a9b51e2819e2ad91139cc270d7d1933d34984b75b366929e651634848a4ceb239,0.2731328313663266,0.5
5f1ce99b34eb6f3f3e35f6bcd9b2becffcb2a8c52c7c7a2e89a4947d054a20623b525542a0aa9aaa845b1f376bb732a143ad2851a9fdeb379e71ae257a5e81d9,1.512097513237418e-05,0.0
93062530ff324f78d3cd2f70cf81d00bb60ce8df29b893356b14a28c88de5c5265d55ec4871e4d5dc0f0af2b1d07af57e6a309146085c44ef10398c956ad99da,0.35677454700565464,1.0
db5894e7704bd3e18456183db64f0bf6282068716ecee460b6eda88c8e306dd754810796ca807ac7eb2eac0c97e611c05ab6908ff5a7e26c64e444edcc05a200,0.016184144089376726,0.0
0e5d4f8f38e92f32b9ca2c526eeebf4ea0b144f4817f1354cfab269bb89c1a603f5dbf00526eb3e33607e46f673bf2c67488e89cb1e997b5a75862f6d7f6b657,0.5020628856770316,1.0
86329224a0c8a192a500145e1ae49e93754f5e25e2b1858b718f07e80a91fe10f22cd25c7e225a6a9b16f3c137bdd42ee8712e545b4da324bd73da759d39ec72,0.5413751687199475,1.0
14789a601233b7e84205d6826547ebfa50e1cae2db82c330820f4064ece769b00516053ee8a41763b1cceae8079019638920d55e3bce6940b3029251a7abd20c,0.6795143910946297,1.0
fdcb2b05d3a3aa943a3b3391fa64407435c94b0436e74263463c67e17e9953705d3526147878dc1d17eeb8a37311cc71097d78d69109654a83ffff02ede3aedb,0.6771606405487359,0.5
4be41924f5c0de2ce45f7717881357a0e2680247f64df41ab973dc190a0f8afcbe9fd6ece35b54fd3e49480fff211f0fe1dc0ba9494bbfa5d5b4f6393c798221,0.9732978444510074,1.0
91b3d21da428115769bf112425829c3e28a984912697812351f341d5a401134d1f5b988249c942963133742be3cf1f09c66a6549032792c3aef513b32c41ddfa,0.9599226965523727,0.6666666666666666
fe9dc2b531c337b0a87c0eca0598d082ede91b1965b1294a05b0d2b972030f64d9fe2aca9d6a4c9fbd90c2be2ce246caea0e18ecb01c89b121818e51268689bd,0.8418779376594928,1.0
050d3354591569cb7c302cb71e354fb23344a0e94f1750835adf74ba4c3a058dfe2731e2dd38d8d2f4cb80955424093ff619aa731c9d051ded0eee37a2630400,0.9318715257508196,1.0
409c12d0dd20b01733637a680f5229f9e32d49b7e5334090b79c8103ff6c2e3fa89a893c347853858d6340039bdbe9d67ffbb578ffd7aca629dd3a26b0805200,0.0013921918330295879,0.0
e816c25d00cf8e91122f1f3b229f41f298ddc4b6b47fcb5da8174bd83a0554271a821e737026ea6a344d4c078e1b3f87611f069ea877657588a824cf10970207,0.0005545683677163232,0.0
11b25480062bacac60fcb5a581f8f79a8c86efd85a017e6f4eba8c3ae432f6871181bc84a59e3624ad3073d744a5560a4cc763c48d7d175fa2cd3ac6ae4b8d4c,0.6735548548829151,1.0
134f4b378ea7d5e91b60c332e9e7264d208e707d4485c59a39c012d611a4b47ebd7ae8d5091d012f4e6b348fed21a30caf8226a4be915aec64fc2f9562f297bb,0.24507097705447184,0.0
2022179167b274cd6c9afcc3ec4d912303f7d84916b15ab66eaec1e1031f1510c26d676a6b3c5de6658e502583d0ad8dbb7c28e8b5dd28ad7ea7107b7b10b81d,0.20677636796912172,0.5
f4d0a0e5543106139b65bc0db5d40eb416833c4fb456fd2272ffde8e7e162ac059f090e12c01686b7dd181834a59b46c179bb133739847ad085aeae5db86e3e7,0.04429171610991388,0.4
3ad076fede3f08a7b9834c809e3d8a904bfeea58814d79bbbb951ae0000b8086643ea10beb09c603d5d4c715f799344424fdce61596148e0376b73776f5ec554,0.5130530982311569,0.0
71bd9c2112c623cb54c4c766d466d986dc974804489e5066b3bfcf14086633287cb7a28b612d261de55f02b9df2ab28cf400ffdccb08db8e1e934990de4e6243,0.07468531696469123,0.0
a8c587b500db841a040c834ea7e138d680f58a94067a016d1e34bb029e7a5755a7b629b83510771826624e6ba17f86d951b5c9399cff1af255e887a48cc06c67,0.0045015738667841115,0.3333333333333333
868fd3ba2ef67db192746e40d1c8eb19999054d23346415bc18c6b6ed9351a171915fffbfebee929b615f8feb6ef228e3db55737500fb292d0f36852fd4b4d61,0.17930661078360888,1.0
65742ec00905d9ad667185f5a7511d343df8df345ed0fef3db00fd29f3e4040f867eeef26a01c000f7ceca04ea07537add62b3f1ff8422adb173a9bd22ecf46d,0.0025396531919254,0.0
e91a5e89234ddd86725b715ed907755f95624eec13f5eaf5cb07e3465d87ef4676dabfb5f38aeca898d023da197409f47edd255a0779cb6f5137b376794ad5d4,0.22925978751624945,0.0
138a9e562648c08d9c6ac98bd7942309c86588c91b78686f82eddb4832388a43fb44b7f280b9e3eb49cbeec29242f2f10d71b467c9475a5b05c0bf3a4a00185a,0.5516121952279911,1.0
600f9e662e9ce9b4e8857046d3243562bb9d8d592d711f763dc5818f20675f1c658a571f4e6034e6738d172bcf49d398f62065909e3e0fa68d9675ede405abd9,0.880272427010971,1.0
49ab4e617e4b019aa6e4bc33ab3a5579ea5df801ae9ba374945bda0d876c0a9ee62ffe4c625d112600ddc52abb43cd72d4cc79fe6fbe81da8c944cf03623fbba,0.8950151235225383,1.0
1be222c39120244cfe6a47d90c27706b2e543b95521a627341fee86271e94d0469c20d55487f5f96287823c9ea56224f299c7f034feab447356e17f10d0617aa,0.075530363254674,0.1111111111111111
bc519b108cb3b181697a45b38b621f4d3a1bdeb58c9b600882dbc3e707bf06daa50f8ed87c6b2086c519d7f6a5ffe9d84b09275db3130a602c38b70e6c4bfe64,0.7678628397819491,1.0
b35f121f893fc777c919cbffc2167d3785e0958f4bea2f95f1120994d03d49f9d38171abd0e205e324d266ade4d0b824cef872fad64c8fcc557965b283a07602,0.00382676015951358,0.0
6d612f4857f777ad4aefb704241e0844e93e30d36cabaed2a08ca6e1b7b661f123e0179f9a5d8eef338065705c70a4d9579506ef9a08cc46aed94048210836e2,0.011790982106807103,0.0
3ea090e0d52b5916693ddea1a4ed0d34133d09edcf13ec3a74e022dc7a649d164d85028ee829765cf9075791cd903c8bd236bb18330c14024002b933f6337871,1.2673900812025108e-05,0.0
49dcb1441d32656cba9d11b70043b0c4d17712f6a50e97b4a50054f5ed2de2456bfaa95cc13099b9c4e56b3877f0d046a24ebafe7ba804cb86d78cf96ab92a6b,0.5748957572352272,0.5
2e01b78941a717c0ad838299571b3a20181cd7eebb1f8468875e0eda962634c7cfe16535ce09f8845d56bf1e7bc5b06564e54ae2583419ffaddc46502cafdfb7,0.07263045198907665,0.5
96c25471907880846df45467cfae570a3c3514dc4f712d822edb4b88725fdace3a48ecf1e25bcf732f058b9ce785630f827df1f769b3a508c5757f8d7707f18b,0.8294112486114695,1.0
247d016ad1965e185b284a032af50657ede03f4f6dfc65f402943ca2d27268dbc47a7ee39ad2eed9b24b64110dc50e8dd10ca6597e88d493637c358a9ba6470b,0.7813799032867055,0.875
82036ef48e639ec0e596be48a03f5fa6e17a024a7a210ee9af84e91b722a3c3a32f386dbf228c77359e40e1b66c215ef4cc02c6c7ae159b7090af6d0eb327a12,0.004664003490183228,0.0
005ffae1a901ae0d1247bfb3cf6d7c43e7167bb481c5f7836ac1c5ccde13e810b32a1712d684919c2b4060c9f8207fe16f2e4d432ef2d64ffa64f6beb00f1afa,0.06352519732631977,0.3333333333333333
b3397abe1040f5ecae7bbd9b757e94e7e2be75658c0b433f57e5328769bec99b9ec22f5705fcbb077fe94e1733507126b5e8a11297b7d1020710a71843315df8,0.9934136179306562,1.0
b786036d7acce0559d0c263ba481477970ee860596c298ca85cb6c80b7f93e4900fbdf6ffb904d0d2f95e155ef86bfbee8ca27b4f0256a52645ced543254cad4,0.893690240603417,1.0
1dd2b7decf71cf3c3953ceaa2dfeecb166ad37d2d2add9d55f91b6d8947afdffa3432b081f346e81dfbf6b6c345f4856dd5b2a8d9b581b8ea541f21dd562a687,0.9924424645178954,1.0
43e89fa2b84ebb65f173260c86b6bde3eb7ca194b599227bfef31b47e07f9e0b8d227137948d5966aac499e4af152a6336da099f5812c88c1cbc58572d02b87d,0.28641196789053075,0.0
3e6383faae1ef2fbf032d6c6b63109c504109a70507ddf32edb14238fd8313332e8e7225484963fe8971fcfdb912e058d58c7369da9404c903bbd50384c044ae,0.8099295318884875,1.0
c1f8426433bcff7439626a77dc10dc49542a6a2f47b0d0e5da75b98db96473a903f5f7876fd381d010e99f2710748a228062b8a9e50c561751dd80f9203ce8a7,0.9891090941997349,1.0
16a458abdde94706888dd34c14ba738fcae3622d483279b467a96d2428a4fb7816af38b4a78d5db113b2c34f9404d974c5b5c90914a62dd1ebb2a81e681f587b,0.6140968417013023,1.0
3abe9c57d792c9f4bbedd0df210313d1b95c8cfb0631079e5d650fba1d40435b76a7a674e7f2feef4f27d3df26ef0ae9f85530233dd1ec8efef60d76f2321496,0.8451614013807642,1.0
ad835ba2948b462815b525a77cf858d1e147be56d7d252879a05c0ea7d19eefa789d6ad3296391abd22e4560cb049c41722c4addc0a2a0e3cbfc7afdd42867d1,0.9825000698454055,1.0
72b426ef8904e35634836e622d0aaad6a6b2c73aa2dbd83ccf462cab9657cd62fef4b142fa2f0db29d9e6590eb1df2f101ec960d304e331c270126aa221117fe,0.000524238451944727,0.0
58143be60853bd556d7cffab84a2afec618957571d30d8f278fb68ddcb193110e27edb7bb3e63a4073e62b9d311d34b4e62f5389cabcc22784d5a9e90fff8d72,0.10627349784578473,0.0
b9205a22cf5c1fc01369f12825c400ab20d3a4c3bbd8a23157a521affaa6e7f560063153b3cfce9ceb3ffea5fdffaf3eb9b706b9c1504a925488d384598d44db,0.0019041841096073078,0.0
e53c7c593c98147d72ddab8932637fe17e085db8158b333555f7aa47b1c508c8ebe1373dab0629e8de6b36de06fba179a7075dc0527495204375206328750a1f,0.01547895553878558,0.0
73b52e60890bc8cbf69477d967108d81946b0658df2b57a09e787dbef69d366f481b2140e42dedefa5ecfb0b5053e03e0c570efabf2e3368966a6073ce3c4748,0.2342943628418734,0.0
0b05e1d09ab2a1da6293e34493e4920cf9edd43e602819d373e1dc177bc7734128ebb521e3b901c8f8f5c350abe96c7047f645d672237a20d55f15bef70742c2,0.9026964016415187,1.0
f852edabf7fc0e0babe7501a303463ec3c02e51e5eb16e4e15b6cf8edf8bdb347f1422fccf46919c16af1f8cb56adf750d1e6bbf88fc6a0537148c4331acb6dc,0.9723040286296567,1.0
c6447a5b5ba6c3c23bc5ff05b3ad36c0a1ccfa8d7b33322d4a168d0d3149d0be5166243caf9dfb655a5c3004f9e2b5bc2996791c09e7327dfe28dfa413db37be,0.05391661225951934,0.0
0224d2409440751c99602f6e72c8d44b9ebba4159952acc5cf8c9b0590e882bbebbab4ef7c6b4f3e163084c26e164d6749031b150d138e0e732100326cdb19ba,0.032660324343892044,0.5
1087a43a37ae1cb35eccb8816ba7fc286c146a503720821260b4583da9758bf337636549d782ce5628cefa3a4e159821de84af1d07c4ba8f2aa730bcec6d8090,0.6730942166499215,0.5
7fbc1fd073f322bc7e4cbb40521c2c780a5c65ec151cb95fe26720f6486e1af738945a85f71ff9c67027e9bcb9c87ee7d7afb344d105a573012aac5ae7553c62,0.8359575705130463,1.0
fbd2ea1e73363346835456b527ae99f8540ca0c5391a897c4dcb031befc7b6ff706b9319c2704e1858f046c77e07dd5a1e94ca051191c9a4bc2eec9e75f43deb,0.9714016941698402,1.0
4d643b9a1d7bcaa3dddc8e3da03a6874d998d43a2191a812e278dfc9139c22689cbc79f494f9cc3254071c7d712a80073e85c91f7c5f0371fd2aa2c7ed31f32f,0.5787287845861676,1.0
6fa8af504bb79aa1b71fdf238929904d884a4f8269568603578e335b99b38be0a0d79735df59fc93bbac76aff57c6563b734a46df5b17a1ed6b17f1020f9fc68,0.935579879761036,1.0
54f6b3e513c13bfcdbe1fe36eb012ee13d6a602793f7b0d77a58e9677d4df23396135d1671a38883db4788ebb0ed5a75fe3538b70666e0d9f1400e9f96cb120b,0.030263670882601505,0.0
9fd9aca8eeb2ba0213e8071cc31b20fc0ef8caeb1cf820eda57c9a420752578e67acb6cc7cd163e81fa295c7a326e890952c839302b62f4700289b1157aa22de,0.6889642553257219,1.0
b9823f44a96a09bb0a39b059bc590571f243e6b4cae8f72f462a679bd66dd4a5df1300c501ee1ee59d2ef0b3924ec82649208ef3855c81f609b9a3b93dc2e442,0.6556625813578532,1.0
7fceb8a12aa3b5b3ed067349cb17bdd09c9c4ee8bdd2e96f49996dc04cb2540af11717232b81cb0637b852041b9d62276e876a8dc9f45e9575a47f02d46955e8,0.9999972078054294,1.0
8e39364603baf3edd6ae064e90c9efff318932f32d298796f1a55d1e7044ee54edec04b63f9c2ab1e4598362559b814331ad2258a67f174e42bca3ec9ceb4e06,0.9288790536299075,0.5
0110bdd5696a3b93e855ce7a2ea6cbd8bc19ceac0629eb528d16bd6e69fc7749ba8b338e8f21bbddd0c2fe0fb6bd7c9a0f0f6c61458d20e736f7f30c19f5a682,0.0635562091575331,1.0
7c61e52915d9837852279e1e97180787e0eadfe11ac28255094f805eaea65b77485bdfb7d571fa0fadbf3cf6ce2d2c449621bc9744c142c1a6aead209742bcc0,0.3096960498252437,1.0
65dbf29a361549ac50e30f45361caa81629fd4163a4cc1a3e8400adf0a480b18f74e445f6d965c403f4b5e9718d1a9922c1afaa02294caad8116e2a808ed026f,0.2651640240075902,0.0
1cef310a0b84e9aaccb9f947035da7d238e17cd84ca9b7ca05ecb9dfa4ca409981467b522ea01f1b6e97c43716c6aa47d15a6a5a01d7623bff30edcadec14d98,0.42041368220440545,1.0
05a6b177c92562f489dc0bb52c359451294706b649a6dc2317be20f4d47a36c0afd07176d104c2a1b5f5158f1b36ef385b60a82a5746de2f5eb199f4eae805d7,0.9226585609246913,1.0
f141a6ddf3365eeac2e909a7c99737448d1c0878eec75c9674d3a704be8df040b369d3e0dda7d3711964ea706091db34fae15080ad54a04a24f8e87183b15044,0.2651734970438034,0.5
8e5028dac50b1a97cb19f1a582ea969df1787494e1b13b35a5c4abe344e2ae1f2b398777172f3fb964141db7501d0117a9ea6358b0127c10bfe8e1907eb1782d,0.20358269144328972,0.0
22c7a7226fab733ef2ed6d5ce99e37601760ed7e11ef1e6714d262d4ab52a374adf4c92c8fe2dcc49d93e5c11bdf6e9bbc436aff1fab718647f4df3a69c11247,0.4247951661461992,1.0
cec74023ec011c05d418b07a92d9a9710762291380c8199164ef32a58d02dc79876bc9268c0910efe2625133d745da1e3445b3459271ac889dcc3494c32e5ae9,0.9899166839659607,1.0
042d3f56684376eb005ee963303544309ebaf683b97349f7761425b0bd149fe28385c3cb26e125d81311f53714bf18ac28a385de017ff2c5d46fd3f59be280a6,0.731547080199663,1.0
b06911b5620e23a04f5f646b402616494bbee742329781b538db4705b6f12bb2b93f99bd2c82e46b22c438e1b7b0c6d8181b7fd06e15c56272031e59a1b8bf03,0.2881599408149151,0.0
6fbfc264765de90725e8b4a8ae303400857249c460a6a5f86a32e753227e047135e8bd38473685f2cdc03c2b193411a3f20fdf25348b5ea7193a90d3b20f9e55,1.2741926784789428e-05,0.0
834ef877b2c1f8737c0c5e0215ba8856d7d56882f07f5c97d2eb6a9d9eb855f0fc427a397f66ebdb3210255bdf62f6beb82331df95d186b44e9f4e44f47713a6,0.11874685410552772,1.0
f61089039033f3df66c7073954e40b5c8f51983ad643cdc949f5dfb6c73a7d01ba0fec0fbea248c351bf628b3a99736922b0a3e8fecde44b4021408bbe5949bc,0.6150251796699031,0.5
c80ad8315d80c84999757da1c65a4d0080a8ef397234538c9046ec61606aaec64da1fff300b5cfd84df0338bece5ecd07bec05d51269b03da6fc176f51b04b47,0.16328908217359,0.0
5be5d4825b593eba7e0e0389f1f7bbe0628bc16c8ee94a384cfdf474affa1fee73a628c559dfcd3aac1362130f2ff36b516f3b4f64db295f118aa2de92b824d1,0.3335903007474807,1.0
279dceb70112a9b81cd19fded6beb8acc8ffcc65db0a2f40f6aaa7d9c644272b648f58af615739df87db4795359ea11f7cd5f8170e361eb8baf79a287c9183ad,0.9819249663622113,1.0
babdd8ee75330cad9a8367f1429b396887aeb6d7272d40e1866c1405fd953da2098761a3d96029fdfab9ccdbad241a365ad6b241e2e7493701f47e5ecde4a07b,0.776812491928212,1.0
debb17488df62ae009c8f893779083f5aaae66dfd2db2c859053611f5d8e7baf78c626ed0e18df1842a2f630804e312a74e053a442dbc3496bf8109458642fff,0.8893768516954683,1.0
6b3de6293ba36b85ccd3d2760ea4eafe74b4d4ded4b3ca11c8acef38ff16673de8de3d697bb263bdfb7fce65a0ec93464a04dc9a6d3637e832535e106a74b51d,0.2190433726649898,1.0
39649fd534105e77335f2de993055445be352f53a7573119fb38cf5c6343c9e3379a032be77fba20aceea57d5a4696fc635653d0a192beb97aa21ea5ed4c2a0d,0.5467372995136016,1.0
a86c50a32e78a366ad59ca66bd4ff32c1fb53ba75d3046acefe4f6962978f006f2def13e4f57f022679e54032bef024655e022bbc37488fcfc98bd2ce571c546,0.14103825544748763,0.3333333333333333
3ba7f77ae10c38036b97eb26b741db3f51fb37d04dcd4811c66cee4d7e3bf096ad2dda7eb04c83b35f03ed05392281462198a2d33493d965414714644b302ba5,0.7837530554813179,0.5
e62b4297dd8ca20fffcd5ac1980e37d78b9f2883e69baf92048f305d861c258a0be9028817fa64adff81fef161c19e187aa31cc5d1e509e07abd4aba10cd07e7,0.5212733569637104,1.0
e5c54b148812d9f4ba2101ddff4243c473928ca1de8f477a01fada72f619a2825635f933faf4e019565336a25699a2747c8af9c28b65314c21c511d17537a5b9,0.0012530972553613984,0.0
7d8ba861c21abf1c5ebf09025ab512f461c3e08ffd9d52f468c2d2f57dee4809c799b2b5f831f2ac2a3abe9bf584250ac0431bf167bdce2cf0d50c7d10bf54dd,0.009321154724030962,0.0
66a7865c4e1b9040aa8709ef93a6426f7282b658e24595cdf8737e1965fb595147fd54504c1daef68b96d17111893005c645a81a459ebeb9d7f93de510b54358,0.9584710310348445,1.0
0e0bb839f372cb6e8f7feee9aeb14a09cc3f56b8813000994af0afb0ffe4c68a0808fa0a8453166734ed2861ee4a41cd013d36b7e5dc63fc0928a259d6900f53,0.7429331106698307,0.0
34ef1f05271654743005d09f6ddcde9b366a900be98f28a982b8327dde6d04bf19e0fd7522bf5d3227ea5e144e30f99798b079c0b2a8f10fd07deafd8d5bac27,0.5615261929818223,0.0
a5b20cd1dea7fa471d035ada2bb5f8712944ff752a20d90c293a8a52baf43b09439a907ea4f22c84a8782bbd85c7801254d17e272b04112657f000a4f9c7a000,0.01365081374214182,0.0
00dbae1324c9bb51aebe90e62c2f242ebcd258fda3d0c7d936fc65fb123900e5dbd0d244ec200c4b280ef2821392e858929ae776cd22338c6a823d579f6ddf0a,0.01988194174609928,0.0
5a5bcac21999bb2b29380e85d7b060ba42e3c77a59c469b7fee04485531807641e69125e9aa27cb6601fe73f2b7bb906b86f552d2ab9799e86eeb231295347eb,0.2740330360406339,1.0
efc1e514a0e19a946b7d90cf06d32291c52422f3a9db0525c73889e6a87d244f519c6329d5d3d5843f1fff3f477168dfb0692b5bafd72064d2a51981ed36279d,0.039938409811108355,0.0
dc083666dc1ab9a9ccaac0af0caba6b9243f27cf39ab989a9044adbf4680da45c90ccf389eafb578ab44db22b524cc1748a0630f4610d31f970efc2b5b0c7663,0.833914170337112,0.6666666666666666
8c46138e07fcca86415922b62fe6d60ce6fd8961db4d1645445a30ed10db3d54ede2be1d98da5d150d097408a3767174dba883eb82d77ebe7c9a58a23ddd1297,0.12130826479195869,1.0
babc00f7084ee988d833fa44eafa094e2085228f488f14685f845f8053f66dbdad6a613a27792b5f8117a11bfb148963607244616ba8272de95a605e9bfb1c9d,0.7908303073221811,1.0
0cb6e0f3b01235b5c17dbc0ffc6d65bf61c26ede3253c5551083b404af808271678c5a98828b43766b805cc386996c3fcb80536aa5e1447007020cec72e03069,0.057263136310212154,0.0
fee6cfe6949e7ab904a311a24fb09c8b489a047523b2398574d35749fa19bbff877a3fd54e5123119f3ff2fce255ce646bf17e97ed2712b35c8558978d87b6e3,0.33442433647072134,0.0
6d50361d5f96d1ba2740da0b925df330fcfe8df87443087e5729e23865893d40b364b06ab9bdb78e3f647937cc981031d819f018e5660c404bcae8588a48755d,0.9415570254442753,1.0
5547ea4dcba6ac854ca6e9b017337932204739e60e92b36fadfecf5205e272601ec49378b513180a8ce1e97d3d589d36c812f25c5b4ffd1f236e6ae35cd9d166,0.01973081076064276,0.5
03593ad30a0dd03de298233a9d0f6ee1d8950122302f57fee02845d01286eff12853ed488ef9b8f092c117b99af104ffea6103b2a82bb139c60385bf99021a54,0.004575049806613636,0.0
ad1326d97150be39c54e291e77d0742b8574db603daa5fed675d73efd780c3e2927bcda79127c867f203c13a3c429cfb8275f4624c00623e9396682bf3b88d60,0.9995918221920785,1.0
5ea4da95fac7b4e59b806f441e004a47b31ce14e16e59801f4678c6967988772f412700b363b6c19278ecfa5f03760efd8b480bd35cb2557e60eeda69517003c,0.9971199102894758,1.0
a2cdd1fa3b958b772aee212601de74eb4240c6a2b43489d6320b2b3ea8e63ce279d73c89779a4e1d4633a013682c97419d886099e9e6e0838c0f060a0932bebc,0.8774247698264772,1.0
f7a066e7bc887adaa770daefabcd38875ccab967aebcce86d3743a34f895158101937a8ae99f666f04f576d6390f72503b7a1051879b5ff1a50ece82141e216f,0.20323972812925667,1.0
b4f4bca5c0fd734a66848c564b36f16c0b5547c31e056d70d107a873de4a6d1b7785171a033ec3764c6c5b62cb9cb0942b1e9d9fd1493138f00de361ed122555,0.8868620027661067,1.0
cf3acd50e78817e886b7c9033a67b96058d6010e56219bec7c8a89a181b4780a4af248cec6fb536ffa254d902e101056ae1801999191a13961a5516fc9cd9a34,0.11730527747015325,0.3333333333333333
2a3cb76602e7f0c6b6d491a2182b0fa7ca5262be5812bc9baaad8361b437a28e6e2fa537018695a6bbcad54ff1d47394e6cdd9518c2475134d82fbc1d8d1a437,0.21549390799345197,0.0
3db6d32fe3019eb019bf0ec9ce5de51a4f71217468859efb3e5cb0164fe5341c1f4a6da31baac1782fc14dd3af979013caa34874973f5c179aa1cb92bff36ad3,0.7317708357782081,1.0
2f9462113b5e9601214e682c9cca4bae20f7a2bd9f6b7580e21b2ed74c953986cd53cac441413ec6c175876577943995429763c2ac64cd4327329f8013b68332,0.9972879882233854,1.0
305db2991f8bbe19a6cb543f13cac19330f6f7d5a07468ef28beed97abe3abdc6cf62f1f39b843ec032c22d18f1d1e81817e00614f9cb42dd2923a5d6411f502,0.6171119323152705,1.0
3002cf418cc46b25d43f1ad9159d09eef6460fa2f207739147fbcaed98358862cf97ed858880b6f5b593a4b325c7408efc4cb1d987aff392dd201897c8177d9d,0.02049885782834319,0.0
c1c850a3ceae942c7b9e613ecea1c1f69711a609f9e98b77ce56b921620583f81b4c458a2e2280b8da308bbe84f90c4a495b9efd5d34b4f95c4f80d663ac2340,0.0035504630407157483,0.3333333333333333
4fc0018974e48c2a689f8f1adf0eddb7b9b2b618943904eebf76868f893e99c087a24304db0c91a10a1a8fc74ccf5891c047f0c2636db1ee14842df50a3f1228,0.05760378842638858,0.0
2cbebb6c7482f05a91d4b2097fbb4ef889d97402fa993b5cfe116d6a955794727c611cd785559723bc8e0c5e96de7ef5e4a0b301d0c73b6b9bbce647ff7d82d4,0.9283598786504109,1.0
ef839af5258330256a11b6f1c4860d8f1f6d40416c75faaf3c9d02c664df7a5a7ec2813838e46a328b0eb5692cedfe252043a67dfc8245b8070e086e35a08f9c,0.0033120766123149875,0.0
ed956aa7b693923b4bbdca90bb8c9c7505a9b43b440a32d8e1732ec0744525e4b8029f98d2e191a87a21fd37fedcce4d0d0ecd73edb5a6bc98a77369444c8b50,0.58114788382668,0.0
e0f955eb160411861b9dca3fb34740a97aa8489ae4545726c843bfa8e5bd2c362684438e79385dabb01f9f8969be876d5ce3226675c01e625073de59d43d6b76,0.006501724339937429,1.0
7711f4e120534a76964d969a162247ca8ed86caca58256f9969be64bccf760f3bcf70d1fce422f2fabd16a266d02d399c3be5441c4694e4dc8ffdd1c91fa1f4c,0.40252897596725185,0.0
50382e84cff15ff279d039319537be609c34e7eab94add3958257e22f73035e78293431d69b5d6328a9568c7554ac16f8ab7fa01e06221ed1536637cd148de0b,0.00928264368557923,1.0
161a138b9690b3cad9b0fa0f2ea0aa1110f8d1b3e9bf884df27fb7b09322d459b01d61c7e4a7eac9655ca13269cf538abcd41551ff7e364bc217ed2a5f14aac8,0.8843798932037482,1.0
4c9b0ad46480744731184d098d1109a987dce8a3b7a26048127be01a71b48623cb9423a61076a2e95ef013f30af27e5bb4ff5a3e6218421dfa0b8b8b2eac2568,0.908013116631268,1.0
310ecd1f768bb6b808211c2ba69dd45f30d0a6cf6102cfedebb1e43e2b8e0b815c2a16b92fadd9556f3a20e29e8ea30c2c5e378e47b0705dd034ca4ee338ce60,0.9933919676604622,1.0
14f23fcc167988dce6e55bce50b355428b82f247209c572f82715aac881afcb8162ebc7b557e1438dd2f69b3e915e6bcd037041df1904f0c6fe886c4637565f6,0.7570790208946538,1.0
2025068238268e1779a670f1019089d23dfd0843e8c13d47fb57d427c51cba12450779bcb1fe2ee8e8ca84de660b4aec6893ea28a6dcd2d003c5eb45bb12508a,0.9911433145139863,1.0
96e0026396a2bf2c04df0ab1dc3bf52cf42197f54aedbd0ebf8e5e49cb291c318f02fcbaaf89dead07811fcef7e875758410e4cc8cc4f51bb7dfa7cfc3d03284,0.7614120073643958,1.0
912ea83cdfc5cf06bd44077cb51de35e88b6654f5af0eb7f6f78d434377245fc012b228a5334411a8d988514eee1d5ac22fb8453f995095120ccaea0e01fac17,0.07650497385466858,0.0
9b2c7999e14c3454c4040c57630dd6dd9ee2554ec359ef309fbdfbc93ef663c89d8a48198c56c7bd2523781745f3782b5a9a2f990acbac42622758d8f239c95c,0.9193873560408159,1.0
361e0570e826a3d029e418acfa187b1e66866890f77919b8c5f71e3c1853be0958d7293a48fd1a6adb4462b37cf2b896d9aa8d1358477d42d2f429a5dfbdbae0,0.9642571288175238,1.0
dbd17fa36700ca2741e6535fab4a709611c4afef3ca1568b7b615d5c3949e04d18e377916954680e075bb2165cc7c333aaacc829ab69dec266c02ba5e229eb02,0.12009762135267589,0.0
840b09693e92e05e2dccddf3cd9843bbf39fa26d52f79a5d93fd75d4376c2ebb7f3df1d93ee27aa468aa33da0c520bb786f5d68beddf22bf8517c95bc3e2c4c4,0.6814071623644817,0.5
fc276da07f1bcaad013b658bfbd8218c71b31f63527beff26bd8172f1008b89238ebac7dab084468bf193237ac70dce969185e9fe99387bbeebe0533ff9342ec,0.11257452353576586,1.0
e4340041a84d5f58d27a71f4b2e549d7cba7112b07b0cf98b9af1f98f1c1deb16eac577ec01eeb2677ae98cf7dea090466c277041a1176f96e1fb298b91d48c4,0.6373068513644884,0.5
9a96358df32a7fd5babf35574af4197f094772f1fc2d7d155f9944f81dd0578d61e6f6419c952e751c20755a7bac7cbe48e465094aeb54c472492173dc846828,0.3148291563149402,0.0
cdc82decc385f7e309df95e76665c1a374f59a26484512f2db2ccd400075c0e7168901954aff2916ae1ce00679770656b6a59e655a4e26263c3a91889d44fc1a,0.378509786587156,0.75
68b5491d12ab5f1954fc55da02c4929299b124158c25baef918d949ff441cc2f05597d96a46c7a4fd94e64cad10bc7a35d0365836ea6f6ec8eeb8b15dc76f062,0.09386390887380547,0.0
5b7ceefc0e2dd6c723feb26877b9d0582984ba27b4a15335b3850b7abe49c2b3330ad3f86b5f2c63e25a82ccd0b42c2d5df899162a3a9bf283de8c9e8b871927,0.31256398922582934,0.5
419fe791f6dc2a4dec37224d431be16d433d3dfc0e1f3943c87a3bb09bc7b9a53724901da070023193b59b566c39c02eff80451b22ede98e279ca650097751af,0.8645238656535423,1.0
1d816d08028786c31e77f22cc46b2bf352c4ee1cdbd196a5040025077f68435a69a5bfb923a51ff5f182d02b5a4877f9b6d643837822b8d1270566ab2e159c3f,0.649559434673253,0.0
50aa0d086dd851849cd5a0886f2973d2a3890a8c58a57cda4dcc57a3e2c937d12bfb291a2b527534fdf3492d785729e551a00efe81e3c3ecc0a90205774f05bd,0.2426925965557216,0.0
1f8a6b22caaddfbb343721e8e04400288709447dcc8d0f1b6c2a090dde0f46f10b7ee7275599d94eae76c6354d88ba874f6349019ffa4b14642676ff0c017ad8,0.9890927481737506,0.0
7e0a26bcfdd51309d32c52c791b76fc90c64fdc073e1e8e81df697eb7a1b51437906a5d757c266bdd8a17b5a55501a565c6319e93b9230e5d7cfd6049241c781,0.2961377888018046,1.0
83058b619fa34908cbcb0f305d6080a42dfd12ee23edc4f76a88c85f853e93408db80ef64b78ff4450c239379212f2f0312b5e9a2af096cedabf9e2748af2e6b,0.871911079760142,1.0
a86ed65d61974d7dea82060be097f86c660af18270b8a54ee25f3a061989f9d295222b9d4acf42f927c58a5b72418c1f574ba07654f4e4dd0639ecc38dab1058,0.4932075106147336,0.5
e06c575f2b7396be1fa932cabeb8c17cd2753600f2b2610cff1505d17df8d64357607ac301c55060cbd312ac7ecda837831707cc3006d4951e07aacd15a3ca56,0.05752216255665172,0.0
1cc20db231099a6ea6df62dea6c2903433e7bc7306741498a7bd43aa9677d3d151bddf635b6feb6061ffdb2260f080e61aaed68b60f7d671ec6776141c168ad8,0.892558540920618,1.0
7f5a0766ed726c9e2d665dd8dc0a4e1cef253489d0a7a3f679c7be00b0219a0aa84f240905ffbf4a774d2532a0c248bd4f0115cb3c48d73ff4d5c5c51169f7da,0.4714563718544718,1.0
5baa7d46ce987ef43ed4383d0b1a35d69dc63b0d6f14dce604037b55a8f09a07f2a1d542f39376a814f3fef3a63101b4fdbaf6bd3d94fdd034e0940263a70205,0.4330333368248394,0.0
8640392588488bc181789a5a977143fd433976f0637e6d80d6a903f026578ca7ba13b21a9c4ae1904cef099692306563edfc0f078eadc134e6ea4a0ca6f5e97b,0.3456654341516775,0.0
79d1e9ddd47e7ce7e9b79d5cf0a129bc40266c682d754429271b543d4a9f1ae0745951873983a83a499b790bece0a94ef2d667c15198c41de7ac15df6808ea45,0.9921202891551737,1.0
a613c9cd549108541405b08d4f6cc6c36896fb3b86524ba21afbba223d886e286ff70613f14f3fd0be2db4e5a277df9c5035d31a8d4b9d05015df47e5414f3f5,0.34090586248042043,0.5
581aaebce3b2b96d62f1db33716013f345da1307e447b50f9b401240f16be0ca78cae642f48b7abd268510a6fee21085702e54b93b857f9fb3641d19e29658e3,0.008922703165377565,0.0
b0d9c2d8691f4316e1b262befbbf21875e54953ac94d958088ee327ec7e4b9a519987db3fe0c492b3c1bee962b256ef852d45c6ea7760841c756f9361c5f1c88,0.24396133343971085,0.0
d0eb31c7721c9299b65ab31f8f28818d42198b3a6e8cc8938132f5959668a97785cfdae9f5a80e19f634c835e48e4927882efed9bd831c3285d6bc1c94123452,0.6612827393952597,1.0
4c30b9bece8b54ff205c57f8f0d5ffbe6b3b1e8c99c6be939b93b012f1a8b20803619ca3368969ac4a82d591157b9785ffdf2be8ca1eef403efd7ef46d805589,0.13156351542369293,0.0
4cb9ab4def28942a82e018ef738f8bf46f6b385fd31a98124410d4d9705f76996eb4c0a668232278bc77d0e87b7cefc590324d6f808c14a6b67697b28895cf7e,0.9996764707140476,1.0
1785f1725a1d7a7245ec99de1d8f20258ea562f3b95b7fd1d99e6e85304c09c78c9f438e17a0e3570cd33889ac8dd991480319ebb3379acd5665a695ab46a028,0.013219778088513542,1.0
2ee241ea26fa9989ebb41192a7ac19e43e8faa7ea531a1d773885dad17efadedff6c98fc57c1ae4eb31a958a9bc405dab1da4e305cc7a5de3dcba08691b45564,0.9796260093442992,1.0
06286cebd86929ee6fdd2e111ba31907c4ee7e20a6c96185dcf8f3b3ce0d2b3b95d844fcee46cd522665aa81b46e9db3b5fb0d96d2cbc4515636fcd8ee662dd6,0.00888495756107569,0.0
064379b16839f5e0b605be94fbe537281a71080dde9ae89ec38e910e850fe4210f6aae74e4e749794052bd68107a21767deedc93d7cd9268ba62ffac492e1ff0,0.09151723256767365,0.5
2cafff9925221b88b02142cc2b8bf6d73c6cc372cd21c3c833ea05ded4a0c176bf7a436027646e1c46b075c0cff1d9030b6f4b22e303c30077d7a12d94d18582,0.8725673185310469,1.0
fd1957fc4ac94c9d517d3a1ebd22f70bd60231bd9afdf765049797f4d73442fadeba7eefb97518ec49c2375e20d096ac8dc87cc4b1f160eee060f18f36a38e7b,0.5179400109796702,0.6666666666666666
11b16da9515e6516d653f1a32cce8a941fb1f5e4f7963e49a8cbc3f00be5bc21c2404b6c4a59d6c52843ea4e69b191a70c92bf3beb71eb3d43d9048e12c26899,0.9525493192086303,1.0
d132ac951e6a9ee5aec8426f6f4c6159adabebeb33426fd8ed1864eb38c6196f3afee305ac784c458ed9d74777ef7698622c355e89235891e218ce6c8fdd0993,0.008090898163234961,0.0
f42eb2cf72d39f24874c549b74ed6ebc674555aa4acc7ded3adf7975b13f63211cbae0388e2e5a8862b8e79d0792e494e5adf67694e5fa3e0c01d20d94c4cc58,0.9957876737898591,1.0
de6929073711cab55e2b2cdfac005d7f05a11fd82a4fec1edb6b894ebcd733ebbbf641b4751128625333255c0b8e62afaa19b61b398726759711630e2572adc3,0.016491014001082598,0.0
8be48f271ae3101ac31346a408dc79be556faeb3f152510e28a7304edc13bde7ce9f7fd78f702cff5f3cb7dbcca05ef7ab24af8cc2253069e5716778280a4697,0.6913002059363161,0.6666666666666666
dde295b7e586fc297652dff4ba9d839592f997b3857c29248c72899b9aeb37473dc8c5ab2962d63033b523ec2c15015fcebf994ca68bcd365abe30d257a6261a,0.29595082728191496,0.0
39785c4b4ba4de1a565cc689df76805c82ea6d027e63026bc4e60df1a3687e320e893f6e68ab5b189efb3097131e3b9ef068ba1e28699432fcb04c7450dc2870,0.6315765249177446,1.0
199f58b82c9709b63e7dde1297398a31b8e254624693ec2950ba932f38ae42f957b24339c0cc52aa7170b2644bd4dc58ec220cfdb564155397cf69be9a6ac43e,0.7353250224103766,1.0
9db6d36a7619372c19f78becdc06be4d552ced24ebcfd58063d016f909044e49010bf8421a070130d87464605e7ca22a20e143ea369ad20cfeb442db59946554,0.9810543909025066,1.0
7f095045b96e3f9cad42a3bdc93ae5ff5c49f20d0a5a4181f46d15cdef7b2a544f0348501a70e8666d97e8c9b5c83bdff2e241f897607bc993873a80889f7490,0.06328590260501984,0.0
931df7604323105cae6871adbe48f1ae1428b7f5f3d1a9cc548313858c08c5ee09516f6c6827a2fd1306f86469643d83240ab084cd9d94c3039a5fabf3cbbdfa,0.9801390702236044,1.0
2bddce971fb9dfadb0e50fcd15f5da42f2ef8c476a4212bde20a28dfb3b51b03b619ae1daafc7905fad410c42d69ea64cce4d2e705a9f283a1f36221d9537557,0.8109572718562643,1.0
548be18a804b583e710199c91257d8f418a9cac4c83824b32bc71702131d3981e08b4de0c2829e16caf1fb82d504d912feb6dab330307d59e5265d88db51f05e,0.9953617861670931,1.0
35827c03258f08cf14198db501e1aca4d4af033cd6f112fd8effb9807e7e4cc4999c50e30f340cd2d7a34c36c3e334a14f2d8b4800190e5dc074646f28f59dd5,0.09400415543368143,0.5
6c6c49ee869b4ca1ba79f9e7161de8bf469354e88f91864b66c80b413102959cddfeccd497a130d4d9dccb97f91a2d4061527fd34a6a5660aa9c5ec30fa2c11f,0.25472200230222747,0.6666666666666666
540b58719d4e3d745c897d0305ccb7d78ecc5069d8d7891c2adb3d3ff8468956f5474cac18840e82438b531040edf92b3fb8bedb93fd7687f6520ae387cfa26c,0.9303259673537009,1.0
29c9fc5ba4f8435c4c03f33b428d266bd3a947e200daac68617c051e70af96b925d0eab113422d03a8dde7f96a16176991bb9f0af1e69a8522454a84379502f6,0.2527819953840762,0.0
198278e73d3813c29f23f34ea847022fb634a9682c0a2cac1992da31e4fdb080e6c18ab5a513d05f5986b20fd9997ab1f8ed01ba9cffe818a62c124c6bcc1712,0.03081708621479798,0.0
bddab661b674206bd7cd56a842a33689a54dbb9a25cf6bf152c1aca723b16c3e727b6444bf708e3bc9922bbfa49a615c29b758531236f32b24ffab39c8e8a9c3,0.44019338376762457,1.0
b26661c1f21c43b5c4615abc997a400e6c13493640ad30d75002a5a2700fcdd592fa942cd4b6e464c0bc15305eb6bec2cad162629c633d0ab9ae83782f0ab569,0.00842592653455223,0.0
d26733bfaabe7d9d3fe2ff42b52d563ace7d2453fe85eecfda6eb4a07031f5595888597572225c7da3a5e5e8c9ea01d6af261603cf795d4bddd7887325780e12,0.9801229111483044,1.0
817fb40f28acc8c9f581b608f4b8623f7bf6c030473003dfd9d690efb9036a954b3c5b26bd2f8d9b4366c4fed5cfbcba7360bae83466dfe94fb17167170e419a,0.6813252289393359,0.0
44cb69d363b6d99287402410490198709810d13e74a75276dbb979e5f5387c1256447125e35607b5fb4bd589b7d3c4067f5e02ae5e26e50c3be55284e647c71d,0.3097094163841606,1.0
c89e3ff68296e7a441baa9be979fe185eb99f76e9c9e0292f80f7d4e02a17b264c41c12170ef0c24d199ec2baca7bc1cab3d5902f93a5395f19a5423b357feb4,0.9998526618609491,1.0
f2c74eb01ebfd3398f927554f63a332dc17dc98e01e74eafa50f1618d1988f81656ab9ab2650e80cf64a5daab251d8ea67a685428d7617705c723f4346e74489,0.08872040086011562,0.5
891dd03066bd0aff97d59506dd4ad95d855b864c7d3c139e37b53a37c4730a2f2abc5aed9f012e35ce7e9fa0f838788f2293f9c9cae0731a6bec2c96485e8cc6,0.829998361931116,1.0
fb8789dd9434fd18eb06ca9e808776aeb643a1b92e75f015ade6743805431f4079aedb370580fd0200bd5dc45c2afa8f8638c2e0920e09be22841a4bb89ab258,0.6858490382465525,1.0
d131de947d13f8bf7fe4077a84b85c8ccbda0817e61e54ad829cd4f7e330b1ba081ceeaec0cad256b8694c54160ed2fc6d2de6277f512ecc4d4c3533d5d44210,0.9540978127972408,1.0
857bf597c4fe7a5d9f0052e13a01aae249b2ebc5f6bc5cb7d7eccb508e281ecddd76faf77da99234dd7b90b3fb929c207bae80dde6749a55ad684fd912642702,0.2718111479354349,0.0
083d33b5c7b2b3fb538538fced0f250a671d4233a09756283da0851d82c62c39eb8ffc8481359423b9c264c3c2cf8f7c44349d11d06378654c3fdae99489de57,0.9874271035887648,1.0
1084eaa8019d8a8f9d2f43de11fd3d94572a0b1580e0ebbf1d2c072681f1e192034dda97387e65339098f3991a8bc6a1d07367e015a60d9cc7e7f8e9ad70c5bc,0.07501545221547808,0.5
271be6f3c039636aa9672601663e48e5a8c1cd68ac8222eae8e0458dba80b563747744bf1ca66bc481af47fcbd8a67764d2048895cb14cbf3f177cc1bbf526bc,0.00758739295508035,0.0
33d8a466acf8d4e6b5853d7b4bd316802988e2e4f01a0fbf68c8255ab00be4f2e57cdfe0c7dbe4659a15889180425fe043c4e02b89b2620e8e7264898d580df4,0.659879956067538,1.0
0854552385999d3381ef9a2e0e68bb9d542c434e6fd023f208e0ee3d2635ab170430b2ad26579076c5d0cc550d23a97c263140ca62c1c26af22963f238c54a46,0.8649831887539938,1.0
c5fd9cfb80da8eeedda47b99cd536cef1dc23bacba71c65feb38fab52a1a667e2ef0b340dbb344b26f19e5fb98c9e52383735dd3ff2f7e7f0a0cc524a9b8bf2e,0.9423956187297919,0.5
0f8b0a6747c2c67c47eabd0e7ef8f16f8ded2c61207aad26a80a05076caf477a98492e88c1493d8d0c97008428802daf57b604ad8ec3417e999bf1eb41c94031,0.6727395048786873,0.5
181a7af445e93da40fd46b60f8eef3ef1c6404904cac7f521ce0d201f5f8d2e041fc914d66c9f62579b93178611317b822476b285903600b3d16fad5b9e62e90,0.07336807930582331,0.5
b736dcb3bedc2b15ba0c673e46668b0305e858f3f8394cf4c3eb36ea7de200ad7496d64c4b1d53fd4e7aeef19bd4c422f099fad6b7844bd75590a6c8b603bbf5,0.7472657801700816,1.0
5acbc22373bd85ac112bdb0f2ef618f2673a8b4a3eb9d5ae7e8c345c6f60c015a5a8e3be2a6a20424920c05090ee9237c381b5a5599bed0bd3f6c6eee86a9e54,0.4478570057304583,0.5
a24565a10a8ea02ddd438fa001681f029dfffbcee1b82db2089cb58aadbc8a28df95a8e5e454d0e341ad2c31e4d5f7bd4cdd5290f4c2995b9f96667c1db1bf6d,0.011457445018400833,1.0
a5c073306569583b1452bb0d9993ce03eb3064e9c24ad08478942dcaa9253f72224cded64b65c25665f6015f552724e340f2ed78c1f3fbe29f5ded4dfc3eaf99,0.005477196551008148,0.0
1bc716fd1a98f7bd26c9975e5116f4a46497329a34b7dfd92db8b35132edc51380a56798db2d8a50e9e282586d4658d3a423d435384e76296d0ec4909827bf59,0.9975402551931969,1.0
c148eed1b7ff2b7222317f1d0458d56f8729bcf12b7bb53a7eeccf57c9262ecbfa818104b9378ababba6b95e8fe6ebd5f09be30e1f2e7a3270969c34db629aeb,0.8339027019825817,1.0
ecd6d46f017aad5e91768684441ddf03749be676c11a743c422d7c5e9cacf3807b4b70c0d2f90511c805e029dd0741e2dca9b6bce539b4aab910af63afa89136,0.9366847696829427,0.0
a2018b2f2cb0df35c6f604e995f17d6e17a322bd7ef574ff0f88abed8f0038a8c6390bc5c591132e61e97cdaf158fa2774550303bbc57047e4a2eb4e94c6e54b,0.46371705987052514,1.0
531508b0fbcbabaa2c82615b27dab9edf804b289646d263f794251b023846402fafa4ccc157bd13240521e43a7eeacf32bdc85a80688d0fdab9ce5034fc270cb,0.705163533791657,1.0
c210e5d2e997d068c99f653a8984714d815460592aceca4621377041a5500a6954f6379ef48b4744ad013fe07fcd8d1b5c3e9c1ac166cec9474803f37280c64e,0.3709652212124276,1.0
aeb415c9f672ebc70bb1313dfff6c246c72c8513eff4bd926f5571b5e21f29e56e9528fa3e1127660bd8c1bc34c9c8c876f2a8aa08957f5a4748c251cad9a24d,0.0020887595934617653,0.0
6690daf896d43323032c3a7c475be537a7d7eb4ffa8f752d475ae4334686f21834fbd437769eecc1a4e625f5e7b3a2240ad5a813ada666cf35be5999c9a5e9b4,0.19397313772525912,1.0
1c459ce1d3bb224348f1d1c3dfb503cabde61a5f2d1244425fb2c6c848d157eb42affb6705a2477daf91d023a275f8075d42f86b7be6e49a9d865df3b5b3bc01,0.9087282721249588,1.0
f856093c105858180d2379bc8a15d6132f002efb3d73d5aee70817340a0507ec5361fb46f6c79080c15a1e7ebf7b071620603d5659f3594afb0ea768155b0557,0.6484605714247275,1.0
a15e92f2ecda70c76495473afa429fa1a431361a32967c1aa9d3a5d63322ebde5dd3817e1af70e502687692352a073d087c0d22c787d72faf9ae1bfcda0be82c,0.17757027909840278,0.0
c7633c58aae3e9523ef8b696354d68c84a9c5ce40f4afd187ea091cf84bdaa18a9471dcdc44731b3b27756ef5c9d380d449a0f000d98c19ad3170406ecb3a6c9,0.00011322436977612769,0.0
4a1a8aae8b2b030678c3d7e8c6ed7f4817bc727fdc17da374f4fd0f5dccfc4c0c47f85bbea73a721303826c8f8604fc2ac7235d615a071ba073cb66422524bb5,0.08543263567882041,0.0
52dc0154d7cd13187ef0154d2c1af590e2269f7e2779bcd20e3f4da4d1f79220db62fe12840cd03266ac0ff0bf9be55fe151c3f703df19fe948eb079469c8bff,0.2050990381564449,0.0
d8df607040709fef5fb20aa491224fa16acfc168677e32ca2d49bcfb2a46636d9689ca87bb80c6414053f1a4e7f6a603dea0eab18b40e08c1654ec0212613b5e,0.9743506283432625,1.0
622ce661e03326e61601a2923cb01cea820b5826bd028cb8b9de02308691bf067dc96e808c8a7309c676d0999f702bd1fdf28bdf0749e83d6810f0811c30afee,0.7818563771658013,1.0
36c09886bcf34790a3057408ed9a30e450e97a94d845ac9f7082dc883dceb74a7a02965cb0ba3b453593ff2e472e6da031c42ac5ff355cbd4bb4e9670a65a684,0.418802457153017,0.0
e4861ef402dac71aa9e2a735cd5415f75c0a56fd5382392a1f1543f13552099a858bd54caaddcf4c5965cf6d3f3db54fa83b9bc94bbc12c40d93cea9b3e6c73e,0.26283035042181496,1.0
86a196280627afc75405b41876096c1d6bc294221b51863d2970c3229ff4bb70c0cb52d3f99d0b249a41c7c04c37b4b08ada14b4c3c2eda06dbef011f2823b52,0.9985482732137165,1.0
bfa832577a5a54fb76a91f704f791ecd368a6b93369a26bf615aafc5c4575c86b3c470afb06664ed401797e26c96a42f7a3be5e8b4478fde786296bddb3ee2b0,0.8800010737694938,1.0
d2ef255068228757bb7c7988f87e14c0e202a4e9136ccd78e73743838a7c69c77920e51de796c73f17be687fc85fe5c15d142e33aa0afa1f394139219ad1e8fa,0.9958466230876527,1.0
f809aecd182f2a7610b3bcb063779a7f02b85e58126d1d7433ff9c7e0ff8b61a4dd7550404e90a1423050ed8fdb03de7720d8065b11ab6b95d238943cdbbea81,0.7524619169532346,0.5
23317b320012f257486aa807651ba16577840295edbd5430276cdc8e9a70137e30d9086bb5bc50be272d8c3dc3f77459411545f892925ddea318892204b6d442,0.7731147693176859,1.0
a28966d4b99594b07bafd996800db31fd190dda52059cf6c4ffa60959a43ed02d86608c3cda73136dd9c49ea9a275fd786cb6f854d983ae506481116996fc1f5,0.4311919683123662,0.0
6b6f0d27d2513222e8d59af4f5da4963170d436e9c188740efd090e6bdb6a2e82ddd2badd4d51c31f69fc2d15c8012adbf1165142438f9e2d07d5a10228e95b0,0.9591952616909237,1.0
57cfab4e48c2e920b79d9e528a1e690349d43226057ab2953592f834dce89ad583b170f6eccaaf69622c058b6175fa2b57376b9719700e2c111768a1baff1c3e,0.7797540262810556,1.0
e56af4edb43eb082300ea0e2ed3a960edd1de31c19caa7b68eef7bcb9a37c1635ab3acda4ebc1e026c52d3ecfa975f3445ed5c545d48b014afe4bafcee989b25,0.11185290599509953,0.0
1ae3ac3672819ef6cf11d0239ea713aff33b8d8df1eb6847b71fa97223ca6b5bd9717fe14b8dab839df7a09a2945383d32386a53f63e8e9e64b97139ec9da6ea,0.8454935906122769,1.0
55e6ffcb8f3eb6e1e598688240d12d65983194dc382b3d0face203fd6c0c4d8b0661669f0eaf22abdb0013bb93a0bb93290709d0e3201be67863d47a0b3ca01c,0.9916727431513637,1.0
ba9c95947d862b88e4bb11d5b6774cf5d6aed2e3debc23c7af91f84c3fc4cd0246f8c8d41b85cc6de3843208e1bfd8231627fcc43ead86a7e59d6bfda9949a79,0.3680366920048761,0.0
0355ca5f105d8a4e7d9afd4f23d968b5f1142cdf179ebbb1bbf76b7267fb2ca9be8ade586d26d459207a2416389c69aaea5c6d4ac5c232395d473006db17d6b6,0.512182788473293,1.0
3b959bb3a4b2931925e4ab7d37a11936eed7da329fa845147e7ebbbd9acce9d4ace3954e2f55b8183f76ddac85e6c4d5296eacb312098c6b28b3c43503596f88,0.8586457484737188,1.0
d269e2ce78cd3ef20ebd5a763f64ed86d961eaa60a5ac43aa0cf227bf68b153def7802bd992ef4bb0d8b5d4dab278e62f2469b459463562ad42a120d489db645,0.9936796102903449,1.0
ba2d26f4dd8b4ccde0d80cd193e49becdc1a6ced8451c530f884e2ecde79ac6d58475ad5ef1dfdcd67bd7d965d15a61fba11b234efe086db92e4fbf0c0fb3855,0.11207320836489575,0.0
2c67dc02cd888344bfa1e1250faca9503398644e119e31ab8fd176e1cccf52fa608f6f99ad4cde7120c0a00aad38ff4e3f678099fe53d54a7bae192f4c5f33c1,0.9947712791559867,1.0
0651b125190fc9f9ab98e43a99be9a6569229ac5fe92963b15c942b6a22dc2028ec429e48019d22affd97595af6c53e084d6d553b3db315a04b709f6a6e41553,0.09781092018182282,0.0
376392bcee96369de3a95db30bc387356ea06e45fa42a645d0314c9e000611896832166f6a6ed23f1bf7330e402c8f4b815beb10b82aaa98f8f3bd3889307b0c,0.15481715521047196,0.0
7badac606ada946d2318adbd33028e40c62c44483717d7f4e246347ede8d899ea42b25361de69904704d589e99799de8b3985b6693544a2d4eed7459f645c338,0.06950766161898544,0.5
e2296dbc3b641eaf491ac5aecc9c52683fde1184455c46bf7774f584ea7465a2be66476a15894abfb7f829dbfa8bbd93a1ea078b8209176948392a0b634204c4,0.8797582709770478,1.0
7c38ba709843141a94384e2b59cef8417aecf0a1583755110dbee6d112089266c8427581a445bc3a898b132472ecba3c193518f1b7d3e4cd38b3a7998b97b22d,0.3249772898418947,0.0
8c198db1cf066bfe79b2a6823e8b0ebb3c0d364ebe469cfad908c14c03120b0af55f92854ff81242816d09ab5caf9b0398c329ebcb7575b705a61ff6c2a5339d,0.0034626335118160363,1.0
d49bd61708a618375192584b6feb0866394fa6315e5ea593bd9f8178744d7297d008c3686283894a46d2da52fc7094c88fdc80897c821e7db2c7b80b8761c712,0.001689035547700623,0.0
216a9580ada0b111c7314aa0c5bdb712f157dd88ecbefeb59e5d303ec36a6de076ab0a90d0ede9073359ca0c4d0a390019e87b1742389700e5eb4168bf09381e,0.19281863933854052,1.0
9b970078374f97ffcab2a4e59e688c871ab9b920bf9782c31a97867bb2a9ee397e7a356cce206467193fc643bbc1008cbadce81d0d92ac1ba12079ee962c35f9,0.14520865754466608,0.0
4c7621419d3c6d5f09f0d56bff88883a2222c432d1f1028bb80b3d1620d60187e6b693e3750f260e73709595c4bc65e844c8a2583ff7be1540849a01f4f465fb,0.034099669943633816,0.0
4c98db9968edffffeaebad289235acc7fdd8ad3f65d639bc7aa14a8643e95fb65bb2cc57682abcf8e6ae5795c7a51a74da8bf9045ec06d2f4b8309d59d9251e9,9.478495082071186e-06,0.0
25e31b4d80e94d2c4801481a440b5ddc554a132d91634eb8bb035a50d56440cc732a12ea555c9eaf910eb05300e715d6d2e07d102209bb9144baa9ca8fc3879c,0.029500010502152556,0.0
a29ef5cf9a3ad2ada93f7d94b1485a7dea78e98afa215af3ffec107d6a4b2d3089c5abc34fb9dc5327de12cb058632695e9b1f84aa689bcc1b770c9ae08b226d,0.9524335563571608,1.0
4292f44ba7394af902f891612fdd2f9ab15872174c8216e99754300fb8cd0aa4c1f5a1f6e7f9895e10c02f11166ef7441a82313531524b17ffc572968b1cf961,0.9530237375371466,1.0
65f6d0b96469255e96d6a2e54e88850258cbe35ef5c3f9a0f5f5338db6a6e27996915b045222acded222ed4cab1590e7b189e553f3fc7db6e5f63d7b5756f191,0.8932969858752775,1.0
ac724fc5fb40437657716148e67ce96d7833e23cb99ba2729a7b08527de53c0ff20fb2f1642005cea59e47b70d45720137e984675680b17c656205a979bd9ddd,0.02478836464514435,0.16666666666666666
8da0d5c56806a6f5af9f1501ca43504fa871f2c550e1547181ec02da1627916579006561639a9adb58e312932a8ea6a1fa4539c8a1ba542958e85415f2726991,0.7437146195009647,0.5
de1746558392c3ed6a065107144f73590e03015be2ec17742f222fd25eb556e6e7f6e4f9986c8075d133bba910ae3eedd1bbc725497f2b8e6438b393d94df9f0,0.7054227759420595,0.5
b3b9eab52694ada3268cee6cd621ee877d46cdcc180fb909e64f486f4c29791bf98de42621e7b64e87ae4b97c0cca47079f9774be06c814d59a6daf5bcca5302,0.42822396579847577,1.0
640ca4895c1f4fdc8ec78764f60970498d09a84b1f5b181e89ac43aaccd102946b3a81cd7e5b567d42679636cdaa6e87a61fe9b9d19192bfbfd2535f746fd1eb,0.3068454363106473,0.0
5bae64f7def002a461f2add97810b730af2f7c6ba0e1207f338656583c4bd4949ba779afd8cb16d3807192ae5c2b39c669822b0ffda8ba799435261f2cc9d4b2,0.38576400657539595,1.0
877578fb8afa2c3d1f85e89e48c572020b3dff271c96edb944fca01f5733c2b4687263dd05425a5a147c61f4b67999050a674de75f13940885d8ead140bf6e0b,0.4139120633091182,1.0
b1a3cdd394dcb879cf0d1d0c05e4d93548ef2825b4465d50dea73b5036b4c89882f02f5abb87bffd66f3b00e3d8b7d5bda79c51a5fc7af099766b22244b90534,0.48887419000609456,0.0
cfceeaa7c612f806101563ac06e592baf8793382a1e287000c73b8b5f7368eba0064f47f49d06cdefa74b4e10961fdfca998b6a3f4a1c383245c59c546117a98,0.9066228903805925,1.0
7443da41e6e42af46b58892c64cf4d2b31a0b92c602164f276f501537660bafa0175c71e01b0b42301c75b861dba6f37e32bf56fba7001e08e8d0685433a9afd,0.47214190323722793,0.0
0843bd6d759b6f4d3cc7dccdbe993b1f5226ac03e76ec7f0a70e5c7343f7a7604d9b531f06eda705c71e5bbbfbf0a2588d36059caa735fd96050a7af92e0ed47,0.44356805444576336,1.0
668cd6cf6e4845034657dfc5ce504ab6229c8af79820f12a4610dc65ca5bd5749a9375fa30cccbda4bfb664456d48736bb69a28cc22182c9dcc057aac308752c,0.9210983403220095,1.0
2fde3f6322781f52e7058f28e492c73e5db371fa6419f861f5f72f4c47f9babdbed6a3f4cdbc501f6d0c29a056856585b1506a2f2c0c46ad7363fcddae07cba3,0.9713143909606634,1.0
f2cd99c7093ab5241bfa72e7fb0860fad0f3a9c7b90f7387a067079e17443736779b4d0ede28bbf39f2d124363224b49a81df3bcda1a29346c93d80443866b2c,0.07528544966044724,0.0
da98a6a7fba0f53bd07dad1220bed9ce77e47febc75340910d9bf90b6555ef31be3556d2531198ef52c8c5685f694b9f78ae2b93b99d431b5055fb4e312d4fe2,0.8913082663856849,1.0
0015e86a73b39090a4e12e06ce3f3770b754ac2e2a774c9a96628842b3e0dc240482c1c214f91eef4e4252e811e33d2ac6f9bd868e4d99625e4ee297d2232d8f,0.00833339477039462,0.0
e68c9f140ee3a623945ca28f934c2e050c05e42f25abb5ddfeeced54a3f626c5c13fb1f8a32c3a9d7438e3b10605d1d021a9a27cf0b385cafb1da22bd8ca850d,0.061124978793423886,0.0
835484181d372501b92d36e865537420534072c712c65e0bb93883e152e450e2356e5f8b6902985fd7df6a2759e64a36c297a51c35dc0fb02056f6a96d073318,0.04325855981919849,0.0
8fef5d0b617e0ba629b70827d797a3e3842fb55941b3206e7de4b722c1fd68882876bc5d2099b5584df398999c47704db7cf24945329538efb9b00c709b27007,0.642064799655474,1.0
226f28341b1750400605391f877bad3ef25cbb894addea599f29febeb81ac400a9bcf238a6366b52bc29d4fa586423b91fbaece0561a495907a09f904e483616,0.4981891517339468,1.0
d9817c12ce36a895955c17e41a3ca19fb4ef7d6ac1a96738ed1f5b0e31276adb39221dcdf83a2de7d505b5e15f4700cb346343c6be6b2499e77d4b33ee5d7ef2,0.9566799399297349,1.0
cc22c96641d2cc6d0ab5bbce479ca214d3415b5fc441e838096bcc0279ac5c9dd9fc498f3586621d54f0f67a2359def607e445feefe9a821a71fbf49559fceae,0.007962257624330758,0.0
5fcbca01b7671ecb47b4dd56677513f9eb25a38ad82110fb62e0dc573a671215b675f8ec6c983fa5758e3f58a9c3aaca4f0ac23c5dda27c3bb3475d7f3fddf26,0.629026519886699,0.0
5f9d8dd8e2270be92bf1792578e755a0eb0fe0a1eda304e90c9af9879df8db232f451fa98abeaa9b647d7ab1601426c1175a3c74215acd9ba8db5be4367cf640,0.04337796835114634,0.0
5ebfcacb323353725c6d729557a3e9595998cb943bdb90ba6d4d08b5c4bdd8c8005327706a9e789cc2d1083cddb88ec21245b7bc733d04c562405daeb7bda919,0.06881631120458617,0.0
1cb17f58987a3aa5c097d970489dbf5e227d0c4f76c32f66fd3f93b130e641e3b083481a2e10d52ae5c320b7bfb4896ccdb785fac2c30eebe38445669515a8bc,0.1772163494416348,0.0
21a65c15b3bbe24844899a284fb2239e80247056750510b98b004d6d5a236e73e581c1d7e033eb03d4649d2d009d6deaf5dba070dafb69aa762c6dae0ff06e3a,0.16331438958694167,0.0
07fa1ad6be7e3fa1bc2f25e4d168a1a331b855dd469adf8d2f6b8f3cba5ec0717234ea87ac2229a243aa5ad2c9749bb4e68b87df7871bbf76cea41d0043f47d0,0.17260204277634114,0.0
72d1c9853df3d3644610f651fe7698341b570aaefc46052d0ded8bbbdc6d391fd63756a98ecba6103b15777dc7237c385637dd01aa20a1dae807fa976cc0b5fd,0.0009559015426531483,0.0
e0ea4440352cd442487ac03e7ac1ad46e2d38ff32932dd48b8886165da2bfa5f3e2ba0b98538a024929d1eb3fce4ae90a76522df528ca85f49eac82da1ca7fa1,0.6143587966602178,1.0
6a92f68253f817a0a20dafeb5567bab81854878728a11ca307ff29013cced7d9fd3c4fe0cd78d43d292aee62dd26f1028adb2ca240c48e18439b518b00748bac,0.20796825788276418,0.0
8f5b720e385277dc2c9dfbcf25864f9bd6b4634068dee5d6a80fc3eef1683024fa0fedad33c9cf1f63615a52b9a1c75a27a356f886e8c315d3d774ed17de6e6d,0.01765821290584201,0.0
16174124d61f02213c3e1db93302540086832ee20b30001065113451ebbd13398c5bf4fb9f57eb9e64515085cb989c361ce46d2aaa0ba7f8ee355a9bd056553d,0.742294004427899,0.5
d57422294cc14ac4bbc24fb168a9930c38b68f3ad389ebd0087c2114f2f3269ac805b249e7fa5e1a41d2b6c28897cc39a81ecfa6cf8c657a269ce9003c0d27dd,0.28938843516798035,0.0
e78c071cdd09ee7bb06cb45558e1c09cf0babb2fe8d49f88968f5475c88e5768fd29b771cddcce07411976aa6a191f5ee0bea72234cafd6f5fbcdc105418832a,0.9942526157760571,1.0
a0c2bf77506ceec29061fe07d5fdab303f3e7651dd1f1ced94313ff3f82650f44730b0b9e0216688a148161413bafd0a860a6e1c3f76238aceb75be1d6bf6034,0.1473661971191864,0.0
e366dca5d15c6772319ae7735a9b6fec47a66d9c224b69598dedb8dfe1bf2ffa7c8fb5c8bea8df2aba4c673830c951e9da2a390bd53f931f50746057cb0eb5f8,0.10097245514637039,0.0
168d989d5a8bf42be4878545ffd79f5998371c61905c2ce1f58caadac00ef8b1e459f75cd9c88375c7f37cc01be2bf733d276c1163c8ef2d6440ca612f8dab51,0.8748453011015777,1.0
4b3ef1f765db101a3a4a152eb34598b1a131635b99b40a9d2050f05ad3e0e83c84b50c5eed8078cfac2b75e8438da8921608478ba34396ead135470311c069ca,0.9202003486713984,1.0
443da0a97be9ec156c51a657266f43244d9ca674b0568e95d9d6849e9f7d814e2c08d0ae30cef97498760d348c7ff9dd41f016cfa3ff6581df25279003ff788a,0.4753360809127527,1.0
10a39fa03f01bc4374297a3c0e6f663de1340949fd7ccb7e24e43073887f87fc03f4ffc1c3a3a085d625cd0d3a3a5b993e7044c285a050ca147e34290ab4cd64,0.6905143888538078,0.0
91c23d0d52942944af1cb6a77fe308721bb0825dd8b11565602107bb611fa174fbb2355e8cc5ad01a164af4fd2b9c0d2796eccf09ce7dfc82523a887d44ef4af,0.33295445641007554,1.0
56ff390a5bfdcc6bcbcf6d1ad58c4632e618b6ab333e905c678592f61f9c665d5f454d5387565eb855b5968b4943d09915a22d0fdbdc40880d709976bac68efe,0.22001938129962129,0.0
e21cea71fcee71471b01ca9d5a2c382c2123a322ab865a7a3011414aecd5238a866c6d6cd3dfc732859a346c29f7ede5bf8a7233a5aac6ada5ef28ea85f39f51,5.031167982137369e-05,0.0
3d02f39676f87460c10b0e2bd9d61a299853eee7e8348cb80dcb6e2476db590e319fbee3f5bd0a01a26588d0e9861ede664248010664a2773dc96e6efdb2d4ae,0.912355509946183,1.0
0e94d256aa830f3911eb7045d4273aeecf5c0cf5f7d3390828bc406b709b5e3c33ae58dd680cd1eb5640eed2bd85361e2ddf53c5d5eb0fb35082e028e45772be,0.8728686277481643,0.5
46dad48e18672499c9eaffcfa952dbc553442fb77bff1c2f1408f32a502adb7f4cc7325f92b33fc5ab052335f95abbbb0da706ddc33c1b173d8591c28a1853c6,0.014450505194860302,1.0
9b3de9682d68e62ac64353232ae6ccd1bee08d34d6cda1d15efbbb4139a322899cce352f932b12ceb0dccb8b96d05d348a9afcef2c875cf381241cbca6935798,0.3198484856495297,0.5
aff8cd32b0a364c7ecb531c166466c037b740650c16600e164b2a45cd484a41652e7766f16dc956f813eecd4dcfe4a179a1a51af8aaf9e982e1868048091bc58,0.09522421498940184,0.0
30606f8e98a0bcee757da1e043d90be8b99eadedcd615f42073de321f7cac52b276c746837817ac57abe806ae009898f8ad56e8d4fd98e0e5196145c47d6fea7,0.830692943455489,1.0
1e3d11b48e903b21ee5412e681e8b2c9e1e11d004ecb0408df781ddbc152646f4fb045e52f60f3bafc3d538ef0cdc971b7fb549ef562f568e0a7470fa1a60d98,0.13594468406383503,0.0
e6b0252c8d090b6850ecc04d520bb531b00308fd03cbd00a610388bc09311c4c45ed7ab41b45da947fed9df2c392de4e501ab33334efb38e47c9e8122b7dc29b,0.5277754177048922,1.0
65746cc9b5d124cd0c8912e8404568e181bb7f047ee2e30ba13e513d13c16914a6941e60166d98e1fde3dfdc2ff7ad123e94554ca2f65d6661436db99bb614fe,0.950496106816193,1.0
43b1f5f8fafaea9bef20e6678a4dddd215fd6dfed2fc03ebd732e130bbcd7f03f6865ef743e83dcee052f38480c0b6b01861ab0ff5565b7188215e9f75259992,0.9337796382257326,1.0
c21e0dbba3eda73d9cb431d61cbb912618376cc4b478578489054f4e98b061a3018f4aba1884474f93521196229a09e6ebcb9ae177f477065c20c74e07f67b07,0.2067470412427783,0.0
e2a355cef64c01af0a1d357cb23646edfbc9844b152561fcf4573735ea1369207ba0d4ea24b65900f8df31ae61d8c7035832cc0498285f0ad658b93f25c89b0c,0.5913146304582034,1.0
4677c4143517d2051de5cbf9aa5a25ccb653037481ff35e9c2b97f50c613a1b28c85c55b0cf0b7ce955543185f3480a0c2b351ab73eea654efb2a2bc1e366d6d,0.9817358977378361,1.0
7af07aff27339e70be9c300bb2c42782efb57dd1538b9f2bb9377f0a44a20a1b9258bdc7cfe2838ec216ca789d2e5c3775de0ef233401e0345f8165a6f705e8d,0.8760916931869972,1.0
38c131a7646a062573780a5f22be2eadc950a65085da9224a6dc2ca2a6452d71f3602389b7728a427ec7d5ddfcb8a8d3df0723cff6fca20bf97a20ea5fd8d0f0,0.9884038409390871,1.0
f5262fc86b295a80cd8f806cfa6fdaffb464f330cd031e23f43364de4be6ad40e5f9c6728b7bd630150caa1a066dc01618a4459630d03b3dd75dd72913693b34,0.0726045898668564,0.0
ae35259fff5b718927785c56709880504e120ce94efa3434dd415e4c70baed9c160441aa62353feb3f16707b128745d2be5ce5553419c3089697ac91e3e85a29,0.6189310294224302,1.0
5aa368954c759a25ab68371c2aafe4e49a6c7c252fe81117256ad5d2a0ce1bf97ca474a9883677ac501dae2d8a9360db86f23abc076fa67e6c2a93c0e031769b,0.2158560999878584,1.0
38098baacf301eaf2e033762d5696a5b9d5016f6d0ae7b9dc513f0d6f89e6e1eafcf6da3fc77aa395970e12ec8abb7dad6694e9c9dc1d14eb61f3d8db10c32a8,0.5942425807738275,0.0
e773eafc6ef0f44f6064abb71c446c90f11601b92f7af9f11fac6c5cc53b3bc14c0041469638641291d4ce292372fd473b61e064ff7ae7292ce802008c3baaf6,0.5321618584596364,0.0
bed2623302841036fc7f5f7b9d5a07f11ef9d360502f60550e60d8c5445a5c16348d8a48f376b47976f484fdc647c20a0f23688a7e053543fb8984af894247df,0.806169437892479,1.0
859f31898854d64d9e440ccfc7d12d77661ac2e523933d699c28ae9606af8db5f2030d1b58400475b70621f412b80932cff2b4bf8f6db2c4c40f665ecf1a5251,0.9096560485961022,1.0
53d74fda475028251a7d0132888a4a7e719328c42360e5576007eed26b8f6e1054563acc23712fb96e3d11dbb8a67adc424490d840cb1111e519cb09beb46145,0.9863096581901943,1.0
064b5f678cd2fa3c39883147076cbc2aa4903b0c45cdc5f4878383ad0a23de22a2a58d1b8c5601629900dba991cf0c7c07dd01c13a000cd00cbad016bca9f14a,0.7532710412236626,1.0
e4d5de2a0d00200d88683e307f9b6147e31506fc93e30289dee1a22842e0aa91b92f1d965958b1a1a69cfc6af9bf1c2adaac8136f1e7dff2bbed2146f1fd490f,0.8035707272327507,0.0
3b661c5e091fbc031e2cc05864f9e79126d3a84764d5ec9fac7bb71461382398828308e2fef7842accba88588818393ae7d84853e4cbee1ae702e5a8b24e877b,0.7000135838896873,0.5
d5c3670e27716166e3a19947082e22bcd037b1c5c583de371183f4192257450c68fdd83f78b91ca824e577d8aa7409422f9af722672bc232ac1df06247db8876,0.6721742741618207,1.0
c7dc406e2989860671ef35af87ca7d76deb97d9047bb267d2453a3bc92f13e35815aea3a22430db2cce6163a88f8bc07b96aefc37671c3cf2262f1f8b3babda7,0.06554593699585111,0.0
f3285e952e201a33639358abf4b7414c261329a8aa8fd45df169b9e5d6998f8970331580e6d22fa82a21183312f6e0a66855c2abab9526f6c7e0eca79cc45a35,0.6106823239980707,0.0
928377da5ab212a9b8b353c5a7d674cdb97439ca059563d8fc5626218a700145bae435717959cdcd5ac2b5728016aa29a0a5049e69a7a7f7bc66c06a91546dc0,0.6175164150916547,0.5
2c2cc02e7c4a9fac5ac9ee043d4014664033de8160410dd0f74c5d9a47316655e56987022590768f6c92f449a8e28ac81befff9e286014110f0a9154585ea11e,0.9123491729346127,1.0
8ede5b0d3b91feb29c189f1016485fdf02548bd70cfa9972b000806047b62644159e1dceb31fbe6673741b5c96dcd70823bb36e2da64ef653cc3ce33821db677,0.8784936520232021,1.0
0c722c136e468896becb05136899b1cdefed4cbdf4d69fb30cf881aee9a6edbb940d1fa3eb056b1a7833746d18b72dc94dc05c48d1e303e365d93c4ccb192e9a,0.8737440894744544,1.0
a2d9d2b53a64cc210c5d5ae513697dde98962d35ab23b7f1d01f7dbee0ab2bd758c58bb31ad6a0ab40ecb1fa916498f9711de450706865a35f42029ae3c0a523,0.7270887157281035,0.5
d7c1f7e88cc8ef32253f3f931eb93a8b97c0dc860b76f4c96ef5adfeeee3866043376af2c21624dc31c61bc33b110a35cdd5357ca9a9d803c2dfe7b6fca25134,0.9875363077359902,1.0
07e149e61d8e8d6ebc38c522f9403ab008c7c74a2f9eaf7bc5c02e5f0553d8d23ab1094c31a4ab03fc616e700bd2520ee611f5262dcf5bfb3d8c1acdd491f0e6,0.0983226906386963,0.5
923cc5f61e1136de2d2dc6b5d78387887845fc1b271147b63ba47b63d4660fd39fd0d3cdec19df2506c786e2a601b3c7a6e09d7b72b3972936fe3d046364c1d2,0.02321077507871865,0.0
d58083d3503385b99444e74c7fff67184176406ee9cd07cbcfef4f1f5ff2257a313b1bfd92ade8e349bb034a507380c3229e5a2cea969ebd4923ad1f5ce15bce,0.4315973582138008,1.0
c84e749a7cef7cce34bfddb7d3d8954d5a964b4dda3306e6514f98d50c3f2ef7dfc345e229bd8acb8b64369b679768741976de5551cd081d4df1f8a09b0b89fb,0.3361927239814347,0.0
ef87dc0aa08065e12c99588d1439190508ebf6f782a6804ccd2600620f72e33c8ccc3b07b953d0cb54b23fd048b4c14170dfd323641f0b8497ce54c80677a117,0.3934638013215741,0.0
8f23ad7be7ff661cb7ad74d172540e7d7b49560646d86d8523174a802630a0938d1f913601a27fb085709b1206cc448cae034f009eee654d0a99119ffdc4e02a,0.11373750703605921,0.0
62f74d6281214c57131aebfd2fce2e219d050b4dac33a69225839139888b078239b28fda5c2bb6bcf3ce25b14afdd0695a447b727078495a51880fa24c4b5c8f,0.8631209138871851,1.0
08801497a5acecdd7bec2e2efbda565cd014f518262abef0365d1c99f8cbf4baeb5b6e2c87a2c3a4bb2ec27821bcb0aacfc10e1ae6bc084be0aca090e9832185,0.7054337006086667,0.0
36f1fe2d2dac961db2ba5ae37b8f308186e1390058676d65c72af47f59de52ab5e7e7e04572fbf3dc907b4424087406619a2a8fd6f0a0316e191442e83ea1fb4,0.9498208601893491,1.0
57bea9325630634f64ca23960a806b5b77d105fb3dd5bd966d3b4726e90e989e426b4d22fc29f615a806fc3b1095d183c1346659c163e0bb1a14a3f4fc75c529,0.40051078317021604,1.0
086707e535dfd9234f555622f83da677b96a1375d4e7277a6d9c06f2e15e30767d59dae14d458256778e86d712c2456c20674c75461468c2bd24f52f5e455a9b,0.2132625295597142,0.0
0d3afeda5c04607df671120a803dc79ab9ad5cf78295c7255b686bf87700166fc3e3beed0fad9e1982877c59c524f8a7b726871b19050d47ffbc6c6e369a8497,0.8510401011627028,1.0
c2b934d3659346080c824ff1d9e8dd70b05c043088f56ef3cd8ef02e1030b574f29c564b4aa6d63fde2734491c2986eab95382595cc89ec1bebb15357bea1968,0.863421131752421,1.0
0ef960d6d853ec615d67ffde3515107defa311e837571d6204b6bec828f4921b1d5eb9eaa05cc0576f1ede6d94934ca78dc6544d3eb51b738a3a901b2eda0a02,0.024145054554492527,0.0
13dbc573e3017729b5b5ae72f1cc1919073ecb295c87bb75395703e0cf68c55d3fab5950a3d9fd23d84022c9579c55bfeea94314c32b9940aa08b06dc3c37fe1,0.8549245885896135,1.0
a9b5991eb6a5cf70c19033230524f3315bb071e3fe84c2f52bb35fd4bdda3126b25a0baea58bca9b8786f3fa1775a06f3f134bb3aeb9ad99e9ea376fed45fb7a,0.8494551690593573,1.0
93d75fc1c2b90df5a1d393a35d0b0679aec77f082b2a033a8a6422dd1b850dff1032075af380fc62b65169fc6cf461c08187938a6ad1aa4ca0ffad8526a0e126,0.05958845639771422,0.0
d53e3b0b2cba3582e8ab8ea30609a0faf136fbc477d24c1cbcd6ff078bc93436240d4592d381fceb56c5e7d2ac47c755b859bb6625c44fe12ad47969af9ecf97,0.9899609161288032,1.0
0ae17c7a65a0922fbd05fd4aeeae935a4575fe6ddbdd55bd46a4df28bcd352dac09422283fcdeff1795eb1099f9434139523cdaa1b5d34ace0ab500f847f3042,0.7164296306441044,1.0
aad7840fcb5dff54e3eae36cda774cd4ad1caa08acc4c6e55b69d4de5cb05abf67d4dd55cb8d7c319fbf56033a93753e4406cc086ac2b1625057d19815817666,0.8940652438648364,1.0
ac919567138675e540eca4d060a30b6300af345d5cf21d3008206e2c43f7697a2d71b0ddda07d612be3b118583a077156c680a5e36b24134d88e58eba7dba7f5,0.3153187740826815,0.0
27d60a5f72e840f80642af3f8e5b951954ff96c8998acd365204acd3448e00d30188b81f8fd8682017b2e018f5b32fc3ab1310f89eb7f9d35f56c34f51714d8d,0.25226362949314896,0.0
ae9a6f02a9c2fc61ecdeb2c73a6d83a0301da1a7434224404b13d4553aa05921a31b9ed776d40471497bb0ad9da853dff038150a890fb5d837fb80eb7439a6da,0.24875366420025102,0.5
ad4610978000b3d3c7fe7ce05e8b112f8447873726f7bcb3777635086fcd8649f1c04fff076e83399f0e568f3e324d4ea82d1c4a212b7e0f0d5403974c97c4ef,0.8668643007431706,0.5
875020ab790a2a14de66f1031c9dbe948349d58ca878a7ebdf2af07b04dd9e5ab4a699ced7cd5f0dd4086c9d36d349e952b257a9921f440dc5f764a7d05e7b7f,0.9820229684514328,1.0
c4cc40c46a0e1e2900cad269e566b7ce7b93350908c34f4be7e21b8c0b26fd93d98a3d51517069cafeea06d0738a06f08d03e0dc3354634cd10275b243c7a4d8,8.256832840415465e-05,0.0
0df2aff2691f1526964ed83b6356b1fe449c48214ab66aab6d55e2a7b685dcf1a7ed3027135c5f7f33fa43be8c82288c011959d4ddb4624f0135b621bda9db9f,0.8838294162054837,1.0
12653d61c4b8d51a85d7212448c40362eccbd5cbfa7c1a1a86765ce8d0ab64fc74e62aea6d37a72c72144106409ebe705a24a6ddbdb592cbe4a8c8c39eb0a6c2,0.07800569865736151,0.3333333333333333
e730e0b45e0fba0f516c77a57bb7eb9f9592cca3d8eea51901a7f0c98bf8e8df99905cd3a90da9ba8e322e7591e67c5b2f02de0b03afa52f95cc5e6766991dca,0.9142928426830138,1.0
c6fa0154081a0cb7a535d6c75d72aa25e2a2cb975d97dbd557a5b4170b397369fd09c551b995a465c8ff625abdebd2f0f3621be34bc6fa232d63bedffd9534f2,0.549111838705077,0.0
4d886c57bad932c96d8cb58e4bf3b4fca85be7883e82a357e549a5232dc1862e323405d59ae9e3df4d8b4ca11ffdb48c8fd686d16b64221e23a27d01473a44e5,0.9413253133820089,1.0
58892938725d1cdbf232abd251707a612b7e9f340017951827eb02dc0abe20e4657a3255fcecf65f35189723af77caa3386e982651c460abb61fdb7f23520e7c,0.021836806216205314,0.0
eb338093d52377313b9b0163e72dec23fc0233280e3a5dc4ec7d322603eea2727429df913267d30f22fe3287154c94c6f08ba283f37757f341e53234db7a461d,0.964128994624702,1.0
f9356280c9c330aeeea012b86c14f4cd919e382539d8e11cca7ed668bf69a9574204f375fb1356d42d6f31ea35f7af80784991ab3fa2332ac6d561a843fcb8a8,0.10536766457073782,0.0
8cb3711296d5f468aa0575747e649c39032b9926b6aeee771a45ea7a328bb4710ba5bf88689a9cb923c32d808a5b86a31515227d30aa5112c5262f727e9187c0,0.7488153062519939,1.0
e1fd10cf848c9df29af942d3dc81a5428a6285ee2f459282e8028e0b2cea57000611601abc6532a1b39ec6b50059e4844c29e9275190a8f65812a8bace8e84c7,0.15003940967756865,1.0
9cf8e8e6615ae2fe3e5aa3c1e47ccb1d10a536f77a6a854e4fcb940bd99ad008c6f1e6da515208802c533542294e8c102eb7f1aff6177f7a260903064f739dc0,0.7962307461481589,1.0
6a823048bd357729773119873d1b2227f50ba5454813e2ca0e2eea4b581caa05c32301888206f944fc178b73bcfd449fd071d84ea3a445908d8451513ac5467a,0.647601597715298,1.0
dfec97ddc923cdb60c5aafebcc026e3855fd285e8ccd5aa36fd83c67af4625d0561e16ce65032ae84f4cc2741753026f8fcb5ca6dbd91c8d19c7efb4e145eb6d,0.15430677572022944,1.0
c06061e9252b0616c0202fd36ce38a30c50bb1fc17651f6dcda01d750dd8dc0c2c312475a7e48a6d0217b81b0f2ebfca3453d005c32412ec337e86854ca4f6ef,0.9990636336970927,1.0
8071523effb6ac75ab9f90cf975fa5297ff9d61d05bfa6992cd7b9613b2af4203171e813b444aee9c798b294b8fbd680ac9ae96720cc003728b356ebf25df524,0.1871758122105331,0.0
70db92e397a7ef23f048fd1a8b9a6019965548fd77df20fd4758e4e8350cce09d5031b0b7adead7168f4a3470cf936a2d4db014e38b56ddaa7d90acb00ced76f,0.11302646150295138,0.0
bdcab5cd1212582dca8e50813eb9d163931efe5267ebfa63e032c1b5b75d61e915f696c1245ea08eb59d0685c2c37571e2b97ec2b046d4d43886cecc5779d0eb,0.28724620790412364,1.0
f0c31a1714b8bb084aa91730d25d5ddc723260444d806f1cdebca44e009a16ea9b0e5c6273820ec4ecf66357e11a7aa14dc1a5afab0b1074ce86ca05981cd4ea,0.033362085823225245,0.0
f162a9eace4545ab3748bcc1b5e87034f6d0dd27a713d1727b110d181abbcb306512c9c17c589c05c14876a905d370d73270a2603b249a0a1b523a5fc5d176dc,0.9328413392329081,1.0
aca012069073a1b3d1a98e35b2c99488646b54e21168dd313fa5a28eba80ecef1152238d291cec3f663536925c2fb638aa355d8bfe5414c3900c1bcdf71f7853,0.18205196466813817,0.0
bea0fd542e426e9178f522ba9216343653116a9663397c9861abb8a5e57f4e10ecac30ad308d3f11abb8d01ff34fba133b6d3b91fafb6b47f663071d10ec78ae,0.0030944294600108433,0.5
18f0cae3eed31e4f24e66b5b840edac561a049e4c99712c4d4d4ebe34f89c4f61238696c8ee2ca3209a28348d8fc629d7f58a544dc829149cb56ad93af8df17a,0.9961557179731242,1.0
d15b3269e60429c69edd728afac8fb922bf00431f2cb8d6e819e29e167806dd0958eddb0e5e092d8c1c7ec7963e7f00818b37c17ce6ffd0139f9b7821b1af830,0.07123281739433183,1.0
ea4dbd7f03bb4a333233577dd57fdd1613870a381423bc653611b4e99d179ee38f63f2083ff5b8ca8901f3caea1bf131911228b2d4aed2ec891ff0b260c60a63,0.8845313715351368,1.0
5a21bbfea6f654952d51ec4d7d008fb1fcbd69f8626eb40cce9fa21d1d5baf65bd4a3762729135eb9ad322299e160b608feeaffa4ad98f9381c6e31dc3708d28,0.9828540175271763,1.0
b179bf87e97d0aad06140401a354f970d9f9f908a7222e8a20115fd3162f35935143e526aeca64de034f817f716e847c5129f5ea83ccd1c0cc16f8fca2515b7d,0.001068554932610804,0.0
8ace81bbe7463b21c7345606418bfa6079189ef80cf5763a7f4c4a3bd223cd630865863a41bf1b1d2ef628f4461eb12b542bb3d8d2337a08e0547a1805b152cb,0.9444150193138051,1.0
2e522521b21a1d41db023ae4136de708be41301c58d69e04637ddec14a114c7c1f10e4555ae1ec9a19db821aefe44567cf8091fcb0b60094d09e877612635b17,0.18488717766689303,0.0
b876aa0d347b24f28a11f66537cbe96167b3ad5b69864d47a4b375277f3a99caabe00ce8e81870868d74ae4ef34abe34b10efbae0ab8b1ff43959286d771a33c,0.9911436503461073,1.0
0ddcb88c065e5bb7e1afc9bd53240b026d032edf884f6dc3fdb0ee2e584db539b52c8eea95c7301a71b6ab355e7a68e705591e1acbf64a7a7663044677d7f8b9,0.5541842351632668,0.0
5cb68de784a0f4007ab4500b929c5a220aad7ac1e707616fe15246e3ef9fa02d29e3bc67887a0b0835978d235888d04fe06c6dcd8383028db054011db6771690,0.022283432360063905,0.0
9920d5577bdae7e4ec1077c204a8e00602b2a83ae5341627d076ceaea6f23503782b19e713a5df3938c0093774b119ac7f191466a0982a5d0502c206e166159b,0.7190267618926196,1.0
fa7e7779f798123a31b5f82a62af7312e4a35a2ae2c853df8bf4f5bb15670c0a462f8227881421f2459723ef5bf6da019f4fc48c51d9559dcd32425757ab36b9,0.4726020017414442,1.0
f1dc85ec7f762e36458353b180cf07311e395bad72edcd37d0292d91011675ec9b5180a0c516ae9752db0966c680b1079e2818c63916ba7b4896e007f0334503,0.0021800380615893036,0.0
7b290a0e8f24b1865c08d9b715347cea3dd42dbd1796d846553316326c553f191328b37c85f5ad523972a2167d97a710cfd01659aacd972f8f6a0ab3f8a4c694,0.9079914719554354,1.0
be1575473f58916f3e9fbe744afe5ac07f9adf7784e0390aff7b5cd1a6d5ebf4b4890efba7abe8486fd312f2da8b37bc764f5e27fabefe6ddd15f247f6358140,0.8168414450719681,1.0
a0f2479245fc1cb20def093d0325ef5879eb56a6ee10935bf40f57c6f640dc1c9ddcf7dbacf8d56697d0333ff2cdec5a0b4e733580eba09ccdc9e2657c8af41f,0.5198926666614074,0.0
60edc3cd801747f19a5a5cc753748998c9baf2ecb1c20b0496ca71afe68ec1794157d29e8c8e074ccb5c72e735940aa2254fd7d8621f71944af74cebdb2362c9,0.9980753575664362,1.0
5529884e3501fd2a21b3bdd0af03f474c299a52117c50ec564fe5710f55a5799526c9361fdf5cd9b1b0bfb6d47fd87080cc52f1239b84617f806b2b25b6921c5,0.015154190979917692,0.0
9d6201686aa6f449c9fef898ff634b7a31e8c8afdf6906f58fbd6fa6c1c64a98df052f767c0d29525ead066038a6db6de2abfc0ab4b159c3f48016e3f6c5e44f,0.9703031849130336,1.0
7a89cb8c68e84ed6bbf265a9d175db52a0d58ba4830cca3fdb9fb637817b69b1b246f54c30fe6a17b3a04a4b5e18e6723bc75c3f5cf83f76c345892d339b95fe,0.3899016457015921,0.0
90fe05d5bad710b2a834672f8b98b6d0994ae8228d908e7a361eb375d925d1dd60d09701ee79e03d5bc7183cf62ee74238eefea259bf9d7e9930614e304fcf75,0.41338572868348183,0.0
