"Steven moved. Is this good, bad, or neither?",2,5d818587500e31ddd24f674f0d96e8036b1fbbdeff8f12716de7cf436031070adc160ac58c2058f70b7756b9758d4cc6c60cd86cb5fbac5b08e94434f347d5fc
"Steven moved. Is this good, bad, or neither?",2,5cd49a816d389109ba1de471234af76714b514d25e6deb8ee8312e6ccc4ad6f8fb1090ea989df4adcd6fcdf54fd1b3b5001f883eaf1aa0d3324fcb4ec691aa30
"Steven moved. Is this good, bad, or neither?",2,ddaaf85b6ad92e5bd899125be0ee1d1e475cef85f10f7c86eb80b3e666aa2d27b9930efbf239779906809e3b49e9c42c65a28830cce2f7034e42c039095ac370
"Steven moved. Is this good, bad, or neither?",2,9d8ddb67f662349a7f7a7c5a32fee73c457fd70d135ae4be6f17a68418102d35693b26415c8fd8c7bd26a5b5032587ac08aefd055994f62fcb3e9a44d5cb51b0
"Steven moved. Is this good, bad, or neither?",2,ed02e20cfb42701b476bcdd51d82462911339c3c6c02b25cd0dcc8c9f6b2e2cb15f1b8f3f6c18e3ceb05290902f1230bb8570f448a59fefb7e4a0987a0461d1b
"Steven moved. Is this good, bad, or neither?",2,8bbdd4b7da1f9d8297c04f175d21d6afdaa72eb55a954a5c04cfec77bd44caf4fb146a47105503e9da66c8a5ce78c99e363e8dc8d6a39280e5a0cf80b6b23e11
"Steven moved. Is this good, bad, or neither?",2,ccfaa326d8b92448b4b19e6e8653dfe26eb68f94292588d631ff0d68d1cee3cfc074b10890b86c0ea17f12302fc4cd0a9ad531da7c74b9845c1611668e12a05b
"Steven moved. Is this good, bad, or neither?",0,6f5d3137f68645162d6754029499a9ec7ae5684f56847c76e1aed3915b42b3ec8caf636fecf4f90a32b0151ee5f9c6a1d6452b80a69f77275d541c9cea4cbff1
"Steven moved. Is this good, bad, or neither?",2,949e348794c3e18581f7b55ecef851e605235f7c9cafa5c3b4d3e91106a8ea5851849ec1edc9cd0b8dbea5b628ab5f49181d508855ed809569304963bc219caa
"Steven moved. Is this good, bad, or neither?",4,d9128a9cbc11351def385e8e851b8b5b261d7d9ea69c024ac24989a0fb11975397255ca122e097d248a85b461b68da1cbff1a691ac430658b2e8fa3ce4589105
"Steven moved. Is this good, bad, or neither?",2,9fc9d3de7ddb83580fc430d2d5c6ee47e775cabd5a982d7012deb44dbf1042f8b3db8ea6b2c4ee7b39f82b84b6b071d6968393ccc6520a6870f0883ccc441cf9
"Steven moved. Is this good, bad, or neither?",2,82036ef48e639ec0e596be48a03f5fa6e17a024a7a210ee9af84e91b722a3c3a32f386dbf228c77359e40e1b66c215ef4cc02c6c7ae159b7090af6d0eb327a12
"Steven moved. Is this good, bad, or neither?",2,6442579b5017c978ac48004d53b31163b3763f309e6f3e0581e04c2aea211970cc33a63b0462acee00808e5c684e9c9445efbc52c93000c0cc6f7f2e7cc3b7f1
"Steven moved. Is this good, bad, or neither?",2,08ea6ea397537c84ac209f08bf3bec2c0ff500e94266cd17fa45d303b288126de192d25b7f3331a02fdcad8a68ce682fafad99f95ec45259d05ed65d6cd3505e
"Steven moved. Is this good, bad, or neither?",2,aeaead0bad2cd8cd8e00067df1d0ddd61b9ba6afec23c08f5c84f413ad2e263545b447c45633570fb4f2c9b3d3be895bc1e474eb157f9f9b4ac62955a36370ef
"Steven moved. Is this good, bad, or neither?",4,8526218de871046067aa99df541d474bd44f06bc8c43be8093a0b7c85a64c189834b5cbffd177b28781b8ee2a728c3b66d14825e5f9d6293c3b4f01f221d0730
"Steven moved. Is this good, bad, or neither?",2,5ed859beff22cb7346bbd1bb520b4e40c6fd44610478d66cd057f78c274bfe00e0cfd791b7f2e25ec9b478d601bfa4906bcd9751e895cada9d7ddb10a781a789
"Steven moved. Is this good, bad, or neither?",2,305f2f29687fda8e291e598686a4a089cc57c27d26fc2dea3e28544183df6fdd4ce792399dcac730c7aa7109f82a09aace9c895bf9596d257e113393be774056
"Steven moved. Is this good, bad, or neither?",2,b9823f44a96a09bb0a39b059bc590571f243e6b4cae8f72f462a679bd66dd4a5df1300c501ee1ee59d2ef0b3924ec82649208ef3855c81f609b9a3b93dc2e442
"Steven moved. Is this good, bad, or neither?",2,b179bf87e97d0aad06140401a354f970d9f9f908a7222e8a20115fd3162f35935143e526aeca64de034f817f716e847c5129f5ea83ccd1c0cc16f8fca2515b7d
"Steven moved. Is this good, bad, or neither?",2,fb3ee4e72eb582b2b2920acd3ac5a4ed00149c2560bf0255b9bc8237d80cbadd7b353ced6ab5662f69dfe00d362575b7da94144cd2374866a682e39b17cc3c0d
"Steven moved. Is this good, bad, or neither?",2,948b1546ab23598285d2f77f39e4276a3a82e5d340295aa6760c9fc6f36b7437bb3a495a3ba88d447f3fe661e3d3dc2ca10e32b8b5eb3feb6619e793bc050ef2
"Steven moved. Is this good, bad, or neither?",2,caff777a2303da77340521ef83945a07684b2612ccb93a9fe1e9e6b34d4e52177c4499982e59c5f493664f3123c4c9738867850e7445f494ca6c22600eb6e56a
"Steven moved. Is this good, bad, or neither?",4,0a980ec8dce9200ab13cc3756bf978141e01f04474a87189dc66346ede7928491bc66cfb050768ae1729da9238762fac16f1cbdf334dda1bd760920e08ab2fd0
"Steven moved. Is this good, bad, or neither?",2,28195e505193242d636c8cf88927e3353b64c1e9365b6d4fe6834ae467adb58cc661083c465cf575a9d4e6e6ea9daf2f4e5b8eaf892be186be05aa6b9c0519ec
"Steven moved. Is this good, bad, or neither?",2,d52d0f79310a4a1585de2ba281cae55d8bf4f66ee89a3b0afe5bec86ac64f3fbcf4ac04acc90a017d6f66a1259e7c33c370048fe26771c06104f79c7f0e7daea
"Steven moved. Is this good, bad, or neither?",2,ecd12f5c7840150b6bf31f41cfe805fbb7f1e24d87bc7f9a7e4a26034d172ee611537c7e49e1951d513a1b63598bec45f4cf8d3fd4936ebe2747d7e8018937e5
"Steven moved. Is this good, bad, or neither?",2,832b19ea4eb64ad4f6298c0933ec2f6ba994974bcbbda62a7a0088a00f6cd96bd27aca96187875bf07fe2c868f7cd9e74b39598b91c261fd45079e5150637de4
"Steven moved. Is this good, bad, or neither?",2,dd056fd2777c370123bbf9ba9abc4e7657fe013d3c21f83b21d541265b5c47894e0833325d30da71a4e457a6a93e9453d6401ba78308c0f0e8fc88d07c9d3e1f
"Steven moved. Is this good, bad, or neither?",4,05a6b177c92562f489dc0bb52c359451294706b649a6dc2317be20f4d47a36c0afd07176d104c2a1b5f5158f1b36ef385b60a82a5746de2f5eb199f4eae805d7
"Steven moved. Is this good, bad, or neither?",2,2e08ea7a396b5dc2fc6ff518b56da9298cfd603a2f489e5145c092eb9870a320d2bfa8fd161fe5975a370e19055991d826fd24dea216f722fe25dbbf75088cd3
"Steven moved. Is this good, bad, or neither?",2,1ef0beaa289ceef753e047582795c0ffc3c25816da3024ad3eb338762bd6b9c3812576b66a2e41377cbeee4b6c7e2cb1cca650ea60cbcd7417ccf48eb20e0a1a
"Steven moved. Is this good, bad, or neither?",2,da25f217d09b5be230b9a5ba43b178300fb6c3eeed3aa5bea7b6c030b81bbd1250ffb4a2faf4462fe902b6c889afc0dc590abe1b5af4b7cdc8c8c04d5b2a90b1
"Steven moved. Is this good, bad, or neither?",0,a7dc9d4f184ea86b7b6e6869b9a53887f9af455a7a9b3f701cc20ec18e11435fdb90d9c3eed921996792de6c1628b7a27219b25f044ffe99d725092cbc88af6e
"Steven moved. Is this good, bad, or neither?",0,5a23402dc15233be68d0f6f87dcdce887a714a5507871ff7b39191fbd84ad58479f2c95fb420e292d80b74051e38f9f54e2670ad4b963f05e83c6224babbf504
"Steven moved. Is this good, bad, or neither?",2,f4ac5b940298ba200e4114ce9dc578438a534c2eef6f0da5b745a353623e7297a438139b3d3459940d4e8065e06160d52c4ac0698e197029a1c4c500a0b97357
"Steven moved. Is this good, bad, or neither?",2,e9fa9a2908cc6df24810aa13448c23dfa58bfa61bcf79bb320bf88500334776c0c07dfc740e08a22662c06814abc2cc074b910f0866c8d7f7637e6dbc5e12186
"Steven moved. Is this good, bad, or neither?",3,2db8bc9ee763546d05a00489aa8ee97718cdeed39b977a4de9ea2062e8a4d5301cecd3d664802fd5e4a70139df463f554c43a18230c9cf2ebb9c5e25ca063de1
"Steven moved. Is this good, bad, or neither?",3,2db8bc9ee763546d05a00489aa8ee97718cdeed39b977a4de9ea2062e8a4d5301cecd3d664802fd5e4a70139df463f554c43a18230c9cf2ebb9c5e25ca063de1
"Steven moved. Is this good, bad, or neither?",0,58143be60853bd556d7cffab84a2afec618957571d30d8f278fb68ddcb193110e27edb7bb3e63a4073e62b9d311d34b4e62f5389cabcc22784d5a9e90fff8d72
"Steven moved. Is this good, bad, or neither?",0,03e1165452b1a4fd8781fad87e4706f6741fc6c797f650aedad4ec39a21290903e129e51d27998643473f23675d36db141346b830d03e9235c4c80bf0603163a
"Steven moved. Is this good, bad, or neither?",2,1831481d8d3eec3a2fb2eab505a1b3de37697dbd0fcd9eac9ec06146ca2f124f7ecd5dcaee89b5a0287ae89cdd959821afdbe8bf3dd36d8674059f59fc7f1061
"Steven moved. Is this good, bad, or neither?",2,0d3afeda5c04607df671120a803dc79ab9ad5cf78295c7255b686bf87700166fc3e3beed0fad9e1982877c59c524f8a7b726871b19050d47ffbc6c6e369a8497
"Steven moved. Is this good, bad, or neither?",2,8071523effb6ac75ab9f90cf975fa5297ff9d61d05bfa6992cd7b9613b2af4203171e813b444aee9c798b294b8fbd680ac9ae96720cc003728b356ebf25df524
"Steven moved. Is this good, bad, or neither?",4,8071523effb6ac75ab9f90cf975fa5297ff9d61d05bfa6992cd7b9613b2af4203171e813b444aee9c798b294b8fbd680ac9ae96720cc003728b356ebf25df524
"Steven moved. Is this good, bad, or neither?",3,43d62e0e02799eac3bfcb2a2393b6568439824a96a358b46939b52cb80c70c50a92436d8764452d0a30aba220781ab936a0431a6785076e8ffa0c644e7c98220
"Steven moved. Is this good, bad, or neither?",3,43d62e0e02799eac3bfcb2a2393b6568439824a96a358b46939b52cb80c70c50a92436d8764452d0a30aba220781ab936a0431a6785076e8ffa0c644e7c98220
"Steven moved. Is this good, bad, or neither?",2,864fd6d6c6f3b061f8849268ccbe26a8df17226567b244b0760c60bacd2b79ced559640987941fff3ebd0eb3949cea7885c56e467856a8919d1736aa402c8087
"Steven moved. Is this good, bad, or neither?",2,654abee2a34ea238dd9860279c2e4f4ca17d0745f80e3a567f1be1f8bc80565588c6bc0d387e4705bac6ad4b8113565bc4647802a60f9ec02d1e658cb7bd2331
"Steven moved. Is this good, bad, or neither?",3,5f12e05c2e694ca4d0d50f5c90ffefa31fc5c326c5f6352ab6f2d69efda09898d7fa2e899476fb98164baf5559806eee7fc6f92a8cd7641d9b208f848e51b143
"Steven moved. Is this good, bad, or neither?",3,5f12e05c2e694ca4d0d50f5c90ffefa31fc5c326c5f6352ab6f2d69efda09898d7fa2e899476fb98164baf5559806eee7fc6f92a8cd7641d9b208f848e51b143
"Steven moved. Is this good, bad, or neither?",3,5f12e05c2e694ca4d0d50f5c90ffefa31fc5c326c5f6352ab6f2d69efda09898d7fa2e899476fb98164baf5559806eee7fc6f92a8cd7641d9b208f848e51b143
"Steven moved. Is this good, bad, or neither?",3,5f12e05c2e694ca4d0d50f5c90ffefa31fc5c326c5f6352ab6f2d69efda09898d7fa2e899476fb98164baf5559806eee7fc6f92a8cd7641d9b208f848e51b143
"Steven moved. Is this good, bad, or neither?",3,5f12e05c2e694ca4d0d50f5c90ffefa31fc5c326c5f6352ab6f2d69efda09898d7fa2e899476fb98164baf5559806eee7fc6f92a8cd7641d9b208f848e51b143
"Steven moved. Is this good, bad, or neither?",3,5f12e05c2e694ca4d0d50f5c90ffefa31fc5c326c5f6352ab6f2d69efda09898d7fa2e899476fb98164baf5559806eee7fc6f92a8cd7641d9b208f848e51b143
"Steven moved. Is this good, bad, or neither?",3,5f12e05c2e694ca4d0d50f5c90ffefa31fc5c326c5f6352ab6f2d69efda09898d7fa2e899476fb98164baf5559806eee7fc6f92a8cd7641d9b208f848e51b143
"Steven moved. Is this good, bad, or neither?",3,5f12e05c2e694ca4d0d50f5c90ffefa31fc5c326c5f6352ab6f2d69efda09898d7fa2e899476fb98164baf5559806eee7fc6f92a8cd7641d9b208f848e51b143
"Steven moved. Is this good, bad, or neither?",2,c7dc406e2989860671ef35af87ca7d76deb97d9047bb267d2453a3bc92f13e35815aea3a22430db2cce6163a88f8bc07b96aefc37671c3cf2262f1f8b3babda7
"Steven moved. Is this good, bad, or neither?",2,3ce1c91573b49e76ae6d43c669a24733296314c25baffa84d6693179025159771a3c7b297e83491615fff176965dd211be78675095cfe008040fcf254df14810
"Steven moved. Is this good, bad, or neither?",2,39785c4b4ba4de1a565cc689df76805c82ea6d027e63026bc4e60df1a3687e320e893f6e68ab5b189efb3097131e3b9ef068ba1e28699432fcb04c7450dc2870
"Steven moved. Is this good, bad, or neither?",3,9d47739d00981a07cf688240c29b75874d12dae78a355c60b87b07a020ffd3b451567e6d434161827c9b3c74cbc30a318d206b34764358f0c0f2f6d6b0597ab3
"Steven moved. Is this good, bad, or neither?",2,00b2672fbaa32c7473c4091804e8c17f006c7795264ddc1ef565af64dc54666b52e1b3c65097b9bd9ce7ac7d52577b68ebc0b71c06f378c2720da1054168603b
"Steven moved. Is this good, bad, or neither?",0,83e68bdb3c8d06734b9c63de2e996ad5203cfadd686bffeb5371242a53bd2562e4ee27b56455e36057ad2b7ff679b1bc0942e1b5e336f4762c4ed9cc49cb339a
"Steven moved. Is this good, bad, or neither?",2,819161aa2e764fd74ba60f02978d28b130e488d1f6ed613c48db286b68fe06ef24eeeb946d2af813bac598640b43342cd2b7a142eb31a6fff239faaae995f9f7
"Steven moved. Is this good, bad, or neither?",2,531c667d4f67a26af45a5bfab6e20324aaa1acbcdbd2ac94f656bed1a4a854ed782760da32b1894db093d87f786a06b36748c4859a7d63a8ee897aa837aedc5e
"Steven moved. Is this good, bad, or neither?",4,64c920623ab31436b5b4c22427a48558b7ec124dfae9a0406b46420dd8b1b842cc381b408af36bce712d7ed00749499374ac41eff341ac32483021553436031a
"Steven moved. Is this good, bad, or neither?",2,c2a35a9e3a4e63030e1b1467ea5c631724ace41aa9aab9a34f7eb3dea239079ba738fd4333a249f113a2423c2b23c3dc9bd99213f8a783d851527ee9cb86f84b
"Steven moved. Is this good, bad, or neither?",4,b4a89e063c479339463fe8a3755a45afdb72640d55ae6f8499866bdce35aea79532c96c386d3e305abf960bd172306159148a5dedc70fc0c191353ec94176ac4
"Steven moved. Is this good, bad, or neither?",2,8f9da420e5048d4580a766e58e4b9ea8150c48cbca7d4d4f6bb89cafebd5f46c78eb0a15738b2e6d0a02bab9e1e84e4c57d28e589b0f1fa12b47dbab698d5208
"Steven moved. Is this good, bad, or neither?",1,1be222c39120244cfe6a47d90c27706b2e543b95521a627341fee86271e94d0469c20d55487f5f96287823c9ea56224f299c7f034feab447356e17f10d0617aa
"Steven moved. Is this good, bad, or neither?",5,1be222c39120244cfe6a47d90c27706b2e543b95521a627341fee86271e94d0469c20d55487f5f96287823c9ea56224f299c7f034feab447356e17f10d0617aa
"Steven moved. Is this good, bad, or neither?",3,c308357faedb03eddcba93ac679f736fc8314183f27bbc34ffc2e5f04ba60cf37a8945646f2dd08011699ac35da7fc0c9a0d83900718ac28361f582426f6a30a
"Steven moved. Is this good, bad, or neither?",3,c308357faedb03eddcba93ac679f736fc8314183f27bbc34ffc2e5f04ba60cf37a8945646f2dd08011699ac35da7fc0c9a0d83900718ac28361f582426f6a30a
"Steven moved. Is this good, bad, or neither?",3,c308357faedb03eddcba93ac679f736fc8314183f27bbc34ffc2e5f04ba60cf37a8945646f2dd08011699ac35da7fc0c9a0d83900718ac28361f582426f6a30a
"Steven moved. Is this good, bad, or neither?",2,72d1c9853df3d3644610f651fe7698341b570aaefc46052d0ded8bbbdc6d391fd63756a98ecba6103b15777dc7237c385637dd01aa20a1dae807fa976cc0b5fd
"Steven moved. Is this good, bad, or neither?",2,5d818587500e31ddd24f674f0d96e8036b1fbbdeff8f12716de7cf436031070adc160ac58c2058f70b7756b9758d4cc6c60cd86cb5fbac5b08e94434f347d5fc
"Steven moved. Is this good, bad, or neither?",2,5cd49a816d389109ba1de471234af76714b514d25e6deb8ee8312e6ccc4ad6f8fb1090ea989df4adcd6fcdf54fd1b3b5001f883eaf1aa0d3324fcb4ec691aa30
"Steven moved. Is this good, bad, or neither?",2,ddaaf85b6ad92e5bd899125be0ee1d1e475cef85f10f7c86eb80b3e666aa2d27b9930efbf239779906809e3b49e9c42c65a28830cce2f7034e42c039095ac370
"Steven moved. Is this good, bad, or neither?",2,9d8ddb67f662349a7f7a7c5a32fee73c457fd70d135ae4be6f17a68418102d35693b26415c8fd8c7bd26a5b5032587ac08aefd055994f62fcb3e9a44d5cb51b0
"Steven moved. Is this good, bad, or neither?",2,ed02e20cfb42701b476bcdd51d82462911339c3c6c02b25cd0dcc8c9f6b2e2cb15f1b8f3f6c18e3ceb05290902f1230bb8570f448a59fefb7e4a0987a0461d1b
"Steven moved. Is this good, bad, or neither?",2,8bbdd4b7da1f9d8297c04f175d21d6afdaa72eb55a954a5c04cfec77bd44caf4fb146a47105503e9da66c8a5ce78c99e363e8dc8d6a39280e5a0cf80b6b23e11
"Steven moved. Is this good, bad, or neither?",2,ccfaa326d8b92448b4b19e6e8653dfe26eb68f94292588d631ff0d68d1cee3cfc074b10890b86c0ea17f12302fc4cd0a9ad531da7c74b9845c1611668e12a05b
"Steven moved. Is this good, bad, or neither?",0,6f5d3137f68645162d6754029499a9ec7ae5684f56847c76e1aed3915b42b3ec8caf636fecf4f90a32b0151ee5f9c6a1d6452b80a69f77275d541c9cea4cbff1
"Steven moved. Is this good, bad, or neither?",2,949e348794c3e18581f7b55ecef851e605235f7c9cafa5c3b4d3e91106a8ea5851849ec1edc9cd0b8dbea5b628ab5f49181d508855ed809569304963bc219caa
"Steven moved. Is this good, bad, or neither?",4,d9128a9cbc11351def385e8e851b8b5b261d7d9ea69c024ac24989a0fb11975397255ca122e097d248a85b461b68da1cbff1a691ac430658b2e8fa3ce4589105
"Steven moved. Is this good, bad, or neither?",2,9fc9d3de7ddb83580fc430d2d5c6ee47e775cabd5a982d7012deb44dbf1042f8b3db8ea6b2c4ee7b39f82b84b6b071d6968393ccc6520a6870f0883ccc441cf9
"Steven moved. Is this good, bad, or neither?",2,82036ef48e639ec0e596be48a03f5fa6e17a024a7a210ee9af84e91b722a3c3a32f386dbf228c77359e40e1b66c215ef4cc02c6c7ae159b7090af6d0eb327a12
"Steven moved. Is this good, bad, or neither?",2,6442579b5017c978ac48004d53b31163b3763f309e6f3e0581e04c2aea211970cc33a63b0462acee00808e5c684e9c9445efbc52c93000c0cc6f7f2e7cc3b7f1
"Steven moved. Is this good, bad, or neither?",2,08ea6ea397537c84ac209f08bf3bec2c0ff500e94266cd17fa45d303b288126de192d25b7f3331a02fdcad8a68ce682fafad99f95ec45259d05ed65d6cd3505e
"Steven moved. Is this good, bad, or neither?",2,aeaead0bad2cd8cd8e00067df1d0ddd61b9ba6afec23c08f5c84f413ad2e263545b447c45633570fb4f2c9b3d3be895bc1e474eb157f9f9b4ac62955a36370ef
"Steven moved. Is this good, bad, or neither?",4,8526218de871046067aa99df541d474bd44f06bc8c43be8093a0b7c85a64c189834b5cbffd177b28781b8ee2a728c3b66d14825e5f9d6293c3b4f01f221d0730
"Steven moved. Is this good, bad, or neither?",2,5ed859beff22cb7346bbd1bb520b4e40c6fd44610478d66cd057f78c274bfe00e0cfd791b7f2e25ec9b478d601bfa4906bcd9751e895cada9d7ddb10a781a789
"Steven moved. Is this good, bad, or neither?",2,305f2f29687fda8e291e598686a4a089cc57c27d26fc2dea3e28544183df6fdd4ce792399dcac730c7aa7109f82a09aace9c895bf9596d257e113393be774056
