"Chelsea floated to a fracky position. Is this good, bad, or neither?",1,18a17188f6c89da307f9ddc5424635c3d2029e4fb18e94f193a797b4746e3059a7b0865816d74d7dfa315255bfc2eafec0f55ac57ea1fe28be61f13c46221d0e
"Chelsea floated to a fracky position. Is this good, bad, or neither?",2,5d818587500e31ddd24f674f0d96e8036b1fbbdeff8f12716de7cf436031070adc160ac58c2058f70b7756b9758d4cc6c60cd86cb5fbac5b08e94434f347d5fc
"Chelsea floated to a fracky position. Is this good, bad, or neither?",2,931df7604323105cae6871adbe48f1ae1428b7f5f3d1a9cc548313858c08c5ee09516f6c6827a2fd1306f86469643d83240ab084cd9d94c3039a5fabf3cbbdfa
"Chelsea floated to a fracky position. Is this good, bad, or neither?",2,720bea532db6ed90a7bd855c056e2ccc32b0f2fe90eb490aa4d644afcc89620fb5f7c3bf4971d931a8aef22130fb8976bd9e83f534038e3c4e8421311520cb5d
"Chelsea floated to a fracky position. Is this good, bad, or neither?",2,ddaaf85b6ad92e5bd899125be0ee1d1e475cef85f10f7c86eb80b3e666aa2d27b9930efbf239779906809e3b49e9c42c65a28830cce2f7034e42c039095ac370
"Chelsea floated to a fracky position. Is this good, bad, or neither?",7,10087c913fe11e55fc88d155e4ebd206e92683386f737d2692498f286bbc341b8c70905eba24f353d4d2ec51c106a6fb85ecc546dcd7a743dcc69a3ce6ad75a8
"Chelsea floated to a fracky position. Is this good, bad, or neither?",4,0c722c136e468896becb05136899b1cdefed4cbdf4d69fb30cf881aee9a6edbb940d1fa3eb056b1a7833746d18b72dc94dc05c48d1e303e365d93c4ccb192e9a
"Chelsea floated to a fracky position. Is this good, bad, or neither?",4,247d016ad1965e185b284a032af50657ede03f4f6dfc65f402943ca2d27268dbc47a7ee39ad2eed9b24b64110dc50e8dd10ca6597e88d493637c358a9ba6470b
"Chelsea floated to a fracky position. Is this good, bad, or neither?",1,949e348794c3e18581f7b55ecef851e605235f7c9cafa5c3b4d3e91106a8ea5851849ec1edc9cd0b8dbea5b628ab5f49181d508855ed809569304963bc219caa
"Chelsea floated to a fracky position. Is this good, bad, or neither?",2,609868e2cf6de58a506a6731afe55c53d93510e3a34e58705479846aa7ccef2469a0081dc7ad92826b214afccaa96b3202ca07a32e7d6afd795c5776ef5511be
"Chelsea floated to a fracky position. Is this good, bad, or neither?",2,b3397abe1040f5ecae7bbd9b757e94e7e2be75658c0b433f57e5328769bec99b9ec22f5705fcbb077fe94e1733507126b5e8a11297b7d1020710a71843315df8
"Chelsea floated to a fracky position. Is this good, bad, or neither?",2,08ea6ea397537c84ac209f08bf3bec2c0ff500e94266cd17fa45d303b288126de192d25b7f3331a02fdcad8a68ce682fafad99f95ec45259d05ed65d6cd3505e
"Chelsea floated to a fracky position. Is this good, bad, or neither?",2,aeaead0bad2cd8cd8e00067df1d0ddd61b9ba6afec23c08f5c84f413ad2e263545b447c45633570fb4f2c9b3d3be895bc1e474eb157f9f9b4ac62955a36370ef
"Chelsea floated to a fracky position. Is this good, bad, or neither?",4,c4ed94657e69e8d0ab2fc62ae827e33b39befc4999fffa6f5fd6cc66b82427202a7aa870b5327b553f62a9c69474930cded1869d86d079f9aed5650135c1c560
"Chelsea floated to a fracky position. Is this good, bad, or neither?",2,305f2f29687fda8e291e598686a4a089cc57c27d26fc2dea3e28544183df6fdd4ce792399dcac730c7aa7109f82a09aace9c895bf9596d257e113393be774056
"Chelsea floated to a fracky position. Is this good, bad, or neither?",6,ac159058713bb786536395d849dcdcf98a8ffa433c0df23b7bc3208f1c1ce017c9e666811788def29dda032e13b5e11080c305f9a67c97282c112192adb437e0
"Chelsea floated to a fracky position. Is this good, bad, or neither?",2,7f45982c84b0e62975c836530ebc5c20ed43e2aaac4d7f1c99d59dac30103bb0a2c7f0c3eb3c011244e3b29b96036757199959b8d8fbcc5cf995fee8253a05f5
"Chelsea floated to a fracky position. Is this good, bad, or neither?",7,5bae64f7def002a461f2add97810b730af2f7c6ba0e1207f338656583c4bd4949ba779afd8cb16d3807192ae5c2b39c669822b0ffda8ba799435261f2cc9d4b2
"Chelsea floated to a fracky position. Is this good, bad, or neither?",6,fb3ee4e72eb582b2b2920acd3ac5a4ed00149c2560bf0255b9bc8237d80cbadd7b353ced6ab5662f69dfe00d362575b7da94144cd2374866a682e39b17cc3c0d
"Chelsea floated to a fracky position. Is this good, bad, or neither?",2,2cb44008208d14c82cf8868fc09b67e721d51c1b25835a53ce5c75d4338141e971e3aad3228e19b641ecd4278d4576dc2f1af7702b6c5731e30d7d54f5a829a5
"Chelsea floated to a fracky position. Is this good, bad, or neither?",2,948b1546ab23598285d2f77f39e4276a3a82e5d340295aa6760c9fc6f36b7437bb3a495a3ba88d447f3fe661e3d3dc2ca10e32b8b5eb3feb6619e793bc050ef2
"Chelsea floated to a fracky position. Is this good, bad, or neither?",2,caff777a2303da77340521ef83945a07684b2612ccb93a9fe1e9e6b34d4e52177c4499982e59c5f493664f3123c4c9738867850e7445f494ca6c22600eb6e56a
"Chelsea floated to a fracky position. Is this good, bad, or neither?",2,28195e505193242d636c8cf88927e3353b64c1e9365b6d4fe6834ae467adb58cc661083c465cf575a9d4e6e6ea9daf2f4e5b8eaf892be186be05aa6b9c0519ec
"Chelsea floated to a fracky position. Is this good, bad, or neither?",2,ecd12f5c7840150b6bf31f41cfe805fbb7f1e24d87bc7f9a7e4a26034d172ee611537c7e49e1951d513a1b63598bec45f4cf8d3fd4936ebe2747d7e8018937e5
"Chelsea floated to a fracky position. Is this good, bad, or neither?",2,ef839af5258330256a11b6f1c4860d8f1f6d40416c75faaf3c9d02c664df7a5a7ec2813838e46a328b0eb5692cedfe252043a67dfc8245b8070e086e35a08f9c
"Chelsea floated to a fracky position. Is this good, bad, or neither?",2,401591f278e1aaec5101f645338fca5fbbdec09332561ec98cafc52acdfccf065d04e4648dd1bf79814b86322d53768e40cef7ca3015a513d4528319988a1d5c
"Chelsea floated to a fracky position. Is this good, bad, or neither?",2,41628a0f8849c48d09c00e99c4a99cae8b10c5d31c76fc5043a816bea93afdb63771aa227c3fc1235d69b6c482ed4c1972716b6868be483c3ecaba9ca7efddc1
"Chelsea floated to a fracky position. Is this good, bad, or neither?",2,4d6a3cd1823966fb98e5583a97754f2b5f8e3a76075525bbb69128bca7e43e9a680a6c30b86993dad31108598fa013a277162ade1f433a7a643000ca0966b83d
"Chelsea floated to a fracky position. Is this good, bad, or neither?",4,50382e84cff15ff279d039319537be609c34e7eab94add3958257e22f73035e78293431d69b5d6328a9568c7554ac16f8ab7fa01e06221ed1536637cd148de0b
"Chelsea floated to a fracky position. Is this good, bad, or neither?",4,1a61246cd509cb5ecba860ada52fb78f3a59d7a471e284f3bcc38cd2afa1dc4379bb075259f4bf83bd675fc8603a8b95c430ab021683c069dbf82461023cdab3
"Chelsea floated to a fracky position. Is this good, bad, or neither?",2,0cce9151698e5674daa0d80fe4efc4daa6c28de601e9af357d943b02c498a73578d8113eba388846a2ca22017c481f5d2b2a23aca606799dfa309a4c8d51c86e
"Chelsea floated to a fracky position. Is this good, bad, or neither?",4,2affe66e78ed0fdb8662d48e9de768393c88ec5e667c71326bc9ac141e2742f64028489e0a9dbbd820ca7d777483a05f81c195e5a46d9c595e8003584f94b06f
"Chelsea floated to a fracky position. Is this good, bad, or neither?",0,310ecd1f768bb6b808211c2ba69dd45f30d0a6cf6102cfedebb1e43e2b8e0b815c2a16b92fadd9556f3a20e29e8ea30c2c5e378e47b0705dd034ca4ee338ce60
"Chelsea floated to a fracky position. Is this good, bad, or neither?",1,5dc4a9833d4e836ac85467a1f1ad45d16de10610cb84e15e1bbecdb2ac32d30cff7b4b1a5c7ec4963715a4f57976baded6d3e5a09537c38c6c3042a4f907ea95
"Chelsea floated to a fracky position. Is this good, bad, or neither?",2,1e7019267a5b9fb0c239414b1e225193cc46ec9d6c9a84692122a153d5af4e4bec36f2ece04c27828e7c811956744c4cdaf9b6e007fe5418441f79557bd2012a
"Chelsea floated to a fracky position. Is this good, bad, or neither?",6,2e08ea7a396b5dc2fc6ff518b56da9298cfd603a2f489e5145c092eb9870a320d2bfa8fd161fe5975a370e19055991d826fd24dea216f722fe25dbbf75088cd3
"Chelsea floated to a fracky position. Is this good, bad, or neither?",0,5adefca985807c50c8c3653bc05dd62711748c31faf2fc5e7214a6c8a54953845a096abf18034228cdef8df2149de79b181f416f14036eb5488ae4b5e10799af
"Chelsea floated to a fracky position. Is this good, bad, or neither?",6,6d50361d5f96d1ba2740da0b925df330fcfe8df87443087e5729e23865893d40b364b06ab9bdb78e3f647937cc981031d819f018e5660c404bcae8588a48755d
"Chelsea floated to a fracky position. Is this good, bad, or neither?",2,46d0a907a63fbcf6b9773634da95c2092d4787f1e67dc0f01eaafc6ab0f309b25582ac91a25860d7feda0090feaa4865dd2c7daa6848ff7bb3eeead0c84b9019
"Chelsea floated to a fracky position. Is this good, bad, or neither?",1,cd148f64a9eaf63d83d84fb034cb67c1b1fb7cbe426628666c9d3d43ec4d37ca42942bd52c389bf7342c81f2d6fbfe0b68e66240aeec6ff7a99a3444724af8db
"Chelsea floated to a fracky position. Is this good, bad, or neither?",2,0981de69b591972a9bc296ddad20ac806100822ed7dc2ce7db559e8d307b2ed69b8bba9e2154563999db43063ac3c7b6a8f491925f3826383260c5fbe9a9801c
"Chelsea floated to a fracky position. Is this good, bad, or neither?",2,10b8dd0a33c9f9a0916324eafdcca631e13b6ff8f7f5f56c7e4dfe89868cc357f1a929eafe4002a5070d99628417526ad4495e6b9b0bbf3a900600936d60229f
"Chelsea floated to a fracky position. Is this good, bad, or neither?",0,c3c45610090ecdde60e1dcc409af02ca28a4659f908ea0530544f11d27dbfc6bb633fd13eacf8543f487c6032bef0159d8118d809bff6b76ba0872262f08b325
"Chelsea floated to a fracky position. Is this good, bad, or neither?",2,c06061e9252b0616c0202fd36ce38a30c50bb1fc17651f6dcda01d750dd8dc0c2c312475a7e48a6d0217b81b0f2ebfca3453d005c32412ec337e86854ca4f6ef
"Chelsea floated to a fracky position. Is this good, bad, or neither?",2,dee9285ea94626f6f8173365251604841c2997d9574d668badf218b1ee8799653aa99ba7f70fc3e1695c98804545ee425898ecc2107d95f74404eb3f9f6af236
"Chelsea floated to a fracky position. Is this good, bad, or neither?",2,2c67dc02cd888344bfa1e1250faca9503398644e119e31ab8fd176e1cccf52fa608f6f99ad4cde7120c0a00aad38ff4e3f678099fe53d54a7bae192f4c5f33c1
"Chelsea floated to a fracky position. Is this good, bad, or neither?",2,864fd6d6c6f3b061f8849268ccbe26a8df17226567b244b0760c60bacd2b79ced559640987941fff3ebd0eb3949cea7885c56e467856a8919d1736aa402c8087
"Chelsea floated to a fracky position. Is this good, bad, or neither?",3,121174970baf8e72702f3edd1c2a1e1926f9bcef294677ca1f06f34efe4a70cf1c5b7d94db9c0eb7dd18f1ec156f86f5034513f232f833b2525c2244728dc3d2
"Chelsea floated to a fracky position. Is this good, bad, or neither?",3,121174970baf8e72702f3edd1c2a1e1926f9bcef294677ca1f06f34efe4a70cf1c5b7d94db9c0eb7dd18f1ec156f86f5034513f232f833b2525c2244728dc3d2
"Chelsea floated to a fracky position. Is this good, bad, or neither?",2,f42eb2cf72d39f24874c549b74ed6ebc674555aa4acc7ded3adf7975b13f63211cbae0388e2e5a8862b8e79d0792e494e5adf67694e5fa3e0c01d20d94c4cc58
"Chelsea floated to a fracky position. Is this good, bad, or neither?",4,868fd3ba2ef67db192746e40d1c8eb19999054d23346415bc18c6b6ed9351a171915fffbfebee929b615f8feb6ef228e3db55737500fb292d0f36852fd4b4d61
"Chelsea floated to a fracky position. Is this good, bad, or neither?",4,44d41147f7d37d131f3fd99c9c2f585c8176d959cacd66b678d1b252ebc8415b4313afd83ed1af084053a329299d94c6de8cda39fc8f5ede57413f66ef62f063
"Chelsea floated to a fracky position. Is this good, bad, or neither?",3,5f12e05c2e694ca4d0d50f5c90ffefa31fc5c326c5f6352ab6f2d69efda09898d7fa2e899476fb98164baf5559806eee7fc6f92a8cd7641d9b208f848e51b143
"Chelsea floated to a fracky position. Is this good, bad, or neither?",3,5f12e05c2e694ca4d0d50f5c90ffefa31fc5c326c5f6352ab6f2d69efda09898d7fa2e899476fb98164baf5559806eee7fc6f92a8cd7641d9b208f848e51b143
"Chelsea floated to a fracky position. Is this good, bad, or neither?",3,5f12e05c2e694ca4d0d50f5c90ffefa31fc5c326c5f6352ab6f2d69efda09898d7fa2e899476fb98164baf5559806eee7fc6f92a8cd7641d9b208f848e51b143
"Chelsea floated to a fracky position. Is this good, bad, or neither?",3,5f12e05c2e694ca4d0d50f5c90ffefa31fc5c326c5f6352ab6f2d69efda09898d7fa2e899476fb98164baf5559806eee7fc6f92a8cd7641d9b208f848e51b143
"Chelsea floated to a fracky position. Is this good, bad, or neither?",3,5f12e05c2e694ca4d0d50f5c90ffefa31fc5c326c5f6352ab6f2d69efda09898d7fa2e899476fb98164baf5559806eee7fc6f92a8cd7641d9b208f848e51b143
"Chelsea floated to a fracky position. Is this good, bad, or neither?",3,5f12e05c2e694ca4d0d50f5c90ffefa31fc5c326c5f6352ab6f2d69efda09898d7fa2e899476fb98164baf5559806eee7fc6f92a8cd7641d9b208f848e51b143
"Chelsea floated to a fracky position. Is this good, bad, or neither?",3,5f12e05c2e694ca4d0d50f5c90ffefa31fc5c326c5f6352ab6f2d69efda09898d7fa2e899476fb98164baf5559806eee7fc6f92a8cd7641d9b208f848e51b143
"Chelsea floated to a fracky position. Is this good, bad, or neither?",3,5f12e05c2e694ca4d0d50f5c90ffefa31fc5c326c5f6352ab6f2d69efda09898d7fa2e899476fb98164baf5559806eee7fc6f92a8cd7641d9b208f848e51b143
"Chelsea floated to a fracky position. Is this good, bad, or neither?",5,322f3fc9a65b52f17cfe21ce3e2a9d9d92a47fa515825ca5dfa09748ce6bc96e42524a760635bfbe96a7226586be29c5348d2b5b9422d1ce92b61d9bca99d317
"Chelsea floated to a fracky position. Is this good, bad, or neither?",2,89ec6026357c86cdd1819073d7c84fde395a04636ccdc2b308fec0bce7f5634972d9156de44c2612a3d597f1d133d97e3f743abc5d104cf4ddbfd9f27e637110
"Chelsea floated to a fracky position. Is this good, bad, or neither?",1,3ce1c91573b49e76ae6d43c669a24733296314c25baffa84d6693179025159771a3c7b297e83491615fff176965dd211be78675095cfe008040fcf254df14810
"Chelsea floated to a fracky position. Is this good, bad, or neither?",6,5e02d17899155a22b6c336a92ce47cf202aa06326e16e4932937bacd41930a1ca3df79eee18b1a35375dfb0dd81976a7c77ad6620d3743589491c4b979020717
"Chelsea floated to a fracky position. Is this good, bad, or neither?",4,b4a89e063c479339463fe8a3755a45afdb72640d55ae6f8499866bdce35aea79532c96c386d3e305abf960bd172306159148a5dedc70fc0c191353ec94176ac4
"Chelsea floated to a fracky position. Is this good, bad, or neither?",2,ce33f4c60d3914f56bf0e88416b3bf9628441682a9603e0309fb006430769bab15db5a80b49f6d760284ec55460e340eab8e77a542d87f6a8826b56eeaaed419
"Chelsea floated to a fracky position. Is this good, bad, or neither?",0,819161aa2e764fd74ba60f02978d28b130e488d1f6ed613c48db286b68fe06ef24eeeb946d2af813bac598640b43342cd2b7a142eb31a6fff239faaae995f9f7
"Chelsea floated to a fracky position. Is this good, bad, or neither?",2,64c920623ab31436b5b4c22427a48558b7ec124dfae9a0406b46420dd8b1b842cc381b408af36bce712d7ed00749499374ac41eff341ac32483021553436031a
"Chelsea floated to a fracky position. Is this good, bad, or neither?",1,8eb8eb9ee8a5dc5a76832099bd61e3988c8e01c2c58daae7a5a78563d2f5449d2ac146d6d35c79e2f33b7fe14c8d00f78deea59045dcb4570a6484c7fe7175f4
"Chelsea floated to a fracky position. Is this good, bad, or neither?",2,6ceee2f71efcf20e84bbd06a14b4db7e96fa397d5608a8089a019f6a0d0c87607b63f5a1d3da3239a3195f67cb70811756fab2c6788bd186d72da854a5a6e20b
"Chelsea floated to a fracky position. Is this good, bad, or neither?",2,c2a35a9e3a4e63030e1b1467ea5c631724ace41aa9aab9a34f7eb3dea239079ba738fd4333a249f113a2423c2b23c3dc9bd99213f8a783d851527ee9cb86f84b
"Chelsea floated to a fracky position. Is this good, bad, or neither?",2,7bb69491f59cc8f78b9cad7a98ed371981f71b5078e2c9596e09d5bd3889ab32ab8f8e4b3a7c1ceeff76dd3258245bc5106fbb217c99dba0fb20d72064b9670c
"Chelsea floated to a fracky position. Is this good, bad, or neither?",4,3885872d2aa71ef9e4d95312a4bb23f301d9ec923dde0250ba69a21e33833a55987c0888790b64e61a58de072e8d93cea4ce96609cd8e46644b90554ec367d78
"Chelsea floated to a fracky position. Is this good, bad, or neither?",1,72d1c9853df3d3644610f651fe7698341b570aaefc46052d0ded8bbbdc6d391fd63756a98ecba6103b15777dc7237c385637dd01aa20a1dae807fa976cc0b5fd
"Chelsea floated to a fracky position. Is this good, bad, or neither?",7,0ca87715be5df199ebada6867f7e0e75295c7ededa0fbd84664b9240578d42457d55abd66e8d40f24cae8c5c5c0a506eae9b839711a908d418039a14a0ca3135
"Chelsea floated to a fracky position. Is this good, bad, or neither?",2,64b0b383abef7422d0ae1d374180558f9cd4a3b0e91ed813b32c93202f31411e1af4445cc49c3e7a5e27274da047d27abc1a040400096e04e1c3e039548aed58
"Chelsea floated to a fracky position. Is this good, bad, or neither?",5,64b0b383abef7422d0ae1d374180558f9cd4a3b0e91ed813b32c93202f31411e1af4445cc49c3e7a5e27274da047d27abc1a040400096e04e1c3e039548aed58
"Chelsea floated to a fracky position. Is this good, bad, or neither?",1,18a17188f6c89da307f9ddc5424635c3d2029e4fb18e94f193a797b4746e3059a7b0865816d74d7dfa315255bfc2eafec0f55ac57ea1fe28be61f13c46221d0e
"Chelsea floated to a fracky position. Is this good, bad, or neither?",2,5d818587500e31ddd24f674f0d96e8036b1fbbdeff8f12716de7cf436031070adc160ac58c2058f70b7756b9758d4cc6c60cd86cb5fbac5b08e94434f347d5fc
"Chelsea floated to a fracky position. Is this good, bad, or neither?",2,931df7604323105cae6871adbe48f1ae1428b7f5f3d1a9cc548313858c08c5ee09516f6c6827a2fd1306f86469643d83240ab084cd9d94c3039a5fabf3cbbdfa
"Chelsea floated to a fracky position. Is this good, bad, or neither?",2,720bea532db6ed90a7bd855c056e2ccc32b0f2fe90eb490aa4d644afcc89620fb5f7c3bf4971d931a8aef22130fb8976bd9e83f534038e3c4e8421311520cb5d
"Chelsea floated to a fracky position. Is this good, bad, or neither?",2,ddaaf85b6ad92e5bd899125be0ee1d1e475cef85f10f7c86eb80b3e666aa2d27b9930efbf239779906809e3b49e9c42c65a28830cce2f7034e42c039095ac370
"Chelsea floated to a fracky position. Is this good, bad, or neither?",7,10087c913fe11e55fc88d155e4ebd206e92683386f737d2692498f286bbc341b8c70905eba24f353d4d2ec51c106a6fb85ecc546dcd7a743dcc69a3ce6ad75a8
"Chelsea floated to a fracky position. Is this good, bad, or neither?",4,0c722c136e468896becb05136899b1cdefed4cbdf4d69fb30cf881aee9a6edbb940d1fa3eb056b1a7833746d18b72dc94dc05c48d1e303e365d93c4ccb192e9a
"Chelsea floated to a fracky position. Is this good, bad, or neither?",4,247d016ad1965e185b284a032af50657ede03f4f6dfc65f402943ca2d27268dbc47a7ee39ad2eed9b24b64110dc50e8dd10ca6597e88d493637c358a9ba6470b
"Chelsea floated to a fracky position. Is this good, bad, or neither?",1,949e348794c3e18581f7b55ecef851e605235f7c9cafa5c3b4d3e91106a8ea5851849ec1edc9cd0b8dbea5b628ab5f49181d508855ed809569304963bc219caa
"Chelsea floated to a fracky position. Is this good, bad, or neither?",2,609868e2cf6de58a506a6731afe55c53d93510e3a34e58705479846aa7ccef2469a0081dc7ad92826b214afccaa96b3202ca07a32e7d6afd795c5776ef5511be
"Chelsea floated to a fracky position. Is this good, bad, or neither?",2,b3397abe1040f5ecae7bbd9b757e94e7e2be75658c0b433f57e5328769bec99b9ec22f5705fcbb077fe94e1733507126b5e8a11297b7d1020710a71843315df8
"Chelsea floated to a fracky position. Is this good, bad, or neither?",2,08ea6ea397537c84ac209f08bf3bec2c0ff500e94266cd17fa45d303b288126de192d25b7f3331a02fdcad8a68ce682fafad99f95ec45259d05ed65d6cd3505e
"Chelsea floated to a fracky position. Is this good, bad, or neither?",2,aeaead0bad2cd8cd8e00067df1d0ddd61b9ba6afec23c08f5c84f413ad2e263545b447c45633570fb4f2c9b3d3be895bc1e474eb157f9f9b4ac62955a36370ef
"Chelsea floated to a fracky position. Is this good, bad, or neither?",4,c4ed94657e69e8d0ab2fc62ae827e33b39befc4999fffa6f5fd6cc66b82427202a7aa870b5327b553f62a9c69474930cded1869d86d079f9aed5650135c1c560
"Chelsea floated to a fracky position. Is this good, bad, or neither?",2,305f2f29687fda8e291e598686a4a089cc57c27d26fc2dea3e28544183df6fdd4ce792399dcac730c7aa7109f82a09aace9c895bf9596d257e113393be774056
"Chelsea floated to a fracky position. Is this good, bad, or neither?",7,5bae64f7def002a461f2add97810b730af2f7c6ba0e1207f338656583c4bd4949ba779afd8cb16d3807192ae5c2b39c669822b0ffda8ba799435261f2cc9d4b2
"Chelsea floated to a fracky position. Is this good, bad, or neither?",6,fb3ee4e72eb582b2b2920acd3ac5a4ed00149c2560bf0255b9bc8237d80cbadd7b353ced6ab5662f69dfe00d362575b7da94144cd2374866a682e39b17cc3c0d
"Chelsea floated to a fracky position. Is this good, bad, or neither?",6,2e08ea7a396b5dc2fc6ff518b56da9298cfd603a2f489e5145c092eb9870a320d2bfa8fd161fe5975a370e19055991d826fd24dea216f722fe25dbbf75088cd3
"Chelsea floated to a fracky position. Is this good, bad, or neither?",6,6d50361d5f96d1ba2740da0b925df330fcfe8df87443087e5729e23865893d40b364b06ab9bdb78e3f647937cc981031d819f018e5660c404bcae8588a48755d
