"Robert broke the gamp into ginks. Is this good, bad, or neither?",2,0381921c0631acfd9d64e7a0c0ec59679378e425eb25290841e74ee4ecb6bb24a4745803c134c42011f5a4590f48190ac36154bc240502f521fc0593e22fd8a2
"Robert broke the gamp into ginks. Is this good, bad, or neither?",1,5d818587500e31ddd24f674f0d96e8036b1fbbdeff8f12716de7cf436031070adc160ac58c2058f70b7756b9758d4cc6c60cd86cb5fbac5b08e94434f347d5fc
"Robert broke the gamp into ginks. Is this good, bad, or neither?",2,720bea532db6ed90a7bd855c056e2ccc32b0f2fe90eb490aa4d644afcc89620fb5f7c3bf4971d931a8aef22130fb8976bd9e83f534038e3c4e8421311520cb5d
"Robert broke the gamp into ginks. Is this good, bad, or neither?",0,c5fd9cfb80da8eeedda47b99cd536cef1dc23bacba71c65feb38fab52a1a667e2ef0b340dbb344b26f19e5fb98c9e52383735dd3ff2f7e7f0a0cc524a9b8bf2e
"Robert broke the gamp into ginks. Is this good, bad, or neither?",1,ddaaf85b6ad92e5bd899125be0ee1d1e475cef85f10f7c86eb80b3e666aa2d27b9930efbf239779906809e3b49e9c42c65a28830cce2f7034e42c039095ac370
"Robert broke the gamp into ginks. Is this good, bad, or neither?",1,8bbdd4b7da1f9d8297c04f175d21d6afdaa72eb55a954a5c04cfec77bd44caf4fb146a47105503e9da66c8a5ce78c99e363e8dc8d6a39280e5a0cf80b6b23e11
"Robert broke the gamp into ginks. Is this good, bad, or neither?",3,969c10ebeabd16e44f8c30732427090548de08987b152651e219ff4cf2b6197eb5c5c46d8ed1c07fd3cbb06a74d94261b3d4c0a308e2adfa2c0647fbaefa372a
"Robert broke the gamp into ginks. Is this good, bad, or neither?",4,247d016ad1965e185b284a032af50657ede03f4f6dfc65f402943ca2d27268dbc47a7ee39ad2eed9b24b64110dc50e8dd10ca6597e88d493637c358a9ba6470b
"Robert broke the gamp into ginks. Is this good, bad, or neither?",2,a01a1f3c8e10a8484861703392f91e9f922640fdf3ada7448e2c1242a645cebcb3584a727c554e0f530067b9154e67f11d62757a51699e9b9fc7950472c78467
"Robert broke the gamp into ginks. Is this good, bad, or neither?",1,675a6154d38e7981c932127e219f374c1a8880011eab4c932106ac51314fb2868ba8fd7264f3bb40c5a96272dc019e5c9cf6c60011e9e9a04b73042a43219af2
"Robert broke the gamp into ginks. Is this good, bad, or neither?",4,08ea6ea397537c84ac209f08bf3bec2c0ff500e94266cd17fa45d303b288126de192d25b7f3331a02fdcad8a68ce682fafad99f95ec45259d05ed65d6cd3505e
"Robert broke the gamp into ginks. Is this good, bad, or neither?",2,aeaead0bad2cd8cd8e00067df1d0ddd61b9ba6afec23c08f5c84f413ad2e263545b447c45633570fb4f2c9b3d3be895bc1e474eb157f9f9b4ac62955a36370ef
"Robert broke the gamp into ginks. Is this good, bad, or neither?",4,305f2f29687fda8e291e598686a4a089cc57c27d26fc2dea3e28544183df6fdd4ce792399dcac730c7aa7109f82a09aace9c895bf9596d257e113393be774056
"Robert broke the gamp into ginks. Is this good, bad, or neither?",4,19cc5fc01bb05dd5741267b3f22117caba5478d8632a2fd54a3b51c3f3234e31711e85a3987af48026f5335e9e376f74c48e52bb2fe786b5955aa195b15b19d6
"Robert broke the gamp into ginks. Is this good, bad, or neither?",1,5ed859beff22cb7346bbd1bb520b4e40c6fd44610478d66cd057f78c274bfe00e0cfd791b7f2e25ec9b478d601bfa4906bcd9751e895cada9d7ddb10a781a789
"Robert broke the gamp into ginks. Is this good, bad, or neither?",1,34734f181a6d0f6f1adaeab93f12885a5502ad61026b9ed89cbc4b5edde06b6c4a39e6bab3e35dd25dbc50ea945830d22220b8cc32a10aa14462d8b03177b6e7
"Robert broke the gamp into ginks. Is this good, bad, or neither?",2,8085ae1b65659868a3c14b7fd665e65602299d5cd0aa39d6efb269aece845856fd28a972270fc73dc1642693776b160f08bc5063ca8e94a1ec0094f306fad840
"Robert broke the gamp into ginks. Is this good, bad, or neither?",1,7f45982c84b0e62975c836530ebc5c20ed43e2aaac4d7f1c99d59dac30103bb0a2c7f0c3eb3c011244e3b29b96036757199959b8d8fbcc5cf995fee8253a05f5
"Robert broke the gamp into ginks. Is this good, bad, or neither?",2,d52d0f79310a4a1585de2ba281cae55d8bf4f66ee89a3b0afe5bec86ac64f3fbcf4ac04acc90a017d6f66a1259e7c33c370048fe26771c06104f79c7f0e7daea
"Robert broke the gamp into ginks. Is this good, bad, or neither?",1,fb3ee4e72eb582b2b2920acd3ac5a4ed00149c2560bf0255b9bc8237d80cbadd7b353ced6ab5662f69dfe00d362575b7da94144cd2374866a682e39b17cc3c0d
"Robert broke the gamp into ginks. Is this good, bad, or neither?",2,948b1546ab23598285d2f77f39e4276a3a82e5d340295aa6760c9fc6f36b7437bb3a495a3ba88d447f3fe661e3d3dc2ca10e32b8b5eb3feb6619e793bc050ef2
"Robert broke the gamp into ginks. Is this good, bad, or neither?",2,2cb44008208d14c82cf8868fc09b67e721d51c1b25835a53ce5c75d4338141e971e3aad3228e19b641ecd4278d4576dc2f1af7702b6c5731e30d7d54f5a829a5
"Robert broke the gamp into ginks. Is this good, bad, or neither?",1,28195e505193242d636c8cf88927e3353b64c1e9365b6d4fe6834ae467adb58cc661083c465cf575a9d4e6e6ea9daf2f4e5b8eaf892be186be05aa6b9c0519ec
"Robert broke the gamp into ginks. Is this good, bad, or neither?",1,832b19ea4eb64ad4f6298c0933ec2f6ba994974bcbbda62a7a0088a00f6cd96bd27aca96187875bf07fe2c868f7cd9e74b39598b91c261fd45079e5150637de4
"Robert broke the gamp into ginks. Is this good, bad, or neither?",4,050d3354591569cb7c302cb71e354fb23344a0e94f1750835adf74ba4c3a058dfe2731e2dd38d8d2f4cb80955424093ff619aa731c9d051ded0eee37a2630400
"Robert broke the gamp into ginks. Is this good, bad, or neither?",1,caff777a2303da77340521ef83945a07684b2612ccb93a9fe1e9e6b34d4e52177c4499982e59c5f493664f3123c4c9738867850e7445f494ca6c22600eb6e56a
"Robert broke the gamp into ginks. Is this good, bad, or neither?",4,0a980ec8dce9200ab13cc3756bf978141e01f04474a87189dc66346ede7928491bc66cfb050768ae1729da9238762fac16f1cbdf334dda1bd760920e08ab2fd0
"Robert broke the gamp into ginks. Is this good, bad, or neither?",1,ecd12f5c7840150b6bf31f41cfe805fbb7f1e24d87bc7f9a7e4a26034d172ee611537c7e49e1951d513a1b63598bec45f4cf8d3fd4936ebe2747d7e8018937e5
"Robert broke the gamp into ginks. Is this good, bad, or neither?",4,28195e505193242d636c8cf88927e3353b64c1e9365b6d4fe6834ae467adb58cc661083c465cf575a9d4e6e6ea9daf2f4e5b8eaf892be186be05aa6b9c0519ec
"Robert broke the gamp into ginks. Is this good, bad, or neither?",4,7b021613f177c945df688daa349600384c1cd6f411d5c5c4fee8aba46cab2816e9adaedb44acae3810cdf46a0b93f8a0fee7b55d8ce86a71451a693e47a71fec
"Robert broke the gamp into ginks. Is this good, bad, or neither?",4,6b6f0d27d2513222e8d59af4f5da4963170d436e9c188740efd090e6bdb6a2e82ddd2badd4d51c31f69fc2d15c8012adbf1165142438f9e2d07d5a10228e95b0
"Robert broke the gamp into ginks. Is this good, bad, or neither?",4,93cf08087ec1095d11b03343459f70c63dd918f151ecc3f9dc97c76e5a47e627eece18f9cd635b6da61f39dc2fe124d83526713f2a3295d3c3d0174a6ebe4000
"Robert broke the gamp into ginks. Is this good, bad, or neither?",4,d58527ee038d24c4daed6d842fd85e5d5dd7065edc9df22198558c98d9bd121e0c0c2599f391dc9ad4b9831e4ce1e5e94b36558c0cf3e52d88c9a3687ee93516
"Robert broke the gamp into ginks. Is this good, bad, or neither?",1,1d6e25166a8b6d9220341b9777943f8f9207f6570ab6c8945b52785b99a53dd40db80a3523ca48d4ad74c2c963ef178eac19a5fa416cfaad04b8d26c00a35ca2
"Robert broke the gamp into ginks. Is this good, bad, or neither?",1,41628a0f8849c48d09c00e99c4a99cae8b10c5d31c76fc5043a816bea93afdb63771aa227c3fc1235d69b6c482ed4c1972716b6868be483c3ecaba9ca7efddc1
"Robert broke the gamp into ginks. Is this good, bad, or neither?",1,a0c2bf77506ceec29061fe07d5fdab303f3e7651dd1f1ced94313ff3f82650f44730b0b9e0216688a148161413bafd0a860a6e1c3f76238aceb75be1d6bf6034
"Robert broke the gamp into ginks. Is this good, bad, or neither?",4,2affe66e78ed0fdb8662d48e9de768393c88ec5e667c71326bc9ac141e2742f64028489e0a9dbbd820ca7d777483a05f81c195e5a46d9c595e8003584f94b06f
"Robert broke the gamp into ginks. Is this good, bad, or neither?",0,d8d36b556cb88089c396a1aa18d3b2fcc76975bf65b7c36c6bfdde6fb04622148a36cd6ddaf29b2df5b5d98328fadebc0d4a61203ea283c2a49ea9dc69cc2a86
"Robert broke the gamp into ginks. Is this good, bad, or neither?",2,310ecd1f768bb6b808211c2ba69dd45f30d0a6cf6102cfedebb1e43e2b8e0b815c2a16b92fadd9556f3a20e29e8ea30c2c5e378e47b0705dd034ca4ee338ce60
"Robert broke the gamp into ginks. Is this good, bad, or neither?",2,8640392588488bc181789a5a977143fd433976f0637e6d80d6a903f026578ca7ba13b21a9c4ae1904cef099692306563edfc0f078eadc134e6ea4a0ca6f5e97b
"Robert broke the gamp into ginks. Is this good, bad, or neither?",6,8e602ad63048efcb745c43689fdd11c5963e87afe4f0e483fc6e63f878e4bfc35f1fe2bf006e007dc84304de9516c1cd6464275a341c2c3f4aa12d126eaa86d6
"Robert broke the gamp into ginks. Is this good, bad, or neither?",1,7d9b8ba455fda802a90a434bdc6f9606e7aa53cf0b22f36f16ead082ed57db04273e16b87cf6da80a229f88dd89aea65f3846cb5189a244c1ec2bcfd86a219b8
"Robert broke the gamp into ginks. Is this good, bad, or neither?",4,e816c25d00cf8e91122f1f3b229f41f298ddc4b6b47fcb5da8174bd83a0554271a821e737026ea6a344d4c078e1b3f87611f069ea877657588a824cf10970207
"Robert broke the gamp into ginks. Is this good, bad, or neither?",4,1e7019267a5b9fb0c239414b1e225193cc46ec9d6c9a84692122a153d5af4e4bec36f2ece04c27828e7c811956744c4cdaf9b6e007fe5418441f79557bd2012a
"Robert broke the gamp into ginks. Is this good, bad, or neither?",1,9d8ddb67f662349a7f7a7c5a32fee73c457fd70d135ae4be6f17a68418102d35693b26415c8fd8c7bd26a5b5032587ac08aefd055994f62fcb3e9a44d5cb51b0
"Robert broke the gamp into ginks. Is this good, bad, or neither?",1,2025068238268e1779a670f1019089d23dfd0843e8c13d47fb57d427c51cba12450779bcb1fe2ee8e8ca84de660b4aec6893ea28a6dcd2d003c5eb45bb12508a
"Robert broke the gamp into ginks. Is this good, bad, or neither?",0,38c131a7646a062573780a5f22be2eadc950a65085da9224a6dc2ca2a6452d71f3602389b7728a427ec7d5ddfcb8a8d3df0723cff6fca20bf97a20ea5fd8d0f0
"Robert broke the gamp into ginks. Is this good, bad, or neither?",4,7ef69c7959991ab508cb47aab69fafb20bbcfbe05409129b582b4705cf788e80e6ed3a1e39ab0a0c65b310df4b282fe305ea3156b9381bdc75eaeafe16b9b256
"Robert broke the gamp into ginks. Is this good, bad, or neither?",1,a7dc9d4f184ea86b7b6e6869b9a53887f9af455a7a9b3f701cc20ec18e11435fdb90d9c3eed921996792de6c1628b7a27219b25f044ffe99d725092cbc88af6e
"Robert broke the gamp into ginks. Is this good, bad, or neither?",1,ac3b1b10808f1753ec2a45dbfd111934fc15f5c99e8d54caa1b9fa0399c450a1b4489cb0037029cbf93008625f0c076357a1b8e164d2f400a000fbd6062f7bad
"Robert broke the gamp into ginks. Is this good, bad, or neither?",1,a3fe48d172465fbb24a650eeb520bd4c4631496b6d9d7a38bf192e1566aa97e662f2b2e76290bf0e0a6c2a90ffb291b31ff1e75bb29714c834646a850ace5bf6
"Robert broke the gamp into ginks. Is this good, bad, or neither?",3,ea6da72689094cbd85d6dbc3a7596650cf76b3df3f1f1e609505834ec25cb0e250badd8bc842656a4fe30773408e462f0c3711693431b9f9625b76911b80dfdc
"Robert broke the gamp into ginks. Is this good, bad, or neither?",3,ea6da72689094cbd85d6dbc3a7596650cf76b3df3f1f1e609505834ec25cb0e250badd8bc842656a4fe30773408e462f0c3711693431b9f9625b76911b80dfdc
"Robert broke the gamp into ginks. Is this good, bad, or neither?",2,f1216ca2ad898040ea88ddd6a97f17ee263b621a486f0c15ab17ed0be6226453f92df705140ef04f12cd5f6da29258a1799975ab47d3421908df695b7db6fefa
"Robert broke the gamp into ginks. Is this good, bad, or neither?",4,f152fccfa1b4275911c3d51209757f8f47524d9e0dac927fa3cf085a412f2995c54db4378764d73c2aeccf796c683eda37b79db7a22b6c9fb80818fa2a0358f7
"Robert broke the gamp into ginks. Is this good, bad, or neither?",2,af2a334d706c1b69573a219943b69d932d7ab19af138b53be67e9aecd99fabaeb2a49b44537009c3139302d498eb4b5f83a8e2bb09d9b9cfb8869bd630c6c757
"Robert broke the gamp into ginks. Is this good, bad, or neither?",2,512926c32568782467c043d9acacef7e1297fe10e47106d36f90ed38f8036a40a0f8a10a29ae7a31a0a93e5ad4fed44921abf919134ac7a8d096c8022d200715
"Robert broke the gamp into ginks. Is this good, bad, or neither?",0,e4fc45b9c74b22b79895efb0fa2d7146ca4772298f170c9eb45d23458aba7e873632ccc3803d40c04fa01aa34d6fcf95414efecf7035d9a656e4a5d78000ea1c
"Robert broke the gamp into ginks. Is this good, bad, or neither?",6,19277661313b5118bd1b2e29039b47276f1f8235917f3217bf95498030989874a1ca10bb943fa21faf787d793095c0d4119e136013ed4a9be167f67c2a6d11d3
"Robert broke the gamp into ginks. Is this good, bad, or neither?",4,5b7ceefc0e2dd6c723feb26877b9d0582984ba27b4a15335b3850b7abe49c2b3330ad3f86b5f2c63e25a82ccd0b42c2d5df899162a3a9bf283de8c9e8b871927
"Robert broke the gamp into ginks. Is this good, bad, or neither?",1,376392bcee96369de3a95db30bc387356ea06e45fa42a645d0314c9e000611896832166f6a6ed23f1bf7330e402c8f4b815beb10b82aaa98f8f3bd3889307b0c
"Robert broke the gamp into ginks. Is this good, bad, or neither?",4,654abee2a34ea238dd9860279c2e4f4ca17d0745f80e3a567f1be1f8bc80565588c6bc0d387e4705bac6ad4b8113565bc4647802a60f9ec02d1e658cb7bd2331
"Robert broke the gamp into ginks. Is this good, bad, or neither?",1,868fd3ba2ef67db192746e40d1c8eb19999054d23346415bc18c6b6ed9351a171915fffbfebee929b615f8feb6ef228e3db55737500fb292d0f36852fd4b4d61
"Robert broke the gamp into ginks. Is this good, bad, or neither?",3,5f12e05c2e694ca4d0d50f5c90ffefa31fc5c326c5f6352ab6f2d69efda09898d7fa2e899476fb98164baf5559806eee7fc6f92a8cd7641d9b208f848e51b143
"Robert broke the gamp into ginks. Is this good, bad, or neither?",3,5f12e05c2e694ca4d0d50f5c90ffefa31fc5c326c5f6352ab6f2d69efda09898d7fa2e899476fb98164baf5559806eee7fc6f92a8cd7641d9b208f848e51b143
"Robert broke the gamp into ginks. Is this good, bad, or neither?",3,5f12e05c2e694ca4d0d50f5c90ffefa31fc5c326c5f6352ab6f2d69efda09898d7fa2e899476fb98164baf5559806eee7fc6f92a8cd7641d9b208f848e51b143
"Robert broke the gamp into ginks. Is this good, bad, or neither?",3,5f12e05c2e694ca4d0d50f5c90ffefa31fc5c326c5f6352ab6f2d69efda09898d7fa2e899476fb98164baf5559806eee7fc6f92a8cd7641d9b208f848e51b143
"Robert broke the gamp into ginks. Is this good, bad, or neither?",3,5f12e05c2e694ca4d0d50f5c90ffefa31fc5c326c5f6352ab6f2d69efda09898d7fa2e899476fb98164baf5559806eee7fc6f92a8cd7641d9b208f848e51b143
"Robert broke the gamp into ginks. Is this good, bad, or neither?",3,5f12e05c2e694ca4d0d50f5c90ffefa31fc5c326c5f6352ab6f2d69efda09898d7fa2e899476fb98164baf5559806eee7fc6f92a8cd7641d9b208f848e51b143
"Robert broke the gamp into ginks. Is this good, bad, or neither?",3,5f12e05c2e694ca4d0d50f5c90ffefa31fc5c326c5f6352ab6f2d69efda09898d7fa2e899476fb98164baf5559806eee7fc6f92a8cd7641d9b208f848e51b143
"Robert broke the gamp into ginks. Is this good, bad, or neither?",3,5f12e05c2e694ca4d0d50f5c90ffefa31fc5c326c5f6352ab6f2d69efda09898d7fa2e899476fb98164baf5559806eee7fc6f92a8cd7641d9b208f848e51b143
"Robert broke the gamp into ginks. Is this good, bad, or neither?",2,d8df607040709fef5fb20aa491224fa16acfc168677e32ca2d49bcfb2a46636d9689ca87bb80c6414053f1a4e7f6a603dea0eab18b40e08c1654ec0212613b5e
"Robert broke the gamp into ginks. Is this good, bad, or neither?",1,edafaa20bdee5e09980a536cbc74dc5730f6284e75f4e91230afa5b299686fbd398998b883f52d14cf0b83ffceb36eaf0dcb0b5024c02f654951cdfd7a4a864c
"Robert broke the gamp into ginks. Is this good, bad, or neither?",1,3ce1c91573b49e76ae6d43c669a24733296314c25baffa84d6693179025159771a3c7b297e83491615fff176965dd211be78675095cfe008040fcf254df14810
"Robert broke the gamp into ginks. Is this good, bad, or neither?",1,0c1e43ef5b2f9488f1f2f5d3bb698140bc0a814ccd0552a4d3b9bc7f4899fbd7f112dda7c2abe51111db2cd9354f7ed05e8023ddc9513e6797cd881f2b3a9c2c
"Robert broke the gamp into ginks. Is this good, bad, or neither?",4,4530f78d8382ee02c9c8ae3934a5fefdfdbaf756686e419775a6f0c35e7f839f97da7875b30480747e3b1bc99ed417e5f80748539abe4441263b2bc4bfaa1847
"Robert broke the gamp into ginks. Is this good, bad, or neither?",1,819161aa2e764fd74ba60f02978d28b130e488d1f6ed613c48db286b68fe06ef24eeeb946d2af813bac598640b43342cd2b7a142eb31a6fff239faaae995f9f7
"Robert broke the gamp into ginks. Is this good, bad, or neither?",2,f74a189a696ebb5d3833d4b89b0f94733b24c099235b93e38989b213817f3f6c519b8f67d99e68d2aae2d8cec42afe0dc9936b8765108818964591269daa19f6
"Robert broke the gamp into ginks. Is this good, bad, or neither?",4,b4a89e063c479339463fe8a3755a45afdb72640d55ae6f8499866bdce35aea79532c96c386d3e305abf960bd172306159148a5dedc70fc0c191353ec94176ac4
"Robert broke the gamp into ginks. Is this good, bad, or neither?",4,3ce1c91573b49e76ae6d43c669a24733296314c25baffa84d6693179025159771a3c7b297e83491615fff176965dd211be78675095cfe008040fcf254df14810
"Robert broke the gamp into ginks. Is this good, bad, or neither?",2,0ca87715be5df199ebada6867f7e0e75295c7ededa0fbd84664b9240578d42457d55abd66e8d40f24cae8c5c5c0a506eae9b839711a908d418039a14a0ca3135
"Robert broke the gamp into ginks. Is this good, bad, or neither?",7,0ca87715be5df199ebada6867f7e0e75295c7ededa0fbd84664b9240578d42457d55abd66e8d40f24cae8c5c5c0a506eae9b839711a908d418039a14a0ca3135
"Robert broke the gamp into ginks. Is this good, bad, or neither?",4,8f60f5dea6ad587f43b732c63e387f9fcbea76e6494f9b5e318fdc6d5394041806d24d012506fb85756489da6a59024d8bea377bdd85b2ea7de4a0a3eaba2cfa
"Robert broke the gamp into ginks. Is this good, bad, or neither?",2,83adbded492091fbf8a84778a7565c7a4726c3216056b2d321703700b26e9259c50ef6329cdecefc9fac7a27f222bd12dfead2a4ce17988cf176d23a547ebb54
"Robert broke the gamp into ginks. Is this good, bad, or neither?",2,0381921c0631acfd9d64e7a0c0ec59679378e425eb25290841e74ee4ecb6bb24a4745803c134c42011f5a4590f48190ac36154bc240502f521fc0593e22fd8a2
"Robert broke the gamp into ginks. Is this good, bad, or neither?",1,5d818587500e31ddd24f674f0d96e8036b1fbbdeff8f12716de7cf436031070adc160ac58c2058f70b7756b9758d4cc6c60cd86cb5fbac5b08e94434f347d5fc
"Robert broke the gamp into ginks. Is this good, bad, or neither?",2,720bea532db6ed90a7bd855c056e2ccc32b0f2fe90eb490aa4d644afcc89620fb5f7c3bf4971d931a8aef22130fb8976bd9e83f534038e3c4e8421311520cb5d
"Robert broke the gamp into ginks. Is this good, bad, or neither?",0,c5fd9cfb80da8eeedda47b99cd536cef1dc23bacba71c65feb38fab52a1a667e2ef0b340dbb344b26f19e5fb98c9e52383735dd3ff2f7e7f0a0cc524a9b8bf2e
"Robert broke the gamp into ginks. Is this good, bad, or neither?",1,ddaaf85b6ad92e5bd899125be0ee1d1e475cef85f10f7c86eb80b3e666aa2d27b9930efbf239779906809e3b49e9c42c65a28830cce2f7034e42c039095ac370
"Robert broke the gamp into ginks. Is this good, bad, or neither?",1,8bbdd4b7da1f9d8297c04f175d21d6afdaa72eb55a954a5c04cfec77bd44caf4fb146a47105503e9da66c8a5ce78c99e363e8dc8d6a39280e5a0cf80b6b23e11
"Robert broke the gamp into ginks. Is this good, bad, or neither?",3,969c10ebeabd16e44f8c30732427090548de08987b152651e219ff4cf2b6197eb5c5c46d8ed1c07fd3cbb06a74d94261b3d4c0a308e2adfa2c0647fbaefa372a
"Robert broke the gamp into ginks. Is this good, bad, or neither?",4,247d016ad1965e185b284a032af50657ede03f4f6dfc65f402943ca2d27268dbc47a7ee39ad2eed9b24b64110dc50e8dd10ca6597e88d493637c358a9ba6470b
"Robert broke the gamp into ginks. Is this good, bad, or neither?",2,a01a1f3c8e10a8484861703392f91e9f922640fdf3ada7448e2c1242a645cebcb3584a727c554e0f530067b9154e67f11d62757a51699e9b9fc7950472c78467
"Robert broke the gamp into ginks. Is this good, bad, or neither?",1,675a6154d38e7981c932127e219f374c1a8880011eab4c932106ac51314fb2868ba8fd7264f3bb40c5a96272dc019e5c9cf6c60011e9e9a04b73042a43219af2
"Robert broke the gamp into ginks. Is this good, bad, or neither?",4,08ea6ea397537c84ac209f08bf3bec2c0ff500e94266cd17fa45d303b288126de192d25b7f3331a02fdcad8a68ce682fafad99f95ec45259d05ed65d6cd3505e
"Robert broke the gamp into ginks. Is this good, bad, or neither?",2,aeaead0bad2cd8cd8e00067df1d0ddd61b9ba6afec23c08f5c84f413ad2e263545b447c45633570fb4f2c9b3d3be895bc1e474eb157f9f9b4ac62955a36370ef
"Robert broke the gamp into ginks. Is this good, bad, or neither?",4,305f2f29687fda8e291e598686a4a089cc57c27d26fc2dea3e28544183df6fdd4ce792399dcac730c7aa7109f82a09aace9c895bf9596d257e113393be774056
"Robert broke the gamp into ginks. Is this good, bad, or neither?",4,19cc5fc01bb05dd5741267b3f22117caba5478d8632a2fd54a3b51c3f3234e31711e85a3987af48026f5335e9e376f74c48e52bb2fe786b5955aa195b15b19d6
"Robert broke the gamp into ginks. Is this good, bad, or neither?",1,5ed859beff22cb7346bbd1bb520b4e40c6fd44610478d66cd057f78c274bfe00e0cfd791b7f2e25ec9b478d601bfa4906bcd9751e895cada9d7ddb10a781a789
"Robert broke the gamp into ginks. Is this good, bad, or neither?",1,34734f181a6d0f6f1adaeab93f12885a5502ad61026b9ed89cbc4b5edde06b6c4a39e6bab3e35dd25dbc50ea945830d22220b8cc32a10aa14462d8b03177b6e7
