"The zog entertained. Is this good, bad, or neither?",0,0381921c0631acfd9d64e7a0c0ec59679378e425eb25290841e74ee4ecb6bb24a4745803c134c42011f5a4590f48190ac36154bc240502f521fc0593e22fd8a2
"The zog entertained. Is this good, bad, or neither?",0,5d818587500e31ddd24f674f0d96e8036b1fbbdeff8f12716de7cf436031070adc160ac58c2058f70b7756b9758d4cc6c60cd86cb5fbac5b08e94434f347d5fc
"The zog entertained. Is this good, bad, or neither?",5,4c9782b71dd33f7c3b7a63c356316be484f5e4e9811fcf58e2ce14959db47117a2098cc6f5d8f196598fdc602d00856037a9307e11d273affdf762c00a44d3f1
"The zog entertained. Is this good, bad, or neither?",0,720bea532db6ed90a7bd855c056e2ccc32b0f2fe90eb490aa4d644afcc89620fb5f7c3bf4971d931a8aef22130fb8976bd9e83f534038e3c4e8421311520cb5d
"The zog entertained. Is this good, bad, or neither?",0,ddaaf85b6ad92e5bd899125be0ee1d1e475cef85f10f7c86eb80b3e666aa2d27b9930efbf239779906809e3b49e9c42c65a28830cce2f7034e42c039095ac370
"The zog entertained. Is this good, bad, or neither?",5,6f5d3137f68645162d6754029499a9ec7ae5684f56847c76e1aed3915b42b3ec8caf636fecf4f90a32b0151ee5f9c6a1d6452b80a69f77275d541c9cea4cbff1
"The zog entertained. Is this good, bad, or neither?",0,247d016ad1965e185b284a032af50657ede03f4f6dfc65f402943ca2d27268dbc47a7ee39ad2eed9b24b64110dc50e8dd10ca6597e88d493637c358a9ba6470b
"The zog entertained. Is this good, bad, or neither?",4,2bddce971fb9dfadb0e50fcd15f5da42f2ef8c476a4212bde20a28dfb3b51b03b619ae1daafc7905fad410c42d69ea64cce4d2e705a9f283a1f36221d9537557
"The zog entertained. Is this good, bad, or neither?",0,609868e2cf6de58a506a6731afe55c53d93510e3a34e58705479846aa7ccef2469a0081dc7ad92826b214afccaa96b3202ca07a32e7d6afd795c5776ef5511be
"The zog entertained. Is this good, bad, or neither?",0,08ea6ea397537c84ac209f08bf3bec2c0ff500e94266cd17fa45d303b288126de192d25b7f3331a02fdcad8a68ce682fafad99f95ec45259d05ed65d6cd3505e
"The zog entertained. Is this good, bad, or neither?",0,aeaead0bad2cd8cd8e00067df1d0ddd61b9ba6afec23c08f5c84f413ad2e263545b447c45633570fb4f2c9b3d3be895bc1e474eb157f9f9b4ac62955a36370ef
"The zog entertained. Is this good, bad, or neither?",0,6dc3c1c39144956bbdb33c6609727bdf3eea1eea4f2678cd0c4d51a66736f99578cece24104a1c227adbc63f28b7098c858a3b41ebc023af51f6ef606bb708db
"The zog entertained. Is this good, bad, or neither?",4,cb8991044cbb05e86e831fee35582ba57617a4066f60863f3193de184b7dc0139190e72d6756b7dcfdf12b0129a8c57332dddd5ef5dafc903e0ab891e8882624
"The zog entertained. Is this good, bad, or neither?",0,305f2f29687fda8e291e598686a4a089cc57c27d26fc2dea3e28544183df6fdd4ce792399dcac730c7aa7109f82a09aace9c895bf9596d257e113393be774056
"The zog entertained. Is this good, bad, or neither?",0,ea4dbd7f03bb4a333233577dd57fdd1613870a381423bc653611b4e99d179ee38f63f2083ff5b8ca8901f3caea1bf131911228b2d4aed2ec891ff0b260c60a63
"The zog entertained. Is this good, bad, or neither?",0,a04441347c7a31798c34e1a297af024142381cfd06d1679184d6b0cf7ea8eda83518c819aaa67808a7238790be4a54c02324be8e270298ac207e0fa103ba2135
"The zog entertained. Is this good, bad, or neither?",0,7f45982c84b0e62975c836530ebc5c20ed43e2aaac4d7f1c99d59dac30103bb0a2c7f0c3eb3c011244e3b29b96036757199959b8d8fbcc5cf995fee8253a05f5
"The zog entertained. Is this good, bad, or neither?",4,b179bf87e97d0aad06140401a354f970d9f9f908a7222e8a20115fd3162f35935143e526aeca64de034f817f716e847c5129f5ea83ccd1c0cc16f8fca2515b7d
"The zog entertained. Is this good, bad, or neither?",0,fb3ee4e72eb582b2b2920acd3ac5a4ed00149c2560bf0255b9bc8237d80cbadd7b353ced6ab5662f69dfe00d362575b7da94144cd2374866a682e39b17cc3c0d
"The zog entertained. Is this good, bad, or neither?",0,28195e505193242d636c8cf88927e3353b64c1e9365b6d4fe6834ae467adb58cc661083c465cf575a9d4e6e6ea9daf2f4e5b8eaf892be186be05aa6b9c0519ec
"The zog entertained. Is this good, bad, or neither?",0,caff777a2303da77340521ef83945a07684b2612ccb93a9fe1e9e6b34d4e52177c4499982e59c5f493664f3123c4c9738867850e7445f494ca6c22600eb6e56a
"The zog entertained. Is this good, bad, or neither?",5,2cbebb6c7482f05a91d4b2097fbb4ef889d97402fa993b5cfe116d6a955794727c611cd785559723bc8e0c5e96de7ef5e4a0b301d0c73b6b9bbce647ff7d82d4
"The zog entertained. Is this good, bad, or neither?",0,c84e749a7cef7cce34bfddb7d3d8954d5a964b4dda3306e6514f98d50c3f2ef7dfc345e229bd8acb8b64369b679768741976de5551cd081d4df1f8a09b0b89fb
"The zog entertained. Is this good, bad, or neither?",0,6b6f0d27d2513222e8d59af4f5da4963170d436e9c188740efd090e6bdb6a2e82ddd2badd4d51c31f69fc2d15c8012adbf1165142438f9e2d07d5a10228e95b0
"The zog entertained. Is this good, bad, or neither?",2,fb3a7ec160cab143dc007d01ba7360ae4fe10432a3f02cd9f109c44097d5769652194fc12a8841e31ec68e63b08b47507dd4793e804abbb6d789d1c14c953240
"The zog entertained. Is this good, bad, or neither?",0,0d19c982875c6e1039857c9e12d569d24a88f16afb8274468f683859c7fb1e8f625bea82d85acacf66faaeda9f4f894656a3ef87fab4ef398b355a0624ab70c2
"The zog entertained. Is this good, bad, or neither?",0,0ce88489220a88a55bea7fba4b796a5a29ac0b3c6b841ab326b3bf673d2a89069af712d7a45915a47434c974b7a48dd309d2bdc3d46ba4886585d315b0afd48d
"The zog entertained. Is this good, bad, or neither?",0,41628a0f8849c48d09c00e99c4a99cae8b10c5d31c76fc5043a816bea93afdb63771aa227c3fc1235d69b6c482ed4c1972716b6868be483c3ecaba9ca7efddc1
"The zog entertained. Is this good, bad, or neither?",2,2affe66e78ed0fdb8662d48e9de768393c88ec5e667c71326bc9ac141e2742f64028489e0a9dbbd820ca7d777483a05f81c195e5a46d9c595e8003584f94b06f
"The zog entertained. Is this good, bad, or neither?",0,819308386a595fdf2e7fee072f96383a8b6401282510662eaf379f6a21537740d7d77947a0135b2801650ee337e4bb810bbf97978fafe8ee6a8adfdd187cb77b
"The zog entertained. Is this good, bad, or neither?",0,9bb6c0b94423aad737d1a6cb9bdd473cc961388292066d67e3b7e45b17a5ca1dcffbe6e28bc7674ec6f7ef26e6ee32f6838b256ecdc2c8cce1f8e1379cfa851a
"The zog entertained. Is this good, bad, or neither?",2,0ddcb88c065e5bb7e1afc9bd53240b026d032edf884f6dc3fdb0ee2e584db539b52c8eea95c7301a71b6ab355e7a68e705591e1acbf64a7a7663044677d7f8b9
"The zog entertained. Is this good, bad, or neither?",2,ecd12f5c7840150b6bf31f41cfe805fbb7f1e24d87bc7f9a7e4a26034d172ee611537c7e49e1951d513a1b63598bec45f4cf8d3fd4936ebe2747d7e8018937e5
"The zog entertained. Is this good, bad, or neither?",0,2e08ea7a396b5dc2fc6ff518b56da9298cfd603a2f489e5145c092eb9870a320d2bfa8fd161fe5975a370e19055991d826fd24dea216f722fe25dbbf75088cd3
"The zog entertained. Is this good, bad, or neither?",5,9d8ddb67f662349a7f7a7c5a32fee73c457fd70d135ae4be6f17a68418102d35693b26415c8fd8c7bd26a5b5032587ac08aefd055994f62fcb3e9a44d5cb51b0
"The zog entertained. Is this good, bad, or neither?",0,57a947b4726b316ef3de8125c96372e75e16dce1aa9280a41fe713e4af5e81c427ef0c9f7309dd4e6521a571c229df06f801b07f3d6052cc26e4692df5f2e0b4
"The zog entertained. Is this good, bad, or neither?",0,d03fd8d397cfad2998f59b35fe4b50c99d8593288e43304639e4dd6f84235d3b4deffde0e31dd1b4c8a1bf290b1260f14e9bb710dec3de0987727bd0cec0da36
"The zog entertained. Is this good, bad, or neither?",0,9b2c7999e14c3454c4040c57630dd6dd9ee2554ec359ef309fbdfbc93ef663c89d8a48198c56c7bd2523781745f3782b5a9a2f990acbac42622758d8f239c95c
"The zog entertained. Is this good, bad, or neither?",0,b48d433f0c57d7196bfce5b2f185e3974b1eff8b60bc695c269858daec65c0c6411ca15df0c74b985c75bd0cc874b01cdab3598c356edb77d74c41bdd0815ab2
"The zog entertained. Is this good, bad, or neither?",0,a7dc9d4f184ea86b7b6e6869b9a53887f9af455a7a9b3f701cc20ec18e11435fdb90d9c3eed921996792de6c1628b7a27219b25f044ffe99d725092cbc88af6e
"The zog entertained. Is this good, bad, or neither?",0,ac3b1b10808f1753ec2a45dbfd111934fc15f5c99e8d54caa1b9fa0399c450a1b4489cb0037029cbf93008625f0c076357a1b8e164d2f400a000fbd6062f7bad
"The zog entertained. Is this good, bad, or neither?",0,1745f99a6446aaa8e726b04bba9fe57dc1b5a485e5bb25ee100682230f2a63c0c248ef488c6621a864c7147f47856f99c8feaff16e06194ccf8b9195f2120518
"The zog entertained. Is this good, bad, or neither?",0,ad1326d97150be39c54e291e77d0742b8574db603daa5fed675d73efd780c3e2927bcda79127c867f203c13a3c429cfb8275f4624c00623e9396682bf3b88d60
"The zog entertained. Is this good, bad, or neither?",1,e026cbf1f92ffcd63549ad9958fb5feeaed2d6b545677b809b1cafc3fc96349d27e28ef3da4919854a8b6d9ce320dc40b10f705c361b77a717ca1cc8d70dca1b
"The zog entertained. Is this good, bad, or neither?",0,a3fe48d172465fbb24a650eeb520bd4c4631496b6d9d7a38bf192e1566aa97e662f2b2e76290bf0e0a6c2a90ffb291b31ff1e75bb29714c834646a850ace5bf6
"The zog entertained. Is this good, bad, or neither?",0,ae71f9bdc55da0b8c3750381f7b461c628621bb341f0e02b43848a20de5aa785e174d7beb999f170b8bb7faab1935b89b977d5792d527da83e05755bab3f1c1f
"The zog entertained. Is this good, bad, or neither?",0,e95f446425dc42eb211e11541ce5fbfd041135820bf9834509c58dbec74481ab62d2266bee6d35de61b5cca610ccefe60ecee2b2cdc51f9e2eb1ffa40cdfb591
"The zog entertained. Is this good, bad, or neither?",0,ae1ca6154ed24a84a2ca1c62b29e78d21d925db9e508f78e6008941e749f75f9faffd449959cb148d46042de8117457fb2ce18bbfad55e89dffbcf1811be55a5
"The zog entertained. Is this good, bad, or neither?",0,f152fccfa1b4275911c3d51209757f8f47524d9e0dac927fa3cf085a412f2995c54db4378764d73c2aeccf796c683eda37b79db7a22b6c9fb80818fa2a0358f7
"The zog entertained. Is this good, bad, or neither?",2,25f59b566bfd6c48199f78f2ca8c9e3394ba87dd2b89641de88eadfe68d9f750c0706df1f2c4ec7d3b8a68dc3684d43958937d6d1b9641bd2933ada2425d599f
"The zog entertained. Is this good, bad, or neither?",0,0a10cfbe96898e179a6989823d1b388e63fd11f48fd9bb0f118bf62cd7dfea5dd88a7b1d57cbd9606e10dc7e76ef4a52208822cd8d1992d9cbf67431ac76dda0
"The zog entertained. Is this good, bad, or neither?",0,19277661313b5118bd1b2e29039b47276f1f8235917f3217bf95498030989874a1ca10bb943fa21faf787d793095c0d4119e136013ed4a9be167f67c2a6d11d3
"The zog entertained. Is this good, bad, or neither?",0,b7c365e46dade8b2b452037de44a954fddd55155634366305fefd6e65484b171ef6a125b1ef504f3ae6c2ee036a002793a20db343796cf3e5282499746783754
"The zog entertained. Is this good, bad, or neither?",0,a8c587b500db841a040c834ea7e138d680f58a94067a016d1e34bb029e7a5755a7b629b83510771826624e6ba17f86d951b5c9399cff1af255e887a48cc06c67
"The zog entertained. Is this good, bad, or neither?",0,654abee2a34ea238dd9860279c2e4f4ca17d0745f80e3a567f1be1f8bc80565588c6bc0d387e4705bac6ad4b8113565bc4647802a60f9ec02d1e658cb7bd2331
"The zog entertained. Is this good, bad, or neither?",3,f8d76f43fc7d674672425679f07e8fd53c2c6a3311b617c9811752d8aead6e5aaebd2068cde53f45086da0de3173deca222d3f25cb67dcc535b1b0cb35b28600
"The zog entertained. Is this good, bad, or neither?",3,f8d76f43fc7d674672425679f07e8fd53c2c6a3311b617c9811752d8aead6e5aaebd2068cde53f45086da0de3173deca222d3f25cb67dcc535b1b0cb35b28600
"The zog entertained. Is this good, bad, or neither?",3,f8d76f43fc7d674672425679f07e8fd53c2c6a3311b617c9811752d8aead6e5aaebd2068cde53f45086da0de3173deca222d3f25cb67dcc535b1b0cb35b28600
"The zog entertained. Is this good, bad, or neither?",3,f8d76f43fc7d674672425679f07e8fd53c2c6a3311b617c9811752d8aead6e5aaebd2068cde53f45086da0de3173deca222d3f25cb67dcc535b1b0cb35b28600
"The zog entertained. Is this good, bad, or neither?",3,5f12e05c2e694ca4d0d50f5c90ffefa31fc5c326c5f6352ab6f2d69efda09898d7fa2e899476fb98164baf5559806eee7fc6f92a8cd7641d9b208f848e51b143
"The zog entertained. Is this good, bad, or neither?",3,5f12e05c2e694ca4d0d50f5c90ffefa31fc5c326c5f6352ab6f2d69efda09898d7fa2e899476fb98164baf5559806eee7fc6f92a8cd7641d9b208f848e51b143
"The zog entertained. Is this good, bad, or neither?",3,5f12e05c2e694ca4d0d50f5c90ffefa31fc5c326c5f6352ab6f2d69efda09898d7fa2e899476fb98164baf5559806eee7fc6f92a8cd7641d9b208f848e51b143
"The zog entertained. Is this good, bad, or neither?",3,5f12e05c2e694ca4d0d50f5c90ffefa31fc5c326c5f6352ab6f2d69efda09898d7fa2e899476fb98164baf5559806eee7fc6f92a8cd7641d9b208f848e51b143
"The zog entertained. Is this good, bad, or neither?",3,5f12e05c2e694ca4d0d50f5c90ffefa31fc5c326c5f6352ab6f2d69efda09898d7fa2e899476fb98164baf5559806eee7fc6f92a8cd7641d9b208f848e51b143
"The zog entertained. Is this good, bad, or neither?",3,5f12e05c2e694ca4d0d50f5c90ffefa31fc5c326c5f6352ab6f2d69efda09898d7fa2e899476fb98164baf5559806eee7fc6f92a8cd7641d9b208f848e51b143
"The zog entertained. Is this good, bad, or neither?",3,5f12e05c2e694ca4d0d50f5c90ffefa31fc5c326c5f6352ab6f2d69efda09898d7fa2e899476fb98164baf5559806eee7fc6f92a8cd7641d9b208f848e51b143
"The zog entertained. Is this good, bad, or neither?",3,5f12e05c2e694ca4d0d50f5c90ffefa31fc5c326c5f6352ab6f2d69efda09898d7fa2e899476fb98164baf5559806eee7fc6f92a8cd7641d9b208f848e51b143
"The zog entertained. Is this good, bad, or neither?",0,6e11c6189e61f5530a28ce74f5a88aa315adaaf4398e10fdd2a4c0be031fdd73d6ab9f2c0bf20c7aa150e03eda1a55891b02391f2c03d21cdc8ccd401fd78cb8
"The zog entertained. Is this good, bad, or neither?",4,84c1afe799d4272aa7977a14634bac231bb8cd519e4e038a83f42b7bac79ab979744a4f36ac27e8a7c3b6de9f9e3cf7976056363ef06c626d95efc1c7069738d
"The zog entertained. Is this good, bad, or neither?",0,5cd49a816d389109ba1de471234af76714b514d25e6deb8ee8312e6ccc4ad6f8fb1090ea989df4adcd6fcdf54fd1b3b5001f883eaf1aa0d3324fcb4ec691aa30
"The zog entertained. Is this good, bad, or neither?",0,b6f2e1344ebdd16df984a569b364694e74d76b32cc3d59d2dffcc4d11ac6f38e551c9c180de2ef82243330ba19068b623902e0a25624aa0e128b8c46b7d589cb
"The zog entertained. Is this good, bad, or neither?",0,2269d174b2aa5e6ab43db18a175440f2222019b01c80d30e1c66b603052dea1c56a534d8677c4c6ffc4bff6cb8af6ef0463bfbe56e03445d7b61a70747f709cf
"The zog entertained. Is this good, bad, or neither?",2,3ce1c91573b49e76ae6d43c669a24733296314c25baffa84d6693179025159771a3c7b297e83491615fff176965dd211be78675095cfe008040fcf254df14810
"The zog entertained. Is this good, bad, or neither?",0,0c1e43ef5b2f9488f1f2f5d3bb698140bc0a814ccd0552a4d3b9bc7f4899fbd7f112dda7c2abe51111db2cd9354f7ed05e8023ddc9513e6797cd881f2b3a9c2c
"The zog entertained. Is this good, bad, or neither?",0,819161aa2e764fd74ba60f02978d28b130e488d1f6ed613c48db286b68fe06ef24eeeb946d2af813bac598640b43342cd2b7a142eb31a6fff239faaae995f9f7
"The zog entertained. Is this good, bad, or neither?",0,1f8a6b22caaddfbb343721e8e04400288709447dcc8d0f1b6c2a090dde0f46f10b7ee7275599d94eae76c6354d88ba874f6349019ffa4b14642676ff0c017ad8
"The zog entertained. Is this good, bad, or neither?",0,7c31d8a6b789f5d31410d53b319860e959a72e3d19360af41225050b709f9f0cb85d0b30cf386c70f5c651b2a54158786759de0a844488d3dbbb4d550830abfa
"The zog entertained. Is this good, bad, or neither?",2,debb17488df62ae009c8f893779083f5aaae66dfd2db2c859053611f5d8e7baf78c626ed0e18df1842a2f630804e312a74e053a442dbc3496bf8109458642fff
"The zog entertained. Is this good, bad, or neither?",6,0ca87715be5df199ebada6867f7e0e75295c7ededa0fbd84664b9240578d42457d55abd66e8d40f24cae8c5c5c0a506eae9b839711a908d418039a14a0ca3135
"The zog entertained. Is this good, bad, or neither?",0,b2f628d898d49b84195700ce8c0e61045ee0ef90a4f25dd8542b088992c0e8884e831f69686a18be22e4460fd7b0e35913afce86b2245d0acfcd025b95a2577c
"The zog entertained. Is this good, bad, or neither?",0,0381921c0631acfd9d64e7a0c0ec59679378e425eb25290841e74ee4ecb6bb24a4745803c134c42011f5a4590f48190ac36154bc240502f521fc0593e22fd8a2
"The zog entertained. Is this good, bad, or neither?",0,5d818587500e31ddd24f674f0d96e8036b1fbbdeff8f12716de7cf436031070adc160ac58c2058f70b7756b9758d4cc6c60cd86cb5fbac5b08e94434f347d5fc
"The zog entertained. Is this good, bad, or neither?",5,4c9782b71dd33f7c3b7a63c356316be484f5e4e9811fcf58e2ce14959db47117a2098cc6f5d8f196598fdc602d00856037a9307e11d273affdf762c00a44d3f1
"The zog entertained. Is this good, bad, or neither?",0,720bea532db6ed90a7bd855c056e2ccc32b0f2fe90eb490aa4d644afcc89620fb5f7c3bf4971d931a8aef22130fb8976bd9e83f534038e3c4e8421311520cb5d
"The zog entertained. Is this good, bad, or neither?",0,ddaaf85b6ad92e5bd899125be0ee1d1e475cef85f10f7c86eb80b3e666aa2d27b9930efbf239779906809e3b49e9c42c65a28830cce2f7034e42c039095ac370
"The zog entertained. Is this good, bad, or neither?",5,6f5d3137f68645162d6754029499a9ec7ae5684f56847c76e1aed3915b42b3ec8caf636fecf4f90a32b0151ee5f9c6a1d6452b80a69f77275d541c9cea4cbff1
"The zog entertained. Is this good, bad, or neither?",0,247d016ad1965e185b284a032af50657ede03f4f6dfc65f402943ca2d27268dbc47a7ee39ad2eed9b24b64110dc50e8dd10ca6597e88d493637c358a9ba6470b
"The zog entertained. Is this good, bad, or neither?",4,2bddce971fb9dfadb0e50fcd15f5da42f2ef8c476a4212bde20a28dfb3b51b03b619ae1daafc7905fad410c42d69ea64cce4d2e705a9f283a1f36221d9537557
"The zog entertained. Is this good, bad, or neither?",0,609868e2cf6de58a506a6731afe55c53d93510e3a34e58705479846aa7ccef2469a0081dc7ad92826b214afccaa96b3202ca07a32e7d6afd795c5776ef5511be
"The zog entertained. Is this good, bad, or neither?",0,08ea6ea397537c84ac209f08bf3bec2c0ff500e94266cd17fa45d303b288126de192d25b7f3331a02fdcad8a68ce682fafad99f95ec45259d05ed65d6cd3505e
"The zog entertained. Is this good, bad, or neither?",0,aeaead0bad2cd8cd8e00067df1d0ddd61b9ba6afec23c08f5c84f413ad2e263545b447c45633570fb4f2c9b3d3be895bc1e474eb157f9f9b4ac62955a36370ef
"The zog entertained. Is this good, bad, or neither?",0,6dc3c1c39144956bbdb33c6609727bdf3eea1eea4f2678cd0c4d51a66736f99578cece24104a1c227adbc63f28b7098c858a3b41ebc023af51f6ef606bb708db
"The zog entertained. Is this good, bad, or neither?",4,cb8991044cbb05e86e831fee35582ba57617a4066f60863f3193de184b7dc0139190e72d6756b7dcfdf12b0129a8c57332dddd5ef5dafc903e0ab891e8882624
"The zog entertained. Is this good, bad, or neither?",0,305f2f29687fda8e291e598686a4a089cc57c27d26fc2dea3e28544183df6fdd4ce792399dcac730c7aa7109f82a09aace9c895bf9596d257e113393be774056
"The zog entertained. Is this good, bad, or neither?",5,2cbebb6c7482f05a91d4b2097fbb4ef889d97402fa993b5cfe116d6a955794727c611cd785559723bc8e0c5e96de7ef5e4a0b301d0c73b6b9bbce647ff7d82d4
