"Megan trusted Nicole rilting harrents. Is this good, bad, or neither?",0,305db2991f8bbe19a6cb543f13cac19330f6f7d5a07468ef28beed97abe3abdc6cf62f1f39b843ec032c22d18f1d1e81817e00614f9cb42dd2923a5d6411f502
"Megan trusted Nicole rilting harrents. Is this good, bad, or neither?",0,5d818587500e31ddd24f674f0d96e8036b1fbbdeff8f12716de7cf436031070adc160ac58c2058f70b7756b9758d4cc6c60cd86cb5fbac5b08e94434f347d5fc
"Megan trusted Nicole rilting harrents. Is this good, bad, or neither?",0,d53a3853a701c0b2c6f59ecd154f16c81f913ab177c92d983b7f485f248ad8e3d2c917c73c67b45bfb8b646f5401330409d7a70104a1e853cdb47c89d1ab7624
"Megan trusted Nicole rilting harrents. Is this good, bad, or neither?",0,a742412c6f2fb8193330ff0be7e355bd14485a1885265f86bfaf573eba06d3493935f8841ca374f7f1b866d5095d63dc2314bffefbd388ecbb08eede99f2944c
"Megan trusted Nicole rilting harrents. Is this good, bad, or neither?",0,ddaaf85b6ad92e5bd899125be0ee1d1e475cef85f10f7c86eb80b3e666aa2d27b9930efbf239779906809e3b49e9c42c65a28830cce2f7034e42c039095ac370
"Megan trusted Nicole rilting harrents. Is this good, bad, or neither?",0,6f5d3137f68645162d6754029499a9ec7ae5684f56847c76e1aed3915b42b3ec8caf636fecf4f90a32b0151ee5f9c6a1d6452b80a69f77275d541c9cea4cbff1
"Megan trusted Nicole rilting harrents. Is this good, bad, or neither?",5,ab817809187642176d23d87932f87fb8cac29305dd69bd9c80c875e1418683baeb300a33a4ea303e96598aee641e58ffef6ed700b09ee5a77559e157e08d3320
"Megan trusted Nicole rilting harrents. Is this good, bad, or neither?",0,9fc9d3de7ddb83580fc430d2d5c6ee47e775cabd5a982d7012deb44dbf1042f8b3db8ea6b2c4ee7b39f82b84b6b071d6968393ccc6520a6870f0883ccc441cf9
"Megan trusted Nicole rilting harrents. Is this good, bad, or neither?",4,82036ef48e639ec0e596be48a03f5fa6e17a024a7a210ee9af84e91b722a3c3a32f386dbf228c77359e40e1b66c215ef4cc02c6c7ae159b7090af6d0eb327a12
"Megan trusted Nicole rilting harrents. Is this good, bad, or neither?",0,609868e2cf6de58a506a6731afe55c53d93510e3a34e58705479846aa7ccef2469a0081dc7ad92826b214afccaa96b3202ca07a32e7d6afd795c5776ef5511be
"Megan trusted Nicole rilting harrents. Is this good, bad, or neither?",4,08ea6ea397537c84ac209f08bf3bec2c0ff500e94266cd17fa45d303b288126de192d25b7f3331a02fdcad8a68ce682fafad99f95ec45259d05ed65d6cd3505e
"Megan trusted Nicole rilting harrents. Is this good, bad, or neither?",0,aeaead0bad2cd8cd8e00067df1d0ddd61b9ba6afec23c08f5c84f413ad2e263545b447c45633570fb4f2c9b3d3be895bc1e474eb157f9f9b4ac62955a36370ef
"Megan trusted Nicole rilting harrents. Is this good, bad, or neither?",0,5ed859beff22cb7346bbd1bb520b4e40c6fd44610478d66cd057f78c274bfe00e0cfd791b7f2e25ec9b478d601bfa4906bcd9751e895cada9d7ddb10a781a789
"Megan trusted Nicole rilting harrents. Is this good, bad, or neither?",0,305f2f29687fda8e291e598686a4a089cc57c27d26fc2dea3e28544183df6fdd4ce792399dcac730c7aa7109f82a09aace9c895bf9596d257e113393be774056
"Megan trusted Nicole rilting harrents. Is this good, bad, or neither?",7,c21e0dbba3eda73d9cb431d61cbb912618376cc4b478578489054f4e98b061a3018f4aba1884474f93521196229a09e6ebcb9ae177f477065c20c74e07f67b07
"Megan trusted Nicole rilting harrents. Is this good, bad, or neither?",0,bcaeadfc56724d5a2432d2d012f80ea1f3af361fd2cc23ae85f9c718fc15e697164a11cbc8c601de2536a5c3f4d2cfa30f149dc06e2371384a24375be9cb90b5
"Megan trusted Nicole rilting harrents. Is this good, bad, or neither?",0,ac159058713bb786536395d849dcdcf98a8ffa433c0df23b7bc3208f1c1ce017c9e666811788def29dda032e13b5e11080c305f9a67c97282c112192adb437e0
"Megan trusted Nicole rilting harrents. Is this good, bad, or neither?",4,c7a93a1a31d259cbb634d580334bbade3ce106ee969a90e587caf773a032d589ff5b759885e1c6b6263eedcc4340eb250a485471beb78180478fae5199e93485
"Megan trusted Nicole rilting harrents. Is this good, bad, or neither?",0,5b56973b88ed7b736ff3966dd5900790af0d217684769981e05a869fd0482e4eb627fbc83ef164acdcc19dfee68958f3688d63269cfdc0cd3c3ec35969e3c934
"Megan trusted Nicole rilting harrents. Is this good, bad, or neither?",2,b9823f44a96a09bb0a39b059bc590571f243e6b4cae8f72f462a679bd66dd4a5df1300c501ee1ee59d2ef0b3924ec82649208ef3855c81f609b9a3b93dc2e442
"Megan trusted Nicole rilting harrents. Is this good, bad, or neither?",0,7f45982c84b0e62975c836530ebc5c20ed43e2aaac4d7f1c99d59dac30103bb0a2c7f0c3eb3c011244e3b29b96036757199959b8d8fbcc5cf995fee8253a05f5
"Megan trusted Nicole rilting harrents. Is this good, bad, or neither?",2,fb3ee4e72eb582b2b2920acd3ac5a4ed00149c2560bf0255b9bc8237d80cbadd7b353ced6ab5662f69dfe00d362575b7da94144cd2374866a682e39b17cc3c0d
"Megan trusted Nicole rilting harrents. Is this good, bad, or neither?",4,28195e505193242d636c8cf88927e3353b64c1e9365b6d4fe6834ae467adb58cc661083c465cf575a9d4e6e6ea9daf2f4e5b8eaf892be186be05aa6b9c0519ec
"Megan trusted Nicole rilting harrents. Is this good, bad, or neither?",0,caff777a2303da77340521ef83945a07684b2612ccb93a9fe1e9e6b34d4e52177c4499982e59c5f493664f3123c4c9738867850e7445f494ca6c22600eb6e56a
"Megan trusted Nicole rilting harrents. Is this good, bad, or neither?",0,832b19ea4eb64ad4f6298c0933ec2f6ba994974bcbbda62a7a0088a00f6cd96bd27aca96187875bf07fe2c868f7cd9e74b39598b91c261fd45079e5150637de4
"Megan trusted Nicole rilting harrents. Is this good, bad, or neither?",0,ecd12f5c7840150b6bf31f41cfe805fbb7f1e24d87bc7f9a7e4a26034d172ee611537c7e49e1951d513a1b63598bec45f4cf8d3fd4936ebe2747d7e8018937e5
"Megan trusted Nicole rilting harrents. Is this good, bad, or neither?",5,51380ba17d389acf16b2e4050c60144f72e21e67355af590c925e540dc4abfbc0c8e01d70f88c15b34bb49d5c42f87dd643708a72981fa55430e184b133b1880
"Megan trusted Nicole rilting harrents. Is this good, bad, or neither?",2,22ea81be098a41f9fa019ece304e1f1b45b21f5ac33eff82cb03c689c5ec3aa980f88d251474c579b4409e3feebc4741f31cbef856c760e2842d0eb44b078c78
"Megan trusted Nicole rilting harrents. Is this good, bad, or neither?",4,0d19c982875c6e1039857c9e12d569d24a88f16afb8274468f683859c7fb1e8f625bea82d85acacf66faaeda9f4f894656a3ef87fab4ef398b355a0624ab70c2
"Megan trusted Nicole rilting harrents. Is this good, bad, or neither?",0,41628a0f8849c48d09c00e99c4a99cae8b10c5d31c76fc5043a816bea93afdb63771aa227c3fc1235d69b6c482ed4c1972716b6868be483c3ecaba9ca7efddc1
"Megan trusted Nicole rilting harrents. Is this good, bad, or neither?",7,f227668754442ebd98c3f3faa2837a3e3e6bb9e39f35002118495ccbd112ccb3a4dcb5f7b12172dd987392b97a042844163eaaa7cea8fce772ac8ba5450067e4
"Megan trusted Nicole rilting harrents. Is this good, bad, or neither?",0,4c936421d33f89a86a2126ef307e8438506ebd5fdf60a8a9a4de33d6e8ee15731a498fbcf8097e81fca2f73298a79f0a7be7dc9143c2f513dcb1ae256be13c62
"Megan trusted Nicole rilting harrents. Is this good, bad, or neither?",4,0cce9151698e5674daa0d80fe4efc4daa6c28de601e9af357d943b02c498a73578d8113eba388846a2ca22017c481f5d2b2a23aca606799dfa309a4c8d51c86e
"Megan trusted Nicole rilting harrents. Is this good, bad, or neither?",0,2affe66e78ed0fdb8662d48e9de768393c88ec5e667c71326bc9ac141e2742f64028489e0a9dbbd820ca7d777483a05f81c195e5a46d9c595e8003584f94b06f
"Megan trusted Nicole rilting harrents. Is this good, bad, or neither?",5,10a39fa03f01bc4374297a3c0e6f663de1340949fd7ccb7e24e43073887f87fc03f4ffc1c3a3a085d625cd0d3a3a5b993e7044c285a050ca147e34290ab4cd64
"Megan trusted Nicole rilting harrents. Is this good, bad, or neither?",2,1e7019267a5b9fb0c239414b1e225193cc46ec9d6c9a84692122a153d5af4e4bec36f2ece04c27828e7c811956744c4cdaf9b6e007fe5418441f79557bd2012a
"Megan trusted Nicole rilting harrents. Is this good, bad, or neither?",0,14f23fcc167988dce6e55bce50b355428b82f247209c572f82715aac881afcb8162ebc7b557e1438dd2f69b3e915e6bcd037041df1904f0c6fe886c4637565f6
"Megan trusted Nicole rilting harrents. Is this good, bad, or neither?",0,9d8ddb67f662349a7f7a7c5a32fee73c457fd70d135ae4be6f17a68418102d35693b26415c8fd8c7bd26a5b5032587ac08aefd055994f62fcb3e9a44d5cb51b0
"Megan trusted Nicole rilting harrents. Is this good, bad, or neither?",0,134f4b378ea7d5e91b60c332e9e7264d208e707d4485c59a39c012d611a4b47ebd7ae8d5091d012f4e6b348fed21a30caf8226a4be915aec64fc2f9562f297bb
"Megan trusted Nicole rilting harrents. Is this good, bad, or neither?",0,56e5028ee24e5456fffd37e15d33cc106507d3c4bf70fab4985dd3127882f2243a2a39afe1d705391f79b38c2cf76dce2fe05f6ea053f2558dd38b6700940fc9
"Megan trusted Nicole rilting harrents. Is this good, bad, or neither?",5,d81d47cba87302981ee1c7696367589a3bea8585244ff9425abcaae858f3ee82915dca9159c52e8959b1b1fc96af0f65a36071c10dc326656b9aa2414be85d8a
"Megan trusted Nicole rilting harrents. Is this good, bad, or neither?",4,1542c4b6fd6f4e98401db465fe531253a5271d06bda09b82d6562b87220d95bf0ceff374c3c1ff120ce5ad4adf901bf2ae41bffcd7519185ce88b191e25a078e
"Megan trusted Nicole rilting harrents. Is this good, bad, or neither?",0,5a23402dc15233be68d0f6f87dcdce887a714a5507871ff7b39191fbd84ad58479f2c95fb420e292d80b74051e38f9f54e2670ad4b963f05e83c6224babbf504
"Megan trusted Nicole rilting harrents. Is this good, bad, or neither?",0,f9fd05209933417c96ecb73a3ca6182d918094324bc1a1c90ad3eecf690d5206649a6bef945da828258499b098ebc96447a67d3d6b391b9374c9ad948a911b8c
"Megan trusted Nicole rilting harrents. Is this good, bad, or neither?",1,e026cbf1f92ffcd63549ad9958fb5feeaed2d6b545677b809b1cafc3fc96349d27e28ef3da4919854a8b6d9ce320dc40b10f705c361b77a717ca1cc8d70dca1b
"Megan trusted Nicole rilting harrents. Is this good, bad, or neither?",4,a3fe48d172465fbb24a650eeb520bd4c4631496b6d9d7a38bf192e1566aa97e662f2b2e76290bf0e0a6c2a90ffb291b31ff1e75bb29714c834646a850ace5bf6
"Megan trusted Nicole rilting harrents. Is this good, bad, or neither?",4,f4d0a0e5543106139b65bc0db5d40eb416833c4fb456fd2272ffde8e7e162ac059f090e12c01686b7dd181834a59b46c179bb133739847ad085aeae5db86e3e7
"Megan trusted Nicole rilting harrents. Is this good, bad, or neither?",6,f4d0a0e5543106139b65bc0db5d40eb416833c4fb456fd2272ffde8e7e162ac059f090e12c01686b7dd181834a59b46c179bb133739847ad085aeae5db86e3e7
"Megan trusted Nicole rilting harrents. Is this good, bad, or neither?",2,c06061e9252b0616c0202fd36ce38a30c50bb1fc17651f6dcda01d750dd8dc0c2c312475a7e48a6d0217b81b0f2ebfca3453d005c32412ec337e86854ca4f6ef
"Megan trusted Nicole rilting harrents. Is this good, bad, or neither?",1,ba2d26f4dd8b4ccde0d80cd193e49becdc1a6ced8451c530f884e2ecde79ac6d58475ad5ef1dfdcd67bd7d965d15a61fba11b234efe086db92e4fbf0c0fb3855
"Megan trusted Nicole rilting harrents. Is this good, bad, or neither?",0,cdc82decc385f7e309df95e76665c1a374f59a26484512f2db2ccd400075c0e7168901954aff2916ae1ce00679770656b6a59e655a4e26263c3a91889d44fc1a
"Megan trusted Nicole rilting harrents. Is this good, bad, or neither?",2,512926c32568782467c043d9acacef7e1297fe10e47106d36f90ed38f8036a40a0f8a10a29ae7a31a0a93e5ad4fed44921abf919134ac7a8d096c8022d200715
"Megan trusted Nicole rilting harrents. Is this good, bad, or neither?",0,864fd6d6c6f3b061f8849268ccbe26a8df17226567b244b0760c60bacd2b79ced559640987941fff3ebd0eb3949cea7885c56e467856a8919d1736aa402c8087
"Megan trusted Nicole rilting harrents. Is this good, bad, or neither?",0,25f59b566bfd6c48199f78f2ca8c9e3394ba87dd2b89641de88eadfe68d9f750c0706df1f2c4ec7d3b8a68dc3684d43958937d6d1b9641bd2933ada2425d599f
"Megan trusted Nicole rilting harrents. Is this good, bad, or neither?",0,0a10cfbe96898e179a6989823d1b388e63fd11f48fd9bb0f118bf62cd7dfea5dd88a7b1d57cbd9606e10dc7e76ef4a52208822cd8d1992d9cbf67431ac76dda0
"Megan trusted Nicole rilting harrents. Is this good, bad, or neither?",4,19277661313b5118bd1b2e29039b47276f1f8235917f3217bf95498030989874a1ca10bb943fa21faf787d793095c0d4119e136013ed4a9be167f67c2a6d11d3
"Megan trusted Nicole rilting harrents. Is this good, bad, or neither?",0,7d181c317dd23c1dd4496fbb3dad9ede1afeecbb108c4688e50d882e4e6a38cbd758c2f3ba93842e55381c51770db8625ea80867635f8719396080ba1eddd48d
"Megan trusted Nicole rilting harrents. Is this good, bad, or neither?",3,5f12e05c2e694ca4d0d50f5c90ffefa31fc5c326c5f6352ab6f2d69efda09898d7fa2e899476fb98164baf5559806eee7fc6f92a8cd7641d9b208f848e51b143
"Megan trusted Nicole rilting harrents. Is this good, bad, or neither?",3,5f12e05c2e694ca4d0d50f5c90ffefa31fc5c326c5f6352ab6f2d69efda09898d7fa2e899476fb98164baf5559806eee7fc6f92a8cd7641d9b208f848e51b143
"Megan trusted Nicole rilting harrents. Is this good, bad, or neither?",3,5f12e05c2e694ca4d0d50f5c90ffefa31fc5c326c5f6352ab6f2d69efda09898d7fa2e899476fb98164baf5559806eee7fc6f92a8cd7641d9b208f848e51b143
"Megan trusted Nicole rilting harrents. Is this good, bad, or neither?",3,5f12e05c2e694ca4d0d50f5c90ffefa31fc5c326c5f6352ab6f2d69efda09898d7fa2e899476fb98164baf5559806eee7fc6f92a8cd7641d9b208f848e51b143
"Megan trusted Nicole rilting harrents. Is this good, bad, or neither?",3,5f12e05c2e694ca4d0d50f5c90ffefa31fc5c326c5f6352ab6f2d69efda09898d7fa2e899476fb98164baf5559806eee7fc6f92a8cd7641d9b208f848e51b143
"Megan trusted Nicole rilting harrents. Is this good, bad, or neither?",3,5f12e05c2e694ca4d0d50f5c90ffefa31fc5c326c5f6352ab6f2d69efda09898d7fa2e899476fb98164baf5559806eee7fc6f92a8cd7641d9b208f848e51b143
"Megan trusted Nicole rilting harrents. Is this good, bad, or neither?",3,5f12e05c2e694ca4d0d50f5c90ffefa31fc5c326c5f6352ab6f2d69efda09898d7fa2e899476fb98164baf5559806eee7fc6f92a8cd7641d9b208f848e51b143
"Megan trusted Nicole rilting harrents. Is this good, bad, or neither?",3,5f12e05c2e694ca4d0d50f5c90ffefa31fc5c326c5f6352ab6f2d69efda09898d7fa2e899476fb98164baf5559806eee7fc6f92a8cd7641d9b208f848e51b143
"Megan trusted Nicole rilting harrents. Is this good, bad, or neither?",0,6e11c6189e61f5530a28ce74f5a88aa315adaaf4398e10fdd2a4c0be031fdd73d6ab9f2c0bf20c7aa150e03eda1a55891b02391f2c03d21cdc8ccd401fd78cb8
"Megan trusted Nicole rilting harrents. Is this good, bad, or neither?",0,65742ec00905d9ad667185f5a7511d343df8df345ed0fef3db00fd29f3e4040f867eeef26a01c000f7ceca04ea07537add62b3f1ff8422adb173a9bd22ecf46d
"Megan trusted Nicole rilting harrents. Is this good, bad, or neither?",0,d8df607040709fef5fb20aa491224fa16acfc168677e32ca2d49bcfb2a46636d9689ca87bb80c6414053f1a4e7f6a603dea0eab18b40e08c1654ec0212613b5e
"Megan trusted Nicole rilting harrents. Is this good, bad, or neither?",0,3ce1c91573b49e76ae6d43c669a24733296314c25baffa84d6693179025159771a3c7b297e83491615fff176965dd211be78675095cfe008040fcf254df14810
"Megan trusted Nicole rilting harrents. Is this good, bad, or neither?",0,0c1e43ef5b2f9488f1f2f5d3bb698140bc0a814ccd0552a4d3b9bc7f4899fbd7f112dda7c2abe51111db2cd9354f7ed05e8023ddc9513e6797cd881f2b3a9c2c
"Megan trusted Nicole rilting harrents. Is this good, bad, or neither?",1,22e41a37fd6666b98f91aee497153ae512befed5987c845c6ed4d515c0072c803481d9f1e5a9363873a148c338737e3bb440a3e221b085f60b8647d660f4d540
"Megan trusted Nicole rilting harrents. Is this good, bad, or neither?",4,f3285e952e201a33639358abf4b7414c261329a8aa8fd45df169b9e5d6998f8970331580e6d22fa82a21183312f6e0a66855c2abab9526f6c7e0eca79cc45a35
"Megan trusted Nicole rilting harrents. Is this good, bad, or neither?",0,819161aa2e764fd74ba60f02978d28b130e488d1f6ed613c48db286b68fe06ef24eeeb946d2af813bac598640b43342cd2b7a142eb31a6fff239faaae995f9f7
"Megan trusted Nicole rilting harrents. Is this good, bad, or neither?",4,3cef95e32667ae918cab2aa2b28a4532ccb88fc050913b1cf708dccce8f714a548d113968c30ddf044b9c5fafd3ff032af11f5dfa8629e9f8f8bd81dc72ea187
"Megan trusted Nicole rilting harrents. Is this good, bad, or neither?",0,c2a35a9e3a4e63030e1b1467ea5c631724ace41aa9aab9a34f7eb3dea239079ba738fd4333a249f113a2423c2b23c3dc9bd99213f8a783d851527ee9cb86f84b
"Megan trusted Nicole rilting harrents. Is this good, bad, or neither?",0,a04441347c7a31798c34e1a297af024142381cfd06d1679184d6b0cf7ea8eda83518c819aaa67808a7238790be4a54c02324be8e270298ac207e0fa103ba2135
"Megan trusted Nicole rilting harrents. Is this good, bad, or neither?",0,3db6d32fe3019eb019bf0ec9ce5de51a4f71217468859efb3e5cb0164fe5341c1f4a6da31baac1782fc14dd3af979013caa34874973f5c179aa1cb92bff36ad3
"Megan trusted Nicole rilting harrents. Is this good, bad, or neither?",2,b4a89e063c479339463fe8a3755a45afdb72640d55ae6f8499866bdce35aea79532c96c386d3e305abf960bd172306159148a5dedc70fc0c191353ec94176ac4
"Megan trusted Nicole rilting harrents. Is this good, bad, or neither?",0,7f095045b96e3f9cad42a3bdc93ae5ff5c49f20d0a5a4181f46d15cdef7b2a544f0348501a70e8666d97e8c9b5c83bdff2e241f897607bc993873a80889f7490
"Megan trusted Nicole rilting harrents. Is this good, bad, or neither?",0,25e31b4d80e94d2c4801481a440b5ddc554a132d91634eb8bb035a50d56440cc732a12ea555c9eaf910eb05300e715d6d2e07d102209bb9144baa9ca8fc3879c
"Megan trusted Nicole rilting harrents. Is this good, bad, or neither?",0,305db2991f8bbe19a6cb543f13cac19330f6f7d5a07468ef28beed97abe3abdc6cf62f1f39b843ec032c22d18f1d1e81817e00614f9cb42dd2923a5d6411f502
"Megan trusted Nicole rilting harrents. Is this good, bad, or neither?",0,5d818587500e31ddd24f674f0d96e8036b1fbbdeff8f12716de7cf436031070adc160ac58c2058f70b7756b9758d4cc6c60cd86cb5fbac5b08e94434f347d5fc
"Megan trusted Nicole rilting harrents. Is this good, bad, or neither?",0,d53a3853a701c0b2c6f59ecd154f16c81f913ab177c92d983b7f485f248ad8e3d2c917c73c67b45bfb8b646f5401330409d7a70104a1e853cdb47c89d1ab7624
"Megan trusted Nicole rilting harrents. Is this good, bad, or neither?",0,a742412c6f2fb8193330ff0be7e355bd14485a1885265f86bfaf573eba06d3493935f8841ca374f7f1b866d5095d63dc2314bffefbd388ecbb08eede99f2944c
"Megan trusted Nicole rilting harrents. Is this good, bad, or neither?",0,ddaaf85b6ad92e5bd899125be0ee1d1e475cef85f10f7c86eb80b3e666aa2d27b9930efbf239779906809e3b49e9c42c65a28830cce2f7034e42c039095ac370
"Megan trusted Nicole rilting harrents. Is this good, bad, or neither?",0,6f5d3137f68645162d6754029499a9ec7ae5684f56847c76e1aed3915b42b3ec8caf636fecf4f90a32b0151ee5f9c6a1d6452b80a69f77275d541c9cea4cbff1
"Megan trusted Nicole rilting harrents. Is this good, bad, or neither?",5,ab817809187642176d23d87932f87fb8cac29305dd69bd9c80c875e1418683baeb300a33a4ea303e96598aee641e58ffef6ed700b09ee5a77559e157e08d3320
"Megan trusted Nicole rilting harrents. Is this good, bad, or neither?",0,9fc9d3de7ddb83580fc430d2d5c6ee47e775cabd5a982d7012deb44dbf1042f8b3db8ea6b2c4ee7b39f82b84b6b071d6968393ccc6520a6870f0883ccc441cf9
"Megan trusted Nicole rilting harrents. Is this good, bad, or neither?",4,82036ef48e639ec0e596be48a03f5fa6e17a024a7a210ee9af84e91b722a3c3a32f386dbf228c77359e40e1b66c215ef4cc02c6c7ae159b7090af6d0eb327a12
"Megan trusted Nicole rilting harrents. Is this good, bad, or neither?",0,609868e2cf6de58a506a6731afe55c53d93510e3a34e58705479846aa7ccef2469a0081dc7ad92826b214afccaa96b3202ca07a32e7d6afd795c5776ef5511be
"Megan trusted Nicole rilting harrents. Is this good, bad, or neither?",4,08ea6ea397537c84ac209f08bf3bec2c0ff500e94266cd17fa45d303b288126de192d25b7f3331a02fdcad8a68ce682fafad99f95ec45259d05ed65d6cd3505e
"Megan trusted Nicole rilting harrents. Is this good, bad, or neither?",0,aeaead0bad2cd8cd8e00067df1d0ddd61b9ba6afec23c08f5c84f413ad2e263545b447c45633570fb4f2c9b3d3be895bc1e474eb157f9f9b4ac62955a36370ef
"Megan trusted Nicole rilting harrents. Is this good, bad, or neither?",0,5ed859beff22cb7346bbd1bb520b4e40c6fd44610478d66cd057f78c274bfe00e0cfd791b7f2e25ec9b478d601bfa4906bcd9751e895cada9d7ddb10a781a789
"Megan trusted Nicole rilting harrents. Is this good, bad, or neither?",0,305f2f29687fda8e291e598686a4a089cc57c27d26fc2dea3e28544183df6fdd4ce792399dcac730c7aa7109f82a09aace9c895bf9596d257e113393be774056
"Megan trusted Nicole rilting harrents. Is this good, bad, or neither?",7,c21e0dbba3eda73d9cb431d61cbb912618376cc4b478578489054f4e98b061a3018f4aba1884474f93521196229a09e6ebcb9ae177f477065c20c74e07f67b07
"Megan trusted Nicole rilting harrents. Is this good, bad, or neither?",5,51380ba17d389acf16b2e4050c60144f72e21e67355af590c925e540dc4abfbc0c8e01d70f88c15b34bb49d5c42f87dd643708a72981fa55430e184b133b1880
"Megan trusted Nicole rilting harrents. Is this good, bad, or neither?",7,f227668754442ebd98c3f3faa2837a3e3e6bb9e39f35002118495ccbd112ccb3a4dcb5f7b12172dd987392b97a042844163eaaa7cea8fce772ac8ba5450067e4
"Megan trusted Nicole rilting harrents. Is this good, bad, or neither?",5,10a39fa03f01bc4374297a3c0e6f663de1340949fd7ccb7e24e43073887f87fc03f4ffc1c3a3a085d625cd0d3a3a5b993e7044c285a050ca147e34290ab4cd64
