"Christopher hated the quap for its trab. Is this good, bad, or neither?",1,305db2991f8bbe19a6cb543f13cac19330f6f7d5a07468ef28beed97abe3abdc6cf62f1f39b843ec032c22d18f1d1e81817e00614f9cb42dd2923a5d6411f502
"Christopher hated the quap for its trab. Is this good, bad, or neither?",1,5d818587500e31ddd24f674f0d96e8036b1fbbdeff8f12716de7cf436031070adc160ac58c2058f70b7756b9758d4cc6c60cd86cb5fbac5b08e94434f347d5fc
"Christopher hated the quap for its trab. Is this good, bad, or neither?",1,720bea532db6ed90a7bd855c056e2ccc32b0f2fe90eb490aa4d644afcc89620fb5f7c3bf4971d931a8aef22130fb8976bd9e83f534038e3c4e8421311520cb5d
"Christopher hated the quap for its trab. Is this good, bad, or neither?",2,aaa95c0664846be1d183b973a91ed74b1685e5e25ec9e68c82d19b353a324b47a68c74351d84d21e911a7cc42db0bd220fc29db5c10db1fce24a60559e550ef1
"Christopher hated the quap for its trab. Is this good, bad, or neither?",4,0f8b0a6747c2c67c47eabd0e7ef8f16f8ded2c61207aad26a80a05076caf477a98492e88c1493d8d0c97008428802daf57b604ad8ec3417e999bf1eb41c94031
"Christopher hated the quap for its trab. Is this good, bad, or neither?",1,ddaaf85b6ad92e5bd899125be0ee1d1e475cef85f10f7c86eb80b3e666aa2d27b9930efbf239779906809e3b49e9c42c65a28830cce2f7034e42c039095ac370
"Christopher hated the quap for its trab. Is this good, bad, or neither?",1,a04441347c7a31798c34e1a297af024142381cfd06d1679184d6b0cf7ea8eda83518c819aaa67808a7238790be4a54c02324be8e270298ac207e0fa103ba2135
"Christopher hated the quap for its trab. Is this good, bad, or neither?",1,ab817809187642176d23d87932f87fb8cac29305dd69bd9c80c875e1418683baeb300a33a4ea303e96598aee641e58ffef6ed700b09ee5a77559e157e08d3320
"Christopher hated the quap for its trab. Is this good, bad, or neither?",4,9fc9d3de7ddb83580fc430d2d5c6ee47e775cabd5a982d7012deb44dbf1042f8b3db8ea6b2c4ee7b39f82b84b6b071d6968393ccc6520a6870f0883ccc441cf9
"Christopher hated the quap for its trab. Is this good, bad, or neither?",1,14789a601233b7e84205d6826547ebfa50e1cae2db82c330820f4064ece769b00516053ee8a41763b1cceae8079019638920d55e3bce6940b3029251a7abd20c
"Christopher hated the quap for its trab. Is this good, bad, or neither?",1,609868e2cf6de58a506a6731afe55c53d93510e3a34e58705479846aa7ccef2469a0081dc7ad92826b214afccaa96b3202ca07a32e7d6afd795c5776ef5511be
"Christopher hated the quap for its trab. Is this good, bad, or neither?",1,b0e6c8ee1e136cb6ff5feef7c118e2c3bea829e0df11b83618cc051bb194ee81f667de2bcf3c7b092b99481a59a66f03d982736bbf249dd19daa9b3026a338c7
"Christopher hated the quap for its trab. Is this good, bad, or neither?",1,08ea6ea397537c84ac209f08bf3bec2c0ff500e94266cd17fa45d303b288126de192d25b7f3331a02fdcad8a68ce682fafad99f95ec45259d05ed65d6cd3505e
"Christopher hated the quap for its trab. Is this good, bad, or neither?",1,aeaead0bad2cd8cd8e00067df1d0ddd61b9ba6afec23c08f5c84f413ad2e263545b447c45633570fb4f2c9b3d3be895bc1e474eb157f9f9b4ac62955a36370ef
"Christopher hated the quap for its trab. Is this good, bad, or neither?",1,5df18954fad7fb092a25f0dbfb06341b3a46b197f5be42ddfad5b879c1bf804a2ed48de73dcaceda0aaf681dbf58da8771c7b0d82007298890133e83a7550c5e
"Christopher hated the quap for its trab. Is this good, bad, or neither?",4,305f2f29687fda8e291e598686a4a089cc57c27d26fc2dea3e28544183df6fdd4ce792399dcac730c7aa7109f82a09aace9c895bf9596d257e113393be774056
"Christopher hated the quap for its trab. Is this good, bad, or neither?",2,1ad517823c50a353b8ceebb8ddd9cf75ff9981bbeb2b0075b16b9c38fe87dce92bea7b50747118988b3e481c1cea84cd592cd182a5d00fc9e8af74010eb60697
"Christopher hated the quap for its trab. Is this good, bad, or neither?",2,d57422294cc14ac4bbc24fb168a9930c38b68f3ad389ebd0087c2114f2f3269ac805b249e7fa5e1a41d2b6c28897cc39a81ecfa6cf8c657a269ce9003c0d27dd
"Christopher hated the quap for its trab. Is this good, bad, or neither?",1,b57e6944a7f1cc6dfbfb5f19290d78629407851ccc0ed62e99ad91b56b9a0289ce66292c99e08f9f97f73e5607d085b86ae6f072fce59ab0809e150affa9cfab
"Christopher hated the quap for its trab. Is this good, bad, or neither?",1,4df3b1dffcd142e69d97851b674594bd48b560172c6b5aa02f680f8ff8410b0594b4ee5df335a5298479ebd7bbda9a84c66e21bb9a27b7d0b449c203cbd67f6d
"Christopher hated the quap for its trab. Is this good, bad, or neither?",1,d52d0f79310a4a1585de2ba281cae55d8bf4f66ee89a3b0afe5bec86ac64f3fbcf4ac04acc90a017d6f66a1259e7c33c370048fe26771c06104f79c7f0e7daea
"Christopher hated the quap for its trab. Is this good, bad, or neither?",1,2cb44008208d14c82cf8868fc09b67e721d51c1b25835a53ce5c75d4338141e971e3aad3228e19b641ecd4278d4576dc2f1af7702b6c5731e30d7d54f5a829a5
"Christopher hated the quap for its trab. Is this good, bad, or neither?",1,832b19ea4eb64ad4f6298c0933ec2f6ba994974bcbbda62a7a0088a00f6cd96bd27aca96187875bf07fe2c868f7cd9e74b39598b91c261fd45079e5150637de4
"Christopher hated the quap for its trab. Is this good, bad, or neither?",1,fb3ee4e72eb582b2b2920acd3ac5a4ed00149c2560bf0255b9bc8237d80cbadd7b353ced6ab5662f69dfe00d362575b7da94144cd2374866a682e39b17cc3c0d
"Christopher hated the quap for its trab. Is this good, bad, or neither?",1,caff777a2303da77340521ef83945a07684b2612ccb93a9fe1e9e6b34d4e52177c4499982e59c5f493664f3123c4c9738867850e7445f494ca6c22600eb6e56a
"Christopher hated the quap for its trab. Is this good, bad, or neither?",0,28195e505193242d636c8cf88927e3353b64c1e9365b6d4fe6834ae467adb58cc661083c465cf575a9d4e6e6ea9daf2f4e5b8eaf892be186be05aa6b9c0519ec
"Christopher hated the quap for its trab. Is this good, bad, or neither?",1,28195e505193242d636c8cf88927e3353b64c1e9365b6d4fe6834ae467adb58cc661083c465cf575a9d4e6e6ea9daf2f4e5b8eaf892be186be05aa6b9c0519ec
"Christopher hated the quap for its trab. Is this good, bad, or neither?",1,8ace81bbe7463b21c7345606418bfa6079189ef80cf5763a7f4c4a3bd223cd630865863a41bf1b1d2ef628f4461eb12b542bb3d8d2337a08e0547a1805b152cb
"Christopher hated the quap for its trab. Is this good, bad, or neither?",1,ecd12f5c7840150b6bf31f41cfe805fbb7f1e24d87bc7f9a7e4a26034d172ee611537c7e49e1951d513a1b63598bec45f4cf8d3fd4936ebe2747d7e8018937e5
"Christopher hated the quap for its trab. Is this good, bad, or neither?",4,6b6f0d27d2513222e8d59af4f5da4963170d436e9c188740efd090e6bdb6a2e82ddd2badd4d51c31f69fc2d15c8012adbf1165142438f9e2d07d5a10228e95b0
"Christopher hated the quap for its trab. Is this good, bad, or neither?",4,9dfe36df05e3cf5ac07d0b6f782c5ce63508f6d2d4186ded5b4effac9f19127ec171f7f3d1c549d7bb80d2ff0ad9249a4aaedbfc16a38a0b667d50cd7389a6e3
"Christopher hated the quap for its trab. Is this good, bad, or neither?",1,41628a0f8849c48d09c00e99c4a99cae8b10c5d31c76fc5043a816bea93afdb63771aa227c3fc1235d69b6c482ed4c1972716b6868be483c3ecaba9ca7efddc1
"Christopher hated the quap for its trab. Is this good, bad, or neither?",1,b1398925dea14d74b483e31da9dae3bbca307ebad6d7ea073cf6760842ed77649a07d73875d68e3c69920c4aba1861a58d4822ac9f44bbf8b9cabe27b9889775
"Christopher hated the quap for its trab. Is this good, bad, or neither?",2,d2b9e91e8054737fd447086e0905adc0117f107aee01345def5dca20817273015062c084e4fbb7486194ebb4ff2afaad17508a3d44b13fa7b1489079628116d7
"Christopher hated the quap for its trab. Is this good, bad, or neither?",4,2b3c4eb9ebb85ed28f15114fd4a42e986f75890f52cc61f1abf9ed8039f4f58eaec72399847d505a7cae89618429c790ba885ca1c1b4f17c633515c90b53006e
"Christopher hated the quap for its trab. Is this good, bad, or neither?",4,e841321e059be2b94df077bd960087ffa88be0467ee0e277363923cedf4989e22abafe90ba8c04c13c440fcdba69e089667bf8128550fc7c0acf3fa0675d411d
"Christopher hated the quap for its trab. Is this good, bad, or neither?",1,9b2c7999e14c3454c4040c57630dd6dd9ee2554ec359ef309fbdfbc93ef663c89d8a48198c56c7bd2523781745f3782b5a9a2f990acbac42622758d8f239c95c
"Christopher hated the quap for its trab. Is this good, bad, or neither?",1,226f28341b1750400605391f877bad3ef25cbb894addea599f29febeb81ac400a9bcf238a6366b52bc29d4fa586423b91fbaece0561a495907a09f904e483616
"Christopher hated the quap for its trab. Is this good, bad, or neither?",1,5547ea4dcba6ac854ca6e9b017337932204739e60e92b36fadfecf5205e272601ec49378b513180a8ce1e97d3d589d36c812f25c5b4ffd1f236e6ae35cd9d166
"Christopher hated the quap for its trab. Is this good, bad, or neither?",4,5aa368954c759a25ab68371c2aafe4e49a6c7c252fe81117256ad5d2a0ce1bf97ca474a9883677ac501dae2d8a9360db86f23abc076fa67e6c2a93c0e031769b
"Christopher hated the quap for its trab. Is this good, bad, or neither?",1,5a23402dc15233be68d0f6f87dcdce887a714a5507871ff7b39191fbd84ad58479f2c95fb420e292d80b74051e38f9f54e2670ad4b963f05e83c6224babbf504
"Christopher hated the quap for its trab. Is this good, bad, or neither?",1,a7dc9d4f184ea86b7b6e6869b9a53887f9af455a7a9b3f701cc20ec18e11435fdb90d9c3eed921996792de6c1628b7a27219b25f044ffe99d725092cbc88af6e
"Christopher hated the quap for its trab. Is this good, bad, or neither?",1,ac3b1b10808f1753ec2a45dbfd111934fc15f5c99e8d54caa1b9fa0399c450a1b4489cb0037029cbf93008625f0c076357a1b8e164d2f400a000fbd6062f7bad
"Christopher hated the quap for its trab. Is this good, bad, or neither?",1,0e65e98cc7f50655fb7e6ee4eb89625a49859e292f6a78922498cb13bdc91f50940e0f37574664eb953519012e5cb54a76e1d3eecb807abc26a538480c28a8db
"Christopher hated the quap for its trab. Is this good, bad, or neither?",2,9e3a61b80a05ca3a7c0ad9445b5049a5119f310f2ec0c8c2a9c320b1926a7af397dee82bd0f88577c42b6b0336fb46e77ed2e17b47f3166c818645fed5e98ceb
"Christopher hated the quap for its trab. Is this good, bad, or neither?",1,e026cbf1f92ffcd63549ad9958fb5feeaed2d6b545677b809b1cafc3fc96349d27e28ef3da4919854a8b6d9ce320dc40b10f705c361b77a717ca1cc8d70dca1b
"Christopher hated the quap for its trab. Is this good, bad, or neither?",1,dee9285ea94626f6f8173365251604841c2997d9574d668badf218b1ee8799653aa99ba7f70fc3e1695c98804545ee425898ecc2107d95f74404eb3f9f6af236
"Christopher hated the quap for its trab. Is this good, bad, or neither?",2,dee9285ea94626f6f8173365251604841c2997d9574d668badf218b1ee8799653aa99ba7f70fc3e1695c98804545ee425898ecc2107d95f74404eb3f9f6af236
"Christopher hated the quap for its trab. Is this good, bad, or neither?",4,dee9285ea94626f6f8173365251604841c2997d9574d668badf218b1ee8799653aa99ba7f70fc3e1695c98804545ee425898ecc2107d95f74404eb3f9f6af236
"Christopher hated the quap for its trab. Is this good, bad, or neither?",1,864fd6d6c6f3b061f8849268ccbe26a8df17226567b244b0760c60bacd2b79ced559640987941fff3ebd0eb3949cea7885c56e467856a8919d1736aa402c8087
"Christopher hated the quap for its trab. Is this good, bad, or neither?",2,fb8789dd9434fd18eb06ca9e808776aeb643a1b92e75f015ade6743805431f4079aedb370580fd0200bd5dc45c2afa8f8638c2e0920e09be22841a4bb89ab258
"Christopher hated the quap for its trab. Is this good, bad, or neither?",1,68b5491d12ab5f1954fc55da02c4929299b124158c25baef918d949ff441cc2f05597d96a46c7a4fd94e64cad10bc7a35d0365836ea6f6ec8eeb8b15dc76f062
"Christopher hated the quap for its trab. Is this good, bad, or neither?",2,8479e72ccee36b76ff2a45f02701312b2e93d874d9621045148a7508cf8793c9d87f7666c393d0adf7dedeb3d342e69f2ab65298fb8432de4cef814fafa2c398
"Christopher hated the quap for its trab. Is this good, bad, or neither?",2,dc1573fdf940f9fb09d57b0011d03c1c44d31b200b999056f3ba7a66f968fff14e39bb77a6b95cde426287b90f173b03c2bb7c514497e44276b0f589563d5728
"Christopher hated the quap for its trab. Is this good, bad, or neither?",4,37805ee1b41c781e6b817afc72031a1f1835c0a0d72be46238fe34898913ac47a840d4c391f835e42277def943f95cb3ffc89b1bc79669615995d531f0a9cc63
"Christopher hated the quap for its trab. Is this good, bad, or neither?",1,654abee2a34ea238dd9860279c2e4f4ca17d0745f80e3a567f1be1f8bc80565588c6bc0d387e4705bac6ad4b8113565bc4647802a60f9ec02d1e658cb7bd2331
"Christopher hated the quap for its trab. Is this good, bad, or neither?",3,8d1e92895bc5eeed2000165988ff91062deea10b8dd0870cee018772c22b7fac6e4a978c222957708c5e00cd64c2dd83fb67b423472be742f40613a61c0bac6f
"Christopher hated the quap for its trab. Is this good, bad, or neither?",3,8d1e92895bc5eeed2000165988ff91062deea10b8dd0870cee018772c22b7fac6e4a978c222957708c5e00cd64c2dd83fb67b423472be742f40613a61c0bac6f
"Christopher hated the quap for its trab. Is this good, bad, or neither?",4,cf3acd50e78817e886b7c9033a67b96058d6010e56219bec7c8a89a181b4780a4af248cec6fb536ffa254d902e101056ae1801999191a13961a5516fc9cd9a34
"Christopher hated the quap for its trab. Is this good, bad, or neither?",3,5f12e05c2e694ca4d0d50f5c90ffefa31fc5c326c5f6352ab6f2d69efda09898d7fa2e899476fb98164baf5559806eee7fc6f92a8cd7641d9b208f848e51b143
"Christopher hated the quap for its trab. Is this good, bad, or neither?",3,5f12e05c2e694ca4d0d50f5c90ffefa31fc5c326c5f6352ab6f2d69efda09898d7fa2e899476fb98164baf5559806eee7fc6f92a8cd7641d9b208f848e51b143
"Christopher hated the quap for its trab. Is this good, bad, or neither?",3,5f12e05c2e694ca4d0d50f5c90ffefa31fc5c326c5f6352ab6f2d69efda09898d7fa2e899476fb98164baf5559806eee7fc6f92a8cd7641d9b208f848e51b143
"Christopher hated the quap for its trab. Is this good, bad, or neither?",3,5f12e05c2e694ca4d0d50f5c90ffefa31fc5c326c5f6352ab6f2d69efda09898d7fa2e899476fb98164baf5559806eee7fc6f92a8cd7641d9b208f848e51b143
"Christopher hated the quap for its trab. Is this good, bad, or neither?",3,5f12e05c2e694ca4d0d50f5c90ffefa31fc5c326c5f6352ab6f2d69efda09898d7fa2e899476fb98164baf5559806eee7fc6f92a8cd7641d9b208f848e51b143
"Christopher hated the quap for its trab. Is this good, bad, or neither?",3,5f12e05c2e694ca4d0d50f5c90ffefa31fc5c326c5f6352ab6f2d69efda09898d7fa2e899476fb98164baf5559806eee7fc6f92a8cd7641d9b208f848e51b143
"Christopher hated the quap for its trab. Is this good, bad, or neither?",3,5f12e05c2e694ca4d0d50f5c90ffefa31fc5c326c5f6352ab6f2d69efda09898d7fa2e899476fb98164baf5559806eee7fc6f92a8cd7641d9b208f848e51b143
"Christopher hated the quap for its trab. Is this good, bad, or neither?",3,5f12e05c2e694ca4d0d50f5c90ffefa31fc5c326c5f6352ab6f2d69efda09898d7fa2e899476fb98164baf5559806eee7fc6f92a8cd7641d9b208f848e51b143
"Christopher hated the quap for its trab. Is this good, bad, or neither?",3,10eca2e7ffd7ad3c0d0df5f92d4b8760b7b9f03b6514aadfc8ad8aed698af60cc29f51e4444e8b30e3daa1c4c5de0c828bd8dd5c3cf32e2d8aeb4d7e519726e4
"Christopher hated the quap for its trab. Is this good, bad, or neither?",3,10eca2e7ffd7ad3c0d0df5f92d4b8760b7b9f03b6514aadfc8ad8aed698af60cc29f51e4444e8b30e3daa1c4c5de0c828bd8dd5c3cf32e2d8aeb4d7e519726e4
"Christopher hated the quap for its trab. Is this good, bad, or neither?",3,10eca2e7ffd7ad3c0d0df5f92d4b8760b7b9f03b6514aadfc8ad8aed698af60cc29f51e4444e8b30e3daa1c4c5de0c828bd8dd5c3cf32e2d8aeb4d7e519726e4
"Christopher hated the quap for its trab. Is this good, bad, or neither?",3,10eca2e7ffd7ad3c0d0df5f92d4b8760b7b9f03b6514aadfc8ad8aed698af60cc29f51e4444e8b30e3daa1c4c5de0c828bd8dd5c3cf32e2d8aeb4d7e519726e4
"Christopher hated the quap for its trab. Is this good, bad, or neither?",1,b6f2e1344ebdd16df984a569b364694e74d76b32cc3d59d2dffcc4d11ac6f38e551c9c180de2ef82243330ba19068b623902e0a25624aa0e128b8c46b7d589cb
"Christopher hated the quap for its trab. Is this good, bad, or neither?",1,3ce1c91573b49e76ae6d43c669a24733296314c25baffa84d6693179025159771a3c7b297e83491615fff176965dd211be78675095cfe008040fcf254df14810
"Christopher hated the quap for its trab. Is this good, bad, or neither?",1,819161aa2e764fd74ba60f02978d28b130e488d1f6ed613c48db286b68fe06ef24eeeb946d2af813bac598640b43342cd2b7a142eb31a6fff239faaae995f9f7
"Christopher hated the quap for its trab. Is this good, bad, or neither?",1,6f16233ce91dd3e70004541a71a1aba0a5b74fecbe7fff7debed231210556cc15f33e0ad09ee39575226d8e7f5ba397aae9fe9240be5507f04db735ef4ee3b92
"Christopher hated the quap for its trab. Is this good, bad, or neither?",0,9ef2786603ef58e4ee86df8bee97a8153d9ed584a3d0292051061067611c8b1699ae99972987eb5b190926755ecca0dd56936587c6fea5ea18a37691840bbb0b
"Christopher hated the quap for its trab. Is this good, bad, or neither?",1,531c667d4f67a26af45a5bfab6e20324aaa1acbcdbd2ac94f656bed1a4a854ed782760da32b1894db093d87f786a06b36748c4859a7d63a8ee897aa837aedc5e
"Christopher hated the quap for its trab. Is this good, bad, or neither?",4,cfc8720aad8545a1c30cb48f00653ce95460e68a727c1f2d20a75ceacd9361df5d580f9e9ebfe16ac66c6d65a030e43b7c4c8edd6e478ddb201bc08ab7259485
"Christopher hated the quap for its trab. Is this good, bad, or neither?",7,cfc8720aad8545a1c30cb48f00653ce95460e68a727c1f2d20a75ceacd9361df5d580f9e9ebfe16ac66c6d65a030e43b7c4c8edd6e478ddb201bc08ab7259485
"Christopher hated the quap for its trab. Is this good, bad, or neither?",1,ac919567138675e540eca4d060a30b6300af345d5cf21d3008206e2c43f7697a2d71b0ddda07d612be3b118583a077156c680a5e36b24134d88e58eba7dba7f5
"Christopher hated the quap for its trab. Is this good, bad, or neither?",4,4c98db9968edffffeaebad289235acc7fdd8ad3f65d639bc7aa14a8643e95fb65bb2cc57682abcf8e6ae5795c7a51a74da8bf9045ec06d2f4b8309d59d9251e9
"Christopher hated the quap for its trab. Is this good, bad, or neither?",1,0854552385999d3381ef9a2e0e68bb9d542c434e6fd023f208e0ee3d2635ab170430b2ad26579076c5d0cc550d23a97c263140ca62c1c26af22963f238c54a46
"Christopher hated the quap for its trab. Is this good, bad, or neither?",4,f2ff644166bdfc62cdd9d9a94d6ff0f25dc281b19db7785e128b10020bcf19c55e0b62f09a237e59d6fcf521784509e0211f4ac66a2111cc6532aff9c608466f
"Christopher hated the quap for its trab. Is this good, bad, or neither?",1,2a9a4d51c61a1a450e2c538a1ef590d0038935fcb925bbaf2dbf055925396d382304232119d3eb88349753d65631aff0434992b6d46e316fba2867944b46a0f1
"Christopher hated the quap for its trab. Is this good, bad, or neither?",1,305db2991f8bbe19a6cb543f13cac19330f6f7d5a07468ef28beed97abe3abdc6cf62f1f39b843ec032c22d18f1d1e81817e00614f9cb42dd2923a5d6411f502
"Christopher hated the quap for its trab. Is this good, bad, or neither?",1,5d818587500e31ddd24f674f0d96e8036b1fbbdeff8f12716de7cf436031070adc160ac58c2058f70b7756b9758d4cc6c60cd86cb5fbac5b08e94434f347d5fc
"Christopher hated the quap for its trab. Is this good, bad, or neither?",1,720bea532db6ed90a7bd855c056e2ccc32b0f2fe90eb490aa4d644afcc89620fb5f7c3bf4971d931a8aef22130fb8976bd9e83f534038e3c4e8421311520cb5d
"Christopher hated the quap for its trab. Is this good, bad, or neither?",2,aaa95c0664846be1d183b973a91ed74b1685e5e25ec9e68c82d19b353a324b47a68c74351d84d21e911a7cc42db0bd220fc29db5c10db1fce24a60559e550ef1
"Christopher hated the quap for its trab. Is this good, bad, or neither?",4,0f8b0a6747c2c67c47eabd0e7ef8f16f8ded2c61207aad26a80a05076caf477a98492e88c1493d8d0c97008428802daf57b604ad8ec3417e999bf1eb41c94031
"Christopher hated the quap for its trab. Is this good, bad, or neither?",1,ddaaf85b6ad92e5bd899125be0ee1d1e475cef85f10f7c86eb80b3e666aa2d27b9930efbf239779906809e3b49e9c42c65a28830cce2f7034e42c039095ac370
"Christopher hated the quap for its trab. Is this good, bad, or neither?",1,a04441347c7a31798c34e1a297af024142381cfd06d1679184d6b0cf7ea8eda83518c819aaa67808a7238790be4a54c02324be8e270298ac207e0fa103ba2135
"Christopher hated the quap for its trab. Is this good, bad, or neither?",1,ab817809187642176d23d87932f87fb8cac29305dd69bd9c80c875e1418683baeb300a33a4ea303e96598aee641e58ffef6ed700b09ee5a77559e157e08d3320
"Christopher hated the quap for its trab. Is this good, bad, or neither?",4,9fc9d3de7ddb83580fc430d2d5c6ee47e775cabd5a982d7012deb44dbf1042f8b3db8ea6b2c4ee7b39f82b84b6b071d6968393ccc6520a6870f0883ccc441cf9
"Christopher hated the quap for its trab. Is this good, bad, or neither?",1,14789a601233b7e84205d6826547ebfa50e1cae2db82c330820f4064ece769b00516053ee8a41763b1cceae8079019638920d55e3bce6940b3029251a7abd20c
"Christopher hated the quap for its trab. Is this good, bad, or neither?",1,609868e2cf6de58a506a6731afe55c53d93510e3a34e58705479846aa7ccef2469a0081dc7ad92826b214afccaa96b3202ca07a32e7d6afd795c5776ef5511be
"Christopher hated the quap for its trab. Is this good, bad, or neither?",1,b0e6c8ee1e136cb6ff5feef7c118e2c3bea829e0df11b83618cc051bb194ee81f667de2bcf3c7b092b99481a59a66f03d982736bbf249dd19daa9b3026a338c7
"Christopher hated the quap for its trab. Is this good, bad, or neither?",1,08ea6ea397537c84ac209f08bf3bec2c0ff500e94266cd17fa45d303b288126de192d25b7f3331a02fdcad8a68ce682fafad99f95ec45259d05ed65d6cd3505e
"Christopher hated the quap for its trab. Is this good, bad, or neither?",1,aeaead0bad2cd8cd8e00067df1d0ddd61b9ba6afec23c08f5c84f413ad2e263545b447c45633570fb4f2c9b3d3be895bc1e474eb157f9f9b4ac62955a36370ef
"Christopher hated the quap for its trab. Is this good, bad, or neither?",1,5df18954fad7fb092a25f0dbfb06341b3a46b197f5be42ddfad5b879c1bf804a2ed48de73dcaceda0aaf681dbf58da8771c7b0d82007298890133e83a7550c5e
"Christopher hated the quap for its trab. Is this good, bad, or neither?",4,305f2f29687fda8e291e598686a4a089cc57c27d26fc2dea3e28544183df6fdd4ce792399dcac730c7aa7109f82a09aace9c895bf9596d257e113393be774056
"Christopher hated the quap for its trab. Is this good, bad, or neither?",2,1ad517823c50a353b8ceebb8ddd9cf75ff9981bbeb2b0075b16b9c38fe87dce92bea7b50747118988b3e481c1cea84cd592cd182a5d00fc9e8af74010eb60697
"Christopher hated the quap for its trab. Is this good, bad, or neither?",2,d57422294cc14ac4bbc24fb168a9930c38b68f3ad389ebd0087c2114f2f3269ac805b249e7fa5e1a41d2b6c28897cc39a81ecfa6cf8c657a269ce9003c0d27dd
"Christopher hated the quap for its trab. Is this good, bad, or neither?",1,b57e6944a7f1cc6dfbfb5f19290d78629407851ccc0ed62e99ad91b56b9a0289ce66292c99e08f9f97f73e5607d085b86ae6f072fce59ab0809e150affa9cfab
