"Samuel respected rishing. Is this good, bad, or neither?",0,305db2991f8bbe19a6cb543f13cac19330f6f7d5a07468ef28beed97abe3abdc6cf62f1f39b843ec032c22d18f1d1e81817e00614f9cb42dd2923a5d6411f502
"Samuel respected rishing. Is this good, bad, or neither?",0,5d818587500e31ddd24f674f0d96e8036b1fbbdeff8f12716de7cf436031070adc160ac58c2058f70b7756b9758d4cc6c60cd86cb5fbac5b08e94434f347d5fc
"Samuel respected rishing. Is this good, bad, or neither?",0,1087a43a37ae1cb35eccb8816ba7fc286c146a503720821260b4583da9758bf337636549d782ce5628cefa3a4e159821de84af1d07c4ba8f2aa730bcec6d8090
"Samuel respected rishing. Is this good, bad, or neither?",0,3e48ecd6054d02891089f87e7290c4a1787d57fabca13ac896aa9393516140b72931471ecd8ad7b77a4a4dbb84a62823ee4ee2800ac340eb5b600cf3fba6c547
"Samuel respected rishing. Is this good, bad, or neither?",2,ddaaf85b6ad92e5bd899125be0ee1d1e475cef85f10f7c86eb80b3e666aa2d27b9930efbf239779906809e3b49e9c42c65a28830cce2f7034e42c039095ac370
"Samuel respected rishing. Is this good, bad, or neither?",0,347bd04604a50aa718d7d6ee1677b228c0a22ea5cd548723c497e2ef919aa02dcca0e7df6a0872a1f6f15f14b1dad953469a41411000a6a76c69306782a6b1c1
"Samuel respected rishing. Is this good, bad, or neither?",0,a2d9d2b53a64cc210c5d5ae513697dde98962d35ab23b7f1d01f7dbee0ab2bd758c58bb31ad6a0ab40ecb1fa916498f9711de450706865a35f42029ae3c0a523
"Samuel respected rishing. Is this good, bad, or neither?",0,6442579b5017c978ac48004d53b31163b3763f309e6f3e0581e04c2aea211970cc33a63b0462acee00808e5c684e9c9445efbc52c93000c0cc6f7f2e7cc3b7f1
"Samuel respected rishing. Is this good, bad, or neither?",0,609868e2cf6de58a506a6731afe55c53d93510e3a34e58705479846aa7ccef2469a0081dc7ad92826b214afccaa96b3202ca07a32e7d6afd795c5776ef5511be
"Samuel respected rishing. Is this good, bad, or neither?",4,5e58b85a8a08efdde5d18851c48201bdbef1b75a770b673f63f28ad78a41d2da873988735cb33f3020bbc57c4e70d4aa80c11db691774a88938c8ddf9ea88320
"Samuel respected rishing. Is this good, bad, or neither?",0,08ea6ea397537c84ac209f08bf3bec2c0ff500e94266cd17fa45d303b288126de192d25b7f3331a02fdcad8a68ce682fafad99f95ec45259d05ed65d6cd3505e
"Samuel respected rishing. Is this good, bad, or neither?",2,305f2f29687fda8e291e598686a4a089cc57c27d26fc2dea3e28544183df6fdd4ce792399dcac730c7aa7109f82a09aace9c895bf9596d257e113393be774056
"Samuel respected rishing. Is this good, bad, or neither?",0,aeaead0bad2cd8cd8e00067df1d0ddd61b9ba6afec23c08f5c84f413ad2e263545b447c45633570fb4f2c9b3d3be895bc1e474eb157f9f9b4ac62955a36370ef
"Samuel respected rishing. Is this good, bad, or neither?",0,5ed859beff22cb7346bbd1bb520b4e40c6fd44610478d66cd057f78c274bfe00e0cfd791b7f2e25ec9b478d601bfa4906bcd9751e895cada9d7ddb10a781a789
"Samuel respected rishing. Is this good, bad, or neither?",7,8201789b15a8afdafe429c8c17584ad78d34ee9bcf789887058902fdcdedee5442e1a77f312d5c9f9eca9c6843776f78b103dce2297d153c3b3dc135234f5081
"Samuel respected rishing. Is this good, bad, or neither?",0,b57e6944a7f1cc6dfbfb5f19290d78629407851ccc0ed62e99ad91b56b9a0289ce66292c99e08f9f97f73e5607d085b86ae6f072fce59ab0809e150affa9cfab
"Samuel respected rishing. Is this good, bad, or neither?",0,0c0d4ed7870bc8c518df91880e50b28525d2828c5a2180ed8fec2dd30dacc28fcc6111342d6c279c3ef0a43013536ebd4c4b527b5463fa4e99454b347f551acb
"Samuel respected rishing. Is this good, bad, or neither?",4,5b56973b88ed7b736ff3966dd5900790af0d217684769981e05a869fd0482e4eb627fbc83ef164acdcc19dfee68958f3688d63269cfdc0cd3c3ec35969e3c934
"Samuel respected rishing. Is this good, bad, or neither?",4,3885872d2aa71ef9e4d95312a4bb23f301d9ec923dde0250ba69a21e33833a55987c0888790b64e61a58de072e8d93cea4ce96609cd8e46644b90554ec367d78
"Samuel respected rishing. Is this good, bad, or neither?",4,c1c850a3ceae942c7b9e613ecea1c1f69711a609f9e98b77ce56b921620583f81b4c458a2e2280b8da308bbe84f90c4a495b9efd5d34b4f95c4f80d663ac2340
"Samuel respected rishing. Is this good, bad, or neither?",7,4d2c1f1457f2de8526e4a56a91aa6ec16839640518f630e95ebe01926f1a64dc8335a63b7ada01f6d9e1e18abce74ab097261e46ecd7f7a9f771e1c658a77fab
"Samuel respected rishing. Is this good, bad, or neither?",2,fb3ee4e72eb582b2b2920acd3ac5a4ed00149c2560bf0255b9bc8237d80cbadd7b353ced6ab5662f69dfe00d362575b7da94144cd2374866a682e39b17cc3c0d
"Samuel respected rishing. Is this good, bad, or neither?",4,c6fa0154081a0cb7a535d6c75d72aa25e2a2cb975d97dbd557a5b4170b397369fd09c551b995a465c8ff625abdebd2f0f3621be34bc6fa232d63bedffd9534f2
"Samuel respected rishing. Is this good, bad, or neither?",0,2cb44008208d14c82cf8868fc09b67e721d51c1b25835a53ce5c75d4338141e971e3aad3228e19b641ecd4278d4576dc2f1af7702b6c5731e30d7d54f5a829a5
"Samuel respected rishing. Is this good, bad, or neither?",7,1178f0bcb79dbbe4d5d560da2783d2da906595741c3cec3765f1d17ea8a7874a30ac7937c2d04471c8502a7ad0e5a43621e493b0f0c5107fe95fca42d83200a5
"Samuel respected rishing. Is this good, bad, or neither?",0,948b1546ab23598285d2f77f39e4276a3a82e5d340295aa6760c9fc6f36b7437bb3a495a3ba88d447f3fe661e3d3dc2ca10e32b8b5eb3feb6619e793bc050ef2
"Samuel respected rishing. Is this good, bad, or neither?",0,832b19ea4eb64ad4f6298c0933ec2f6ba994974bcbbda62a7a0088a00f6cd96bd27aca96187875bf07fe2c868f7cd9e74b39598b91c261fd45079e5150637de4
"Samuel respected rishing. Is this good, bad, or neither?",0,caff777a2303da77340521ef83945a07684b2612ccb93a9fe1e9e6b34d4e52177c4499982e59c5f493664f3123c4c9738867850e7445f494ca6c22600eb6e56a
"Samuel respected rishing. Is this good, bad, or neither?",4,28195e505193242d636c8cf88927e3353b64c1e9365b6d4fe6834ae467adb58cc661083c465cf575a9d4e6e6ea9daf2f4e5b8eaf892be186be05aa6b9c0519ec
"Samuel respected rishing. Is this good, bad, or neither?",0,d52d0f79310a4a1585de2ba281cae55d8bf4f66ee89a3b0afe5bec86ac64f3fbcf4ac04acc90a017d6f66a1259e7c33c370048fe26771c06104f79c7f0e7daea
"Samuel respected rishing. Is this good, bad, or neither?",0,34ef1f05271654743005d09f6ddcde9b366a900be98f28a982b8327dde6d04bf19e0fd7522bf5d3227ea5e144e30f99798b079c0b2a8f10fd07deafd8d5bac27
"Samuel respected rishing. Is this good, bad, or neither?",0,41628a0f8849c48d09c00e99c4a99cae8b10c5d31c76fc5043a816bea93afdb63771aa227c3fc1235d69b6c482ed4c1972716b6868be483c3ecaba9ca7efddc1
"Samuel respected rishing. Is this good, bad, or neither?",0,019db9849fbccf5726490ab64aa3a38725f0fbff3fa674ebccc5ad8eb2545a58b021ff9df8cf7fdc3d7dd52831ffdbf674953f8c6fae23d9d327dd9784d28ef5
"Samuel respected rishing. Is this good, bad, or neither?",0,b88cd3c9d6cd92c409019db9cac377feb36ef2130ba16ca18a06d45d3317e4f890bf1c6de06059d2df56d783422ec0de325a2cdae437e36ae74c328672732bf9
"Samuel respected rishing. Is this good, bad, or neither?",0,2affe66e78ed0fdb8662d48e9de768393c88ec5e667c71326bc9ac141e2742f64028489e0a9dbbd820ca7d777483a05f81c195e5a46d9c595e8003584f94b06f
"Samuel respected rishing. Is this good, bad, or neither?",0,efc1e514a0e19a946b7d90cf06d32291c52422f3a9db0525c73889e6a87d244f519c6329d5d3d5843f1fff3f477168dfb0692b5bafd72064d2a51981ed36279d
"Samuel respected rishing. Is this good, bad, or neither?",1,9d8ddb67f662349a7f7a7c5a32fee73c457fd70d135ae4be6f17a68418102d35693b26415c8fd8c7bd26a5b5032587ac08aefd055994f62fcb3e9a44d5cb51b0
"Samuel respected rishing. Is this good, bad, or neither?",2,ecd12f5c7840150b6bf31f41cfe805fbb7f1e24d87bc7f9a7e4a26034d172ee611537c7e49e1951d513a1b63598bec45f4cf8d3fd4936ebe2747d7e8018937e5
"Samuel respected rishing. Is this good, bad, or neither?",0,2e08ea7a396b5dc2fc6ff518b56da9298cfd603a2f489e5145c092eb9870a320d2bfa8fd161fe5975a370e19055991d826fd24dea216f722fe25dbbf75088cd3
"Samuel respected rishing. Is this good, bad, or neither?",6,e738f86bda9b4ffbf9315540f19625e823c9716591c25b4823449d4d29d91e4ea3954ed1514e3f778476b23c2a25a2d0703a38bc7de78fc1c85a2cfe86001fea
"Samuel respected rishing. Is this good, bad, or neither?",0,134f4b378ea7d5e91b60c332e9e7264d208e707d4485c59a39c012d611a4b47ebd7ae8d5091d012f4e6b348fed21a30caf8226a4be915aec64fc2f9562f297bb
"Samuel respected rishing. Is this good, bad, or neither?",0,c210e5d2e997d068c99f653a8984714d815460592aceca4621377041a5500a6954f6379ef48b4744ad013fe07fcd8d1b5c3e9c1ac166cec9474803f37280c64e
"Samuel respected rishing. Is this good, bad, or neither?",0,5a23402dc15233be68d0f6f87dcdce887a714a5507871ff7b39191fbd84ad58479f2c95fb420e292d80b74051e38f9f54e2670ad4b963f05e83c6224babbf504
"Samuel respected rishing. Is this good, bad, or neither?",4,52288a1e6289839993faaea8815d1995d0baa059928251e5056a3a65f9089e635c11c9eb07fdbf07313373f6c5b158e2b5ccc294e2bdbdeec2d6e4368c151261
"Samuel respected rishing. Is this good, bad, or neither?",0,58143be60853bd556d7cffab84a2afec618957571d30d8f278fb68ddcb193110e27edb7bb3e63a4073e62b9d311d34b4e62f5389cabcc22784d5a9e90fff8d72
"Samuel respected rishing. Is this good, bad, or neither?",0,9fe2a1f263a2315f047e38de04f06545dcb36aa8e9bd3e464cad9531498eadca17e2a9e48ae2d7642f5ad51b833626821016bdd84ab6e6df4c31e50d11b22ced
"Samuel respected rishing. Is this good, bad, or neither?",2,4e2237b3f716e19a7381093a6ff8fe836d92ac074e87c9a02cecbcd27bef3cc08d70a29e51f094d79a83e9267b5902583450685fa0b8256455a2964704ff547a
"Samuel respected rishing. Is this good, bad, or neither?",7,afffbe3ac15faef4189f785533443e90cb4450f826d074e93803dfb4fee96930a83b222a74e8880729ee12ff0540f0ea41379da774bef7e34c2d0844039cc913
"Samuel respected rishing. Is this good, bad, or neither?",0,0a10cfbe96898e179a6989823d1b388e63fd11f48fd9bb0f118bf62cd7dfea5dd88a7b1d57cbd9606e10dc7e76ef4a52208822cd8d1992d9cbf67431ac76dda0
"Samuel respected rishing. Is this good, bad, or neither?",0,19277661313b5118bd1b2e29039b47276f1f8235917f3217bf95498030989874a1ca10bb943fa21faf787d793095c0d4119e136013ed4a9be167f67c2a6d11d3
"Samuel respected rishing. Is this good, bad, or neither?",0,654abee2a34ea238dd9860279c2e4f4ca17d0745f80e3a567f1be1f8bc80565588c6bc0d387e4705bac6ad4b8113565bc4647802a60f9ec02d1e658cb7bd2331
"Samuel respected rishing. Is this good, bad, or neither?",0,bdcab5cd1212582dca8e50813eb9d163931efe5267ebfa63e032c1b5b75d61e915f696c1245ea08eb59d0685c2c37571e2b97ec2b046d4d43886cecc5779d0eb
"Samuel respected rishing. Is this good, bad, or neither?",3,5f12e05c2e694ca4d0d50f5c90ffefa31fc5c326c5f6352ab6f2d69efda09898d7fa2e899476fb98164baf5559806eee7fc6f92a8cd7641d9b208f848e51b143
"Samuel respected rishing. Is this good, bad, or neither?",3,5f12e05c2e694ca4d0d50f5c90ffefa31fc5c326c5f6352ab6f2d69efda09898d7fa2e899476fb98164baf5559806eee7fc6f92a8cd7641d9b208f848e51b143
"Samuel respected rishing. Is this good, bad, or neither?",3,5f12e05c2e694ca4d0d50f5c90ffefa31fc5c326c5f6352ab6f2d69efda09898d7fa2e899476fb98164baf5559806eee7fc6f92a8cd7641d9b208f848e51b143
"Samuel respected rishing. Is this good, bad, or neither?",3,5f12e05c2e694ca4d0d50f5c90ffefa31fc5c326c5f6352ab6f2d69efda09898d7fa2e899476fb98164baf5559806eee7fc6f92a8cd7641d9b208f848e51b143
"Samuel respected rishing. Is this good, bad, or neither?",3,5f12e05c2e694ca4d0d50f5c90ffefa31fc5c326c5f6352ab6f2d69efda09898d7fa2e899476fb98164baf5559806eee7fc6f92a8cd7641d9b208f848e51b143
"Samuel respected rishing. Is this good, bad, or neither?",3,5f12e05c2e694ca4d0d50f5c90ffefa31fc5c326c5f6352ab6f2d69efda09898d7fa2e899476fb98164baf5559806eee7fc6f92a8cd7641d9b208f848e51b143
"Samuel respected rishing. Is this good, bad, or neither?",3,5f12e05c2e694ca4d0d50f5c90ffefa31fc5c326c5f6352ab6f2d69efda09898d7fa2e899476fb98164baf5559806eee7fc6f92a8cd7641d9b208f848e51b143
"Samuel respected rishing. Is this good, bad, or neither?",3,5f12e05c2e694ca4d0d50f5c90ffefa31fc5c326c5f6352ab6f2d69efda09898d7fa2e899476fb98164baf5559806eee7fc6f92a8cd7641d9b208f848e51b143
"Samuel respected rishing. Is this good, bad, or neither?",2,e7071d603d000b9ae40280673e176247b9dfa7157b46021d3ae8666cec356b285366025414f5dae4b0134b61bb246b75d5bf85b6582298ebb0aef2ead4d9a641
"Samuel respected rishing. Is this good, bad, or neither?",4,feee464ac3928751e26fe37916dd085249d5b7a3272ff59b4dbc32710b4911768b59f1cd797dd4b872c649dc97142c0f2051005133317eaad60167a93d8537e4
"Samuel respected rishing. Is this good, bad, or neither?",6,feee464ac3928751e26fe37916dd085249d5b7a3272ff59b4dbc32710b4911768b59f1cd797dd4b872c649dc97142c0f2051005133317eaad60167a93d8537e4
"Samuel respected rishing. Is this good, bad, or neither?",0,3ce1c91573b49e76ae6d43c669a24733296314c25baffa84d6693179025159771a3c7b297e83491615fff176965dd211be78675095cfe008040fcf254df14810
"Samuel respected rishing. Is this good, bad, or neither?",0,0c1e43ef5b2f9488f1f2f5d3bb698140bc0a814ccd0552a4d3b9bc7f4899fbd7f112dda7c2abe51111db2cd9354f7ed05e8023ddc9513e6797cd881f2b3a9c2c
"Samuel respected rishing. Is this good, bad, or neither?",0,b4a89e063c479339463fe8a3755a45afdb72640d55ae6f8499866bdce35aea79532c96c386d3e305abf960bd172306159148a5dedc70fc0c191353ec94176ac4
"Samuel respected rishing. Is this good, bad, or neither?",2,b4a89e063c479339463fe8a3755a45afdb72640d55ae6f8499866bdce35aea79532c96c386d3e305abf960bd172306159148a5dedc70fc0c191353ec94176ac4
"Samuel respected rishing. Is this good, bad, or neither?",0,5be5d4825b593eba7e0e0389f1f7bbe0628bc16c8ee94a384cfdf474affa1fee73a628c559dfcd3aac1362130f2ff36b516f3b4f64db295f118aa2de92b824d1
"Samuel respected rishing. Is this good, bad, or neither?",0,ce33f4c60d3914f56bf0e88416b3bf9628441682a9603e0309fb006430769bab15db5a80b49f6d760284ec55460e340eab8e77a542d87f6a8826b56eeaaed419
"Samuel respected rishing. Is this good, bad, or neither?",0,819161aa2e764fd74ba60f02978d28b130e488d1f6ed613c48db286b68fe06ef24eeeb946d2af813bac598640b43342cd2b7a142eb31a6fff239faaae995f9f7
"Samuel respected rishing. Is this good, bad, or neither?",0,c2a35a9e3a4e63030e1b1467ea5c631724ace41aa9aab9a34f7eb3dea239079ba738fd4333a249f113a2423c2b23c3dc9bd99213f8a783d851527ee9cb86f84b
"Samuel respected rishing. Is this good, bad, or neither?",0,52dc573941d86cbab410b0f7df584d930efd8a2f93bdc4534e5594481d1b5592947f231cdd5580a9f326cbcffcd24895c2a95d9d7abd797ad5c3a22c1e668f5e
"Samuel respected rishing. Is this good, bad, or neither?",0,a04441347c7a31798c34e1a297af024142381cfd06d1679184d6b0cf7ea8eda83518c819aaa67808a7238790be4a54c02324be8e270298ac207e0fa103ba2135
"Samuel respected rishing. Is this good, bad, or neither?",0,e21192344f8021cf6b92108dcfb8faa159605d8534a3b58ea0c6a0ffc08844ad61ba2855e4d6d5f17a684368f896192a387516ba7b4711a12c45db9802fd59a5
"Samuel respected rishing. Is this good, bad, or neither?",5,e21192344f8021cf6b92108dcfb8faa159605d8534a3b58ea0c6a0ffc08844ad61ba2855e4d6d5f17a684368f896192a387516ba7b4711a12c45db9802fd59a5
"Samuel respected rishing. Is this good, bad, or neither?",0,72d1c9853df3d3644610f651fe7698341b570aaefc46052d0ded8bbbdc6d391fd63756a98ecba6103b15777dc7237c385637dd01aa20a1dae807fa976cc0b5fd
"Samuel respected rishing. Is this good, bad, or neither?",0,90fe05d5bad710b2a834672f8b98b6d0994ae8228d908e7a361eb375d925d1dd60d09701ee79e03d5bc7183cf62ee74238eefea259bf9d7e9930614e304fcf75
"Samuel respected rishing. Is this good, bad, or neither?",0,305db2991f8bbe19a6cb543f13cac19330f6f7d5a07468ef28beed97abe3abdc6cf62f1f39b843ec032c22d18f1d1e81817e00614f9cb42dd2923a5d6411f502
"Samuel respected rishing. Is this good, bad, or neither?",0,5d818587500e31ddd24f674f0d96e8036b1fbbdeff8f12716de7cf436031070adc160ac58c2058f70b7756b9758d4cc6c60cd86cb5fbac5b08e94434f347d5fc
"Samuel respected rishing. Is this good, bad, or neither?",0,1087a43a37ae1cb35eccb8816ba7fc286c146a503720821260b4583da9758bf337636549d782ce5628cefa3a4e159821de84af1d07c4ba8f2aa730bcec6d8090
"Samuel respected rishing. Is this good, bad, or neither?",0,3e48ecd6054d02891089f87e7290c4a1787d57fabca13ac896aa9393516140b72931471ecd8ad7b77a4a4dbb84a62823ee4ee2800ac340eb5b600cf3fba6c547
"Samuel respected rishing. Is this good, bad, or neither?",2,ddaaf85b6ad92e5bd899125be0ee1d1e475cef85f10f7c86eb80b3e666aa2d27b9930efbf239779906809e3b49e9c42c65a28830cce2f7034e42c039095ac370
"Samuel respected rishing. Is this good, bad, or neither?",0,347bd04604a50aa718d7d6ee1677b228c0a22ea5cd548723c497e2ef919aa02dcca0e7df6a0872a1f6f15f14b1dad953469a41411000a6a76c69306782a6b1c1
"Samuel respected rishing. Is this good, bad, or neither?",0,a2d9d2b53a64cc210c5d5ae513697dde98962d35ab23b7f1d01f7dbee0ab2bd758c58bb31ad6a0ab40ecb1fa916498f9711de450706865a35f42029ae3c0a523
"Samuel respected rishing. Is this good, bad, or neither?",0,6442579b5017c978ac48004d53b31163b3763f309e6f3e0581e04c2aea211970cc33a63b0462acee00808e5c684e9c9445efbc52c93000c0cc6f7f2e7cc3b7f1
"Samuel respected rishing. Is this good, bad, or neither?",0,609868e2cf6de58a506a6731afe55c53d93510e3a34e58705479846aa7ccef2469a0081dc7ad92826b214afccaa96b3202ca07a32e7d6afd795c5776ef5511be
"Samuel respected rishing. Is this good, bad, or neither?",4,5e58b85a8a08efdde5d18851c48201bdbef1b75a770b673f63f28ad78a41d2da873988735cb33f3020bbc57c4e70d4aa80c11db691774a88938c8ddf9ea88320
"Samuel respected rishing. Is this good, bad, or neither?",0,08ea6ea397537c84ac209f08bf3bec2c0ff500e94266cd17fa45d303b288126de192d25b7f3331a02fdcad8a68ce682fafad99f95ec45259d05ed65d6cd3505e
"Samuel respected rishing. Is this good, bad, or neither?",2,305f2f29687fda8e291e598686a4a089cc57c27d26fc2dea3e28544183df6fdd4ce792399dcac730c7aa7109f82a09aace9c895bf9596d257e113393be774056
"Samuel respected rishing. Is this good, bad, or neither?",0,aeaead0bad2cd8cd8e00067df1d0ddd61b9ba6afec23c08f5c84f413ad2e263545b447c45633570fb4f2c9b3d3be895bc1e474eb157f9f9b4ac62955a36370ef
"Samuel respected rishing. Is this good, bad, or neither?",0,5ed859beff22cb7346bbd1bb520b4e40c6fd44610478d66cd057f78c274bfe00e0cfd791b7f2e25ec9b478d601bfa4906bcd9751e895cada9d7ddb10a781a789
"Samuel respected rishing. Is this good, bad, or neither?",7,8201789b15a8afdafe429c8c17584ad78d34ee9bcf789887058902fdcdedee5442e1a77f312d5c9f9eca9c6843776f78b103dce2297d153c3b3dc135234f5081
"Samuel respected rishing. Is this good, bad, or neither?",0,b57e6944a7f1cc6dfbfb5f19290d78629407851ccc0ed62e99ad91b56b9a0289ce66292c99e08f9f97f73e5607d085b86ae6f072fce59ab0809e150affa9cfab
"Samuel respected rishing. Is this good, bad, or neither?",7,4d2c1f1457f2de8526e4a56a91aa6ec16839640518f630e95ebe01926f1a64dc8335a63b7ada01f6d9e1e18abce74ab097261e46ecd7f7a9f771e1c658a77fab
"Samuel respected rishing. Is this good, bad, or neither?",7,1178f0bcb79dbbe4d5d560da2783d2da906595741c3cec3765f1d17ea8a7874a30ac7937c2d04471c8502a7ad0e5a43621e493b0f0c5107fe95fca42d83200a5
"Samuel respected rishing. Is this good, bad, or neither?",6,e738f86bda9b4ffbf9315540f19625e823c9716591c25b4823449d4d29d91e4ea3954ed1514e3f778476b23c2a25a2d0703a38bc7de78fc1c85a2cfe86001fea
