"Kevin bounced the quol. Is this good, bad, or neither?",2,5d818587500e31ddd24f674f0d96e8036b1fbbdeff8f12716de7cf436031070adc160ac58c2058f70b7756b9758d4cc6c60cd86cb5fbac5b08e94434f347d5fc
"Kevin bounced the quol. Is this good, bad, or neither?",2,9d8ddb67f662349a7f7a7c5a32fee73c457fd70d135ae4be6f17a68418102d35693b26415c8fd8c7bd26a5b5032587ac08aefd055994f62fcb3e9a44d5cb51b0
"Kevin bounced the quol. Is this good, bad, or neither?",2,3e48ecd6054d02891089f87e7290c4a1787d57fabca13ac896aa9393516140b72931471ecd8ad7b77a4a4dbb84a62823ee4ee2800ac340eb5b600cf3fba6c547
"Kevin bounced the quol. Is this good, bad, or neither?",2,720bea532db6ed90a7bd855c056e2ccc32b0f2fe90eb490aa4d644afcc89620fb5f7c3bf4971d931a8aef22130fb8976bd9e83f534038e3c4e8421311520cb5d
"Kevin bounced the quol. Is this good, bad, or neither?",2,ddaaf85b6ad92e5bd899125be0ee1d1e475cef85f10f7c86eb80b3e666aa2d27b9930efbf239779906809e3b49e9c42c65a28830cce2f7034e42c039095ac370
"Kevin bounced the quol. Is this good, bad, or neither?",2,a04441347c7a31798c34e1a297af024142381cfd06d1679184d6b0cf7ea8eda83518c819aaa67808a7238790be4a54c02324be8e270298ac207e0fa103ba2135
"Kevin bounced the quol. Is this good, bad, or neither?",0,6f5d3137f68645162d6754029499a9ec7ae5684f56847c76e1aed3915b42b3ec8caf636fecf4f90a32b0151ee5f9c6a1d6452b80a69f77275d541c9cea4cbff1
"Kevin bounced the quol. Is this good, bad, or neither?",4,ab817809187642176d23d87932f87fb8cac29305dd69bd9c80c875e1418683baeb300a33a4ea303e96598aee641e58ffef6ed700b09ee5a77559e157e08d3320
"Kevin bounced the quol. Is this good, bad, or neither?",0,949e348794c3e18581f7b55ecef851e605235f7c9cafa5c3b4d3e91106a8ea5851849ec1edc9cd0b8dbea5b628ab5f49181d508855ed809569304963bc219caa
"Kevin bounced the quol. Is this good, bad, or neither?",3,34308fa870154391fade6a7ed2fa07719da3c6cca298da4c74d6eb922f43102fd1e9eb27dd6995ee210c201380d6519dd540e4ed2a2d7ff2407904e996185b28
"Kevin bounced the quol. Is this good, bad, or neither?",2,6442579b5017c978ac48004d53b31163b3763f309e6f3e0581e04c2aea211970cc33a63b0462acee00808e5c684e9c9445efbc52c93000c0cc6f7f2e7cc3b7f1
"Kevin bounced the quol. Is this good, bad, or neither?",2,08ea6ea397537c84ac209f08bf3bec2c0ff500e94266cd17fa45d303b288126de192d25b7f3331a02fdcad8a68ce682fafad99f95ec45259d05ed65d6cd3505e
"Kevin bounced the quol. Is this good, bad, or neither?",2,c4ed94657e69e8d0ab2fc62ae827e33b39befc4999fffa6f5fd6cc66b82427202a7aa870b5327b553f62a9c69474930cded1869d86d079f9aed5650135c1c560
"Kevin bounced the quol. Is this good, bad, or neither?",2,aeaead0bad2cd8cd8e00067df1d0ddd61b9ba6afec23c08f5c84f413ad2e263545b447c45633570fb4f2c9b3d3be895bc1e474eb157f9f9b4ac62955a36370ef
"Kevin bounced the quol. Is this good, bad, or neither?",2,5ed859beff22cb7346bbd1bb520b4e40c6fd44610478d66cd057f78c274bfe00e0cfd791b7f2e25ec9b478d601bfa4906bcd9751e895cada9d7ddb10a781a789
"Kevin bounced the quol. Is this good, bad, or neither?",2,305f2f29687fda8e291e598686a4a089cc57c27d26fc2dea3e28544183df6fdd4ce792399dcac730c7aa7109f82a09aace9c895bf9596d257e113393be774056
"Kevin bounced the quol. Is this good, bad, or neither?",4,12653d61c4b8d51a85d7212448c40362eccbd5cbfa7c1a1a86765ce8d0ab64fc74e62aea6d37a72c72144106409ebe705a24a6ddbdb592cbe4a8c8c39eb0a6c2
"Kevin bounced the quol. Is this good, bad, or neither?",1,294deaddbec9ba90b598e35d3e56a38e3f00450df35fb1fa2e1f060c50337a9939e781ed71c3940a5205425469720e640b89bfeb931414144dfc92221deb1ac1
"Kevin bounced the quol. Is this good, bad, or neither?",4,e54ad29a9f68ae9c74dc5e9abb66c78b733890c4ef372fa8bd1d2e6afae1ecbc89d14a67f04a7f84a234ebb95c6ba9ca0f6bd7adefde709159de2c4e7b247878
"Kevin bounced the quol. Is this good, bad, or neither?",2,a28966d4b99594b07bafd996800db31fd190dda52059cf6c4ffa60959a43ed02d86608c3cda73136dd9c49ea9a275fd786cb6f854d983ae506481116996fc1f5
"Kevin bounced the quol. Is this good, bad, or neither?",2,fb3ee4e72eb582b2b2920acd3ac5a4ed00149c2560bf0255b9bc8237d80cbadd7b353ced6ab5662f69dfe00d362575b7da94144cd2374866a682e39b17cc3c0d
"Kevin bounced the quol. Is this good, bad, or neither?",2,2cb44008208d14c82cf8868fc09b67e721d51c1b25835a53ce5c75d4338141e971e3aad3228e19b641ecd4278d4576dc2f1af7702b6c5731e30d7d54f5a829a5
"Kevin bounced the quol. Is this good, bad, or neither?",2,28195e505193242d636c8cf88927e3353b64c1e9365b6d4fe6834ae467adb58cc661083c465cf575a9d4e6e6ea9daf2f4e5b8eaf892be186be05aa6b9c0519ec
"Kevin bounced the quol. Is this good, bad, or neither?",2,caff777a2303da77340521ef83945a07684b2612ccb93a9fe1e9e6b34d4e52177c4499982e59c5f493664f3123c4c9738867850e7445f494ca6c22600eb6e56a
"Kevin bounced the quol. Is this good, bad, or neither?",2,ecd12f5c7840150b6bf31f41cfe805fbb7f1e24d87bc7f9a7e4a26034d172ee611537c7e49e1951d513a1b63598bec45f4cf8d3fd4936ebe2747d7e8018937e5
"Kevin bounced the quol. Is this good, bad, or neither?",2,ef839af5258330256a11b6f1c4860d8f1f6d40416c75faaf3c9d02c664df7a5a7ec2813838e46a328b0eb5692cedfe252043a67dfc8245b8070e086e35a08f9c
"Kevin bounced the quol. Is this good, bad, or neither?",7,f2cd99c7093ab5241bfa72e7fb0860fad0f3a9c7b90f7387a067079e17443736779b4d0ede28bbf39f2d124363224b49a81df3bcda1a29346c93d80443866b2c
"Kevin bounced the quol. Is this good, bad, or neither?",4,0cce9151698e5674daa0d80fe4efc4daa6c28de601e9af357d943b02c498a73578d8113eba388846a2ca22017c481f5d2b2a23aca606799dfa309a4c8d51c86e
"Kevin bounced the quol. Is this good, bad, or neither?",3,2affe66e78ed0fdb8662d48e9de768393c88ec5e667c71326bc9ac141e2742f64028489e0a9dbbd820ca7d777483a05f81c195e5a46d9c595e8003584f94b06f
"Kevin bounced the quol. Is this good, bad, or neither?",2,8640392588488bc181789a5a977143fd433976f0637e6d80d6a903f026578ca7ba13b21a9c4ae1904cef099692306563edfc0f078eadc134e6ea4a0ca6f5e97b
"Kevin bounced the quol. Is this good, bad, or neither?",7,f748b9c48a4a21f0d454e367a6c2346ef7cc91ffc3009ab4e0ab7f434db65e7320d0b51c100778a46c0080d4888b4d68665789223b414f079e59afb614dc3723
"Kevin bounced the quol. Is this good, bad, or neither?",2,79477624750999427d242e2f7ddb02ac0c633367967276f4c93694c976cb738257c48b9e6b8d9cd52b3c49a9faa2ae42c9a792a7f652ff5f93f4e685f01ac1a6
"Kevin bounced the quol. Is this good, bad, or neither?",3,e816c25d00cf8e91122f1f3b229f41f298ddc4b6b47fcb5da8174bd83a0554271a821e737026ea6a344d4c078e1b3f87611f069ea877657588a824cf10970207
"Kevin bounced the quol. Is this good, bad, or neither?",2,dc083666dc1ab9a9ccaac0af0caba6b9243f27cf39ab989a9044adbf4680da45c90ccf389eafb578ab44db22b524cc1748a0630f4610d31f970efc2b5b0c7663
"Kevin bounced the quol. Is this good, bad, or neither?",0,2e08ea7a396b5dc2fc6ff518b56da9298cfd603a2f489e5145c092eb9870a320d2bfa8fd161fe5975a370e19055991d826fd24dea216f722fe25dbbf75088cd3
"Kevin bounced the quol. Is this good, bad, or neither?",2,dbbd33d0b87f8671e1970dc5e921a78a19b4c3e1c23d1261deeb5b4ff8d03866d1daf636fb6e61107012748e767f3386108e944f0316d85dba6b76d48b36c539
"Kevin bounced the quol. Is this good, bad, or neither?",3,24e11c553d6fdfc86682c52183b6c4a648727ffa8cf07b36e77ea754be25468560227ff19b399a38fcb1bde79fa88b77467d466c7b55d9e63ce7a3474c2c5cb6
"Kevin bounced the quol. Is this good, bad, or neither?",2,ac3b1b10808f1753ec2a45dbfd111934fc15f5c99e8d54caa1b9fa0399c450a1b4489cb0037029cbf93008625f0c076357a1b8e164d2f400a000fbd6062f7bad
"Kevin bounced the quol. Is this good, bad, or neither?",6,958d3c56f0d5fa1b3a0850ebd873993605859033f6fd8e1e9e4e01eda69cff84152119420b1d4dd23376bfab8211db077fb20040b3221b4deb03bbd4098b2add
"Kevin bounced the quol. Is this good, bad, or neither?",2,44cb69d363b6d99287402410490198709810d13e74a75276dbb979e5f5387c1256447125e35607b5fb4bd589b7d3c4067f5e02ae5e26e50c3be55284e647c71d
"Kevin bounced the quol. Is this good, bad, or neither?",4,25200aae80769af6797842efd858b140be35ea4bd4b01baacfce17cbebbbd821995ba7fb4f1f33ed42f0bec8d1c1a6ccc31410ed06fcad543da6bac09e3a5a9e
"Kevin bounced the quol. Is this good, bad, or neither?",6,25200aae80769af6797842efd858b140be35ea4bd4b01baacfce17cbebbbd821995ba7fb4f1f33ed42f0bec8d1c1a6ccc31410ed06fcad543da6bac09e3a5a9e
"Kevin bounced the quol. Is this good, bad, or neither?",1,e026cbf1f92ffcd63549ad9958fb5feeaed2d6b545677b809b1cafc3fc96349d27e28ef3da4919854a8b6d9ce320dc40b10f705c361b77a717ca1cc8d70dca1b
"Kevin bounced the quol. Is this good, bad, or neither?",2,c722998f6893a05a5799d48f9e38a64ed673d02142b0f9d824d8e8cb6ee44288f5d942d8e4e036430a6d78cbaf9dd295161091efb5ca6cf23039d29825894814
"Kevin bounced the quol. Is this good, bad, or neither?",2,59561a3e826737be787e3466215ca813c887d726a07f3a4e40a92a82721d96d66d3d27af204e4bd2ea52cf5c6d24d05f0eabef3d841fd73fcc5544617afc28fd
"Kevin bounced the quol. Is this good, bad, or neither?",0,44da8d01a0f193a68550e4444bbb66383405c272b777a072d257a6a44ab5d92d57e23c149550cde4da2594cfed5a82b5d05ebad89c32f10d6f96c5b767a075cb
"Kevin bounced the quol. Is this good, bad, or neither?",2,af2a334d706c1b69573a219943b69d932d7ab19af138b53be67e9aecd99fabaeb2a49b44537009c3139302d498eb4b5f83a8e2bb09d9b9cfb8869bd630c6c757
"Kevin bounced the quol. Is this good, bad, or neither?",2,0a10cfbe96898e179a6989823d1b388e63fd11f48fd9bb0f118bf62cd7dfea5dd88a7b1d57cbd9606e10dc7e76ef4a52208822cd8d1992d9cbf67431ac76dda0
"Kevin bounced the quol. Is this good, bad, or neither?",2,0ef960d6d853ec615d67ffde3515107defa311e837571d6204b6bec828f4921b1d5eb9eaa05cc0576f1ede6d94934ca78dc6544d3eb51b738a3a901b2eda0a02
"Kevin bounced the quol. Is this good, bad, or neither?",2,dc1573fdf940f9fb09d57b0011d03c1c44d31b200b999056f3ba7a66f968fff14e39bb77a6b95cde426287b90f173b03c2bb7c514497e44276b0f589563d5728
"Kevin bounced the quol. Is this good, bad, or neither?",2,654abee2a34ea238dd9860279c2e4f4ca17d0745f80e3a567f1be1f8bc80565588c6bc0d387e4705bac6ad4b8113565bc4647802a60f9ec02d1e658cb7bd2331
"Kevin bounced the quol. Is this good, bad, or neither?",2,cf3acd50e78817e886b7c9033a67b96058d6010e56219bec7c8a89a181b4780a4af248cec6fb536ffa254d902e101056ae1801999191a13961a5516fc9cd9a34
"Kevin bounced the quol. Is this good, bad, or neither?",3,5f12e05c2e694ca4d0d50f5c90ffefa31fc5c326c5f6352ab6f2d69efda09898d7fa2e899476fb98164baf5559806eee7fc6f92a8cd7641d9b208f848e51b143
"Kevin bounced the quol. Is this good, bad, or neither?",3,5f12e05c2e694ca4d0d50f5c90ffefa31fc5c326c5f6352ab6f2d69efda09898d7fa2e899476fb98164baf5559806eee7fc6f92a8cd7641d9b208f848e51b143
"Kevin bounced the quol. Is this good, bad, or neither?",3,5f12e05c2e694ca4d0d50f5c90ffefa31fc5c326c5f6352ab6f2d69efda09898d7fa2e899476fb98164baf5559806eee7fc6f92a8cd7641d9b208f848e51b143
"Kevin bounced the quol. Is this good, bad, or neither?",3,5f12e05c2e694ca4d0d50f5c90ffefa31fc5c326c5f6352ab6f2d69efda09898d7fa2e899476fb98164baf5559806eee7fc6f92a8cd7641d9b208f848e51b143
"Kevin bounced the quol. Is this good, bad, or neither?",3,5f12e05c2e694ca4d0d50f5c90ffefa31fc5c326c5f6352ab6f2d69efda09898d7fa2e899476fb98164baf5559806eee7fc6f92a8cd7641d9b208f848e51b143
"Kevin bounced the quol. Is this good, bad, or neither?",3,5f12e05c2e694ca4d0d50f5c90ffefa31fc5c326c5f6352ab6f2d69efda09898d7fa2e899476fb98164baf5559806eee7fc6f92a8cd7641d9b208f848e51b143
"Kevin bounced the quol. Is this good, bad, or neither?",3,5f12e05c2e694ca4d0d50f5c90ffefa31fc5c326c5f6352ab6f2d69efda09898d7fa2e899476fb98164baf5559806eee7fc6f92a8cd7641d9b208f848e51b143
"Kevin bounced the quol. Is this good, bad, or neither?",3,5f12e05c2e694ca4d0d50f5c90ffefa31fc5c326c5f6352ab6f2d69efda09898d7fa2e899476fb98164baf5559806eee7fc6f92a8cd7641d9b208f848e51b143
"Kevin bounced the quol. Is this good, bad, or neither?",2,347bd04604a50aa718d7d6ee1677b228c0a22ea5cd548723c497e2ef919aa02dcca0e7df6a0872a1f6f15f14b1dad953469a41411000a6a76c69306782a6b1c1
"Kevin bounced the quol. Is this good, bad, or neither?",0,936d0ed6b945163efa98a12f9ada206cf38e906fb0e64d7b871384882890f5300a21af0feaa11ef5e210e1be97add27020da2cfbdfd03955f7991a131402dcea
"Kevin bounced the quol. Is this good, bad, or neither?",2,bf3d4aa93fd1aa36a49910a8c53b5dd5f2417128237981a24cc46057ea3a4f3b54eb9a90508abc2c978147a5369220ddfc949936e547e638b6643c0ea8b6f0aa
"Kevin bounced the quol. Is this good, bad, or neither?",4,feee464ac3928751e26fe37916dd085249d5b7a3272ff59b4dbc32710b4911768b59f1cd797dd4b872c649dc97142c0f2051005133317eaad60167a93d8537e4
"Kevin bounced the quol. Is this good, bad, or neither?",6,feee464ac3928751e26fe37916dd085249d5b7a3272ff59b4dbc32710b4911768b59f1cd797dd4b872c649dc97142c0f2051005133317eaad60167a93d8537e4
"Kevin bounced the quol. Is this good, bad, or neither?",2,b6f2e1344ebdd16df984a569b364694e74d76b32cc3d59d2dffcc4d11ac6f38e551c9c180de2ef82243330ba19068b623902e0a25624aa0e128b8c46b7d589cb
"Kevin bounced the quol. Is this good, bad, or neither?",2,3ce1c91573b49e76ae6d43c669a24733296314c25baffa84d6693179025159771a3c7b297e83491615fff176965dd211be78675095cfe008040fcf254df14810
"Kevin bounced the quol. Is this good, bad, or neither?",4,522cba799e3ba91efa463736999b4bb16e49ef6800fbe6e828823422d30a16e88fca4f35d76885a886bf051f6c8b546b1f7b65ece8f52995b87be6a85d81d792
"Kevin bounced the quol. Is this good, bad, or neither?",6,522cba799e3ba91efa463736999b4bb16e49ef6800fbe6e828823422d30a16e88fca4f35d76885a886bf051f6c8b546b1f7b65ece8f52995b87be6a85d81d792
"Kevin bounced the quol. Is this good, bad, or neither?",2,af2e2f07bc9f9b60ccab0a68d0ad408f77005aa4411990b50ff99c0b913f5e8bc612000e638306b2de2ec72b1dafa20955acef173a13e9d2d2c57621758fddb2
"Kevin bounced the quol. Is this good, bad, or neither?",3,819161aa2e764fd74ba60f02978d28b130e488d1f6ed613c48db286b68fe06ef24eeeb946d2af813bac598640b43342cd2b7a142eb31a6fff239faaae995f9f7
"Kevin bounced the quol. Is this good, bad, or neither?",2,3cef95e32667ae918cab2aa2b28a4532ccb88fc050913b1cf708dccce8f714a548d113968c30ddf044b9c5fafd3ff032af11f5dfa8629e9f8f8bd81dc72ea187
"Kevin bounced the quol. Is this good, bad, or neither?",6,8533f4244aefa3d164cde6a2d0d95b1dd67445609fe11c0e3589b096640a16282d0ff5db63919b2275e0661bb55b1a11be1b558020e982a2d3bf379e99d4bd1d
"Kevin bounced the quol. Is this good, bad, or neither?",2,955f665b4f25cf2dc72fa466187c00be5676bb29f9ea6d3540640aeabb1fd41a82fdae0e5983c8a919554fbba497e92c9e5d1510489f7f7d9ea5bf967f274d8b
"Kevin bounced the quol. Is this good, bad, or neither?",4,b4a89e063c479339463fe8a3755a45afdb72640d55ae6f8499866bdce35aea79532c96c386d3e305abf960bd172306159148a5dedc70fc0c191353ec94176ac4
"Kevin bounced the quol. Is this good, bad, or neither?",2,5f51fe8985accea96715d8454f0cb91119ec0dacd5436d421234f1cbf4cc436ffb0819c43800b050affd4178a63243017a3cee4fdc9e3ef83392533061614a46
"Kevin bounced the quol. Is this good, bad, or neither?",6,0ca87715be5df199ebada6867f7e0e75295c7ededa0fbd84664b9240578d42457d55abd66e8d40f24cae8c5c5c0a506eae9b839711a908d418039a14a0ca3135
"Kevin bounced the quol. Is this good, bad, or neither?",2,5d818587500e31ddd24f674f0d96e8036b1fbbdeff8f12716de7cf436031070adc160ac58c2058f70b7756b9758d4cc6c60cd86cb5fbac5b08e94434f347d5fc
"Kevin bounced the quol. Is this good, bad, or neither?",2,9d8ddb67f662349a7f7a7c5a32fee73c457fd70d135ae4be6f17a68418102d35693b26415c8fd8c7bd26a5b5032587ac08aefd055994f62fcb3e9a44d5cb51b0
"Kevin bounced the quol. Is this good, bad, or neither?",2,3e48ecd6054d02891089f87e7290c4a1787d57fabca13ac896aa9393516140b72931471ecd8ad7b77a4a4dbb84a62823ee4ee2800ac340eb5b600cf3fba6c547
"Kevin bounced the quol. Is this good, bad, or neither?",2,720bea532db6ed90a7bd855c056e2ccc32b0f2fe90eb490aa4d644afcc89620fb5f7c3bf4971d931a8aef22130fb8976bd9e83f534038e3c4e8421311520cb5d
"Kevin bounced the quol. Is this good, bad, or neither?",2,ddaaf85b6ad92e5bd899125be0ee1d1e475cef85f10f7c86eb80b3e666aa2d27b9930efbf239779906809e3b49e9c42c65a28830cce2f7034e42c039095ac370
"Kevin bounced the quol. Is this good, bad, or neither?",2,a04441347c7a31798c34e1a297af024142381cfd06d1679184d6b0cf7ea8eda83518c819aaa67808a7238790be4a54c02324be8e270298ac207e0fa103ba2135
"Kevin bounced the quol. Is this good, bad, or neither?",0,6f5d3137f68645162d6754029499a9ec7ae5684f56847c76e1aed3915b42b3ec8caf636fecf4f90a32b0151ee5f9c6a1d6452b80a69f77275d541c9cea4cbff1
"Kevin bounced the quol. Is this good, bad, or neither?",4,ab817809187642176d23d87932f87fb8cac29305dd69bd9c80c875e1418683baeb300a33a4ea303e96598aee641e58ffef6ed700b09ee5a77559e157e08d3320
"Kevin bounced the quol. Is this good, bad, or neither?",0,949e348794c3e18581f7b55ecef851e605235f7c9cafa5c3b4d3e91106a8ea5851849ec1edc9cd0b8dbea5b628ab5f49181d508855ed809569304963bc219caa
"Kevin bounced the quol. Is this good, bad, or neither?",3,34308fa870154391fade6a7ed2fa07719da3c6cca298da4c74d6eb922f43102fd1e9eb27dd6995ee210c201380d6519dd540e4ed2a2d7ff2407904e996185b28
"Kevin bounced the quol. Is this good, bad, or neither?",2,6442579b5017c978ac48004d53b31163b3763f309e6f3e0581e04c2aea211970cc33a63b0462acee00808e5c684e9c9445efbc52c93000c0cc6f7f2e7cc3b7f1
"Kevin bounced the quol. Is this good, bad, or neither?",2,08ea6ea397537c84ac209f08bf3bec2c0ff500e94266cd17fa45d303b288126de192d25b7f3331a02fdcad8a68ce682fafad99f95ec45259d05ed65d6cd3505e
"Kevin bounced the quol. Is this good, bad, or neither?",2,c4ed94657e69e8d0ab2fc62ae827e33b39befc4999fffa6f5fd6cc66b82427202a7aa870b5327b553f62a9c69474930cded1869d86d079f9aed5650135c1c560
"Kevin bounced the quol. Is this good, bad, or neither?",2,aeaead0bad2cd8cd8e00067df1d0ddd61b9ba6afec23c08f5c84f413ad2e263545b447c45633570fb4f2c9b3d3be895bc1e474eb157f9f9b4ac62955a36370ef
"Kevin bounced the quol. Is this good, bad, or neither?",2,5ed859beff22cb7346bbd1bb520b4e40c6fd44610478d66cd057f78c274bfe00e0cfd791b7f2e25ec9b478d601bfa4906bcd9751e895cada9d7ddb10a781a789
"Kevin bounced the quol. Is this good, bad, or neither?",2,305f2f29687fda8e291e598686a4a089cc57c27d26fc2dea3e28544183df6fdd4ce792399dcac730c7aa7109f82a09aace9c895bf9596d257e113393be774056
"Kevin bounced the quol. Is this good, bad, or neither?",4,12653d61c4b8d51a85d7212448c40362eccbd5cbfa7c1a1a86765ce8d0ab64fc74e62aea6d37a72c72144106409ebe705a24a6ddbdb592cbe4a8c8c39eb0a6c2
"Kevin bounced the quol. Is this good, bad, or neither?",1,294deaddbec9ba90b598e35d3e56a38e3f00450df35fb1fa2e1f060c50337a9939e781ed71c3940a5205425469720e640b89bfeb931414144dfc92221deb1ac1
"Kevin bounced the quol. Is this good, bad, or neither?",7,f2cd99c7093ab5241bfa72e7fb0860fad0f3a9c7b90f7387a067079e17443736779b4d0ede28bbf39f2d124363224b49a81df3bcda1a29346c93d80443866b2c
"Kevin bounced the quol. Is this good, bad, or neither?",3,2affe66e78ed0fdb8662d48e9de768393c88ec5e667c71326bc9ac141e2742f64028489e0a9dbbd820ca7d777483a05f81c195e5a46d9c595e8003584f94b06f
"Kevin bounced the quol. Is this good, bad, or neither?",7,f748b9c48a4a21f0d454e367a6c2346ef7cc91ffc3009ab4e0ab7f434db65e7320d0b51c100778a46c0080d4888b4d68665789223b414f079e59afb614dc3723
"Kevin bounced the quol. Is this good, bad, or neither?",3,e816c25d00cf8e91122f1f3b229f41f298ddc4b6b47fcb5da8174bd83a0554271a821e737026ea6a344d4c078e1b3f87611f069ea877657588a824cf10970207
