"Nicole floated Hannah. Is this good, bad, or neither?",2,5d818587500e31ddd24f674f0d96e8036b1fbbdeff8f12716de7cf436031070adc160ac58c2058f70b7756b9758d4cc6c60cd86cb5fbac5b08e94434f347d5fc
"Nicole floated Hannah. Is this good, bad, or neither?",2,ddaaf85b6ad92e5bd899125be0ee1d1e475cef85f10f7c86eb80b3e666aa2d27b9930efbf239779906809e3b49e9c42c65a28830cce2f7034e42c039095ac370
"Nicole floated Hannah. Is this good, bad, or neither?",0,720bea532db6ed90a7bd855c056e2ccc32b0f2fe90eb490aa4d644afcc89620fb5f7c3bf4971d931a8aef22130fb8976bd9e83f534038e3c4e8421311520cb5d
"Nicole floated Hannah. Is this good, bad, or neither?",0,4c310c406f7aa4af0714607ff36d0764e3c0196892810137097a69aeb5e8b75c822ee38b6e95459338527110d2dbace8d7c26c38f84fefe0886325008d0e75ac
"Nicole floated Hannah. Is this good, bad, or neither?",3,0c722c136e468896becb05136899b1cdefed4cbdf4d69fb30cf881aee9a6edbb940d1fa3eb056b1a7833746d18b72dc94dc05c48d1e303e365d93c4ccb192e9a
"Nicole floated Hannah. Is this good, bad, or neither?",4,ab817809187642176d23d87932f87fb8cac29305dd69bd9c80c875e1418683baeb300a33a4ea303e96598aee641e58ffef6ed700b09ee5a77559e157e08d3320
"Nicole floated Hannah. Is this good, bad, or neither?",2,d409f653cf314323338c514ac7a0242794be3b490a75899ed61ef24abb126d76975b60dd37f82d1ab35133e9acc6ee00286b1d60e6703816253510879f4fc1d9
"Nicole floated Hannah. Is this good, bad, or neither?",2,a3e39d02ddf912469943ec929e775773a24e374daac162862640a1b0fe008d13fc5f1ab5065286643ae8d1402c26505fd29101251873259e188854035a000312
"Nicole floated Hannah. Is this good, bad, or neither?",2,6442579b5017c978ac48004d53b31163b3763f309e6f3e0581e04c2aea211970cc33a63b0462acee00808e5c684e9c9445efbc52c93000c0cc6f7f2e7cc3b7f1
"Nicole floated Hannah. Is this good, bad, or neither?",2,305f2f29687fda8e291e598686a4a089cc57c27d26fc2dea3e28544183df6fdd4ce792399dcac730c7aa7109f82a09aace9c895bf9596d257e113393be774056
"Nicole floated Hannah. Is this good, bad, or neither?",2,08ea6ea397537c84ac209f08bf3bec2c0ff500e94266cd17fa45d303b288126de192d25b7f3331a02fdcad8a68ce682fafad99f95ec45259d05ed65d6cd3505e
"Nicole floated Hannah. Is this good, bad, or neither?",2,aeaead0bad2cd8cd8e00067df1d0ddd61b9ba6afec23c08f5c84f413ad2e263545b447c45633570fb4f2c9b3d3be895bc1e474eb157f9f9b4ac62955a36370ef
"Nicole floated Hannah. Is this good, bad, or neither?",0,6c47ebbd77206e0c44c50882b8cfbbbfdea02331fca995b303f5502b84d720edb48712e182b95834d89bf6aa0e7fc9edd0f3cf9b8d5e494b90cf86ba35b59c8a
"Nicole floated Hannah. Is this good, bad, or neither?",2,aeaead0bad2cd8cd8e00067df1d0ddd61b9ba6afec23c08f5c84f413ad2e263545b447c45633570fb4f2c9b3d3be895bc1e474eb157f9f9b4ac62955a36370ef
"Nicole floated Hannah. Is this good, bad, or neither?",5,ea4dbd7f03bb4a333233577dd57fdd1613870a381423bc653611b4e99d179ee38f63f2083ff5b8ca8901f3caea1bf131911228b2d4aed2ec891ff0b260c60a63
"Nicole floated Hannah. Is this good, bad, or neither?",4,8a74478a9db13d691c15cdcee8e51f2a7166c095ebc46b46a45db0f7e71f25326113b63f51c722ce73b2f2cb4b6c23f1f5bcf0819b2b17e93467b4e32ae84781
"Nicole floated Hannah. Is this good, bad, or neither?",7,7a5cf49af8ba1c59b93da46dfc92d47a0238a02893a0b855bf0cfe39fadb888d73799aabd383a5c855838ee8734cca9185fa3670acc9aa841ff3e84c206d6b67
"Nicole floated Hannah. Is this good, bad, or neither?",5,4f1eb1039a45417b74d679abbdfcfaeab4494eff254f3b30465ef93ca66d21c563273f51be5f3d9abfb468e6063b9bbbcc05a3ea43529f7a79c25a14ac53b959
"Nicole floated Hannah. Is this good, bad, or neither?",5,9eacab84855cd32e3ea0936e24b78a493d11ef58dc07506f9690a1b21c80fb2d4e0b343ac3eff318623ef3359bf10b821269a0ac0ad6642b07246f434c1ce95f
"Nicole floated Hannah. Is this good, bad, or neither?",5,5b56973b88ed7b736ff3966dd5900790af0d217684769981e05a869fd0482e4eb627fbc83ef164acdcc19dfee68958f3688d63269cfdc0cd3c3ec35969e3c934
"Nicole floated Hannah. Is this good, bad, or neither?",4,b9823f44a96a09bb0a39b059bc590571f243e6b4cae8f72f462a679bd66dd4a5df1300c501ee1ee59d2ef0b3924ec82649208ef3855c81f609b9a3b93dc2e442
"Nicole floated Hannah. Is this good, bad, or neither?",2,7f45982c84b0e62975c836530ebc5c20ed43e2aaac4d7f1c99d59dac30103bb0a2c7f0c3eb3c011244e3b29b96036757199959b8d8fbcc5cf995fee8253a05f5
"Nicole floated Hannah. Is this good, bad, or neither?",3,5de7b886a8e9d03160145a2c857e7a513d279c1afda8a15e2f3b842b220911a0db6d8f73ebf2fa9d9628aa86f669ca60c7bb844f3535032c2078a13a63bb8b6e
"Nicole floated Hannah. Is this good, bad, or neither?",2,374634f202202263ffdd8668a1488ecd7d08e9ad30a552d742cc8d6a4a6336712da7922b4a1a4dd141940d6c0fc175765c5a7bb0ae45350384eb54f9f136d3e3
"Nicole floated Hannah. Is this good, bad, or neither?",2,b179bf87e97d0aad06140401a354f970d9f9f908a7222e8a20115fd3162f35935143e526aeca64de034f817f716e847c5129f5ea83ccd1c0cc16f8fca2515b7d
"Nicole floated Hannah. Is this good, bad, or neither?",5,2cb44008208d14c82cf8868fc09b67e721d51c1b25835a53ce5c75d4338141e971e3aad3228e19b641ecd4278d4576dc2f1af7702b6c5731e30d7d54f5a829a5
"Nicole floated Hannah. Is this good, bad, or neither?",2,948b1546ab23598285d2f77f39e4276a3a82e5d340295aa6760c9fc6f36b7437bb3a495a3ba88d447f3fe661e3d3dc2ca10e32b8b5eb3feb6619e793bc050ef2
"Nicole floated Hannah. Is this good, bad, or neither?",2,832b19ea4eb64ad4f6298c0933ec2f6ba994974bcbbda62a7a0088a00f6cd96bd27aca96187875bf07fe2c868f7cd9e74b39598b91c261fd45079e5150637de4
"Nicole floated Hannah. Is this good, bad, or neither?",2,fb3ee4e72eb582b2b2920acd3ac5a4ed00149c2560bf0255b9bc8237d80cbadd7b353ced6ab5662f69dfe00d362575b7da94144cd2374866a682e39b17cc3c0d
"Nicole floated Hannah. Is this good, bad, or neither?",0,caff777a2303da77340521ef83945a07684b2612ccb93a9fe1e9e6b34d4e52177c4499982e59c5f493664f3123c4c9738867850e7445f494ca6c22600eb6e56a
"Nicole floated Hannah. Is this good, bad, or neither?",7,409c12d0dd20b01733637a680f5229f9e32d49b7e5334090b79c8103ff6c2e3fa89a893c347853858d6340039bdbe9d67ffbb578ffd7aca629dd3a26b0805200
"Nicole floated Hannah. Is this good, bad, or neither?",2,28195e505193242d636c8cf88927e3353b64c1e9365b6d4fe6834ae467adb58cc661083c465cf575a9d4e6e6ea9daf2f4e5b8eaf892be186be05aa6b9c0519ec
"Nicole floated Hannah. Is this good, bad, or neither?",2,d52d0f79310a4a1585de2ba281cae55d8bf4f66ee89a3b0afe5bec86ac64f3fbcf4ac04acc90a017d6f66a1259e7c33c370048fe26771c06104f79c7f0e7daea
"Nicole floated Hannah. Is this good, bad, or neither?",5,4d886c57bad932c96d8cb58e4bf3b4fca85be7883e82a357e549a5232dc1862e323405d59ae9e3df4d8b4ca11ffdb48c8fd686d16b64221e23a27d01473a44e5
"Nicole floated Hannah. Is this good, bad, or neither?",0,aad7840fcb5dff54e3eae36cda774cd4ad1caa08acc4c6e55b69d4de5cb05abf67d4dd55cb8d7c319fbf56033a93753e4406cc086ac2b1625057d19815817666
"Nicole floated Hannah. Is this good, bad, or neither?",0,f2cd99c7093ab5241bfa72e7fb0860fad0f3a9c7b90f7387a067079e17443736779b4d0ede28bbf39f2d124363224b49a81df3bcda1a29346c93d80443866b2c
"Nicole floated Hannah. Is this good, bad, or neither?",4,d848b6571b4183e2cc58c5b5654fd96b0d5a437f8f30266a3143483839051c895c71abc5849023302f086ed348b5061642e92e6b74d8a067dfd1506072efa725
"Nicole floated Hannah. Is this good, bad, or neither?",4,019db9849fbccf5726490ab64aa3a38725f0fbff3fa674ebccc5ad8eb2545a58b021ff9df8cf7fdc3d7dd52831ffdbf674953f8c6fae23d9d327dd9784d28ef5
"Nicole floated Hannah. Is this good, bad, or neither?",3,2affe66e78ed0fdb8662d48e9de768393c88ec5e667c71326bc9ac141e2742f64028489e0a9dbbd820ca7d777483a05f81c195e5a46d9c595e8003584f94b06f
"Nicole floated Hannah. Is this good, bad, or neither?",2,1b559c03b83a30256baefe3d1279643ba9e62bd6d9a4d6e6b3271cf5075140d4a48014440938ed64833ca402ecd8075941649dda9942d14dfd4cf34a2693151f
"Nicole floated Hannah. Is this good, bad, or neither?",2,ecd12f5c7840150b6bf31f41cfe805fbb7f1e24d87bc7f9a7e4a26034d172ee611537c7e49e1951d513a1b63598bec45f4cf8d3fd4936ebe2747d7e8018937e5
"Nicole floated Hannah. Is this good, bad, or neither?",2,1e7019267a5b9fb0c239414b1e225193cc46ec9d6c9a84692122a153d5af4e4bec36f2ece04c27828e7c811956744c4cdaf9b6e007fe5418441f79557bd2012a
"Nicole floated Hannah. Is this good, bad, or neither?",2,dc083666dc1ab9a9ccaac0af0caba6b9243f27cf39ab989a9044adbf4680da45c90ccf389eafb578ab44db22b524cc1748a0630f4610d31f970efc2b5b0c7663
"Nicole floated Hannah. Is this good, bad, or neither?",0,2e08ea7a396b5dc2fc6ff518b56da9298cfd603a2f489e5145c092eb9870a320d2bfa8fd161fe5975a370e19055991d826fd24dea216f722fe25dbbf75088cd3
"Nicole floated Hannah. Is this good, bad, or neither?",5,585964ee6e56272ce715434ddf888cf4f724708582bdac4d2ffb74f79a252eaea4b02e435d4321e50553cd42362fb18697956a6cd32ab9028ee5f7bde80253a2
"Nicole floated Hannah. Is this good, bad, or neither?",0,d0eb31c7721c9299b65ab31f8f28818d42198b3a6e8cc8938132f5959668a97785cfdae9f5a80e19f634c835e48e4927882efed9bd831c3285d6bc1c94123452
"Nicole floated Hannah. Is this good, bad, or neither?",2,bddab661b674206bd7cd56a842a33689a54dbb9a25cf6bf152c1aca723b16c3e727b6444bf708e3bc9922bbfa49a615c29b758531236f32b24ffab39c8e8a9c3
"Nicole floated Hannah. Is this good, bad, or neither?",5,e829a504de3fccc7c8db7570e1574b0777f43cdc59d4c32d031cb7149cb39142733eb570df4492fc064057a7f8b8b484bcaac234cbff779949dc526060fb5280
"Nicole floated Hannah. Is this good, bad, or neither?",2,f9886a0ef169e06e624e45fa2986a2d9fc4d2cbf1ebd1b2de95183a3bba514cf2acdc3fc90c7a3aa1dd352ac92a06ba4f0cae708bbbaf4887cf274bf2a310e76
"Nicole floated Hannah. Is this good, bad, or neither?",2,e1fd10cf848c9df29af942d3dc81a5428a6285ee2f459282e8028e0b2cea57000611601abc6532a1b39ec6b50059e4844c29e9275190a8f65812a8bace8e84c7
"Nicole floated Hannah. Is this good, bad, or neither?",3,ae35259fff5b718927785c56709880504e120ce94efa3434dd415e4c70baed9c160441aa62353feb3f16707b128745d2be5ce5553419c3089697ac91e3e85a29
"Nicole floated Hannah. Is this good, bad, or neither?",2,a7dc9d4f184ea86b7b6e6869b9a53887f9af455a7a9b3f701cc20ec18e11435fdb90d9c3eed921996792de6c1628b7a27219b25f044ffe99d725092cbc88af6e
"Nicole floated Hannah. Is this good, bad, or neither?",2,90c8c114b2ac4d6f1e62e52bc301dd65a525f994d43a9296dc09c93befbef5e24c5ce552fac13db1b1a127b83446b3a4893a06c8ab19e050405b8c2c0cc89fab
"Nicole floated Hannah. Is this good, bad, or neither?",7,e9524bc9c7984f23a9ed1233d0edf2f76ba8ec4b90c10686c4bd62cee592f002adadab890c3ea7a90855333a2c0264881e897d4a9a769490b84717e1b8cbac43
"Nicole floated Hannah. Is this good, bad, or neither?",2,0e65e98cc7f50655fb7e6ee4eb89625a49859e292f6a78922498cb13bdc91f50940e0f37574664eb953519012e5cb54a76e1d3eecb807abc26a538480c28a8db
"Nicole floated Hannah. Is this good, bad, or neither?",4,ad1326d97150be39c54e291e77d0742b8574db603daa5fed675d73efd780c3e2927bcda79127c867f203c13a3c429cfb8275f4624c00623e9396682bf3b88d60
"Nicole floated Hannah. Is this good, bad, or neither?",2,4449535230bbb095089c3986aff6e34d3a92bd758e669e9b923813d8c97c4a9e67e8d78d1c4cd17e4e6a9898e2d78e841a4cd7cabc28e7a3a0fc0592c6c9f387
"Nicole floated Hannah. Is this good, bad, or neither?",0,a3fe48d172465fbb24a650eeb520bd4c4631496b6d9d7a38bf192e1566aa97e662f2b2e76290bf0e0a6c2a90ffb291b31ff1e75bb29714c834646a850ace5bf6
"Nicole floated Hannah. Is this good, bad, or neither?",5,2c67dc02cd888344bfa1e1250faca9503398644e119e31ab8fd176e1cccf52fa608f6f99ad4cde7120c0a00aad38ff4e3f678099fe53d54a7bae192f4c5f33c1
"Nicole floated Hannah. Is this good, bad, or neither?",2,864fd6d6c6f3b061f8849268ccbe26a8df17226567b244b0760c60bacd2b79ced559640987941fff3ebd0eb3949cea7885c56e467856a8919d1736aa402c8087
"Nicole floated Hannah. Is this good, bad, or neither?",2,0a10cfbe96898e179a6989823d1b388e63fd11f48fd9bb0f118bf62cd7dfea5dd88a7b1d57cbd9606e10dc7e76ef4a52208822cd8d1992d9cbf67431ac76dda0
"Nicole floated Hannah. Is this good, bad, or neither?",2,f42eb2cf72d39f24874c549b74ed6ebc674555aa4acc7ded3adf7975b13f63211cbae0388e2e5a8862b8e79d0792e494e5adf67694e5fa3e0c01d20d94c4cc58
"Nicole floated Hannah. Is this good, bad, or neither?",2,af989e3af8e0075e9bde53bd63f64cd6e74e8b4e5bd1927668d72c74602eac36c160300f69280c96acac6f88b8e2304f56fa42541c2b6de1348a754f5f87e17c
"Nicole floated Hannah. Is this good, bad, or neither?",3,46dad48e18672499c9eaffcfa952dbc553442fb77bff1c2f1408f32a502adb7f4cc7325f92b33fc5ab052335f95abbbb0da706ddc33c1b173d8591c28a1853c6
"Nicole floated Hannah. Is this good, bad, or neither?",2,a8c587b500db841a040c834ea7e138d680f58a94067a016d1e34bb029e7a5755a7b629b83510771826624e6ba17f86d951b5c9399cff1af255e887a48cc06c67
"Nicole floated Hannah. Is this good, bad, or neither?",4,654abee2a34ea238dd9860279c2e4f4ca17d0745f80e3a567f1be1f8bc80565588c6bc0d387e4705bac6ad4b8113565bc4647802a60f9ec02d1e658cb7bd2331
"Nicole floated Hannah. Is this good, bad, or neither?",4,5529884e3501fd2a21b3bdd0af03f474c299a52117c50ec564fe5710f55a5799526c9361fdf5cd9b1b0bfb6d47fd87080cc52f1239b84617f806b2b25b6921c5
"Nicole floated Hannah. Is this good, bad, or neither?",5,5529884e3501fd2a21b3bdd0af03f474c299a52117c50ec564fe5710f55a5799526c9361fdf5cd9b1b0bfb6d47fd87080cc52f1239b84617f806b2b25b6921c5
"Nicole floated Hannah. Is this good, bad, or neither?",3,5f12e05c2e694ca4d0d50f5c90ffefa31fc5c326c5f6352ab6f2d69efda09898d7fa2e899476fb98164baf5559806eee7fc6f92a8cd7641d9b208f848e51b143
"Nicole floated Hannah. Is this good, bad, or neither?",3,5f12e05c2e694ca4d0d50f5c90ffefa31fc5c326c5f6352ab6f2d69efda09898d7fa2e899476fb98164baf5559806eee7fc6f92a8cd7641d9b208f848e51b143
"Nicole floated Hannah. Is this good, bad, or neither?",3,5f12e05c2e694ca4d0d50f5c90ffefa31fc5c326c5f6352ab6f2d69efda09898d7fa2e899476fb98164baf5559806eee7fc6f92a8cd7641d9b208f848e51b143
"Nicole floated Hannah. Is this good, bad, or neither?",3,5f12e05c2e694ca4d0d50f5c90ffefa31fc5c326c5f6352ab6f2d69efda09898d7fa2e899476fb98164baf5559806eee7fc6f92a8cd7641d9b208f848e51b143
"Nicole floated Hannah. Is this good, bad, or neither?",3,5f12e05c2e694ca4d0d50f5c90ffefa31fc5c326c5f6352ab6f2d69efda09898d7fa2e899476fb98164baf5559806eee7fc6f92a8cd7641d9b208f848e51b143
"Nicole floated Hannah. Is this good, bad, or neither?",3,5f12e05c2e694ca4d0d50f5c90ffefa31fc5c326c5f6352ab6f2d69efda09898d7fa2e899476fb98164baf5559806eee7fc6f92a8cd7641d9b208f848e51b143
"Nicole floated Hannah. Is this good, bad, or neither?",3,5f12e05c2e694ca4d0d50f5c90ffefa31fc5c326c5f6352ab6f2d69efda09898d7fa2e899476fb98164baf5559806eee7fc6f92a8cd7641d9b208f848e51b143
"Nicole floated Hannah. Is this good, bad, or neither?",3,5f12e05c2e694ca4d0d50f5c90ffefa31fc5c326c5f6352ab6f2d69efda09898d7fa2e899476fb98164baf5559806eee7fc6f92a8cd7641d9b208f848e51b143
"Nicole floated Hannah. Is this good, bad, or neither?",0,4fbeb7d2234bf57b68432b5549db7253699acd3412b701545012316ac7a942724c666a108bd786e63fe7af918c8050baa6ee858cc2f163e7eaa2e681d079c956
"Nicole floated Hannah. Is this good, bad, or neither?",3,8e176a02087f9e24f28cecc547e6af9ccde15fac091e68abb588add3fb554a717c252a2aaac52e4064dbce28f7e6171562dc7f7153512c5f0ca1ab24d41fc019
"Nicole floated Hannah. Is this good, bad, or neither?",3,8e176a02087f9e24f28cecc547e6af9ccde15fac091e68abb588add3fb554a717c252a2aaac52e4064dbce28f7e6171562dc7f7153512c5f0ca1ab24d41fc019
"Nicole floated Hannah. Is this good, bad, or neither?",3,8e176a02087f9e24f28cecc547e6af9ccde15fac091e68abb588add3fb554a717c252a2aaac52e4064dbce28f7e6171562dc7f7153512c5f0ca1ab24d41fc019
"Nicole floated Hannah. Is this good, bad, or neither?",0,aa6a4f304f8db0bf24c88eabf2a63f211afd3e646cae914c28299150142c83f42ed5a0ba99345a1b75ad2baa81d67adb3d2d3ee677ed47c2e9ee3052fdce683c
"Nicole floated Hannah. Is this good, bad, or neither?",2,b6f2e1344ebdd16df984a569b364694e74d76b32cc3d59d2dffcc4d11ac6f38e551c9c180de2ef82243330ba19068b623902e0a25624aa0e128b8c46b7d589cb
"Nicole floated Hannah. Is this good, bad, or neither?",0,3ce1c91573b49e76ae6d43c669a24733296314c25baffa84d6693179025159771a3c7b297e83491615fff176965dd211be78675095cfe008040fcf254df14810
"Nicole floated Hannah. Is this good, bad, or neither?",3,216a9580ada0b111c7314aa0c5bdb712f157dd88ecbefeb59e5d303ec36a6de076ab0a90d0ede9073359ca0c4d0a390019e87b1742389700e5eb4168bf09381e
"Nicole floated Hannah. Is this good, bad, or neither?",3,216a9580ada0b111c7314aa0c5bdb712f157dd88ecbefeb59e5d303ec36a6de076ab0a90d0ede9073359ca0c4d0a390019e87b1742389700e5eb4168bf09381e
"Nicole floated Hannah. Is this good, bad, or neither?",0,819161aa2e764fd74ba60f02978d28b130e488d1f6ed613c48db286b68fe06ef24eeeb946d2af813bac598640b43342cd2b7a142eb31a6fff239faaae995f9f7
"Nicole floated Hannah. Is this good, bad, or neither?",2,531c667d4f67a26af45a5bfab6e20324aaa1acbcdbd2ac94f656bed1a4a854ed782760da32b1894db093d87f786a06b36748c4859a7d63a8ee897aa837aedc5e
"Nicole floated Hannah. Is this good, bad, or neither?",0,f74a189a696ebb5d3833d4b89b0f94733b24c099235b93e38989b213817f3f6c519b8f67d99e68d2aae2d8cec42afe0dc9936b8765108818964591269daa19f6
"Nicole floated Hannah. Is this good, bad, or neither?",4,6dee7be3a19cd3ffb328cf7fe6c9581869eaf269439be35fde675c4b080107b7f3589a03f02b12877798a9d980efabe864220d1ff0ffceda1ae9419ab62f5c18
"Nicole floated Hannah. Is this good, bad, or neither?",3,f7d9ce2e89c1cc500ec58e8a4c1a0b6810ba4a55bdca93cc84cd6a331ae7cd856bc420bc2b71f1e5cfa354d3a3bff6777db90f88f56751c676a6aade3f73b564
"Nicole floated Hannah. Is this good, bad, or neither?",3,f7d9ce2e89c1cc500ec58e8a4c1a0b6810ba4a55bdca93cc84cd6a331ae7cd856bc420bc2b71f1e5cfa354d3a3bff6777db90f88f56751c676a6aade3f73b564
"Nicole floated Hannah. Is this good, bad, or neither?",7,0ca87715be5df199ebada6867f7e0e75295c7ededa0fbd84664b9240578d42457d55abd66e8d40f24cae8c5c5c0a506eae9b839711a908d418039a14a0ca3135
"Nicole floated Hannah. Is this good, bad, or neither?",4,4ee4a6aaeaeaf283a825925b68463c4b6709fd3c965358b2ec41bcb1a3a7f3935f32fdaa5ae01085f3ac2e36f53ee6be6765b33bd8d1ae53c6fb5ed8a3eb0e5e
"Nicole floated Hannah. Is this good, bad, or neither?",2,5d818587500e31ddd24f674f0d96e8036b1fbbdeff8f12716de7cf436031070adc160ac58c2058f70b7756b9758d4cc6c60cd86cb5fbac5b08e94434f347d5fc
"Nicole floated Hannah. Is this good, bad, or neither?",2,ddaaf85b6ad92e5bd899125be0ee1d1e475cef85f10f7c86eb80b3e666aa2d27b9930efbf239779906809e3b49e9c42c65a28830cce2f7034e42c039095ac370
"Nicole floated Hannah. Is this good, bad, or neither?",0,720bea532db6ed90a7bd855c056e2ccc32b0f2fe90eb490aa4d644afcc89620fb5f7c3bf4971d931a8aef22130fb8976bd9e83f534038e3c4e8421311520cb5d
"Nicole floated Hannah. Is this good, bad, or neither?",0,4c310c406f7aa4af0714607ff36d0764e3c0196892810137097a69aeb5e8b75c822ee38b6e95459338527110d2dbace8d7c26c38f84fefe0886325008d0e75ac
"Nicole floated Hannah. Is this good, bad, or neither?",3,0c722c136e468896becb05136899b1cdefed4cbdf4d69fb30cf881aee9a6edbb940d1fa3eb056b1a7833746d18b72dc94dc05c48d1e303e365d93c4ccb192e9a
"Nicole floated Hannah. Is this good, bad, or neither?",4,ab817809187642176d23d87932f87fb8cac29305dd69bd9c80c875e1418683baeb300a33a4ea303e96598aee641e58ffef6ed700b09ee5a77559e157e08d3320
"Nicole floated Hannah. Is this good, bad, or neither?",2,d409f653cf314323338c514ac7a0242794be3b490a75899ed61ef24abb126d76975b60dd37f82d1ab35133e9acc6ee00286b1d60e6703816253510879f4fc1d9
"Nicole floated Hannah. Is this good, bad, or neither?",2,a3e39d02ddf912469943ec929e775773a24e374daac162862640a1b0fe008d13fc5f1ab5065286643ae8d1402c26505fd29101251873259e188854035a000312
"Nicole floated Hannah. Is this good, bad, or neither?",2,6442579b5017c978ac48004d53b31163b3763f309e6f3e0581e04c2aea211970cc33a63b0462acee00808e5c684e9c9445efbc52c93000c0cc6f7f2e7cc3b7f1
"Nicole floated Hannah. Is this good, bad, or neither?",2,305f2f29687fda8e291e598686a4a089cc57c27d26fc2dea3e28544183df6fdd4ce792399dcac730c7aa7109f82a09aace9c895bf9596d257e113393be774056
"Nicole floated Hannah. Is this good, bad, or neither?",2,08ea6ea397537c84ac209f08bf3bec2c0ff500e94266cd17fa45d303b288126de192d25b7f3331a02fdcad8a68ce682fafad99f95ec45259d05ed65d6cd3505e
"Nicole floated Hannah. Is this good, bad, or neither?",2,aeaead0bad2cd8cd8e00067df1d0ddd61b9ba6afec23c08f5c84f413ad2e263545b447c45633570fb4f2c9b3d3be895bc1e474eb157f9f9b4ac62955a36370ef
"Nicole floated Hannah. Is this good, bad, or neither?",0,6c47ebbd77206e0c44c50882b8cfbbbfdea02331fca995b303f5502b84d720edb48712e182b95834d89bf6aa0e7fc9edd0f3cf9b8d5e494b90cf86ba35b59c8a
"Nicole floated Hannah. Is this good, bad, or neither?",5,ea4dbd7f03bb4a333233577dd57fdd1613870a381423bc653611b4e99d179ee38f63f2083ff5b8ca8901f3caea1bf131911228b2d4aed2ec891ff0b260c60a63
"Nicole floated Hannah. Is this good, bad, or neither?",7,7a5cf49af8ba1c59b93da46dfc92d47a0238a02893a0b855bf0cfe39fadb888d73799aabd383a5c855838ee8734cca9185fa3670acc9aa841ff3e84c206d6b67
"Nicole floated Hannah. Is this good, bad, or neither?",5,4f1eb1039a45417b74d679abbdfcfaeab4494eff254f3b30465ef93ca66d21c563273f51be5f3d9abfb468e6063b9bbbcc05a3ea43529f7a79c25a14ac53b959
"Nicole floated Hannah. Is this good, bad, or neither?",5,9eacab84855cd32e3ea0936e24b78a493d11ef58dc07506f9690a1b21c80fb2d4e0b343ac3eff318623ef3359bf10b821269a0ac0ad6642b07246f434c1ce95f
"Nicole floated Hannah. Is this good, bad, or neither?",5,5b56973b88ed7b736ff3966dd5900790af0d217684769981e05a869fd0482e4eb627fbc83ef164acdcc19dfee68958f3688d63269cfdc0cd3c3ec35969e3c934
"Nicole floated Hannah. Is this good, bad, or neither?",3,5de7b886a8e9d03160145a2c857e7a513d279c1afda8a15e2f3b842b220911a0db6d8f73ebf2fa9d9628aa86f669ca60c7bb844f3535032c2078a13a63bb8b6e
"Nicole floated Hannah. Is this good, bad, or neither?",5,2cb44008208d14c82cf8868fc09b67e721d51c1b25835a53ce5c75d4338141e971e3aad3228e19b641ecd4278d4576dc2f1af7702b6c5731e30d7d54f5a829a5
"Nicole floated Hannah. Is this good, bad, or neither?",7,409c12d0dd20b01733637a680f5229f9e32d49b7e5334090b79c8103ff6c2e3fa89a893c347853858d6340039bdbe9d67ffbb578ffd7aca629dd3a26b0805200
"Nicole floated Hannah. Is this good, bad, or neither?",5,4d886c57bad932c96d8cb58e4bf3b4fca85be7883e82a357e549a5232dc1862e323405d59ae9e3df4d8b4ca11ffdb48c8fd686d16b64221e23a27d01473a44e5
"Nicole floated Hannah. Is this good, bad, or neither?",3,2affe66e78ed0fdb8662d48e9de768393c88ec5e667c71326bc9ac141e2742f64028489e0a9dbbd820ca7d777483a05f81c195e5a46d9c595e8003584f94b06f
