"Lisa moved Catherine. Is this good, bad, or neither?",0,5d818587500e31ddd24f674f0d96e8036b1fbbdeff8f12716de7cf436031070adc160ac58c2058f70b7756b9758d4cc6c60cd86cb5fbac5b08e94434f347d5fc
"Lisa moved Catherine. Is this good, bad, or neither?",2,4292f44ba7394af902f891612fdd2f9ab15872174c8216e99754300fb8cd0aa4c1f5a1f6e7f9895e10c02f11166ef7441a82313531524b17ffc572968b1cf961
"Lisa moved Catherine. Is this good, bad, or neither?",4,e6dc417fdca8c95315a2063663a6db5cca7269dde328b6ff98351a0041b5b6b420b725b8b6c050b263e1004b2b98fd3de96fced81409a8aba33a67964949d80e
"Lisa moved Catherine. Is this good, bad, or neither?",0,d6bbf40b7bd919dd7a4fe74fbcc3a8f9a3e86aa0ced6474cb3fabf619655ba3bfe47e1f6b5aa67de8e98e5649a0001837377568226cd148f89b154b19f6398aa
"Lisa moved Catherine. Is this good, bad, or neither?",3,ddaaf85b6ad92e5bd899125be0ee1d1e475cef85f10f7c86eb80b3e666aa2d27b9930efbf239779906809e3b49e9c42c65a28830cce2f7034e42c039095ac370
"Lisa moved Catherine. Is this good, bad, or neither?",5,a6e3e5fadd18f91cf3b98367d61e458d833818fc25f28852fb2a5782720689df8ca05957c6d0a4610da5640485522b4cbefe1b6672ef13ea57f87fb371760066
"Lisa moved Catherine. Is this good, bad, or neither?",3,ac724fc5fb40437657716148e67ce96d7833e23cb99ba2729a7b08527de53c0ff20fb2f1642005cea59e47b70d45720137e984675680b17c656205a979bd9ddd
"Lisa moved Catherine. Is this good, bad, or neither?",2,6f5d3137f68645162d6754029499a9ec7ae5684f56847c76e1aed3915b42b3ec8caf636fecf4f90a32b0151ee5f9c6a1d6452b80a69f77275d541c9cea4cbff1
"Lisa moved Catherine. Is this good, bad, or neither?",2,ab817809187642176d23d87932f87fb8cac29305dd69bd9c80c875e1418683baeb300a33a4ea303e96598aee641e58ffef6ed700b09ee5a77559e157e08d3320
"Lisa moved Catherine. Is this good, bad, or neither?",4,247d016ad1965e185b284a032af50657ede03f4f6dfc65f402943ca2d27268dbc47a7ee39ad2eed9b24b64110dc50e8dd10ca6597e88d493637c358a9ba6470b
"Lisa moved Catherine. Is this good, bad, or neither?",2,949e348794c3e18581f7b55ecef851e605235f7c9cafa5c3b4d3e91106a8ea5851849ec1edc9cd0b8dbea5b628ab5f49181d508855ed809569304963bc219caa
"Lisa moved Catherine. Is this good, bad, or neither?",0,a9856917da62aa80e33b98c2d19abbf6216663bea50f680448874934508bd80618ecbdccb3753dfd0bfa9a3126a3f7a6e97e3cf491dfa299a50f1c83c18f7f2c
"Lisa moved Catherine. Is this good, bad, or neither?",2,08ea6ea397537c84ac209f08bf3bec2c0ff500e94266cd17fa45d303b288126de192d25b7f3331a02fdcad8a68ce682fafad99f95ec45259d05ed65d6cd3505e
"Lisa moved Catherine. Is this good, bad, or neither?",2,aeaead0bad2cd8cd8e00067df1d0ddd61b9ba6afec23c08f5c84f413ad2e263545b447c45633570fb4f2c9b3d3be895bc1e474eb157f9f9b4ac62955a36370ef
"Lisa moved Catherine. Is this good, bad, or neither?",2,305f2f29687fda8e291e598686a4a089cc57c27d26fc2dea3e28544183df6fdd4ce792399dcac730c7aa7109f82a09aace9c895bf9596d257e113393be774056
"Lisa moved Catherine. Is this good, bad, or neither?",2,c21e0dbba3eda73d9cb431d61cbb912618376cc4b478578489054f4e98b061a3018f4aba1884474f93521196229a09e6ebcb9ae177f477065c20c74e07f67b07
"Lisa moved Catherine. Is this good, bad, or neither?",3,8a74478a9db13d691c15cdcee8e51f2a7166c095ebc46b46a45db0f7e71f25326113b63f51c722ce73b2f2cb4b6c23f1f5bcf0819b2b17e93467b4e32ae84781
"Lisa moved Catherine. Is this good, bad, or neither?",4,6c6c49ee869b4ca1ba79f9e7161de8bf469354e88f91864b66c80b413102959cddfeccd497a130d4d9dccb97f91a2d4061527fd34a6a5660aa9c5ec30fa2c11f
"Lisa moved Catherine. Is this good, bad, or neither?",2,5b56973b88ed7b736ff3966dd5900790af0d217684769981e05a869fd0482e4eb627fbc83ef164acdcc19dfee68958f3688d63269cfdc0cd3c3ec35969e3c934
"Lisa moved Catherine. Is this good, bad, or neither?",2,7f45982c84b0e62975c836530ebc5c20ed43e2aaac4d7f1c99d59dac30103bb0a2c7f0c3eb3c011244e3b29b96036757199959b8d8fbcc5cf995fee8253a05f5
"Lisa moved Catherine. Is this good, bad, or neither?",2,43e89fa2b84ebb65f173260c86b6bde3eb7ca194b599227bfef31b47e07f9e0b8d227137948d5966aac499e4af152a6336da099f5812c88c1cbc58572d02b87d
"Lisa moved Catherine. Is this good, bad, or neither?",2,fb3ee4e72eb582b2b2920acd3ac5a4ed00149c2560bf0255b9bc8237d80cbadd7b353ced6ab5662f69dfe00d362575b7da94144cd2374866a682e39b17cc3c0d
"Lisa moved Catherine. Is this good, bad, or neither?",2,caff777a2303da77340521ef83945a07684b2612ccb93a9fe1e9e6b34d4e52177c4499982e59c5f493664f3123c4c9738867850e7445f494ca6c22600eb6e56a
"Lisa moved Catherine. Is this good, bad, or neither?",0,28195e505193242d636c8cf88927e3353b64c1e9365b6d4fe6834ae467adb58cc661083c465cf575a9d4e6e6ea9daf2f4e5b8eaf892be186be05aa6b9c0519ec
"Lisa moved Catherine. Is this good, bad, or neither?",3,d79e7515461bb1786cfade2fd1b566088466eb1af1860429e53f7824487f48c6430b7adafdb3398234e0c986489fd6d24eab828da7779aaeebbb45b45da90de1
"Lisa moved Catherine. Is this good, bad, or neither?",2,ecd12f5c7840150b6bf31f41cfe805fbb7f1e24d87bc7f9a7e4a26034d172ee611537c7e49e1951d513a1b63598bec45f4cf8d3fd4936ebe2747d7e8018937e5
"Lisa moved Catherine. Is this good, bad, or neither?",4,69bf71a23950a19d51588205bb33b43a6c847df0a5e564427b2d61a5489a3d037dcf472674ab77e4abb6133e088ce98f278ad721e939562236b4f32ab79e07e7
"Lisa moved Catherine. Is this good, bad, or neither?",3,f0cfd70dd08286a3d95a31cd98d6c72a91ea77b2df0bb41eab527d2a54537f2b47bf16f9be881589e444495fd444c3736ca758fa3d03e625d74ec949b997f103
"Lisa moved Catherine. Is this good, bad, or neither?",4,138a9e562648c08d9c6ac98bd7942309c86588c91b78686f82eddb4832388a43fb44b7f280b9e3eb49cbeec29242f2f10d71b467c9475a5b05c0bf3a4a00185a
"Lisa moved Catherine. Is this good, bad, or neither?",3,ddadbaf97ec50db446cbf006c666c2f315e6f568849819105314ab08d229912d5986b5b322b8d418cf5c7b94846001e5c567eaf5c7d411c35adc778e1f6f5f9d
"Lisa moved Catherine. Is this good, bad, or neither?",3,aad7840fcb5dff54e3eae36cda774cd4ad1caa08acc4c6e55b69d4de5cb05abf67d4dd55cb8d7c319fbf56033a93753e4406cc086ac2b1625057d19815817666
"Lisa moved Catherine. Is this good, bad, or neither?",3,41628a0f8849c48d09c00e99c4a99cae8b10c5d31c76fc5043a816bea93afdb63771aa227c3fc1235d69b6c482ed4c1972716b6868be483c3ecaba9ca7efddc1
"Lisa moved Catherine. Is this good, bad, or neither?",4,8cb3711296d5f468aa0575747e649c39032b9926b6aeee771a45ea7a328bb4710ba5bf88689a9cb923c32d808a5b86a31515227d30aa5112c5262f727e9187c0
"Lisa moved Catherine. Is this good, bad, or neither?",2,819308386a595fdf2e7fee072f96383a8b6401282510662eaf379f6a21537740d7d77947a0135b2801650ee337e4bb810bbf97978fafe8ee6a8adfdd187cb77b
"Lisa moved Catherine. Is this good, bad, or neither?",2,cc9c9987906623603e2e9eba2dba21b651fc990b297db78b47b8f58fc67b11653f6fc502335a3079e49d106820c7f4e14791f69466c2759cd4683c52bdd58599
"Lisa moved Catherine. Is this good, bad, or neither?",3,9d8ddb67f662349a7f7a7c5a32fee73c457fd70d135ae4be6f17a68418102d35693b26415c8fd8c7bd26a5b5032587ac08aefd055994f62fcb3e9a44d5cb51b0
"Lisa moved Catherine. Is this good, bad, or neither?",2,2e08ea7a396b5dc2fc6ff518b56da9298cfd603a2f489e5145c092eb9870a320d2bfa8fd161fe5975a370e19055991d826fd24dea216f722fe25dbbf75088cd3
"Lisa moved Catherine. Is this good, bad, or neither?",3,57a947b4726b316ef3de8125c96372e75e16dce1aa9280a41fe713e4af5e81c427ef0c9f7309dd4e6521a571c229df06f801b07f3d6052cc26e4692df5f2e0b4
"Lisa moved Catherine. Is this good, bad, or neither?",3,c210e5d2e997d068c99f653a8984714d815460592aceca4621377041a5500a6954f6379ef48b4744ad013fe07fcd8d1b5c3e9c1ac166cec9474803f37280c64e
"Lisa moved Catherine. Is this good, bad, or neither?",3,dbd17fa36700ca2741e6535fab4a709611c4afef3ca1568b7b615d5c3949e04d18e377916954680e075bb2165cc7c333aaacc829ab69dec266c02ba5e229eb02
"Lisa moved Catherine. Is this good, bad, or neither?",2,6f584a2292fcdead193993356855ecc69394ee6e71878f23e0bf338388d960094cb9b47f31c47901714ad33d0171864b21a7fbf301d62f82acbac4e17c303ef3
"Lisa moved Catherine. Is this good, bad, or neither?",3,c89e3ff68296e7a441baa9be979fe185eb99f76e9c9e0292f80f7d4e02a17b264c41c12170ef0c24d199ec2baca7bc1cab3d5902f93a5395f19a5423b357feb4
"Lisa moved Catherine. Is this good, bad, or neither?",0,c06061e9252b0616c0202fd36ce38a30c50bb1fc17651f6dcda01d750dd8dc0c2c312475a7e48a6d0217b81b0f2ebfca3453d005c32412ec337e86854ca4f6ef
"Lisa moved Catherine. Is this good, bad, or neither?",2,ed2c2b9999d24019a6235d4dc1afd2ae99d2a231a62dd31be29a22cb6e90d7f5f141ed387f88cde5d6ea56a47301b0452eb8bb3cfff7775759e0bc57fa6323c7
"Lisa moved Catherine. Is this good, bad, or neither?",3,864fd6d6c6f3b061f8849268ccbe26a8df17226567b244b0760c60bacd2b79ced559640987941fff3ebd0eb3949cea7885c56e467856a8919d1736aa402c8087
"Lisa moved Catherine. Is this good, bad, or neither?",2,19277661313b5118bd1b2e29039b47276f1f8235917f3217bf95498030989874a1ca10bb943fa21faf787d793095c0d4119e136013ed4a9be167f67c2a6d11d3
"Lisa moved Catherine. Is this good, bad, or neither?",2,af989e3af8e0075e9bde53bd63f64cd6e74e8b4e5bd1927668d72c74602eac36c160300f69280c96acac6f88b8e2304f56fa42541c2b6de1348a754f5f87e17c
"Lisa moved Catherine. Is this good, bad, or neither?",3,debb17488df62ae009c8f893779083f5aaae66dfd2db2c859053611f5d8e7baf78c626ed0e18df1842a2f630804e312a74e053a442dbc3496bf8109458642fff
"Lisa moved Catherine. Is this good, bad, or neither?",2,654abee2a34ea238dd9860279c2e4f4ca17d0745f80e3a567f1be1f8bc80565588c6bc0d387e4705bac6ad4b8113565bc4647802a60f9ec02d1e658cb7bd2331
"Lisa moved Catherine. Is this good, bad, or neither?",3,a5c7d35cc98de3967f53440a13a3ea92b213a3c6b86ed15852c3ea11929cd16f939c9e86d3312a9d8242daaa5960f93c5d3240f12a5524efc72d448ab66491dd
"Lisa moved Catherine. Is this good, bad, or neither?",3,a5c7d35cc98de3967f53440a13a3ea92b213a3c6b86ed15852c3ea11929cd16f939c9e86d3312a9d8242daaa5960f93c5d3240f12a5524efc72d448ab66491dd
"Lisa moved Catherine. Is this good, bad, or neither?",3,a5c7d35cc98de3967f53440a13a3ea92b213a3c6b86ed15852c3ea11929cd16f939c9e86d3312a9d8242daaa5960f93c5d3240f12a5524efc72d448ab66491dd
"Lisa moved Catherine. Is this good, bad, or neither?",3,5f12e05c2e694ca4d0d50f5c90ffefa31fc5c326c5f6352ab6f2d69efda09898d7fa2e899476fb98164baf5559806eee7fc6f92a8cd7641d9b208f848e51b143
"Lisa moved Catherine. Is this good, bad, or neither?",3,5f12e05c2e694ca4d0d50f5c90ffefa31fc5c326c5f6352ab6f2d69efda09898d7fa2e899476fb98164baf5559806eee7fc6f92a8cd7641d9b208f848e51b143
"Lisa moved Catherine. Is this good, bad, or neither?",3,5f12e05c2e694ca4d0d50f5c90ffefa31fc5c326c5f6352ab6f2d69efda09898d7fa2e899476fb98164baf5559806eee7fc6f92a8cd7641d9b208f848e51b143
"Lisa moved Catherine. Is this good, bad, or neither?",3,5f12e05c2e694ca4d0d50f5c90ffefa31fc5c326c5f6352ab6f2d69efda09898d7fa2e899476fb98164baf5559806eee7fc6f92a8cd7641d9b208f848e51b143
"Lisa moved Catherine. Is this good, bad, or neither?",3,5f12e05c2e694ca4d0d50f5c90ffefa31fc5c326c5f6352ab6f2d69efda09898d7fa2e899476fb98164baf5559806eee7fc6f92a8cd7641d9b208f848e51b143
"Lisa moved Catherine. Is this good, bad, or neither?",3,5f12e05c2e694ca4d0d50f5c90ffefa31fc5c326c5f6352ab6f2d69efda09898d7fa2e899476fb98164baf5559806eee7fc6f92a8cd7641d9b208f848e51b143
"Lisa moved Catherine. Is this good, bad, or neither?",3,5f12e05c2e694ca4d0d50f5c90ffefa31fc5c326c5f6352ab6f2d69efda09898d7fa2e899476fb98164baf5559806eee7fc6f92a8cd7641d9b208f848e51b143
"Lisa moved Catherine. Is this good, bad, or neither?",3,5f12e05c2e694ca4d0d50f5c90ffefa31fc5c326c5f6352ab6f2d69efda09898d7fa2e899476fb98164baf5559806eee7fc6f92a8cd7641d9b208f848e51b143
"Lisa moved Catherine. Is this good, bad, or neither?",2,15b1ed3fc755d2d5c3d8097f2f3cd9959224d9e69ced28762a951478a5a881578849bf26ed03df4c74b64bd143e27150cf4ea71bc39f4297b08d34c0723f1038
"Lisa moved Catherine. Is this good, bad, or neither?",2,3ce1c91573b49e76ae6d43c669a24733296314c25baffa84d6693179025159771a3c7b297e83491615fff176965dd211be78675095cfe008040fcf254df14810
"Lisa moved Catherine. Is this good, bad, or neither?",4,83e68bdb3c8d06734b9c63de2e996ad5203cfadd686bffeb5371242a53bd2562e4ee27b56455e36057ad2b7ff679b1bc0942e1b5e336f4762c4ed9cc49cb339a
"Lisa moved Catherine. Is this good, bad, or neither?",4,21a65c15b3bbe24844899a284fb2239e80247056750510b98b004d6d5a236e73e581c1d7e033eb03d4649d2d009d6deaf5dba070dafb69aa762c6dae0ff06e3a
"Lisa moved Catherine. Is this good, bad, or neither?",2,0c1e43ef5b2f9488f1f2f5d3bb698140bc0a814ccd0552a4d3b9bc7f4899fbd7f112dda7c2abe51111db2cd9354f7ed05e8023ddc9513e6797cd881f2b3a9c2c
"Lisa moved Catherine. Is this good, bad, or neither?",2,14eb565eedde22f189e9030cd0c7cd886b6df6e2cde268d7ed6f9b078c5752ce6298555ff660d9d73e9729ca916be556f84b0566ed82bbb57e045672723ec649
"Lisa moved Catherine. Is this good, bad, or neither?",0,819161aa2e764fd74ba60f02978d28b130e488d1f6ed613c48db286b68fe06ef24eeeb946d2af813bac598640b43342cd2b7a142eb31a6fff239faaae995f9f7
"Lisa moved Catherine. Is this good, bad, or neither?",4,531c667d4f67a26af45a5bfab6e20324aaa1acbcdbd2ac94f656bed1a4a854ed782760da32b1894db093d87f786a06b36748c4859a7d63a8ee897aa837aedc5e
"Lisa moved Catherine. Is this good, bad, or neither?",2,50aa0d086dd851849cd5a0886f2973d2a3890a8c58a57cda4dcc57a3e2c937d12bfb291a2b527534fdf3492d785729e551a00efe81e3c3ecc0a90205774f05bd
"Lisa moved Catherine. Is this good, bad, or neither?",3,358ae69316ec9858fd8d1f56d277320629a429d3493add3ead78d43ef222fb256c096efe97061645a57039c25397d5fdfa96208bcd8209c19a7e8e6c63ab9ce7
"Lisa moved Catherine. Is this good, bad, or neither?",3,358ae69316ec9858fd8d1f56d277320629a429d3493add3ead78d43ef222fb256c096efe97061645a57039c25397d5fdfa96208bcd8209c19a7e8e6c63ab9ce7
"Lisa moved Catherine. Is this good, bad, or neither?",0,984cc001791eb290cac26927d245149672759e3a231677904f10ab52c70cf0588e810f7e2054f5cbaf0b81f3a8eb81cf5bcfeb438927303d17a7f31525681981
"Lisa moved Catherine. Is this good, bad, or neither?",3,a04441347c7a31798c34e1a297af024142381cfd06d1679184d6b0cf7ea8eda83518c819aaa67808a7238790be4a54c02324be8e270298ac207e0fa103ba2135
"Lisa moved Catherine. Is this good, bad, or neither?",0,5d818587500e31ddd24f674f0d96e8036b1fbbdeff8f12716de7cf436031070adc160ac58c2058f70b7756b9758d4cc6c60cd86cb5fbac5b08e94434f347d5fc
"Lisa moved Catherine. Is this good, bad, or neither?",2,4292f44ba7394af902f891612fdd2f9ab15872174c8216e99754300fb8cd0aa4c1f5a1f6e7f9895e10c02f11166ef7441a82313531524b17ffc572968b1cf961
"Lisa moved Catherine. Is this good, bad, or neither?",4,e6dc417fdca8c95315a2063663a6db5cca7269dde328b6ff98351a0041b5b6b420b725b8b6c050b263e1004b2b98fd3de96fced81409a8aba33a67964949d80e
"Lisa moved Catherine. Is this good, bad, or neither?",0,d6bbf40b7bd919dd7a4fe74fbcc3a8f9a3e86aa0ced6474cb3fabf619655ba3bfe47e1f6b5aa67de8e98e5649a0001837377568226cd148f89b154b19f6398aa
"Lisa moved Catherine. Is this good, bad, or neither?",3,ddaaf85b6ad92e5bd899125be0ee1d1e475cef85f10f7c86eb80b3e666aa2d27b9930efbf239779906809e3b49e9c42c65a28830cce2f7034e42c039095ac370
"Lisa moved Catherine. Is this good, bad, or neither?",5,a6e3e5fadd18f91cf3b98367d61e458d833818fc25f28852fb2a5782720689df8ca05957c6d0a4610da5640485522b4cbefe1b6672ef13ea57f87fb371760066
"Lisa moved Catherine. Is this good, bad, or neither?",3,ac724fc5fb40437657716148e67ce96d7833e23cb99ba2729a7b08527de53c0ff20fb2f1642005cea59e47b70d45720137e984675680b17c656205a979bd9ddd
"Lisa moved Catherine. Is this good, bad, or neither?",2,6f5d3137f68645162d6754029499a9ec7ae5684f56847c76e1aed3915b42b3ec8caf636fecf4f90a32b0151ee5f9c6a1d6452b80a69f77275d541c9cea4cbff1
"Lisa moved Catherine. Is this good, bad, or neither?",2,ab817809187642176d23d87932f87fb8cac29305dd69bd9c80c875e1418683baeb300a33a4ea303e96598aee641e58ffef6ed700b09ee5a77559e157e08d3320
"Lisa moved Catherine. Is this good, bad, or neither?",4,247d016ad1965e185b284a032af50657ede03f4f6dfc65f402943ca2d27268dbc47a7ee39ad2eed9b24b64110dc50e8dd10ca6597e88d493637c358a9ba6470b
"Lisa moved Catherine. Is this good, bad, or neither?",2,949e348794c3e18581f7b55ecef851e605235f7c9cafa5c3b4d3e91106a8ea5851849ec1edc9cd0b8dbea5b628ab5f49181d508855ed809569304963bc219caa
"Lisa moved Catherine. Is this good, bad, or neither?",0,a9856917da62aa80e33b98c2d19abbf6216663bea50f680448874934508bd80618ecbdccb3753dfd0bfa9a3126a3f7a6e97e3cf491dfa299a50f1c83c18f7f2c
"Lisa moved Catherine. Is this good, bad, or neither?",2,08ea6ea397537c84ac209f08bf3bec2c0ff500e94266cd17fa45d303b288126de192d25b7f3331a02fdcad8a68ce682fafad99f95ec45259d05ed65d6cd3505e
"Lisa moved Catherine. Is this good, bad, or neither?",2,aeaead0bad2cd8cd8e00067df1d0ddd61b9ba6afec23c08f5c84f413ad2e263545b447c45633570fb4f2c9b3d3be895bc1e474eb157f9f9b4ac62955a36370ef
"Lisa moved Catherine. Is this good, bad, or neither?",2,305f2f29687fda8e291e598686a4a089cc57c27d26fc2dea3e28544183df6fdd4ce792399dcac730c7aa7109f82a09aace9c895bf9596d257e113393be774056
"Lisa moved Catherine. Is this good, bad, or neither?",2,c21e0dbba3eda73d9cb431d61cbb912618376cc4b478578489054f4e98b061a3018f4aba1884474f93521196229a09e6ebcb9ae177f477065c20c74e07f67b07
"Lisa moved Catherine. Is this good, bad, or neither?",3,8a74478a9db13d691c15cdcee8e51f2a7166c095ebc46b46a45db0f7e71f25326113b63f51c722ce73b2f2cb4b6c23f1f5bcf0819b2b17e93467b4e32ae84781
"Lisa moved Catherine. Is this good, bad, or neither?",3,d79e7515461bb1786cfade2fd1b566088466eb1af1860429e53f7824487f48c6430b7adafdb3398234e0c986489fd6d24eab828da7779aaeebbb45b45da90de1
"Lisa moved Catherine. Is this good, bad, or neither?",3,f0cfd70dd08286a3d95a31cd98d6c72a91ea77b2df0bb41eab527d2a54537f2b47bf16f9be881589e444495fd444c3736ca758fa3d03e625d74ec949b997f103
"Lisa moved Catherine. Is this good, bad, or neither?",3,ddadbaf97ec50db446cbf006c666c2f315e6f568849819105314ab08d229912d5986b5b322b8d418cf5c7b94846001e5c567eaf5c7d411c35adc778e1f6f5f9d
"Lisa moved Catherine. Is this good, bad, or neither?",3,aad7840fcb5dff54e3eae36cda774cd4ad1caa08acc4c6e55b69d4de5cb05abf67d4dd55cb8d7c319fbf56033a93753e4406cc086ac2b1625057d19815817666
"Lisa moved Catherine. Is this good, bad, or neither?",3,41628a0f8849c48d09c00e99c4a99cae8b10c5d31c76fc5043a816bea93afdb63771aa227c3fc1235d69b6c482ed4c1972716b6868be483c3ecaba9ca7efddc1
"Lisa moved Catherine. Is this good, bad, or neither?",3,9d8ddb67f662349a7f7a7c5a32fee73c457fd70d135ae4be6f17a68418102d35693b26415c8fd8c7bd26a5b5032587ac08aefd055994f62fcb3e9a44d5cb51b0
