"The crose moved crompy. Is this good, bad, or neither?",2,5d818587500e31ddd24f674f0d96e8036b1fbbdeff8f12716de7cf436031070adc160ac58c2058f70b7756b9758d4cc6c60cd86cb5fbac5b08e94434f347d5fc
"The crose moved crompy. Is this good, bad, or neither?",2,925cfdc671ae8b2ba8e314c04416b841122b996d089fa67e34a35cf20f5705937c70a1a3f1e5bb91815bc7f25b6ee1dd9dec9a6e5394dc52522de5d9887d53b4
"The crose moved crompy. Is this good, bad, or neither?",2,720bea532db6ed90a7bd855c056e2ccc32b0f2fe90eb490aa4d644afcc89620fb5f7c3bf4971d931a8aef22130fb8976bd9e83f534038e3c4e8421311520cb5d
"The crose moved crompy. Is this good, bad, or neither?",4,aaa95c0664846be1d183b973a91ed74b1685e5e25ec9e68c82d19b353a324b47a68c74351d84d21e911a7cc42db0bd220fc29db5c10db1fce24a60559e550ef1
"The crose moved crompy. Is this good, bad, or neither?",2,ddaaf85b6ad92e5bd899125be0ee1d1e475cef85f10f7c86eb80b3e666aa2d27b9930efbf239779906809e3b49e9c42c65a28830cce2f7034e42c039095ac370
"The crose moved crompy. Is this good, bad, or neither?",7,10087c913fe11e55fc88d155e4ebd206e92683386f737d2692498f286bbc341b8c70905eba24f353d4d2ec51c106a6fb85ecc546dcd7a743dcc69a3ce6ad75a8
"The crose moved crompy. Is this good, bad, or neither?",2,0c722c136e468896becb05136899b1cdefed4cbdf4d69fb30cf881aee9a6edbb940d1fa3eb056b1a7833746d18b72dc94dc05c48d1e303e365d93c4ccb192e9a
"The crose moved crompy. Is this good, bad, or neither?",2,6f5d3137f68645162d6754029499a9ec7ae5684f56847c76e1aed3915b42b3ec8caf636fecf4f90a32b0151ee5f9c6a1d6452b80a69f77275d541c9cea4cbff1
"The crose moved crompy. Is this good, bad, or neither?",1,949e348794c3e18581f7b55ecef851e605235f7c9cafa5c3b4d3e91106a8ea5851849ec1edc9cd0b8dbea5b628ab5f49181d508855ed809569304963bc219caa
"The crose moved crompy. Is this good, bad, or neither?",2,17f6732cbcd360848927fad93c861a02892af401338bc95414692acfacfa7d9ad8dd7dc0691a31a9d719f2dded1671f031232d2413fb564895308f69d045f664
"The crose moved crompy. Is this good, bad, or neither?",2,9d8ddb67f662349a7f7a7c5a32fee73c457fd70d135ae4be6f17a68418102d35693b26415c8fd8c7bd26a5b5032587ac08aefd055994f62fcb3e9a44d5cb51b0
"The crose moved crompy. Is this good, bad, or neither?",2,9fc9d3de7ddb83580fc430d2d5c6ee47e775cabd5a982d7012deb44dbf1042f8b3db8ea6b2c4ee7b39f82b84b6b071d6968393ccc6520a6870f0883ccc441cf9
"The crose moved crompy. Is this good, bad, or neither?",2,6442579b5017c978ac48004d53b31163b3763f309e6f3e0581e04c2aea211970cc33a63b0462acee00808e5c684e9c9445efbc52c93000c0cc6f7f2e7cc3b7f1
"The crose moved crompy. Is this good, bad, or neither?",2,609868e2cf6de58a506a6731afe55c53d93510e3a34e58705479846aa7ccef2469a0081dc7ad92826b214afccaa96b3202ca07a32e7d6afd795c5776ef5511be
"The crose moved crompy. Is this good, bad, or neither?",3,fdcb2b05d3a3aa943a3b3391fa64407435c94b0436e74263463c67e17e9953705d3526147878dc1d17eeb8a37311cc71097d78d69109654a83ffff02ede3aedb
"The crose moved crompy. Is this good, bad, or neither?",2,b786036d7acce0559d0c263ba481477970ee860596c298ca85cb6c80b7f93e4900fbdf6ffb904d0d2f95e155ef86bfbee8ca27b4f0256a52645ced543254cad4
"The crose moved crompy. Is this good, bad, or neither?",2,08ea6ea397537c84ac209f08bf3bec2c0ff500e94266cd17fa45d303b288126de192d25b7f3331a02fdcad8a68ce682fafad99f95ec45259d05ed65d6cd3505e
"The crose moved crompy. Is this good, bad, or neither?",2,aeaead0bad2cd8cd8e00067df1d0ddd61b9ba6afec23c08f5c84f413ad2e263545b447c45633570fb4f2c9b3d3be895bc1e474eb157f9f9b4ac62955a36370ef
"The crose moved crompy. Is this good, bad, or neither?",4,0df2aff2691f1526964ed83b6356b1fe449c48214ab66aab6d55e2a7b685dcf1a7ed3027135c5f7f33fa43be8c82288c011959d4ddb4624f0135b621bda9db9f
"The crose moved crompy. Is this good, bad, or neither?",2,5ed859beff22cb7346bbd1bb520b4e40c6fd44610478d66cd057f78c274bfe00e0cfd791b7f2e25ec9b478d601bfa4906bcd9751e895cada9d7ddb10a781a789
"The crose moved crompy. Is this good, bad, or neither?",2,305f2f29687fda8e291e598686a4a089cc57c27d26fc2dea3e28544183df6fdd4ce792399dcac730c7aa7109f82a09aace9c895bf9596d257e113393be774056
"The crose moved crompy. Is this good, bad, or neither?",4,5413a412d4833ac9cfad22dce2c78e46f7ad8e3534e1741f4732e318296028ad444f1ba913fed810c1af16b369223c94f1ec5ea721d12e9753ad7d6d7ba1cf04
"The crose moved crompy. Is this good, bad, or neither?",2,1c59b9f5d650721508d85bf36e38d6104eab56daedef6b9214062fb115442e6366119677c3de1c5ee1112e88b2776fbad75aa01eee0a38ba3f9e9296edfbb8c4
"The crose moved crompy. Is this good, bad, or neither?",2,e54ad29a9f68ae9c74dc5e9abb66c78b733890c4ef372fa8bd1d2e6afae1ecbc89d14a67f04a7f84a234ebb95c6ba9ca0f6bd7adefde709159de2c4e7b247878
"The crose moved crompy. Is this good, bad, or neither?",2,7f45982c84b0e62975c836530ebc5c20ed43e2aaac4d7f1c99d59dac30103bb0a2c7f0c3eb3c011244e3b29b96036757199959b8d8fbcc5cf995fee8253a05f5
"The crose moved crompy. Is this good, bad, or neither?",2,87ef026014587c59d56fa4c2071e6bb9d3bed56b2c3afb54b24d4cc832295bd62bbfb4a581d1881c6fcb84d2fb80ee66fccefc5a7457a6dc6289793ff7e7d0dc
"The crose moved crompy. Is this good, bad, or neither?",2,fb3ee4e72eb582b2b2920acd3ac5a4ed00149c2560bf0255b9bc8237d80cbadd7b353ced6ab5662f69dfe00d362575b7da94144cd2374866a682e39b17cc3c0d
"The crose moved crompy. Is this good, bad, or neither?",5,9d8ddb67f662349a7f7a7c5a32fee73c457fd70d135ae4be6f17a68418102d35693b26415c8fd8c7bd26a5b5032587ac08aefd055994f62fcb3e9a44d5cb51b0
"The crose moved crompy. Is this good, bad, or neither?",2,28195e505193242d636c8cf88927e3353b64c1e9365b6d4fe6834ae467adb58cc661083c465cf575a9d4e6e6ea9daf2f4e5b8eaf892be186be05aa6b9c0519ec
"The crose moved crompy. Is this good, bad, or neither?",2,caff777a2303da77340521ef83945a07684b2612ccb93a9fe1e9e6b34d4e52177c4499982e59c5f493664f3123c4c9738867850e7445f494ca6c22600eb6e56a
"The crose moved crompy. Is this good, bad, or neither?",2,ecd12f5c7840150b6bf31f41cfe805fbb7f1e24d87bc7f9a7e4a26034d172ee611537c7e49e1951d513a1b63598bec45f4cf8d3fd4936ebe2747d7e8018937e5
"The crose moved crompy. Is this good, bad, or neither?",2,69bf71a23950a19d51588205bb33b43a6c847df0a5e564427b2d61a5489a3d037dcf472674ab77e4abb6133e088ce98f278ad721e939562236b4f32ab79e07e7
"The crose moved crompy. Is this good, bad, or neither?",2,db72999ed44c170b06d268061f591b7f59209363074f183e2e13af069a0f68410b623adb884463a90e0f21c52a2476de6fec2a9aaee48224fc3e68baf3c7dd13
"The crose moved crompy. Is this good, bad, or neither?",4,8104307bc4ebc3070d994c1846c423ccef53b8e663deba8805103da843013a27f7d118e81ff145c6e9a435e48701b38d7e5960bae3355d5b12a69ed329c6b819
"The crose moved crompy. Is this good, bad, or neither?",2,1bc716fd1a98f7bd26c9975e5116f4a46497329a34b7dfd92db8b35132edc51380a56798db2d8a50e9e282586d4658d3a423d435384e76296d0ec4909827bf59
"The crose moved crompy. Is this good, bad, or neither?",2,2e522521b21a1d41db023ae4136de708be41301c58d69e04637ddec14a114c7c1f10e4555ae1ec9a19db821aefe44567cf8091fcb0b60094d09e877612635b17
"The crose moved crompy. Is this good, bad, or neither?",2,1a61246cd509cb5ecba860ada52fb78f3a59d7a471e284f3bcc38cd2afa1dc4379bb075259f4bf83bd675fc8603a8b95c430ab021683c069dbf82461023cdab3
"The crose moved crompy. Is this good, bad, or neither?",2,9bb6c0b94423aad737d1a6cb9bdd473cc961388292066d67e3b7e45b17a5ca1dcffbe6e28bc7674ec6f7ef26e6ee32f6838b256ecdc2c8cce1f8e1379cfa851a
"The crose moved crompy. Is this good, bad, or neither?",4,dc083666dc1ab9a9ccaac0af0caba6b9243f27cf39ab989a9044adbf4680da45c90ccf389eafb578ab44db22b524cc1748a0630f4610d31f970efc2b5b0c7663
"The crose moved crompy. Is this good, bad, or neither?",3,2e08ea7a396b5dc2fc6ff518b56da9298cfd603a2f489e5145c092eb9870a320d2bfa8fd161fe5975a370e19055991d826fd24dea216f722fe25dbbf75088cd3
"The crose moved crompy. Is this good, bad, or neither?",2,7cb676e80d006ce92ccecc92fa76faf71ab836f627bd748d5d9f4676ba07efed8876614dc29b9304aeb63d39575013e69477982590216727c64d3feffcf41868
"The crose moved crompy. Is this good, bad, or neither?",2,78f802cf3e5c64963ef7841d9599e659c9631676eb62885083c21ab64eeee9deda6541262271021753d0e28db239e2321a7610420856334faaf00d2f443242e9
"The crose moved crompy. Is this good, bad, or neither?",1,1ee50ed22ee54f9896dbbd74b8ab144c54f27f74343d5199dacf7a53b62e64e20bcd7fab6fd61ce0e761be384d2a1937002a1334c7b51231ff67856e09ed7b34
"The crose moved crompy. Is this good, bad, or neither?",7,913e5862803780f9aa1fe36bcde381b9b6ba2bf20ca4a9395d718a87106989c323c5998ff1743d198dcc0e8f6558cd4c78365d4ded61723ef939effaa178a2a3
"The crose moved crompy. Is this good, bad, or neither?",2,4b698ff34a46fb2b579ab9e632dbbbab92e2934c5285e08a11921207a1fcea8ab98283f5275b0ffead045c58bc63ccc7051f82bdc3f8b58bafb28fada1b1af6c
"The crose moved crompy. Is this good, bad, or neither?",4,704d4d899def0e7abc10889e569a209ab92245091a9d7957aba81052827df2cca6d7b5852373eb67c3fbc1c0bad8ceb16f955b5be9c2dc63551aa48b43074375
"The crose moved crompy. Is this good, bad, or neither?",2,0e94d256aa830f3911eb7045d4273aeecf5c0cf5f7d3390828bc406b709b5e3c33ae58dd680cd1eb5640eed2bd85361e2ddf53c5d5eb0fb35082e028e45772be
"The crose moved crompy. Is this good, bad, or neither?",2,c3c45610090ecdde60e1dcc409af02ca28a4659f908ea0530544f11d27dbfc6bb633fd13eacf8543f487c6032bef0159d8118d809bff6b76ba0872262f08b325
"The crose moved crompy. Is this good, bad, or neither?",4,cb6d6950764e25c2e4086fb82936da4ed7085eb43c94536c7cf7c2c5a9f5b01377e930612201c8b71eba2f2644413c3442b9de2edb3e6dfc8012cacb57188e03
"The crose moved crompy. Is this good, bad, or neither?",7,5d7e555404ba7afb614938a8160f25a7effe15c7243f9b927666a676c74b7cfe7b9762414e8f52e2c3d7bd64f508f901c0574eebee3021088f0c9bc7d5a486e1
"The crose moved crompy. Is this good, bad, or neither?",2,512926c32568782467c043d9acacef7e1297fe10e47106d36f90ed38f8036a40a0f8a10a29ae7a31a0a93e5ad4fed44921abf919134ac7a8d096c8022d200715
"The crose moved crompy. Is this good, bad, or neither?",2,864fd6d6c6f3b061f8849268ccbe26a8df17226567b244b0760c60bacd2b79ced559640987941fff3ebd0eb3949cea7885c56e467856a8919d1736aa402c8087
"The crose moved crompy. Is this good, bad, or neither?",6,19277661313b5118bd1b2e29039b47276f1f8235917f3217bf95498030989874a1ca10bb943fa21faf787d793095c0d4119e136013ed4a9be167f67c2a6d11d3
"The crose moved crompy. Is this good, bad, or neither?",2,af989e3af8e0075e9bde53bd63f64cd6e74e8b4e5bd1927668d72c74602eac36c160300f69280c96acac6f88b8e2304f56fa42541c2b6de1348a754f5f87e17c
"The crose moved crompy. Is this good, bad, or neither?",2,b7c365e46dade8b2b452037de44a954fddd55155634366305fefd6e65484b171ef6a125b1ef504f3ae6c2ee036a002793a20db343796cf3e5282499746783754
"The crose moved crompy. Is this good, bad, or neither?",3,a8c587b500db841a040c834ea7e138d680f58a94067a016d1e34bb029e7a5755a7b629b83510771826624e6ba17f86d951b5c9399cff1af255e887a48cc06c67
"The crose moved crompy. Is this good, bad, or neither?",3,5f12e05c2e694ca4d0d50f5c90ffefa31fc5c326c5f6352ab6f2d69efda09898d7fa2e899476fb98164baf5559806eee7fc6f92a8cd7641d9b208f848e51b143
"The crose moved crompy. Is this good, bad, or neither?",3,5f12e05c2e694ca4d0d50f5c90ffefa31fc5c326c5f6352ab6f2d69efda09898d7fa2e899476fb98164baf5559806eee7fc6f92a8cd7641d9b208f848e51b143
"The crose moved crompy. Is this good, bad, or neither?",3,5f12e05c2e694ca4d0d50f5c90ffefa31fc5c326c5f6352ab6f2d69efda09898d7fa2e899476fb98164baf5559806eee7fc6f92a8cd7641d9b208f848e51b143
"The crose moved crompy. Is this good, bad, or neither?",3,5f12e05c2e694ca4d0d50f5c90ffefa31fc5c326c5f6352ab6f2d69efda09898d7fa2e899476fb98164baf5559806eee7fc6f92a8cd7641d9b208f848e51b143
"The crose moved crompy. Is this good, bad, or neither?",3,5f12e05c2e694ca4d0d50f5c90ffefa31fc5c326c5f6352ab6f2d69efda09898d7fa2e899476fb98164baf5559806eee7fc6f92a8cd7641d9b208f848e51b143
"The crose moved crompy. Is this good, bad, or neither?",3,5f12e05c2e694ca4d0d50f5c90ffefa31fc5c326c5f6352ab6f2d69efda09898d7fa2e899476fb98164baf5559806eee7fc6f92a8cd7641d9b208f848e51b143
"The crose moved crompy. Is this good, bad, or neither?",3,5f12e05c2e694ca4d0d50f5c90ffefa31fc5c326c5f6352ab6f2d69efda09898d7fa2e899476fb98164baf5559806eee7fc6f92a8cd7641d9b208f848e51b143
"The crose moved crompy. Is this good, bad, or neither?",3,5f12e05c2e694ca4d0d50f5c90ffefa31fc5c326c5f6352ab6f2d69efda09898d7fa2e899476fb98164baf5559806eee7fc6f92a8cd7641d9b208f848e51b143
"The crose moved crompy. Is this good, bad, or neither?",3,fb01d843f3d40d6501b9eda6a355052637b31f6b3c21fb0e3a860bdb506a42f2df07cd249b3096c402209021a9fd4679bb47c89ec3fc03513b12f8cb6975cd47
"The crose moved crompy. Is this good, bad, or neither?",3,fb01d843f3d40d6501b9eda6a355052637b31f6b3c21fb0e3a860bdb506a42f2df07cd249b3096c402209021a9fd4679bb47c89ec3fc03513b12f8cb6975cd47
"The crose moved crompy. Is this good, bad, or neither?",6,d53e3b0b2cba3582e8ab8ea30609a0faf136fbc477d24c1cbcd6ff078bc93436240d4592d381fceb56c5e7d2ac47c755b859bb6625c44fe12ad47969af9ecf97
"The crose moved crompy. Is this good, bad, or neither?",2,3ce1c91573b49e76ae6d43c669a24733296314c25baffa84d6693179025159771a3c7b297e83491615fff176965dd211be78675095cfe008040fcf254df14810
"The crose moved crompy. Is this good, bad, or neither?",2,b4a89e063c479339463fe8a3755a45afdb72640d55ae6f8499866bdce35aea79532c96c386d3e305abf960bd172306159148a5dedc70fc0c191353ec94176ac4
"The crose moved crompy. Is this good, bad, or neither?",3,522cba799e3ba91efa463736999b4bb16e49ef6800fbe6e828823422d30a16e88fca4f35d76885a886bf051f6c8b546b1f7b65ece8f52995b87be6a85d81d792
"The crose moved crompy. Is this good, bad, or neither?",3,522cba799e3ba91efa463736999b4bb16e49ef6800fbe6e828823422d30a16e88fca4f35d76885a886bf051f6c8b546b1f7b65ece8f52995b87be6a85d81d792
"The crose moved crompy. Is this good, bad, or neither?",2,819161aa2e764fd74ba60f02978d28b130e488d1f6ed613c48db286b68fe06ef24eeeb946d2af813bac598640b43342cd2b7a142eb31a6fff239faaae995f9f7
"The crose moved crompy. Is this good, bad, or neither?",2,f162a9eace4545ab3748bcc1b5e87034f6d0dd27a713d1727b110d181abbcb306512c9c17c589c05c14876a905d370d73270a2603b249a0a1b523a5fc5d176dc
"The crose moved crompy. Is this good, bad, or neither?",2,c3ae5bb796570b9e25df05b55c2fd98b72f9f337a1f843f188fda50c0d93a62dc8820feaa0b21e657d4c7e487a0c4ca2ba676260670ab591604eea8c1824ffff
"The crose moved crompy. Is this good, bad, or neither?",2,a04441347c7a31798c34e1a297af024142381cfd06d1679184d6b0cf7ea8eda83518c819aaa67808a7238790be4a54c02324be8e270298ac207e0fa103ba2135
"The crose moved crompy. Is this good, bad, or neither?",2,3db6d32fe3019eb019bf0ec9ce5de51a4f71217468859efb3e5cb0164fe5341c1f4a6da31baac1782fc14dd3af979013caa34874973f5c179aa1cb92bff36ad3
"The crose moved crompy. Is this good, bad, or neither?",2,93c7036b79a7067a106c2cd4223276dd446c2c72895d509f80be5d6eee41883385bb69360c7da00f9264787a1a356ab846a84ec970d0be5d899ed01e316f758f
"The crose moved crompy. Is this good, bad, or neither?",2,debb17488df62ae009c8f893779083f5aaae66dfd2db2c859053611f5d8e7baf78c626ed0e18df1842a2f630804e312a74e053a442dbc3496bf8109458642fff
"The crose moved crompy. Is this good, bad, or neither?",4,7f30977ad25874a1069b6ca06cfe3b28c854c8bc7174a66ccb097aca6ef8cad1c28a32afe9e747ea2006cd9d8361a0b3fdec989c2022a7fa65d3b4d6a3cfa44e
"The crose moved crompy. Is this good, bad, or neither?",7,7f30977ad25874a1069b6ca06cfe3b28c854c8bc7174a66ccb097aca6ef8cad1c28a32afe9e747ea2006cd9d8361a0b3fdec989c2022a7fa65d3b4d6a3cfa44e
"The crose moved crompy. Is this good, bad, or neither?",2,fe335eb035885bcc91b62d044886d275a73e393f97a1240551ea73da7a3895d96220d44e70577de3f7c55b866ad00306ae3af88d3b8db226c811cd5c0d50dd64
"The crose moved crompy. Is this good, bad, or neither?",2,64b0b383abef7422d0ae1d374180558f9cd4a3b0e91ed813b32c93202f31411e1af4445cc49c3e7a5e27274da047d27abc1a040400096e04e1c3e039548aed58
"The crose moved crompy. Is this good, bad, or neither?",6,64b0b383abef7422d0ae1d374180558f9cd4a3b0e91ed813b32c93202f31411e1af4445cc49c3e7a5e27274da047d27abc1a040400096e04e1c3e039548aed58
"The crose moved crompy. Is this good, bad, or neither?",2,5d818587500e31ddd24f674f0d96e8036b1fbbdeff8f12716de7cf436031070adc160ac58c2058f70b7756b9758d4cc6c60cd86cb5fbac5b08e94434f347d5fc
"The crose moved crompy. Is this good, bad, or neither?",2,925cfdc671ae8b2ba8e314c04416b841122b996d089fa67e34a35cf20f5705937c70a1a3f1e5bb91815bc7f25b6ee1dd9dec9a6e5394dc52522de5d9887d53b4
"The crose moved crompy. Is this good, bad, or neither?",2,720bea532db6ed90a7bd855c056e2ccc32b0f2fe90eb490aa4d644afcc89620fb5f7c3bf4971d931a8aef22130fb8976bd9e83f534038e3c4e8421311520cb5d
"The crose moved crompy. Is this good, bad, or neither?",4,aaa95c0664846be1d183b973a91ed74b1685e5e25ec9e68c82d19b353a324b47a68c74351d84d21e911a7cc42db0bd220fc29db5c10db1fce24a60559e550ef1
"The crose moved crompy. Is this good, bad, or neither?",2,ddaaf85b6ad92e5bd899125be0ee1d1e475cef85f10f7c86eb80b3e666aa2d27b9930efbf239779906809e3b49e9c42c65a28830cce2f7034e42c039095ac370
"The crose moved crompy. Is this good, bad, or neither?",7,10087c913fe11e55fc88d155e4ebd206e92683386f737d2692498f286bbc341b8c70905eba24f353d4d2ec51c106a6fb85ecc546dcd7a743dcc69a3ce6ad75a8
"The crose moved crompy. Is this good, bad, or neither?",2,0c722c136e468896becb05136899b1cdefed4cbdf4d69fb30cf881aee9a6edbb940d1fa3eb056b1a7833746d18b72dc94dc05c48d1e303e365d93c4ccb192e9a
"The crose moved crompy. Is this good, bad, or neither?",2,6f5d3137f68645162d6754029499a9ec7ae5684f56847c76e1aed3915b42b3ec8caf636fecf4f90a32b0151ee5f9c6a1d6452b80a69f77275d541c9cea4cbff1
"The crose moved crompy. Is this good, bad, or neither?",1,949e348794c3e18581f7b55ecef851e605235f7c9cafa5c3b4d3e91106a8ea5851849ec1edc9cd0b8dbea5b628ab5f49181d508855ed809569304963bc219caa
"The crose moved crompy. Is this good, bad, or neither?",2,17f6732cbcd360848927fad93c861a02892af401338bc95414692acfacfa7d9ad8dd7dc0691a31a9d719f2dded1671f031232d2413fb564895308f69d045f664
"The crose moved crompy. Is this good, bad, or neither?",2,9d8ddb67f662349a7f7a7c5a32fee73c457fd70d135ae4be6f17a68418102d35693b26415c8fd8c7bd26a5b5032587ac08aefd055994f62fcb3e9a44d5cb51b0
"The crose moved crompy. Is this good, bad, or neither?",2,9fc9d3de7ddb83580fc430d2d5c6ee47e775cabd5a982d7012deb44dbf1042f8b3db8ea6b2c4ee7b39f82b84b6b071d6968393ccc6520a6870f0883ccc441cf9
"The crose moved crompy. Is this good, bad, or neither?",2,6442579b5017c978ac48004d53b31163b3763f309e6f3e0581e04c2aea211970cc33a63b0462acee00808e5c684e9c9445efbc52c93000c0cc6f7f2e7cc3b7f1
"The crose moved crompy. Is this good, bad, or neither?",2,609868e2cf6de58a506a6731afe55c53d93510e3a34e58705479846aa7ccef2469a0081dc7ad92826b214afccaa96b3202ca07a32e7d6afd795c5776ef5511be
"The crose moved crompy. Is this good, bad, or neither?",3,fdcb2b05d3a3aa943a3b3391fa64407435c94b0436e74263463c67e17e9953705d3526147878dc1d17eeb8a37311cc71097d78d69109654a83ffff02ede3aedb
"The crose moved crompy. Is this good, bad, or neither?",2,b786036d7acce0559d0c263ba481477970ee860596c298ca85cb6c80b7f93e4900fbdf6ffb904d0d2f95e155ef86bfbee8ca27b4f0256a52645ced543254cad4
"The crose moved crompy. Is this good, bad, or neither?",2,08ea6ea397537c84ac209f08bf3bec2c0ff500e94266cd17fa45d303b288126de192d25b7f3331a02fdcad8a68ce682fafad99f95ec45259d05ed65d6cd3505e
"The crose moved crompy. Is this good, bad, or neither?",2,aeaead0bad2cd8cd8e00067df1d0ddd61b9ba6afec23c08f5c84f413ad2e263545b447c45633570fb4f2c9b3d3be895bc1e474eb157f9f9b4ac62955a36370ef
"The crose moved crompy. Is this good, bad, or neither?",4,0df2aff2691f1526964ed83b6356b1fe449c48214ab66aab6d55e2a7b685dcf1a7ed3027135c5f7f33fa43be8c82288c011959d4ddb4624f0135b621bda9db9f
"The crose moved crompy. Is this good, bad, or neither?",2,5ed859beff22cb7346bbd1bb520b4e40c6fd44610478d66cd057f78c274bfe00e0cfd791b7f2e25ec9b478d601bfa4906bcd9751e895cada9d7ddb10a781a789
"The crose moved crompy. Is this good, bad, or neither?",2,305f2f29687fda8e291e598686a4a089cc57c27d26fc2dea3e28544183df6fdd4ce792399dcac730c7aa7109f82a09aace9c895bf9596d257e113393be774056
"The crose moved crompy. Is this good, bad, or neither?",4,5413a412d4833ac9cfad22dce2c78e46f7ad8e3534e1741f4732e318296028ad444f1ba913fed810c1af16b369223c94f1ec5ea721d12e9753ad7d6d7ba1cf04
"The crose moved crompy. Is this good, bad, or neither?",2,1c59b9f5d650721508d85bf36e38d6104eab56daedef6b9214062fb115442e6366119677c3de1c5ee1112e88b2776fbad75aa01eee0a38ba3f9e9296edfbb8c4
"The crose moved crompy. Is this good, bad, or neither?",5,9d8ddb67f662349a7f7a7c5a32fee73c457fd70d135ae4be6f17a68418102d35693b26415c8fd8c7bd26a5b5032587ac08aefd055994f62fcb3e9a44d5cb51b0
"The crose moved crompy. Is this good, bad, or neither?",3,2e08ea7a396b5dc2fc6ff518b56da9298cfd603a2f489e5145c092eb9870a320d2bfa8fd161fe5975a370e19055991d826fd24dea216f722fe25dbbf75088cd3
