"Mark smashed at the nork with the sevel. Is this good, bad, or neither?",1,5d818587500e31ddd24f674f0d96e8036b1fbbdeff8f12716de7cf436031070adc160ac58c2058f70b7756b9758d4cc6c60cd86cb5fbac5b08e94434f347d5fc
"Mark smashed at the nork with the sevel. Is this good, bad, or neither?",1,ddaaf85b6ad92e5bd899125be0ee1d1e475cef85f10f7c86eb80b3e666aa2d27b9930efbf239779906809e3b49e9c42c65a28830cce2f7034e42c039095ac370
"Mark smashed at the nork with the sevel. Is this good, bad, or neither?",1,4292f44ba7394af902f891612fdd2f9ab15872174c8216e99754300fb8cd0aa4c1f5a1f6e7f9895e10c02f11166ef7441a82313531524b17ffc572968b1cf961
"Mark smashed at the nork with the sevel. Is this good, bad, or neither?",1,c21e5e9ea1ec7e4fa57cb34b9d2724328636606e37e0c25966965fbbd4c6baa6acf6066ed80eb5abc87aab14c4d2f2ae364307b26eb184ec1c301bb6e2cf1131
"Mark smashed at the nork with the sevel. Is this good, bad, or neither?",1,bea0fd542e426e9178f522ba9216343653116a9663397c9861abb8a5e57f4e10ecac30ad308d3f11abb8d01ff34fba133b6d3b91fafb6b47f663071d10ec78ae
"Mark smashed at the nork with the sevel. Is this good, bad, or neither?",1,609868e2cf6de58a506a6731afe55c53d93510e3a34e58705479846aa7ccef2469a0081dc7ad92826b214afccaa96b3202ca07a32e7d6afd795c5776ef5511be
"Mark smashed at the nork with the sevel. Is this good, bad, or neither?",0,d7c1f7e88cc8ef32253f3f931eb93a8b97c0dc860b76f4c96ef5adfeeee3866043376af2c21624dc31c61bc33b110a35cdd5357ca9a9d803c2dfe7b6fca25134
"Mark smashed at the nork with the sevel. Is this good, bad, or neither?",1,08ea6ea397537c84ac209f08bf3bec2c0ff500e94266cd17fa45d303b288126de192d25b7f3331a02fdcad8a68ce682fafad99f95ec45259d05ed65d6cd3505e
"Mark smashed at the nork with the sevel. Is this good, bad, or neither?",1,aeaead0bad2cd8cd8e00067df1d0ddd61b9ba6afec23c08f5c84f413ad2e263545b447c45633570fb4f2c9b3d3be895bc1e474eb157f9f9b4ac62955a36370ef
"Mark smashed at the nork with the sevel. Is this good, bad, or neither?",1,5ed859beff22cb7346bbd1bb520b4e40c6fd44610478d66cd057f78c274bfe00e0cfd791b7f2e25ec9b478d601bfa4906bcd9751e895cada9d7ddb10a781a789
"Mark smashed at the nork with the sevel. Is this good, bad, or neither?",2,f809aecd182f2a7610b3bcb063779a7f02b85e58126d1d7433ff9c7e0ff8b61a4dd7550404e90a1423050ed8fdb03de7720d8065b11ab6b95d238943cdbbea81
"Mark smashed at the nork with the sevel. Is this good, bad, or neither?",1,305f2f29687fda8e291e598686a4a089cc57c27d26fc2dea3e28544183df6fdd4ce792399dcac730c7aa7109f82a09aace9c895bf9596d257e113393be774056
"Mark smashed at the nork with the sevel. Is this good, bad, or neither?",4,b57e6944a7f1cc6dfbfb5f19290d78629407851ccc0ed62e99ad91b56b9a0289ce66292c99e08f9f97f73e5607d085b86ae6f072fce59ab0809e150affa9cfab
"Mark smashed at the nork with the sevel. Is this good, bad, or neither?",1,bcaeadfc56724d5a2432d2d012f80ea1f3af361fd2cc23ae85f9c718fc15e697164a11cbc8c601de2536a5c3f4d2cfa30f149dc06e2371384a24375be9cb90b5
"Mark smashed at the nork with the sevel. Is this good, bad, or neither?",1,8a74478a9db13d691c15cdcee8e51f2a7166c095ebc46b46a45db0f7e71f25326113b63f51c722ce73b2f2cb4b6c23f1f5bcf0819b2b17e93467b4e32ae84781
"Mark smashed at the nork with the sevel. Is this good, bad, or neither?",1,54f6b3e513c13bfcdbe1fe36eb012ee13d6a602793f7b0d77a58e9677d4df23396135d1671a38883db4788ebb0ed5a75fe3538b70666e0d9f1400e9f96cb120b
"Mark smashed at the nork with the sevel. Is this good, bad, or neither?",1,1cc20db231099a6ea6df62dea6c2903433e7bc7306741498a7bd43aa9677d3d151bddf635b6feb6061ffdb2260f080e61aaed68b60f7d671ec6776141c168ad8
"Mark smashed at the nork with the sevel. Is this good, bad, or neither?",1,b3b9eab52694ada3268cee6cd621ee877d46cdcc180fb909e64f486f4c29791bf98de42621e7b64e87ae4b97c0cca47079f9774be06c814d59a6daf5bcca5302
"Mark smashed at the nork with the sevel. Is this good, bad, or neither?",2,6c66f8d1cb79f83e2d8b91024b3a9ca482019683b414926463b3e904cf0f9c4ed281967b81a4f11df07a41e5cfdffde8fde4684d77da4ddbd12bd26426785698
"Mark smashed at the nork with the sevel. Is this good, bad, or neither?",4,e54ad29a9f68ae9c74dc5e9abb66c78b733890c4ef372fa8bd1d2e6afae1ecbc89d14a67f04a7f84a234ebb95c6ba9ca0f6bd7adefde709159de2c4e7b247878
"Mark smashed at the nork with the sevel. Is this good, bad, or neither?",1,5de7b886a8e9d03160145a2c857e7a513d279c1afda8a15e2f3b842b220911a0db6d8f73ebf2fa9d9628aa86f669ca60c7bb844f3535032c2078a13a63bb8b6e
"Mark smashed at the nork with the sevel. Is this good, bad, or neither?",1,423aab82b56b483c2e15f56ac97cdf96e24b5aa8de86ce044b547de7df882815fef4c833afe62510f5af7d59221a5d85a5f90bd70236952aef0e6e84aea1c507
"Mark smashed at the nork with the sevel. Is this good, bad, or neither?",1,af989e3af8e0075e9bde53bd63f64cd6e74e8b4e5bd1927668d72c74602eac36c160300f69280c96acac6f88b8e2304f56fa42541c2b6de1348a754f5f87e17c
"Mark smashed at the nork with the sevel. Is this good, bad, or neither?",1,fb3ee4e72eb582b2b2920acd3ac5a4ed00149c2560bf0255b9bc8237d80cbadd7b353ced6ab5662f69dfe00d362575b7da94144cd2374866a682e39b17cc3c0d
"Mark smashed at the nork with the sevel. Is this good, bad, or neither?",4,2cb44008208d14c82cf8868fc09b67e721d51c1b25835a53ce5c75d4338141e971e3aad3228e19b641ecd4278d4576dc2f1af7702b6c5731e30d7d54f5a829a5
"Mark smashed at the nork with the sevel. Is this good, bad, or neither?",4,66ab85eabac73555896b5e2d0edb83fa95f45bc84fb8ea138679613161d8f2eeff6419a65df002bbae10680df73519943e9312e58b7f88d19d9b33c4d93114b6
"Mark smashed at the nork with the sevel. Is this good, bad, or neither?",1,28195e505193242d636c8cf88927e3353b64c1e9365b6d4fe6834ae467adb58cc661083c465cf575a9d4e6e6ea9daf2f4e5b8eaf892be186be05aa6b9c0519ec
"Mark smashed at the nork with the sevel. Is this good, bad, or neither?",1,d52d0f79310a4a1585de2ba281cae55d8bf4f66ee89a3b0afe5bec86ac64f3fbcf4ac04acc90a017d6f66a1259e7c33c370048fe26771c06104f79c7f0e7daea
"Mark smashed at the nork with the sevel. Is this good, bad, or neither?",1,caff777a2303da77340521ef83945a07684b2612ccb93a9fe1e9e6b34d4e52177c4499982e59c5f493664f3123c4c9738867850e7445f494ca6c22600eb6e56a
"Mark smashed at the nork with the sevel. Is this good, bad, or neither?",1,832b19ea4eb64ad4f6298c0933ec2f6ba994974bcbbda62a7a0088a00f6cd96bd27aca96187875bf07fe2c868f7cd9e74b39598b91c261fd45079e5150637de4
"Mark smashed at the nork with the sevel. Is this good, bad, or neither?",1,ecd12f5c7840150b6bf31f41cfe805fbb7f1e24d87bc7f9a7e4a26034d172ee611537c7e49e1951d513a1b63598bec45f4cf8d3fd4936ebe2747d7e8018937e5
"Mark smashed at the nork with the sevel. Is this good, bad, or neither?",1,8104307bc4ebc3070d994c1846c423ccef53b8e663deba8805103da843013a27f7d118e81ff145c6e9a435e48701b38d7e5960bae3355d5b12a69ed329c6b819
"Mark smashed at the nork with the sevel. Is this good, bad, or neither?",4,2affe66e78ed0fdb8662d48e9de768393c88ec5e667c71326bc9ac141e2742f64028489e0a9dbbd820ca7d777483a05f81c195e5a46d9c595e8003584f94b06f
"Mark smashed at the nork with the sevel. Is this good, bad, or neither?",6,b4f4a619c25dcd9e0bc9ddf510e77e7e8e446651b8a52318cd89b554a705760515f2a0553874c0414293dd20cbf13e864fb0beefcbc1422f7eaa4320eb3990ee
"Mark smashed at the nork with the sevel. Is this good, bad, or neither?",1,79d1e9ddd47e7ce7e9b79d5cf0a129bc40266c682d754429271b543d4a9f1ae0745951873983a83a499b790bece0a94ef2d667c15198c41de7ac15df6808ea45
"Mark smashed at the nork with the sevel. Is this good, bad, or neither?",3,2e08ea7a396b5dc2fc6ff518b56da9298cfd603a2f489e5145c092eb9870a320d2bfa8fd161fe5975a370e19055991d826fd24dea216f722fe25dbbf75088cd3
"Mark smashed at the nork with the sevel. Is this good, bad, or neither?",5,a4d3847109ae2f5226d5c2c471474ac1354c0a408675c2769331b28df5ce50e07572911cfd1a4d13c2d730067cd5699ae1f8bff65cf03aa29e2441cc0a5ca131
"Mark smashed at the nork with the sevel. Is this good, bad, or neither?",1,e1fd10cf848c9df29af942d3dc81a5428a6285ee2f459282e8028e0b2cea57000611601abc6532a1b39ec6b50059e4844c29e9275190a8f65812a8bace8e84c7
"Mark smashed at the nork with the sevel. Is this good, bad, or neither?",1,fe7dc2c0fd2a9e8c9493e5b09f9f61efca50de255e5568369f72d259f12600de43d619ab00100f820b7e57c92c980d00653a54fc7f9663a13803c6abee19b991
"Mark smashed at the nork with the sevel. Is this good, bad, or neither?",0,b75b4c42f1af881cfc3fb71f1f4327066166415c9fee08b4d17c745934167e96f9b0be59c36fb5adfe0ef34157bfe1ec53c7ac0fd8401c468bbc8164799d67dc
"Mark smashed at the nork with the sevel. Is this good, bad, or neither?",1,e026cbf1f92ffcd63549ad9958fb5feeaed2d6b545677b809b1cafc3fc96349d27e28ef3da4919854a8b6d9ce320dc40b10f705c361b77a717ca1cc8d70dca1b
"Mark smashed at the nork with the sevel. Is this good, bad, or neither?",1,0e94d256aa830f3911eb7045d4273aeecf5c0cf5f7d3390828bc406b709b5e3c33ae58dd680cd1eb5640eed2bd85361e2ddf53c5d5eb0fb35082e028e45772be
"Mark smashed at the nork with the sevel. Is this good, bad, or neither?",6,2f84ceba8d374480c33b63782aa61c5d6cfa5364ec4e425284f9600898c2ed5e08dad96417b2bbb22a5635880995f8940075e45b1bb1250fb6cee135d89649be
"Mark smashed at the nork with the sevel. Is this good, bad, or neither?",1,1831481d8d3eec3a2fb2eab505a1b3de37697dbd0fcd9eac9ec06146ca2f124f7ecd5dcaee89b5a0287ae89cdd959821afdbe8bf3dd36d8674059f59fc7f1061
"Mark smashed at the nork with the sevel. Is this good, bad, or neither?",2,ad58f6ba08468ffa84520fb67f92f7eec548175ea09a80044f28749fd6de6a0e64248938a3ef430652045b5e86fad9c779b13c213fb62a84551e7817e93f18c4
"Mark smashed at the nork with the sevel. Is this good, bad, or neither?",4,ad58f6ba08468ffa84520fb67f92f7eec548175ea09a80044f28749fd6de6a0e64248938a3ef430652045b5e86fad9c779b13c213fb62a84551e7817e93f18c4
"Mark smashed at the nork with the sevel. Is this good, bad, or neither?",2,512926c32568782467c043d9acacef7e1297fe10e47106d36f90ed38f8036a40a0f8a10a29ae7a31a0a93e5ad4fed44921abf919134ac7a8d096c8022d200715
"Mark smashed at the nork with the sevel. Is this good, bad, or neither?",1,864fd6d6c6f3b061f8849268ccbe26a8df17226567b244b0760c60bacd2b79ced559640987941fff3ebd0eb3949cea7885c56e467856a8919d1736aa402c8087
"Mark smashed at the nork with the sevel. Is this good, bad, or neither?",4,debb17488df62ae009c8f893779083f5aaae66dfd2db2c859053611f5d8e7baf78c626ed0e18df1842a2f630804e312a74e053a442dbc3496bf8109458642fff
"Mark smashed at the nork with the sevel. Is this good, bad, or neither?",3,5f12e05c2e694ca4d0d50f5c90ffefa31fc5c326c5f6352ab6f2d69efda09898d7fa2e899476fb98164baf5559806eee7fc6f92a8cd7641d9b208f848e51b143
"Mark smashed at the nork with the sevel. Is this good, bad, or neither?",3,5f12e05c2e694ca4d0d50f5c90ffefa31fc5c326c5f6352ab6f2d69efda09898d7fa2e899476fb98164baf5559806eee7fc6f92a8cd7641d9b208f848e51b143
"Mark smashed at the nork with the sevel. Is this good, bad, or neither?",3,5f12e05c2e694ca4d0d50f5c90ffefa31fc5c326c5f6352ab6f2d69efda09898d7fa2e899476fb98164baf5559806eee7fc6f92a8cd7641d9b208f848e51b143
"Mark smashed at the nork with the sevel. Is this good, bad, or neither?",3,5f12e05c2e694ca4d0d50f5c90ffefa31fc5c326c5f6352ab6f2d69efda09898d7fa2e899476fb98164baf5559806eee7fc6f92a8cd7641d9b208f848e51b143
"Mark smashed at the nork with the sevel. Is this good, bad, or neither?",3,5f12e05c2e694ca4d0d50f5c90ffefa31fc5c326c5f6352ab6f2d69efda09898d7fa2e899476fb98164baf5559806eee7fc6f92a8cd7641d9b208f848e51b143
"Mark smashed at the nork with the sevel. Is this good, bad, or neither?",3,5f12e05c2e694ca4d0d50f5c90ffefa31fc5c326c5f6352ab6f2d69efda09898d7fa2e899476fb98164baf5559806eee7fc6f92a8cd7641d9b208f848e51b143
"Mark smashed at the nork with the sevel. Is this good, bad, or neither?",3,5f12e05c2e694ca4d0d50f5c90ffefa31fc5c326c5f6352ab6f2d69efda09898d7fa2e899476fb98164baf5559806eee7fc6f92a8cd7641d9b208f848e51b143
"Mark smashed at the nork with the sevel. Is this good, bad, or neither?",3,5f12e05c2e694ca4d0d50f5c90ffefa31fc5c326c5f6352ab6f2d69efda09898d7fa2e899476fb98164baf5559806eee7fc6f92a8cd7641d9b208f848e51b143
"Mark smashed at the nork with the sevel. Is this good, bad, or neither?",2,74909907346f16739bae4e01b6235b1840b7201043bb3e7e6d45d421e2b5a87fe25e58f50eb0b85bb5979ee0b8c53b0b94b782f484b04939f186669ffde79e44
"Mark smashed at the nork with the sevel. Is this good, bad, or neither?",4,138a9e562648c08d9c6ac98bd7942309c86588c91b78686f82eddb4832388a43fb44b7f280b9e3eb49cbeec29242f2f10d71b467c9475a5b05c0bf3a4a00185a
"Mark smashed at the nork with the sevel. Is this good, bad, or neither?",1,c80ad8315d80c84999757da1c65a4d0080a8ef397234538c9046ec61606aaec64da1fff300b5cfd84df0338bece5ecd07bec05d51269b03da6fc176f51b04b47
"Mark smashed at the nork with the sevel. Is this good, bad, or neither?",1,3ce1c91573b49e76ae6d43c669a24733296314c25baffa84d6693179025159771a3c7b297e83491615fff176965dd211be78675095cfe008040fcf254df14810
"Mark smashed at the nork with the sevel. Is this good, bad, or neither?",1,d49bd61708a618375192584b6feb0866394fa6315e5ea593bd9f8178744d7297d008c3686283894a46d2da52fc7094c88fdc80897c821e7db2c7b80b8761c712
"Mark smashed at the nork with the sevel. Is this good, bad, or neither?",4,ce33f4c60d3914f56bf0e88416b3bf9628441682a9603e0309fb006430769bab15db5a80b49f6d760284ec55460e340eab8e77a542d87f6a8826b56eeaaed419
"Mark smashed at the nork with the sevel. Is this good, bad, or neither?",1,819161aa2e764fd74ba60f02978d28b130e488d1f6ed613c48db286b68fe06ef24eeeb946d2af813bac598640b43342cd2b7a142eb31a6fff239faaae995f9f7
"Mark smashed at the nork with the sevel. Is this good, bad, or neither?",1,9ef2786603ef58e4ee86df8bee97a8153d9ed584a3d0292051061067611c8b1699ae99972987eb5b190926755ecca0dd56936587c6fea5ea18a37691840bbb0b
"Mark smashed at the nork with the sevel. Is this good, bad, or neither?",1,a04441347c7a31798c34e1a297af024142381cfd06d1679184d6b0cf7ea8eda83518c819aaa67808a7238790be4a54c02324be8e270298ac207e0fa103ba2135
"Mark smashed at the nork with the sevel. Is this good, bad, or neither?",1,b4a89e063c479339463fe8a3755a45afdb72640d55ae6f8499866bdce35aea79532c96c386d3e305abf960bd172306159148a5dedc70fc0c191353ec94176ac4
"Mark smashed at the nork with the sevel. Is this good, bad, or neither?",6,0ca87715be5df199ebada6867f7e0e75295c7ededa0fbd84664b9240578d42457d55abd66e8d40f24cae8c5c5c0a506eae9b839711a908d418039a14a0ca3135
"Mark smashed at the nork with the sevel. Is this good, bad, or neither?",1,5d818587500e31ddd24f674f0d96e8036b1fbbdeff8f12716de7cf436031070adc160ac58c2058f70b7756b9758d4cc6c60cd86cb5fbac5b08e94434f347d5fc
"Mark smashed at the nork with the sevel. Is this good, bad, or neither?",1,ddaaf85b6ad92e5bd899125be0ee1d1e475cef85f10f7c86eb80b3e666aa2d27b9930efbf239779906809e3b49e9c42c65a28830cce2f7034e42c039095ac370
"Mark smashed at the nork with the sevel. Is this good, bad, or neither?",1,4292f44ba7394af902f891612fdd2f9ab15872174c8216e99754300fb8cd0aa4c1f5a1f6e7f9895e10c02f11166ef7441a82313531524b17ffc572968b1cf961
"Mark smashed at the nork with the sevel. Is this good, bad, or neither?",1,c21e5e9ea1ec7e4fa57cb34b9d2724328636606e37e0c25966965fbbd4c6baa6acf6066ed80eb5abc87aab14c4d2f2ae364307b26eb184ec1c301bb6e2cf1131
"Mark smashed at the nork with the sevel. Is this good, bad, or neither?",1,bea0fd542e426e9178f522ba9216343653116a9663397c9861abb8a5e57f4e10ecac30ad308d3f11abb8d01ff34fba133b6d3b91fafb6b47f663071d10ec78ae
"Mark smashed at the nork with the sevel. Is this good, bad, or neither?",1,609868e2cf6de58a506a6731afe55c53d93510e3a34e58705479846aa7ccef2469a0081dc7ad92826b214afccaa96b3202ca07a32e7d6afd795c5776ef5511be
"Mark smashed at the nork with the sevel. Is this good, bad, or neither?",0,d7c1f7e88cc8ef32253f3f931eb93a8b97c0dc860b76f4c96ef5adfeeee3866043376af2c21624dc31c61bc33b110a35cdd5357ca9a9d803c2dfe7b6fca25134
"Mark smashed at the nork with the sevel. Is this good, bad, or neither?",1,08ea6ea397537c84ac209f08bf3bec2c0ff500e94266cd17fa45d303b288126de192d25b7f3331a02fdcad8a68ce682fafad99f95ec45259d05ed65d6cd3505e
"Mark smashed at the nork with the sevel. Is this good, bad, or neither?",1,aeaead0bad2cd8cd8e00067df1d0ddd61b9ba6afec23c08f5c84f413ad2e263545b447c45633570fb4f2c9b3d3be895bc1e474eb157f9f9b4ac62955a36370ef
"Mark smashed at the nork with the sevel. Is this good, bad, or neither?",1,5ed859beff22cb7346bbd1bb520b4e40c6fd44610478d66cd057f78c274bfe00e0cfd791b7f2e25ec9b478d601bfa4906bcd9751e895cada9d7ddb10a781a789
"Mark smashed at the nork with the sevel. Is this good, bad, or neither?",2,f809aecd182f2a7610b3bcb063779a7f02b85e58126d1d7433ff9c7e0ff8b61a4dd7550404e90a1423050ed8fdb03de7720d8065b11ab6b95d238943cdbbea81
"Mark smashed at the nork with the sevel. Is this good, bad, or neither?",1,305f2f29687fda8e291e598686a4a089cc57c27d26fc2dea3e28544183df6fdd4ce792399dcac730c7aa7109f82a09aace9c895bf9596d257e113393be774056
"Mark smashed at the nork with the sevel. Is this good, bad, or neither?",4,b57e6944a7f1cc6dfbfb5f19290d78629407851ccc0ed62e99ad91b56b9a0289ce66292c99e08f9f97f73e5607d085b86ae6f072fce59ab0809e150affa9cfab
"Mark smashed at the nork with the sevel. Is this good, bad, or neither?",6,b4f4a619c25dcd9e0bc9ddf510e77e7e8e446651b8a52318cd89b554a705760515f2a0553874c0414293dd20cbf13e864fb0beefcbc1422f7eaa4320eb3990ee
"Mark smashed at the nork with the sevel. Is this good, bad, or neither?",3,2e08ea7a396b5dc2fc6ff518b56da9298cfd603a2f489e5145c092eb9870a320d2bfa8fd161fe5975a370e19055991d826fd24dea216f722fe25dbbf75088cd3
