"The shink's eginopping entertained Michelle. Is this good, bad, or neither?",0,5d818587500e31ddd24f674f0d96e8036b1fbbdeff8f12716de7cf436031070adc160ac58c2058f70b7756b9758d4cc6c60cd86cb5fbac5b08e94434f347d5fc
"The shink's eginopping entertained Michelle. Is this good, bad, or neither?",0,ddaaf85b6ad92e5bd899125be0ee1d1e475cef85f10f7c86eb80b3e666aa2d27b9930efbf239779906809e3b49e9c42c65a28830cce2f7034e42c039095ac370
"The shink's eginopping entertained Michelle. Is this good, bad, or neither?",0,720bea532db6ed90a7bd855c056e2ccc32b0f2fe90eb490aa4d644afcc89620fb5f7c3bf4971d931a8aef22130fb8976bd9e83f534038e3c4e8421311520cb5d
"The shink's eginopping entertained Michelle. Is this good, bad, or neither?",0,4c310c406f7aa4af0714607ff36d0764e3c0196892810137097a69aeb5e8b75c822ee38b6e95459338527110d2dbace8d7c26c38f84fefe0886325008d0e75ac
"The shink's eginopping entertained Michelle. Is this good, bad, or neither?",0,a04441347c7a31798c34e1a297af024142381cfd06d1679184d6b0cf7ea8eda83518c819aaa67808a7238790be4a54c02324be8e270298ac207e0fa103ba2135
"The shink's eginopping entertained Michelle. Is this good, bad, or neither?",0,6f5d3137f68645162d6754029499a9ec7ae5684f56847c76e1aed3915b42b3ec8caf636fecf4f90a32b0151ee5f9c6a1d6452b80a69f77275d541c9cea4cbff1
"The shink's eginopping entertained Michelle. Is this good, bad, or neither?",2,949e348794c3e18581f7b55ecef851e605235f7c9cafa5c3b4d3e91106a8ea5851849ec1edc9cd0b8dbea5b628ab5f49181d508855ed809569304963bc219caa
"The shink's eginopping entertained Michelle. Is this good, bad, or neither?",0,20781c6cc63f295dcffca3f5f20b91224ce9544cf0c3018dd7e010ebb3e07df37831f196fdfc2db1a89a1383b5ad26e1b298c6eb7bd53e26d47cfc458a9bce08
"The shink's eginopping entertained Michelle. Is this good, bad, or neither?",7,2bddce971fb9dfadb0e50fcd15f5da42f2ef8c476a4212bde20a28dfb3b51b03b619ae1daafc7905fad410c42d69ea64cce4d2e705a9f283a1f36221d9537557
"The shink's eginopping entertained Michelle. Is this good, bad, or neither?",0,6442579b5017c978ac48004d53b31163b3763f309e6f3e0581e04c2aea211970cc33a63b0462acee00808e5c684e9c9445efbc52c93000c0cc6f7f2e7cc3b7f1
"The shink's eginopping entertained Michelle. Is this good, bad, or neither?",0,609868e2cf6de58a506a6731afe55c53d93510e3a34e58705479846aa7ccef2469a0081dc7ad92826b214afccaa96b3202ca07a32e7d6afd795c5776ef5511be
"The shink's eginopping entertained Michelle. Is this good, bad, or neither?",7,dca73dc4e350892be8435cf044acec2b8979ce504a937b63c93ec269cec5f5d053d3a58f0d26828d0dd42e818685edb6c272c1cea8d314339f7b18d79f242582
"The shink's eginopping entertained Michelle. Is this good, bad, or neither?",0,675a6154d38e7981c932127e219f374c1a8880011eab4c932106ac51314fb2868ba8fd7264f3bb40c5a96272dc019e5c9cf6c60011e9e9a04b73042a43219af2
"The shink's eginopping entertained Michelle. Is this good, bad, or neither?",0,08ea6ea397537c84ac209f08bf3bec2c0ff500e94266cd17fa45d303b288126de192d25b7f3331a02fdcad8a68ce682fafad99f95ec45259d05ed65d6cd3505e
"The shink's eginopping entertained Michelle. Is this good, bad, or neither?",2,aeaead0bad2cd8cd8e00067df1d0ddd61b9ba6afec23c08f5c84f413ad2e263545b447c45633570fb4f2c9b3d3be895bc1e474eb157f9f9b4ac62955a36370ef
"The shink's eginopping entertained Michelle. Is this good, bad, or neither?",0,305f2f29687fda8e291e598686a4a089cc57c27d26fc2dea3e28544183df6fdd4ce792399dcac730c7aa7109f82a09aace9c895bf9596d257e113393be774056
"The shink's eginopping entertained Michelle. Is this good, bad, or neither?",0,ea4dbd7f03bb4a333233577dd57fdd1613870a381423bc653611b4e99d179ee38f63f2083ff5b8ca8901f3caea1bf131911228b2d4aed2ec891ff0b260c60a63
"The shink's eginopping entertained Michelle. Is this good, bad, or neither?",0,8a74478a9db13d691c15cdcee8e51f2a7166c095ebc46b46a45db0f7e71f25326113b63f51c722ce73b2f2cb4b6c23f1f5bcf0819b2b17e93467b4e32ae84781
"The shink's eginopping entertained Michelle. Is this good, bad, or neither?",0,54f6b3e513c13bfcdbe1fe36eb012ee13d6a602793f7b0d77a58e9677d4df23396135d1671a38883db4788ebb0ed5a75fe3538b70666e0d9f1400e9f96cb120b
"The shink's eginopping entertained Michelle. Is this good, bad, or neither?",0,9fd9aca8eeb2ba0213e8071cc31b20fc0ef8caeb1cf820eda57c9a420752578e67acb6cc7cd163e81fa295c7a326e890952c839302b62f4700289b1157aa22de
"The shink's eginopping entertained Michelle. Is this good, bad, or neither?",0,5b56973b88ed7b736ff3966dd5900790af0d217684769981e05a869fd0482e4eb627fbc83ef164acdcc19dfee68958f3688d63269cfdc0cd3c3ec35969e3c934
"The shink's eginopping entertained Michelle. Is this good, bad, or neither?",0,b179bf87e97d0aad06140401a354f970d9f9f908a7222e8a20115fd3162f35935143e526aeca64de034f817f716e847c5129f5ea83ccd1c0cc16f8fca2515b7d
"The shink's eginopping entertained Michelle. Is this good, bad, or neither?",0,fb3ee4e72eb582b2b2920acd3ac5a4ed00149c2560bf0255b9bc8237d80cbadd7b353ced6ab5662f69dfe00d362575b7da94144cd2374866a682e39b17cc3c0d
"The shink's eginopping entertained Michelle. Is this good, bad, or neither?",0,2cb44008208d14c82cf8868fc09b67e721d51c1b25835a53ce5c75d4338141e971e3aad3228e19b641ecd4278d4576dc2f1af7702b6c5731e30d7d54f5a829a5
"The shink's eginopping entertained Michelle. Is this good, bad, or neither?",0,948b1546ab23598285d2f77f39e4276a3a82e5d340295aa6760c9fc6f36b7437bb3a495a3ba88d447f3fe661e3d3dc2ca10e32b8b5eb3feb6619e793bc050ef2
"The shink's eginopping entertained Michelle. Is this good, bad, or neither?",0,caff777a2303da77340521ef83945a07684b2612ccb93a9fe1e9e6b34d4e52177c4499982e59c5f493664f3123c4c9738867850e7445f494ca6c22600eb6e56a
"The shink's eginopping entertained Michelle. Is this good, bad, or neither?",0,7fceb8a12aa3b5b3ed067349cb17bdd09c9c4ee8bdd2e96f49996dc04cb2540af11717232b81cb0637b852041b9d62276e876a8dc9f45e9575a47f02d46955e8
"The shink's eginopping entertained Michelle. Is this good, bad, or neither?",4,28195e505193242d636c8cf88927e3353b64c1e9365b6d4fe6834ae467adb58cc661083c465cf575a9d4e6e6ea9daf2f4e5b8eaf892be186be05aa6b9c0519ec
"The shink's eginopping entertained Michelle. Is this good, bad, or neither?",0,832b19ea4eb64ad4f6298c0933ec2f6ba994974bcbbda62a7a0088a00f6cd96bd27aca96187875bf07fe2c868f7cd9e74b39598b91c261fd45079e5150637de4
"The shink's eginopping entertained Michelle. Is this good, bad, or neither?",0,d52d0f79310a4a1585de2ba281cae55d8bf4f66ee89a3b0afe5bec86ac64f3fbcf4ac04acc90a017d6f66a1259e7c33c370048fe26771c06104f79c7f0e7daea
"The shink's eginopping entertained Michelle. Is this good, bad, or neither?",0,69bf71a23950a19d51588205bb33b43a6c847df0a5e564427b2d61a5489a3d037dcf472674ab77e4abb6133e088ce98f278ad721e939562236b4f32ab79e07e7
"The shink's eginopping entertained Michelle. Is this good, bad, or neither?",0,ecd12f5c7840150b6bf31f41cfe805fbb7f1e24d87bc7f9a7e4a26034d172ee611537c7e49e1951d513a1b63598bec45f4cf8d3fd4936ebe2747d7e8018937e5
"The shink's eginopping entertained Michelle. Is this good, bad, or neither?",0,7f5a0766ed726c9e2d665dd8dc0a4e1cef253489d0a7a3f679c7be00b0219a0aa84f240905ffbf4a774d2532a0c248bd4f0115cb3c48d73ff4d5c5c51169f7da
"The shink's eginopping entertained Michelle. Is this good, bad, or neither?",2,138a9e562648c08d9c6ac98bd7942309c86588c91b78686f82eddb4832388a43fb44b7f280b9e3eb49cbeec29242f2f10d71b467c9475a5b05c0bf3a4a00185a
"The shink's eginopping entertained Michelle. Is this good, bad, or neither?",0,afc467a2a260521f669c0728bcf5c5371a1d242b0caa81f378df380811bc38b01c00f29cd95374bd8e7e2b4d44a8dec79e102c89542c4e99e38fa0d0174b14c0
"The shink's eginopping entertained Michelle. Is this good, bad, or neither?",0,41628a0f8849c48d09c00e99c4a99cae8b10c5d31c76fc5043a816bea93afdb63771aa227c3fc1235d69b6c482ed4c1972716b6868be483c3ecaba9ca7efddc1
"The shink's eginopping entertained Michelle. Is this good, bad, or neither?",7,1ee5f16b8d48ba0369b3f8bacb01e5825aac05e86a3c5532ebcfa5b8fd51fc5aa6501fad91a2f6e6d2ba92274702248f6013e25573abd966b42d849e4901b3ea
"The shink's eginopping entertained Michelle. Is this good, bad, or neither?",0,c148eed1b7ff2b7222317f1d0458d56f8729bcf12b7bb53a7eeccf57c9262ecbfa818104b9378ababba6b95e8fe6ebd5f09be30e1f2e7a3270969c34db629aeb
"The shink's eginopping entertained Michelle. Is this good, bad, or neither?",0,55e6ffcb8f3eb6e1e598688240d12d65983194dc382b3d0face203fd6c0c4d8b0661669f0eaf22abdb0013bb93a0bb93290709d0e3201be67863d47a0b3ca01c
"The shink's eginopping entertained Michelle. Is this good, bad, or neither?",0,8640392588488bc181789a5a977143fd433976f0637e6d80d6a903f026578ca7ba13b21a9c4ae1904cef099692306563edfc0f078eadc134e6ea4a0ca6f5e97b
"The shink's eginopping entertained Michelle. Is this good, bad, or neither?",0,efc1e514a0e19a946b7d90cf06d32291c52422f3a9db0525c73889e6a87d244f519c6329d5d3d5843f1fff3f477168dfb0692b5bafd72064d2a51981ed36279d
"The shink's eginopping entertained Michelle. Is this good, bad, or neither?",0,9d8ddb67f662349a7f7a7c5a32fee73c457fd70d135ae4be6f17a68418102d35693b26415c8fd8c7bd26a5b5032587ac08aefd055994f62fcb3e9a44d5cb51b0
"The shink's eginopping entertained Michelle. Is this good, bad, or neither?",0,2e08ea7a396b5dc2fc6ff518b56da9298cfd603a2f489e5145c092eb9870a320d2bfa8fd161fe5975a370e19055991d826fd24dea216f722fe25dbbf75088cd3
"The shink's eginopping entertained Michelle. Is this good, bad, or neither?",0,994c0897a458616fc48381dd146bd8cdf1a6cc1cbfeb98018850ea7b9cdcd73e8c3f78b2b710535c359286af086fc383d63ef07b222806bf632f3acff996f280
"The shink's eginopping entertained Michelle. Is this good, bad, or neither?",0,24e11c553d6fdfc86682c52183b6c4a648727ffa8cf07b36e77ea754be25468560227ff19b399a38fcb1bde79fa88b77467d466c7b55d9e63ce7a3474c2c5cb6
"The shink's eginopping entertained Michelle. Is this good, bad, or neither?",0,a7dc9d4f184ea86b7b6e6869b9a53887f9af455a7a9b3f701cc20ec18e11435fdb90d9c3eed921996792de6c1628b7a27219b25f044ffe99d725092cbc88af6e
"The shink's eginopping entertained Michelle. Is this good, bad, or neither?",0,d9817c12ce36a895955c17e41a3ca19fb4ef7d6ac1a96738ed1f5b0e31276adb39221dcdf83a2de7d505b5e15f4700cb346343c6be6b2499e77d4b33ee5d7ef2
"The shink's eginopping entertained Michelle. Is this good, bad, or neither?",0,3d4fc7b2dadb2b182d403a89b5b1771f45fe25dc6bc63f09adc7633a8a11cca9c91b4455faf8b8a973a33d286a5a58caf726f100a06cb3a9dcbbc6cb0bfb78a3
"The shink's eginopping entertained Michelle. Is this good, bad, or neither?",0,ac3b1b10808f1753ec2a45dbfd111934fc15f5c99e8d54caa1b9fa0399c450a1b4489cb0037029cbf93008625f0c076357a1b8e164d2f400a000fbd6062f7bad
"The shink's eginopping entertained Michelle. Is this good, bad, or neither?",0,cb1b2e639a0f5ae9de031dfc344bac7048df549f596bef1465c7647ba664fd2ecd867966d320533c800d835d5c141215657f6d18cb76c96e1748702108bb52ac
"The shink's eginopping entertained Michelle. Is this good, bad, or neither?",0,44cb69d363b6d99287402410490198709810d13e74a75276dbb979e5f5387c1256447125e35607b5fb4bd589b7d3c4067f5e02ae5e26e50c3be55284e647c71d
"The shink's eginopping entertained Michelle. Is this good, bad, or neither?",2,e1fcd5fad153f3e2add4f63fedbdccee9499fbedf07164f77579588b199c76954db1128856c2f4c5f06f870c81a7a676684a24c430ff7a65e525936612913f16
"The shink's eginopping entertained Michelle. Is this good, bad, or neither?",0,ba2d26f4dd8b4ccde0d80cd193e49becdc1a6ced8451c530f884e2ecde79ac6d58475ad5ef1dfdcd67bd7d965d15a61fba11b234efe086db92e4fbf0c0fb3855
"The shink's eginopping entertained Michelle. Is this good, bad, or neither?",0,d132ac951e6a9ee5aec8426f6f4c6159adabebeb33426fd8ed1864eb38c6196f3afee305ac784c458ed9d74777ef7698622c355e89235891e218ce6c8fdd0993
"The shink's eginopping entertained Michelle. Is this good, bad, or neither?",0,1b40c074bc8927f5ceb8412a93fe0d55120df20512aeaa4ca04ea0532af43222fd451ad25c84131d025386dd46836ceba6dad2915191f430bc225da3add712b9
"The shink's eginopping entertained Michelle. Is this good, bad, or neither?",0,f152fccfa1b4275911c3d51209757f8f47524d9e0dac927fa3cf085a412f2995c54db4378764d73c2aeccf796c683eda37b79db7a22b6c9fb80818fa2a0358f7
"The shink's eginopping entertained Michelle. Is this good, bad, or neither?",2,512926c32568782467c043d9acacef7e1297fe10e47106d36f90ed38f8036a40a0f8a10a29ae7a31a0a93e5ad4fed44921abf919134ac7a8d096c8022d200715
"The shink's eginopping entertained Michelle. Is this good, bad, or neither?",2,dc1573fdf940f9fb09d57b0011d03c1c44d31b200b999056f3ba7a66f968fff14e39bb77a6b95cde426287b90f173b03c2bb7c514497e44276b0f589563d5728
"The shink's eginopping entertained Michelle. Is this good, bad, or neither?",0,37805ee1b41c781e6b817afc72031a1f1835c0a0d72be46238fe34898913ac47a840d4c391f835e42277def943f95cb3ffc89b1bc79669615995d531f0a9cc63
"The shink's eginopping entertained Michelle. Is this good, bad, or neither?",0,f2460b3cb5b32706dae3d512120b503332e846b182fbe11c34a4448504c9b52c013b8d3ed1c5d42e87bed8c5bdd03d47c1957b15be6c0eb62fe9d8635d97f954
"The shink's eginopping entertained Michelle. Is this good, bad, or neither?",0,376392bcee96369de3a95db30bc387356ea06e45fa42a645d0314c9e000611896832166f6a6ed23f1bf7330e402c8f4b815beb10b82aaa98f8f3bd3889307b0c
"The shink's eginopping entertained Michelle. Is this good, bad, or neither?",0,4d8bd80954960c6dfb74497ab23b4ba828b5631c17586ef5253c7b678c78e7893d08a6234e25d5e496aace1ade5b0d184cb35a63636da684608f2268306ebb36
"The shink's eginopping entertained Michelle. Is this good, bad, or neither?",3,5f12e05c2e694ca4d0d50f5c90ffefa31fc5c326c5f6352ab6f2d69efda09898d7fa2e899476fb98164baf5559806eee7fc6f92a8cd7641d9b208f848e51b143
"The shink's eginopping entertained Michelle. Is this good, bad, or neither?",3,5f12e05c2e694ca4d0d50f5c90ffefa31fc5c326c5f6352ab6f2d69efda09898d7fa2e899476fb98164baf5559806eee7fc6f92a8cd7641d9b208f848e51b143
"The shink's eginopping entertained Michelle. Is this good, bad, or neither?",3,5f12e05c2e694ca4d0d50f5c90ffefa31fc5c326c5f6352ab6f2d69efda09898d7fa2e899476fb98164baf5559806eee7fc6f92a8cd7641d9b208f848e51b143
"The shink's eginopping entertained Michelle. Is this good, bad, or neither?",3,5f12e05c2e694ca4d0d50f5c90ffefa31fc5c326c5f6352ab6f2d69efda09898d7fa2e899476fb98164baf5559806eee7fc6f92a8cd7641d9b208f848e51b143
"The shink's eginopping entertained Michelle. Is this good, bad, or neither?",3,5f12e05c2e694ca4d0d50f5c90ffefa31fc5c326c5f6352ab6f2d69efda09898d7fa2e899476fb98164baf5559806eee7fc6f92a8cd7641d9b208f848e51b143
"The shink's eginopping entertained Michelle. Is this good, bad, or neither?",3,5f12e05c2e694ca4d0d50f5c90ffefa31fc5c326c5f6352ab6f2d69efda09898d7fa2e899476fb98164baf5559806eee7fc6f92a8cd7641d9b208f848e51b143
"The shink's eginopping entertained Michelle. Is this good, bad, or neither?",3,5f12e05c2e694ca4d0d50f5c90ffefa31fc5c326c5f6352ab6f2d69efda09898d7fa2e899476fb98164baf5559806eee7fc6f92a8cd7641d9b208f848e51b143
"The shink's eginopping entertained Michelle. Is this good, bad, or neither?",3,5f12e05c2e694ca4d0d50f5c90ffefa31fc5c326c5f6352ab6f2d69efda09898d7fa2e899476fb98164baf5559806eee7fc6f92a8cd7641d9b208f848e51b143
"The shink's eginopping entertained Michelle. Is this good, bad, or neither?",1,91be47e88366fa6f2020ea1859a22dee90a3e58efa3fbfb7df3addc9bdd40231a9a9f82b6bf99f373e969b1d8c011a637bb8240371353c2e6f6f194739cf2b3c
"The shink's eginopping entertained Michelle. Is this good, bad, or neither?",1,c89754b99807251a49c11ddf6f29de872a05baa5126d5737c11d38dc32ca7269a8320288bec3b97723633698f26ac2f193aae82688ca53ef17a221e4339a459f
"The shink's eginopping entertained Michelle. Is this good, bad, or neither?",4,c89754b99807251a49c11ddf6f29de872a05baa5126d5737c11d38dc32ca7269a8320288bec3b97723633698f26ac2f193aae82688ca53ef17a221e4339a459f
"The shink's eginopping entertained Michelle. Is this good, bad, or neither?",0,fb01d843f3d40d6501b9eda6a355052637b31f6b3c21fb0e3a860bdb506a42f2df07cd249b3096c402209021a9fd4679bb47c89ec3fc03513b12f8cb6975cd47
"The shink's eginopping entertained Michelle. Is this good, bad, or neither?",7,2a3cb76602e7f0c6b6d491a2182b0fa7ca5262be5812bc9baaad8361b437a28e6e2fa537018695a6bbcad54ff1d47394e6cdd9518c2475134d82fbc1d8d1a437
"The shink's eginopping entertained Michelle. Is this good, bad, or neither?",0,3ce1c91573b49e76ae6d43c669a24733296314c25baffa84d6693179025159771a3c7b297e83491615fff176965dd211be78675095cfe008040fcf254df14810
"The shink's eginopping entertained Michelle. Is this good, bad, or neither?",0,83e68bdb3c8d06734b9c63de2e996ad5203cfadd686bffeb5371242a53bd2562e4ee27b56455e36057ad2b7ff679b1bc0942e1b5e336f4762c4ed9cc49cb339a
"The shink's eginopping entertained Michelle. Is this good, bad, or neither?",0,0c1e43ef5b2f9488f1f2f5d3bb698140bc0a814ccd0552a4d3b9bc7f4899fbd7f112dda7c2abe51111db2cd9354f7ed05e8023ddc9513e6797cd881f2b3a9c2c
"The shink's eginopping entertained Michelle. Is this good, bad, or neither?",0,6e98388f0852ac83570927b2fb181318deed25f154f35dd19f3d03b54533c6fe6605af9e225d47988a0ba9f63c5b9c452704250d15420f3fc1c0b16b60bc64ed
"The shink's eginopping entertained Michelle. Is this good, bad, or neither?",0,819161aa2e764fd74ba60f02978d28b130e488d1f6ed613c48db286b68fe06ef24eeeb946d2af813bac598640b43342cd2b7a142eb31a6fff239faaae995f9f7
"The shink's eginopping entertained Michelle. Is this good, bad, or neither?",0,8533f4244aefa3d164cde6a2d0d95b1dd67445609fe11c0e3589b096640a16282d0ff5db63919b2275e0661bb55b1a11be1b558020e982a2d3bf379e99d4bd1d
"The shink's eginopping entertained Michelle. Is this good, bad, or neither?",0,b4a89e063c479339463fe8a3755a45afdb72640d55ae6f8499866bdce35aea79532c96c386d3e305abf960bd172306159148a5dedc70fc0c191353ec94176ac4
"The shink's eginopping entertained Michelle. Is this good, bad, or neither?",0,c199643c13353db7f43da10ed0026cb4daa74cc6cf0d0a6221c441c63454cc0a34299808ae75efd058f60b8d0f5cbf0f67cf9a52efe16b11841ae36137aefe7d
"The shink's eginopping entertained Michelle. Is this good, bad, or neither?",4,86687a4da22b6e59b1fe5e161c0a2d5a349ff8fc94acaf478d80a520ca0684c568f0211276ea2dc35cb824f8bd80bcd1f5d5466dcf0ca4f24adfa7d6e33b9442
"The shink's eginopping entertained Michelle. Is this good, bad, or neither?",6,86687a4da22b6e59b1fe5e161c0a2d5a349ff8fc94acaf478d80a520ca0684c568f0211276ea2dc35cb824f8bd80bcd1f5d5466dcf0ca4f24adfa7d6e33b9442
"The shink's eginopping entertained Michelle. Is this good, bad, or neither?",6,0ca87715be5df199ebada6867f7e0e75295c7ededa0fbd84664b9240578d42457d55abd66e8d40f24cae8c5c5c0a506eae9b839711a908d418039a14a0ca3135
"The shink's eginopping entertained Michelle. Is this good, bad, or neither?",0,5d818587500e31ddd24f674f0d96e8036b1fbbdeff8f12716de7cf436031070adc160ac58c2058f70b7756b9758d4cc6c60cd86cb5fbac5b08e94434f347d5fc
"The shink's eginopping entertained Michelle. Is this good, bad, or neither?",0,ddaaf85b6ad92e5bd899125be0ee1d1e475cef85f10f7c86eb80b3e666aa2d27b9930efbf239779906809e3b49e9c42c65a28830cce2f7034e42c039095ac370
"The shink's eginopping entertained Michelle. Is this good, bad, or neither?",0,720bea532db6ed90a7bd855c056e2ccc32b0f2fe90eb490aa4d644afcc89620fb5f7c3bf4971d931a8aef22130fb8976bd9e83f534038e3c4e8421311520cb5d
"The shink's eginopping entertained Michelle. Is this good, bad, or neither?",0,4c310c406f7aa4af0714607ff36d0764e3c0196892810137097a69aeb5e8b75c822ee38b6e95459338527110d2dbace8d7c26c38f84fefe0886325008d0e75ac
"The shink's eginopping entertained Michelle. Is this good, bad, or neither?",0,a04441347c7a31798c34e1a297af024142381cfd06d1679184d6b0cf7ea8eda83518c819aaa67808a7238790be4a54c02324be8e270298ac207e0fa103ba2135
"The shink's eginopping entertained Michelle. Is this good, bad, or neither?",0,6f5d3137f68645162d6754029499a9ec7ae5684f56847c76e1aed3915b42b3ec8caf636fecf4f90a32b0151ee5f9c6a1d6452b80a69f77275d541c9cea4cbff1
"The shink's eginopping entertained Michelle. Is this good, bad, or neither?",2,949e348794c3e18581f7b55ecef851e605235f7c9cafa5c3b4d3e91106a8ea5851849ec1edc9cd0b8dbea5b628ab5f49181d508855ed809569304963bc219caa
"The shink's eginopping entertained Michelle. Is this good, bad, or neither?",0,20781c6cc63f295dcffca3f5f20b91224ce9544cf0c3018dd7e010ebb3e07df37831f196fdfc2db1a89a1383b5ad26e1b298c6eb7bd53e26d47cfc458a9bce08
"The shink's eginopping entertained Michelle. Is this good, bad, or neither?",7,2bddce971fb9dfadb0e50fcd15f5da42f2ef8c476a4212bde20a28dfb3b51b03b619ae1daafc7905fad410c42d69ea64cce4d2e705a9f283a1f36221d9537557
"The shink's eginopping entertained Michelle. Is this good, bad, or neither?",0,6442579b5017c978ac48004d53b31163b3763f309e6f3e0581e04c2aea211970cc33a63b0462acee00808e5c684e9c9445efbc52c93000c0cc6f7f2e7cc3b7f1
"The shink's eginopping entertained Michelle. Is this good, bad, or neither?",0,609868e2cf6de58a506a6731afe55c53d93510e3a34e58705479846aa7ccef2469a0081dc7ad92826b214afccaa96b3202ca07a32e7d6afd795c5776ef5511be
"The shink's eginopping entertained Michelle. Is this good, bad, or neither?",7,dca73dc4e350892be8435cf044acec2b8979ce504a937b63c93ec269cec5f5d053d3a58f0d26828d0dd42e818685edb6c272c1cea8d314339f7b18d79f242582
"The shink's eginopping entertained Michelle. Is this good, bad, or neither?",0,675a6154d38e7981c932127e219f374c1a8880011eab4c932106ac51314fb2868ba8fd7264f3bb40c5a96272dc019e5c9cf6c60011e9e9a04b73042a43219af2
"The shink's eginopping entertained Michelle. Is this good, bad, or neither?",0,08ea6ea397537c84ac209f08bf3bec2c0ff500e94266cd17fa45d303b288126de192d25b7f3331a02fdcad8a68ce682fafad99f95ec45259d05ed65d6cd3505e
"The shink's eginopping entertained Michelle. Is this good, bad, or neither?",2,aeaead0bad2cd8cd8e00067df1d0ddd61b9ba6afec23c08f5c84f413ad2e263545b447c45633570fb4f2c9b3d3be895bc1e474eb157f9f9b4ac62955a36370ef
"The shink's eginopping entertained Michelle. Is this good, bad, or neither?",0,305f2f29687fda8e291e598686a4a089cc57c27d26fc2dea3e28544183df6fdd4ce792399dcac730c7aa7109f82a09aace9c895bf9596d257e113393be774056
"The shink's eginopping entertained Michelle. Is this good, bad, or neither?",7,1ee5f16b8d48ba0369b3f8bacb01e5825aac05e86a3c5532ebcfa5b8fd51fc5aa6501fad91a2f6e6d2ba92274702248f6013e25573abd966b42d849e4901b3ea
