"The vatter bounced across the gamp. Is this good, bad, or neither?",2,5d818587500e31ddd24f674f0d96e8036b1fbbdeff8f12716de7cf436031070adc160ac58c2058f70b7756b9758d4cc6c60cd86cb5fbac5b08e94434f347d5fc
"The vatter bounced across the gamp. Is this good, bad, or neither?",0,e32acc3720de73ab257e923557ba791b4db98db203286f956cc7d117906e5547f3f7e338aaa78b9152b0dfd10ce0ae962b8dfa72e117028b43b70fce1d3ee9ca
"The vatter bounced across the gamp. Is this good, bad, or neither?",2,720bea532db6ed90a7bd855c056e2ccc32b0f2fe90eb490aa4d644afcc89620fb5f7c3bf4971d931a8aef22130fb8976bd9e83f534038e3c4e8421311520cb5d
"The vatter bounced across the gamp. Is this good, bad, or neither?",2,ddaaf85b6ad92e5bd899125be0ee1d1e475cef85f10f7c86eb80b3e666aa2d27b9930efbf239779906809e3b49e9c42c65a28830cce2f7034e42c039095ac370
"The vatter bounced across the gamp. Is this good, bad, or neither?",2,eb4b6b706a0f89e14a2d8d16dfc7aa9c87a7d0595820e60b0d5dec6c005f0197619f954c3c62e433d7c45a2749d03a361351da7118319f5edfc5ea8c0c918e14
"The vatter bounced across the gamp. Is this good, bad, or neither?",2,ab817809187642176d23d87932f87fb8cac29305dd69bd9c80c875e1418683baeb300a33a4ea303e96598aee641e58ffef6ed700b09ee5a77559e157e08d3320
"The vatter bounced across the gamp. Is this good, bad, or neither?",1,949e348794c3e18581f7b55ecef851e605235f7c9cafa5c3b4d3e91106a8ea5851849ec1edc9cd0b8dbea5b628ab5f49181d508855ed809569304963bc219caa
"The vatter bounced across the gamp. Is this good, bad, or neither?",2,9d8ddb67f662349a7f7a7c5a32fee73c457fd70d135ae4be6f17a68418102d35693b26415c8fd8c7bd26a5b5032587ac08aefd055994f62fcb3e9a44d5cb51b0
"The vatter bounced across the gamp. Is this good, bad, or neither?",2,6442579b5017c978ac48004d53b31163b3763f309e6f3e0581e04c2aea211970cc33a63b0462acee00808e5c684e9c9445efbc52c93000c0cc6f7f2e7cc3b7f1
"The vatter bounced across the gamp. Is this good, bad, or neither?",2,08ea6ea397537c84ac209f08bf3bec2c0ff500e94266cd17fa45d303b288126de192d25b7f3331a02fdcad8a68ce682fafad99f95ec45259d05ed65d6cd3505e
"The vatter bounced across the gamp. Is this good, bad, or neither?",2,aeaead0bad2cd8cd8e00067df1d0ddd61b9ba6afec23c08f5c84f413ad2e263545b447c45633570fb4f2c9b3d3be895bc1e474eb157f9f9b4ac62955a36370ef
"The vatter bounced across the gamp. Is this good, bad, or neither?",2,305f2f29687fda8e291e598686a4a089cc57c27d26fc2dea3e28544183df6fdd4ce792399dcac730c7aa7109f82a09aace9c895bf9596d257e113393be774056
"The vatter bounced across the gamp. Is this good, bad, or neither?",2,34734f181a6d0f6f1adaeab93f12885a5502ad61026b9ed89cbc4b5edde06b6c4a39e6bab3e35dd25dbc50ea945830d22220b8cc32a10aa14462d8b03177b6e7
"The vatter bounced across the gamp. Is this good, bad, or neither?",2,12653d61c4b8d51a85d7212448c40362eccbd5cbfa7c1a1a86765ce8d0ab64fc74e62aea6d37a72c72144106409ebe705a24a6ddbdb592cbe4a8c8c39eb0a6c2
"The vatter bounced across the gamp. Is this good, bad, or neither?",4,8a74478a9db13d691c15cdcee8e51f2a7166c095ebc46b46a45db0f7e71f25326113b63f51c722ce73b2f2cb4b6c23f1f5bcf0819b2b17e93467b4e32ae84781
"The vatter bounced across the gamp. Is this good, bad, or neither?",2,62b9649ab9f438f49f6d48420311d7ce07e618efcbd790e60672d4aa3065807f5cb3680924be4de5d41ceba3547c415e1bf957e772c1fe72220ab8512b0c0920
"The vatter bounced across the gamp. Is this good, bad, or neither?",2,e2c81007870e047cbc2d0e1e28cfa008f6d052fccb17772580f902d2a0de1ffec1aae194d7bacfc468e38863c1416ce3f398ce9dfd6d5b90393e96ca8ce2b97e
"The vatter bounced across the gamp. Is this good, bad, or neither?",2,5b56973b88ed7b736ff3966dd5900790af0d217684769981e05a869fd0482e4eb627fbc83ef164acdcc19dfee68958f3688d63269cfdc0cd3c3ec35969e3c934
"The vatter bounced across the gamp. Is this good, bad, or neither?",2,7f45982c84b0e62975c836530ebc5c20ed43e2aaac4d7f1c99d59dac30103bb0a2c7f0c3eb3c011244e3b29b96036757199959b8d8fbcc5cf995fee8253a05f5
"The vatter bounced across the gamp. Is this good, bad, or neither?",2,fb3ee4e72eb582b2b2920acd3ac5a4ed00149c2560bf0255b9bc8237d80cbadd7b353ced6ab5662f69dfe00d362575b7da94144cd2374866a682e39b17cc3c0d
"The vatter bounced across the gamp. Is this good, bad, or neither?",2,2cb44008208d14c82cf8868fc09b67e721d51c1b25835a53ce5c75d4338141e971e3aad3228e19b641ecd4278d4576dc2f1af7702b6c5731e30d7d54f5a829a5
"The vatter bounced across the gamp. Is this good, bad, or neither?",2,66ab85eabac73555896b5e2d0edb83fa95f45bc84fb8ea138679613161d8f2eeff6419a65df002bbae10680df73519943e9312e58b7f88d19d9b33c4d93114b6
"The vatter bounced across the gamp. Is this good, bad, or neither?",2,28195e505193242d636c8cf88927e3353b64c1e9365b6d4fe6834ae467adb58cc661083c465cf575a9d4e6e6ea9daf2f4e5b8eaf892be186be05aa6b9c0519ec
"The vatter bounced across the gamp. Is this good, bad, or neither?",2,caff777a2303da77340521ef83945a07684b2612ccb93a9fe1e9e6b34d4e52177c4499982e59c5f493664f3123c4c9738867850e7445f494ca6c22600eb6e56a
"The vatter bounced across the gamp. Is this good, bad, or neither?",2,69bf71a23950a19d51588205bb33b43a6c847df0a5e564427b2d61a5489a3d037dcf472674ab77e4abb6133e088ce98f278ad721e939562236b4f32ab79e07e7
"The vatter bounced across the gamp. Is this good, bad, or neither?",0,ef839af5258330256a11b6f1c4860d8f1f6d40416c75faaf3c9d02c664df7a5a7ec2813838e46a328b0eb5692cedfe252043a67dfc8245b8070e086e35a08f9c
"The vatter bounced across the gamp. Is this good, bad, or neither?",2,7f5a0766ed726c9e2d665dd8dc0a4e1cef253489d0a7a3f679c7be00b0219a0aa84f240905ffbf4a774d2532a0c248bd4f0115cb3c48d73ff4d5c5c51169f7da
"The vatter bounced across the gamp. Is this good, bad, or neither?",2,a5c073306569583b1452bb0d9993ce03eb3064e9c24ad08478942dcaa9253f72224cded64b65c25665f6015f552724e340f2ed78c1f3fbe29f5ded4dfc3eaf99
"The vatter bounced across the gamp. Is this good, bad, or neither?",2,ad605fa11b3bb23fbd78e8d36c8fcfdcd80d99b5ceddc4b45e8712e3a7e4241b735c860673d1a52870b6131e2a6b3358e4529517e29efba388446bcc9a6bf373
"The vatter bounced across the gamp. Is this good, bad, or neither?",2,b876aa0d347b24f28a11f66537cbe96167b3ad5b69864d47a4b375277f3a99caabe00ce8e81870868d74ae4ef34abe34b10efbae0ab8b1ff43959286d771a33c
"The vatter bounced across the gamp. Is this good, bad, or neither?",2,8cb3711296d5f468aa0575747e649c39032b9926b6aeee771a45ea7a328bb4710ba5bf88689a9cb923c32d808a5b86a31515227d30aa5112c5262f727e9187c0
"The vatter bounced across the gamp. Is this good, bad, or neither?",2,310ecd1f768bb6b808211c2ba69dd45f30d0a6cf6102cfedebb1e43e2b8e0b815c2a16b92fadd9556f3a20e29e8ea30c2c5e378e47b0705dd034ca4ee338ce60
"The vatter bounced across the gamp. Is this good, bad, or neither?",6,55e6ffcb8f3eb6e1e598688240d12d65983194dc382b3d0face203fd6c0c4d8b0661669f0eaf22abdb0013bb93a0bb93290709d0e3201be67863d47a0b3ca01c
"The vatter bounced across the gamp. Is this good, bad, or neither?",2,e507c7f94a930f846e05c8c3b31db3656e58eceb9a3853fb59eed2c4213ce19788f8bf4027883300026db850639961b4b96d9a719727a41cc48d609f2bfc8d4b
"The vatter bounced across the gamp. Is this good, bad, or neither?",0,8e602ad63048efcb745c43689fdd11c5963e87afe4f0e483fc6e63f878e4bfc35f1fe2bf006e007dc84304de9516c1cd6464275a341c2c3f4aa12d126eaa86d6
"The vatter bounced across the gamp. Is this good, bad, or neither?",0,43a44e206ffa66beb925c3d2254448ae868e95ac4ca7ae71193f357ba697396a8c871dc16ea11278735829727f28f88443be078e05d6daf3374a9a8c9536f0e2
"The vatter bounced across the gamp. Is this good, bad, or neither?",2,a613c9cd549108541405b08d4f6cc6c36896fb3b86524ba21afbba223d886e286ff70613f14f3fd0be2db4e5a277df9c5035d31a8d4b9d05015df47e5414f3f5
"The vatter bounced across the gamp. Is this good, bad, or neither?",2,ecd12f5c7840150b6bf31f41cfe805fbb7f1e24d87bc7f9a7e4a26034d172ee611537c7e49e1951d513a1b63598bec45f4cf8d3fd4936ebe2747d7e8018937e5
"The vatter bounced across the gamp. Is this good, bad, or neither?",0,2e08ea7a396b5dc2fc6ff518b56da9298cfd603a2f489e5145c092eb9870a320d2bfa8fd161fe5975a370e19055991d826fd24dea216f722fe25dbbf75088cd3
"The vatter bounced across the gamp. Is this good, bad, or neither?",2,6d50361d5f96d1ba2740da0b925df330fcfe8df87443087e5729e23865893d40b364b06ab9bdb78e3f647937cc981031d819f018e5660c404bcae8588a48755d
"The vatter bounced across the gamp. Is this good, bad, or neither?",0,04d3d090df3cbcf917a6ab1989e64f7012051c966c591dd89b0d1b0076feaf1d3a09583328abd4c4d152bb3513b7afc44de3593f05d22d93e65894344fb887e6
"The vatter bounced across the gamp. Is this good, bad, or neither?",0,87d20b91bd4e4d749ce2b5e4414c28a7cef02c7c2e5311c42906d9854ec9b2ff96f0a731cbb7fb8815395b3cf83911614f2e723355f2998ea39b9d17e27ba0ef
"The vatter bounced across the gamp. Is this good, bad, or neither?",4,5a23402dc15233be68d0f6f87dcdce887a714a5507871ff7b39191fbd84ad58479f2c95fb420e292d80b74051e38f9f54e2670ad4b963f05e83c6224babbf504
"The vatter bounced across the gamp. Is this good, bad, or neither?",0,a7dc9d4f184ea86b7b6e6869b9a53887f9af455a7a9b3f701cc20ec18e11435fdb90d9c3eed921996792de6c1628b7a27219b25f044ffe99d725092cbc88af6e
"The vatter bounced across the gamp. Is this good, bad, or neither?",2,7b66acbfca5c41e8a7137eafe2a6c91322093154042b794940fa068dbd34f4adea53576cf784d3b012611b329bc7b25cced808936b7d7d95c14f59485cd904c8
"The vatter bounced across the gamp. Is this good, bad, or neither?",2,b75b4c42f1af881cfc3fb71f1f4327066166415c9fee08b4d17c745934167e96f9b0be59c36fb5adfe0ef34157bfe1ec53c7ac0fd8401c468bbc8164799d67dc
"The vatter bounced across the gamp. Is this good, bad, or neither?",2,d26733bfaabe7d9d3fe2ff42b52d563ace7d2453fe85eecfda6eb4a07031f5595888597572225c7da3a5e5e8c9ea01d6af261603cf795d4bddd7887325780e12
"The vatter bounced across the gamp. Is this good, bad, or neither?",2,44cb69d363b6d99287402410490198709810d13e74a75276dbb979e5f5387c1256447125e35607b5fb4bd589b7d3c4067f5e02ae5e26e50c3be55284e647c71d
"The vatter bounced across the gamp. Is this good, bad, or neither?",1,e026cbf1f92ffcd63549ad9958fb5feeaed2d6b545677b809b1cafc3fc96349d27e28ef3da4919854a8b6d9ce320dc40b10f705c361b77a717ca1cc8d70dca1b
"The vatter bounced across the gamp. Is this good, bad, or neither?",2,ae71f9bdc55da0b8c3750381f7b461c628621bb341f0e02b43848a20de5aa785e174d7beb999f170b8bb7faab1935b89b977d5792d527da83e05755bab3f1c1f
"The vatter bounced across the gamp. Is this good, bad, or neither?",2,c5c7a359614b5a4a3081ea3fcad30ceb637d07f997531b3a5d7df5a3b7c21d6c3ea95af67e1163a07272fc0f0f99ad4ec8fa6aee59c5d52b6fc8e01d88cbb67a
"The vatter bounced across the gamp. Is this good, bad, or neither?",2,c06061e9252b0616c0202fd36ce38a30c50bb1fc17651f6dcda01d750dd8dc0c2c312475a7e48a6d0217b81b0f2ebfca3453d005c32412ec337e86854ca4f6ef
"The vatter bounced across the gamp. Is this good, bad, or neither?",2,b4c66c5d89026ff9b94fd9e0d6551295f9af3e283539a0fbf69f20975d144a76ea50bc8d5ec1d8fec715ee7b7bad74483cc69714d5f9d7d0da47fd524fcef80c
"The vatter bounced across the gamp. Is this good, bad, or neither?",2,283b65916ef3a59a7ac9c19f0bff78a1c1bb621a0d0d9416aae66775dd4f8cb45b3e3c7c8cd257bad12384cbc1987f0ca770511bfffc72aba5a1a4fbadaa39e3
"The vatter bounced across the gamp. Is this good, bad, or neither?",4,721e264e754847b14f0d609eceb465c35023062fb05141955d8ead3c490a1ae912672c2f043c1b98953f1d2db4e6f3caf17f2aec9dc9daeff38072f84ee40e33
"The vatter bounced across the gamp. Is this good, bad, or neither?",6,721e264e754847b14f0d609eceb465c35023062fb05141955d8ead3c490a1ae912672c2f043c1b98953f1d2db4e6f3caf17f2aec9dc9daeff38072f84ee40e33
"The vatter bounced across the gamp. Is this good, bad, or neither?",1,788586ec500f36a90e8e9cd2929df992dcef928d4a899a97f3ee045cae7941804fbd867cc1bd8322157279243f823395f4acb456de65b81bfb1653cd212debeb
"The vatter bounced across the gamp. Is this good, bad, or neither?",2,af2a334d706c1b69573a219943b69d932d7ab19af138b53be67e9aecd99fabaeb2a49b44537009c3139302d498eb4b5f83a8e2bb09d9b9cfb8869bd630c6c757
"The vatter bounced across the gamp. Is this good, bad, or neither?",2,3c8531bb3749b3282e99702b70769c7bcd6b29a0d042d14dc5503c6b3ba8ad06db2e1ea1f368db105a7162e6e67e6647a82b6d22f5d7f4f0d7f4cff6c956b9c7
"The vatter bounced across the gamp. Is this good, bad, or neither?",2,864fd6d6c6f3b061f8849268ccbe26a8df17226567b244b0760c60bacd2b79ced559640987941fff3ebd0eb3949cea7885c56e467856a8919d1736aa402c8087
"The vatter bounced across the gamp. Is this good, bad, or neither?",2,512926c32568782467c043d9acacef7e1297fe10e47106d36f90ed38f8036a40a0f8a10a29ae7a31a0a93e5ad4fed44921abf919134ac7a8d096c8022d200715
"The vatter bounced across the gamp. Is this good, bad, or neither?",2,dba3176e54c5d0cab5eca64d0b17d218773498fd4afd72a53db99353d2c54d9fd23913adb7c4ad78fac4fff46848d36a0820776b86954b7e53abbe2621825464
"The vatter bounced across the gamp. Is this good, bad, or neither?",6,dba3176e54c5d0cab5eca64d0b17d218773498fd4afd72a53db99353d2c54d9fd23913adb7c4ad78fac4fff46848d36a0820776b86954b7e53abbe2621825464
"The vatter bounced across the gamp. Is this good, bad, or neither?",2,f1ce7b044bf14aff3c5df290b0ea5dc7e0c0cffd399bb909d6c7e1654c24aae26e5d7366d8f6f8cfc7d6c77e01ab6ad3488b641d47d73613bc741d2dce0ccde2
"The vatter bounced across the gamp. Is this good, bad, or neither?",4,654abee2a34ea238dd9860279c2e4f4ca17d0745f80e3a567f1be1f8bc80565588c6bc0d387e4705bac6ad4b8113565bc4647802a60f9ec02d1e658cb7bd2331
"The vatter bounced across the gamp. Is this good, bad, or neither?",3,5f12e05c2e694ca4d0d50f5c90ffefa31fc5c326c5f6352ab6f2d69efda09898d7fa2e899476fb98164baf5559806eee7fc6f92a8cd7641d9b208f848e51b143
"The vatter bounced across the gamp. Is this good, bad, or neither?",3,5f12e05c2e694ca4d0d50f5c90ffefa31fc5c326c5f6352ab6f2d69efda09898d7fa2e899476fb98164baf5559806eee7fc6f92a8cd7641d9b208f848e51b143
"The vatter bounced across the gamp. Is this good, bad, or neither?",3,5f12e05c2e694ca4d0d50f5c90ffefa31fc5c326c5f6352ab6f2d69efda09898d7fa2e899476fb98164baf5559806eee7fc6f92a8cd7641d9b208f848e51b143
"The vatter bounced across the gamp. Is this good, bad, or neither?",3,5f12e05c2e694ca4d0d50f5c90ffefa31fc5c326c5f6352ab6f2d69efda09898d7fa2e899476fb98164baf5559806eee7fc6f92a8cd7641d9b208f848e51b143
"The vatter bounced across the gamp. Is this good, bad, or neither?",3,5f12e05c2e694ca4d0d50f5c90ffefa31fc5c326c5f6352ab6f2d69efda09898d7fa2e899476fb98164baf5559806eee7fc6f92a8cd7641d9b208f848e51b143
"The vatter bounced across the gamp. Is this good, bad, or neither?",3,5f12e05c2e694ca4d0d50f5c90ffefa31fc5c326c5f6352ab6f2d69efda09898d7fa2e899476fb98164baf5559806eee7fc6f92a8cd7641d9b208f848e51b143
"The vatter bounced across the gamp. Is this good, bad, or neither?",3,5f12e05c2e694ca4d0d50f5c90ffefa31fc5c326c5f6352ab6f2d69efda09898d7fa2e899476fb98164baf5559806eee7fc6f92a8cd7641d9b208f848e51b143
"The vatter bounced across the gamp. Is this good, bad, or neither?",3,5f12e05c2e694ca4d0d50f5c90ffefa31fc5c326c5f6352ab6f2d69efda09898d7fa2e899476fb98164baf5559806eee7fc6f92a8cd7641d9b208f848e51b143
"The vatter bounced across the gamp. Is this good, bad, or neither?",7,5476417a01c049007dc88e9a7b63ce7f188918d0da9d9c8f5e5ec6c15aee54e9bac433af4c95b78193f9da1b832c0f1a3f58c17bbef05872ffc73e2cc3c8194b
"The vatter bounced across the gamp. Is this good, bad, or neither?",2,89ec6026357c86cdd1819073d7c84fde395a04636ccdc2b308fec0bce7f5634972d9156de44c2612a3d597f1d133d97e3f743abc5d104cf4ddbfd9f27e637110
"The vatter bounced across the gamp. Is this good, bad, or neither?",2,5cd49a816d389109ba1de471234af76714b514d25e6deb8ee8312e6ccc4ad6f8fb1090ea989df4adcd6fcdf54fd1b3b5001f883eaf1aa0d3324fcb4ec691aa30
"The vatter bounced across the gamp. Is this good, bad, or neither?",2,e7071d603d000b9ae40280673e176247b9dfa7157b46021d3ae8666cec356b285366025414f5dae4b0134b61bb246b75d5bf85b6582298ebb0aef2ead4d9a641
"The vatter bounced across the gamp. Is this good, bad, or neither?",2,3ce1c91573b49e76ae6d43c669a24733296314c25baffa84d6693179025159771a3c7b297e83491615fff176965dd211be78675095cfe008040fcf254df14810
"The vatter bounced across the gamp. Is this good, bad, or neither?",2,819161aa2e764fd74ba60f02978d28b130e488d1f6ed613c48db286b68fe06ef24eeeb946d2af813bac598640b43342cd2b7a142eb31a6fff239faaae995f9f7
"The vatter bounced across the gamp. Is this good, bad, or neither?",2,3cef95e32667ae918cab2aa2b28a4532ccb88fc050913b1cf708dccce8f714a548d113968c30ddf044b9c5fafd3ff032af11f5dfa8629e9f8f8bd81dc72ea187
"The vatter bounced across the gamp. Is this good, bad, or neither?",2,531c667d4f67a26af45a5bfab6e20324aaa1acbcdbd2ac94f656bed1a4a854ed782760da32b1894db093d87f786a06b36748c4859a7d63a8ee897aa837aedc5e
"The vatter bounced across the gamp. Is this good, bad, or neither?",3,2ed40c11d60c8ea3d80ec07cb695a0871570a2539a898109969d1648ef53184e57835f8b1d97f34d589682d0d08bc75a19ab0561b312f4cbac900d39b98c0684
"The vatter bounced across the gamp. Is this good, bad, or neither?",2,8fefa51249c1fe362ac198e32ba86f12d8f5e8444e37ce03b23b155c32b6ceb597a22710e49fbbe5cfae86eb951cbf2754789393c6ccb10e584ae2233cf198ce
"The vatter bounced across the gamp. Is this good, bad, or neither?",2,debb17488df62ae009c8f893779083f5aaae66dfd2db2c859053611f5d8e7baf78c626ed0e18df1842a2f630804e312a74e053a442dbc3496bf8109458642fff
"The vatter bounced across the gamp. Is this good, bad, or neither?",2,e144c3aae932ef874624a8c02856bd414068417234e5b80137e61dd663266d84bc23fa36329997345a42240c440c07c8e4419207b38bbe2b9d99063b876d4ff8
"The vatter bounced across the gamp. Is this good, bad, or neither?",4,b4a89e063c479339463fe8a3755a45afdb72640d55ae6f8499866bdce35aea79532c96c386d3e305abf960bd172306159148a5dedc70fc0c191353ec94176ac4
"The vatter bounced across the gamp. Is this good, bad, or neither?",0,72d1c9853df3d3644610f651fe7698341b570aaefc46052d0ded8bbbdc6d391fd63756a98ecba6103b15777dc7237c385637dd01aa20a1dae807fa976cc0b5fd
"The vatter bounced across the gamp. Is this good, bad, or neither?",2,5d818587500e31ddd24f674f0d96e8036b1fbbdeff8f12716de7cf436031070adc160ac58c2058f70b7756b9758d4cc6c60cd86cb5fbac5b08e94434f347d5fc
"The vatter bounced across the gamp. Is this good, bad, or neither?",0,e32acc3720de73ab257e923557ba791b4db98db203286f956cc7d117906e5547f3f7e338aaa78b9152b0dfd10ce0ae962b8dfa72e117028b43b70fce1d3ee9ca
"The vatter bounced across the gamp. Is this good, bad, or neither?",2,720bea532db6ed90a7bd855c056e2ccc32b0f2fe90eb490aa4d644afcc89620fb5f7c3bf4971d931a8aef22130fb8976bd9e83f534038e3c4e8421311520cb5d
"The vatter bounced across the gamp. Is this good, bad, or neither?",2,ddaaf85b6ad92e5bd899125be0ee1d1e475cef85f10f7c86eb80b3e666aa2d27b9930efbf239779906809e3b49e9c42c65a28830cce2f7034e42c039095ac370
"The vatter bounced across the gamp. Is this good, bad, or neither?",2,eb4b6b706a0f89e14a2d8d16dfc7aa9c87a7d0595820e60b0d5dec6c005f0197619f954c3c62e433d7c45a2749d03a361351da7118319f5edfc5ea8c0c918e14
"The vatter bounced across the gamp. Is this good, bad, or neither?",2,ab817809187642176d23d87932f87fb8cac29305dd69bd9c80c875e1418683baeb300a33a4ea303e96598aee641e58ffef6ed700b09ee5a77559e157e08d3320
"The vatter bounced across the gamp. Is this good, bad, or neither?",1,949e348794c3e18581f7b55ecef851e605235f7c9cafa5c3b4d3e91106a8ea5851849ec1edc9cd0b8dbea5b628ab5f49181d508855ed809569304963bc219caa
"The vatter bounced across the gamp. Is this good, bad, or neither?",2,9d8ddb67f662349a7f7a7c5a32fee73c457fd70d135ae4be6f17a68418102d35693b26415c8fd8c7bd26a5b5032587ac08aefd055994f62fcb3e9a44d5cb51b0
"The vatter bounced across the gamp. Is this good, bad, or neither?",2,6442579b5017c978ac48004d53b31163b3763f309e6f3e0581e04c2aea211970cc33a63b0462acee00808e5c684e9c9445efbc52c93000c0cc6f7f2e7cc3b7f1
"The vatter bounced across the gamp. Is this good, bad, or neither?",2,08ea6ea397537c84ac209f08bf3bec2c0ff500e94266cd17fa45d303b288126de192d25b7f3331a02fdcad8a68ce682fafad99f95ec45259d05ed65d6cd3505e
"The vatter bounced across the gamp. Is this good, bad, or neither?",2,aeaead0bad2cd8cd8e00067df1d0ddd61b9ba6afec23c08f5c84f413ad2e263545b447c45633570fb4f2c9b3d3be895bc1e474eb157f9f9b4ac62955a36370ef
"The vatter bounced across the gamp. Is this good, bad, or neither?",2,305f2f29687fda8e291e598686a4a089cc57c27d26fc2dea3e28544183df6fdd4ce792399dcac730c7aa7109f82a09aace9c895bf9596d257e113393be774056
"The vatter bounced across the gamp. Is this good, bad, or neither?",2,34734f181a6d0f6f1adaeab93f12885a5502ad61026b9ed89cbc4b5edde06b6c4a39e6bab3e35dd25dbc50ea945830d22220b8cc32a10aa14462d8b03177b6e7
"The vatter bounced across the gamp. Is this good, bad, or neither?",2,12653d61c4b8d51a85d7212448c40362eccbd5cbfa7c1a1a86765ce8d0ab64fc74e62aea6d37a72c72144106409ebe705a24a6ddbdb592cbe4a8c8c39eb0a6c2
"The vatter bounced across the gamp. Is this good, bad, or neither?",6,55e6ffcb8f3eb6e1e598688240d12d65983194dc382b3d0face203fd6c0c4d8b0661669f0eaf22abdb0013bb93a0bb93290709d0e3201be67863d47a0b3ca01c
