"Angela trusted that the gamp kuched. Is this good, bad, or neither?",0,5d818587500e31ddd24f674f0d96e8036b1fbbdeff8f12716de7cf436031070adc160ac58c2058f70b7756b9758d4cc6c60cd86cb5fbac5b08e94434f347d5fc
"Angela trusted that the gamp kuched. Is this good, bad, or neither?",0,0e5d4f8f38e92f32b9ca2c526eeebf4ea0b144f4817f1354cfab269bb89c1a603f5dbf00526eb3e33607e46f673bf2c67488e89cb1e997b5a75862f6d7f6b657
"Angela trusted that the gamp kuched. Is this good, bad, or neither?",0,720bea532db6ed90a7bd855c056e2ccc32b0f2fe90eb490aa4d644afcc89620fb5f7c3bf4971d931a8aef22130fb8976bd9e83f534038e3c4e8421311520cb5d
"Angela trusted that the gamp kuched. Is this good, bad, or neither?",2,3e48ecd6054d02891089f87e7290c4a1787d57fabca13ac896aa9393516140b72931471ecd8ad7b77a4a4dbb84a62823ee4ee2800ac340eb5b600cf3fba6c547
"Angela trusted that the gamp kuched. Is this good, bad, or neither?",2,ddaaf85b6ad92e5bd899125be0ee1d1e475cef85f10f7c86eb80b3e666aa2d27b9930efbf239779906809e3b49e9c42c65a28830cce2f7034e42c039095ac370
"Angela trusted that the gamp kuched. Is this good, bad, or neither?",0,6f5d3137f68645162d6754029499a9ec7ae5684f56847c76e1aed3915b42b3ec8caf636fecf4f90a32b0151ee5f9c6a1d6452b80a69f77275d541c9cea4cbff1
"Angela trusted that the gamp kuched. Is this good, bad, or neither?",0,e6b0252c8d090b6850ecc04d520bb531b00308fd03cbd00a610388bc09311c4c45ed7ab41b45da947fed9df2c392de4e501ab33334efb38e47c9e8122b7dc29b
"Angela trusted that the gamp kuched. Is this good, bad, or neither?",2,ab817809187642176d23d87932f87fb8cac29305dd69bd9c80c875e1418683baeb300a33a4ea303e96598aee641e58ffef6ed700b09ee5a77559e157e08d3320
"Angela trusted that the gamp kuched. Is this good, bad, or neither?",4,6442579b5017c978ac48004d53b31163b3763f309e6f3e0581e04c2aea211970cc33a63b0462acee00808e5c684e9c9445efbc52c93000c0cc6f7f2e7cc3b7f1
"Angela trusted that the gamp kuched. Is this good, bad, or neither?",0,3ba7f77ae10c38036b97eb26b741db3f51fb37d04dcd4811c66cee4d7e3bf096ad2dda7eb04c83b35f03ed05392281462198a2d33493d965414714644b302ba5
"Angela trusted that the gamp kuched. Is this good, bad, or neither?",7,4f1eb44b0b992f9765439bd54031a203925ed3b21d2855614d93699436fcb9cabbf7b3e10232d70181456d6a7a03f1936c95231b7217856bb61d8b8085855273
"Angela trusted that the gamp kuched. Is this good, bad, or neither?",0,08ea6ea397537c84ac209f08bf3bec2c0ff500e94266cd17fa45d303b288126de192d25b7f3331a02fdcad8a68ce682fafad99f95ec45259d05ed65d6cd3505e
"Angela trusted that the gamp kuched. Is this good, bad, or neither?",0,aeaead0bad2cd8cd8e00067df1d0ddd61b9ba6afec23c08f5c84f413ad2e263545b447c45633570fb4f2c9b3d3be895bc1e474eb157f9f9b4ac62955a36370ef
"Angela trusted that the gamp kuched. Is this good, bad, or neither?",0,305f2f29687fda8e291e598686a4a089cc57c27d26fc2dea3e28544183df6fdd4ce792399dcac730c7aa7109f82a09aace9c895bf9596d257e113393be774056
"Angela trusted that the gamp kuched. Is this good, bad, or neither?",0,44ff1cf089bbf7211828a3fdb20b42438871616ec1673ead8a12f71d33cd02a9c9b6277f081d013d9f2ec7440ed01aff2b636ec53a25db5c848ae2217fd50870
"Angela trusted that the gamp kuched. Is this good, bad, or neither?",0,bcaeadfc56724d5a2432d2d012f80ea1f3af361fd2cc23ae85f9c718fc15e697164a11cbc8c601de2536a5c3f4d2cfa30f149dc06e2371384a24375be9cb90b5
"Angela trusted that the gamp kuched. Is this good, bad, or neither?",0,a04441347c7a31798c34e1a297af024142381cfd06d1679184d6b0cf7ea8eda83518c819aaa67808a7238790be4a54c02324be8e270298ac207e0fa103ba2135
"Angela trusted that the gamp kuched. Is this good, bad, or neither?",0,fb3ee4e72eb582b2b2920acd3ac5a4ed00149c2560bf0255b9bc8237d80cbadd7b353ced6ab5662f69dfe00d362575b7da94144cd2374866a682e39b17cc3c0d
"Angela trusted that the gamp kuched. Is this good, bad, or neither?",4,2cb44008208d14c82cf8868fc09b67e721d51c1b25835a53ce5c75d4338141e971e3aad3228e19b641ecd4278d4576dc2f1af7702b6c5731e30d7d54f5a829a5
"Angela trusted that the gamp kuched. Is this good, bad, or neither?",0,948b1546ab23598285d2f77f39e4276a3a82e5d340295aa6760c9fc6f36b7437bb3a495a3ba88d447f3fe661e3d3dc2ca10e32b8b5eb3feb6619e793bc050ef2
"Angela trusted that the gamp kuched. Is this good, bad, or neither?",0,caff777a2303da77340521ef83945a07684b2612ccb93a9fe1e9e6b34d4e52177c4499982e59c5f493664f3123c4c9738867850e7445f494ca6c22600eb6e56a
"Angela trusted that the gamp kuched. Is this good, bad, or neither?",0,d52d0f79310a4a1585de2ba281cae55d8bf4f66ee89a3b0afe5bec86ac64f3fbcf4ac04acc90a017d6f66a1259e7c33c370048fe26771c06104f79c7f0e7daea
"Angela trusted that the gamp kuched. Is this good, bad, or neither?",0,28195e505193242d636c8cf88927e3353b64c1e9365b6d4fe6834ae467adb58cc661083c465cf575a9d4e6e6ea9daf2f4e5b8eaf892be186be05aa6b9c0519ec
"Angela trusted that the gamp kuched. Is this good, bad, or neither?",0,ecd12f5c7840150b6bf31f41cfe805fbb7f1e24d87bc7f9a7e4a26034d172ee611537c7e49e1951d513a1b63598bec45f4cf8d3fd4936ebe2747d7e8018937e5
"Angela trusted that the gamp kuched. Is this good, bad, or neither?",0,69bf71a23950a19d51588205bb33b43a6c847df0a5e564427b2d61a5489a3d037dcf472674ab77e4abb6133e088ce98f278ad721e939562236b4f32ab79e07e7
"Angela trusted that the gamp kuched. Is this good, bad, or neither?",4,6f30757c629beadae5e0a70ec6a8d3210163d06209ed29760131df3c57ed9538b77dc42324db16b96bcc87efc72f52b87063dfddece3c55729794c72109f2d38
"Angela trusted that the gamp kuched. Is this good, bad, or neither?",5,bb468808221c97df5165df76c43e486e2f7e2f99477b7a9367a73b8a0bb01f96717db23a075e382562d71196b88450d35a4162d6179ec67a9ce75ad3c161fac7
"Angela trusted that the gamp kuched. Is this good, bad, or neither?",4,29fe964465c4244a307e06c6ad807344871b3223d26cc671c7c6b34e9e1ecc70b9d88cd4e3ec9efbe079aa5d6c2d1590aaf26624eddf98d2e2e9ef3cc2e05efe
"Angela trusted that the gamp kuched. Is this good, bad, or neither?",0,42635ff316bdbbb083e1ed8b1f2909857d8762f05e66e315131df058586d5534aef64d0bb308236129546f009afa68ba8f2e2082e542e911f19c1d107e440f6b
"Angela trusted that the gamp kuched. Is this good, bad, or neither?",0,168d989d5a8bf42be4878545ffd79f5998371c61905c2ce1f58caadac00ef8b1e459f75cd9c88375c7f37cc01be2bf733d276c1163c8ef2d6440ca612f8dab51
"Angela trusted that the gamp kuched. Is this good, bad, or neither?",4,d0df5b1265dfa7f47da7218014dacb322c27ee6fe3dc0b23397e02086dcca55eec45e5b5f30cf3f62e37f16d3f84c6352316ced8020827ee46f35d0ba4de8b57
"Angela trusted that the gamp kuched. Is this good, bad, or neither?",2,819308386a595fdf2e7fee072f96383a8b6401282510662eaf379f6a21537740d7d77947a0135b2801650ee337e4bb810bbf97978fafe8ee6a8adfdd187cb77b
"Angela trusted that the gamp kuched. Is this good, bad, or neither?",4,cc0871e8722d4330e488f627f44045b079dae6fde2bbf3afd7c3be53cc3e1fb99ebbca2ab0030b2da305882a933de524e82e888fc6312ef025a48f5c6f826bfd
"Angela trusted that the gamp kuched. Is this good, bad, or neither?",0,7e9f4fddfb5cf86b911fe467f827fb830d4f239b2c191fb4082e0008793e3c8b31f1e0e5c148e1ade6a875bb0f51a6f88e46939ee99c47c9a5d74b0ad34736b4
"Angela trusted that the gamp kuched. Is this good, bad, or neither?",0,dc083666dc1ab9a9ccaac0af0caba6b9243f27cf39ab989a9044adbf4680da45c90ccf389eafb578ab44db22b524cc1748a0630f4610d31f970efc2b5b0c7663
"Angela trusted that the gamp kuched. Is this good, bad, or neither?",7,96e0026396a2bf2c04df0ab1dc3bf52cf42197f54aedbd0ebf8e5e49cb291c318f02fcbaaf89dead07811fcef7e875758410e4cc8cc4f51bb7dfa7cfc3d03284
"Angela trusted that the gamp kuched. Is this good, bad, or neither?",0,ae35259fff5b718927785c56709880504e120ce94efa3434dd415e4c70baed9c160441aa62353feb3f16707b128745d2be5ce5553419c3089697ac91e3e85a29
"Angela trusted that the gamp kuched. Is this good, bad, or neither?",0,9bead9901fd8948cfe071e5d8ae3b3be1ed74c64124ecf8c75d19242c22b1982abbfd4fe909c4c433d712dd816d44400cabb90a208e351321815b0ab491409ed
"Angela trusted that the gamp kuched. Is this good, bad, or neither?",0,994c0897a458616fc48381dd146bd8cdf1a6cc1cbfeb98018850ea7b9cdcd73e8c3f78b2b710535c359286af086fc383d63ef07b222806bf632f3acff996f280
"Angela trusted that the gamp kuched. Is this good, bad, or neither?",7,8cba960426e9465dab66f9cf60a02e0c833166cd89662ff101a11c382c6f87339b01615a5bbde7f2d83287c52e2409d4d9ac2b2e982b1704f71fe0e029c4f7be
"Angela trusted that the gamp kuched. Is this good, bad, or neither?",0,a7dc9d4f184ea86b7b6e6869b9a53887f9af455a7a9b3f701cc20ec18e11435fdb90d9c3eed921996792de6c1628b7a27219b25f044ffe99d725092cbc88af6e
"Angela trusted that the gamp kuched. Is this good, bad, or neither?",0,ac3b1b10808f1753ec2a45dbfd111934fc15f5c99e8d54caa1b9fa0399c450a1b4489cb0037029cbf93008625f0c076357a1b8e164d2f400a000fbd6062f7bad
"Angela trusted that the gamp kuched. Is this good, bad, or neither?",3,0598925da1a7f9a642135d60911c37c5508b431e4b5a95e06f384aef7a876d0d6280404e14553d696e5cf510849e08bdc3137ff9081f0cf9649659176a382cc3
"Angela trusted that the gamp kuched. Is this good, bad, or neither?",0,0e65e98cc7f50655fb7e6ee4eb89625a49859e292f6a78922498cb13bdc91f50940e0f37574664eb953519012e5cb54a76e1d3eecb807abc26a538480c28a8db
"Angela trusted that the gamp kuched. Is this good, bad, or neither?",4,a3fe48d172465fbb24a650eeb520bd4c4631496b6d9d7a38bf192e1566aa97e662f2b2e76290bf0e0a6c2a90ffb291b31ff1e75bb29714c834646a850ace5bf6
"Angela trusted that the gamp kuched. Is this good, bad, or neither?",0,d132ac951e6a9ee5aec8426f6f4c6159adabebeb33426fd8ed1864eb38c6196f3afee305ac784c458ed9d74777ef7698622c355e89235891e218ce6c8fdd0993
"Angela trusted that the gamp kuched. Is this good, bad, or neither?",2,0d3afeda5c04607df671120a803dc79ab9ad5cf78295c7255b686bf87700166fc3e3beed0fad9e1982877c59c524f8a7b726871b19050d47ffbc6c6e369a8497
"Angela trusted that the gamp kuched. Is this good, bad, or neither?",0,8e19802988577981b49ccb57411a4ac55e31e45d1835ad05102ceb6a8503b5c4acc8641affe675d6d203df29f3e4f9ea7096e2fb9858c539f5ea7636c4c67350
"Angela trusted that the gamp kuched. Is this good, bad, or neither?",4,8e19802988577981b49ccb57411a4ac55e31e45d1835ad05102ceb6a8503b5c4acc8641affe675d6d203df29f3e4f9ea7096e2fb9858c539f5ea7636c4c67350
"Angela trusted that the gamp kuched. Is this good, bad, or neither?",7,8e19802988577981b49ccb57411a4ac55e31e45d1835ad05102ceb6a8503b5c4acc8641affe675d6d203df29f3e4f9ea7096e2fb9858c539f5ea7636c4c67350
"Angela trusted that the gamp kuched. Is this good, bad, or neither?",0,cdc82decc385f7e309df95e76665c1a374f59a26484512f2db2ccd400075c0e7168901954aff2916ae1ce00679770656b6a59e655a4e26263c3a91889d44fc1a
"Angela trusted that the gamp kuched. Is this good, bad, or neither?",4,864fd6d6c6f3b061f8849268ccbe26a8df17226567b244b0760c60bacd2b79ced559640987941fff3ebd0eb3949cea7885c56e467856a8919d1736aa402c8087
"Angela trusted that the gamp kuched. Is this good, bad, or neither?",2,512926c32568782467c043d9acacef7e1297fe10e47106d36f90ed38f8036a40a0f8a10a29ae7a31a0a93e5ad4fed44921abf919134ac7a8d096c8022d200715
"Angela trusted that the gamp kuched. Is this good, bad, or neither?",0,19277661313b5118bd1b2e29039b47276f1f8235917f3217bf95498030989874a1ca10bb943fa21faf787d793095c0d4119e136013ed4a9be167f67c2a6d11d3
"Angela trusted that the gamp kuched. Is this good, bad, or neither?",0,654abee2a34ea238dd9860279c2e4f4ca17d0745f80e3a567f1be1f8bc80565588c6bc0d387e4705bac6ad4b8113565bc4647802a60f9ec02d1e658cb7bd2331
"Angela trusted that the gamp kuched. Is this good, bad, or neither?",0,bdcab5cd1212582dca8e50813eb9d163931efe5267ebfa63e032c1b5b75d61e915f696c1245ea08eb59d0685c2c37571e2b97ec2b046d4d43886cecc5779d0eb
"Angela trusted that the gamp kuched. Is this good, bad, or neither?",2,33c3bd03a1f73ff8819fc13b99141240a40bc81396b6dcafb7e7288b16d836334419ead9618f39615b5883f92bb1a8bc5dddca63477ad05e2a20fa703930a633
"Angela trusted that the gamp kuched. Is this good, bad, or neither?",7,33c3bd03a1f73ff8819fc13b99141240a40bc81396b6dcafb7e7288b16d836334419ead9618f39615b5883f92bb1a8bc5dddca63477ad05e2a20fa703930a633
"Angela trusted that the gamp kuched. Is this good, bad, or neither?",0,8ded77a21fe05c7756085556cca8f98f5eb31dedfed36a6e262cb8adc9034cd291306beab7fc461a490aca5e434bd7146b3069946e787af0ebac1f4361b7c52a
"Angela trusted that the gamp kuched. Is this good, bad, or neither?",3,5f12e05c2e694ca4d0d50f5c90ffefa31fc5c326c5f6352ab6f2d69efda09898d7fa2e899476fb98164baf5559806eee7fc6f92a8cd7641d9b208f848e51b143
"Angela trusted that the gamp kuched. Is this good, bad, or neither?",3,5f12e05c2e694ca4d0d50f5c90ffefa31fc5c326c5f6352ab6f2d69efda09898d7fa2e899476fb98164baf5559806eee7fc6f92a8cd7641d9b208f848e51b143
"Angela trusted that the gamp kuched. Is this good, bad, or neither?",3,5f12e05c2e694ca4d0d50f5c90ffefa31fc5c326c5f6352ab6f2d69efda09898d7fa2e899476fb98164baf5559806eee7fc6f92a8cd7641d9b208f848e51b143
"Angela trusted that the gamp kuched. Is this good, bad, or neither?",3,5f12e05c2e694ca4d0d50f5c90ffefa31fc5c326c5f6352ab6f2d69efda09898d7fa2e899476fb98164baf5559806eee7fc6f92a8cd7641d9b208f848e51b143
"Angela trusted that the gamp kuched. Is this good, bad, or neither?",3,5f12e05c2e694ca4d0d50f5c90ffefa31fc5c326c5f6352ab6f2d69efda09898d7fa2e899476fb98164baf5559806eee7fc6f92a8cd7641d9b208f848e51b143
"Angela trusted that the gamp kuched. Is this good, bad, or neither?",3,5f12e05c2e694ca4d0d50f5c90ffefa31fc5c326c5f6352ab6f2d69efda09898d7fa2e899476fb98164baf5559806eee7fc6f92a8cd7641d9b208f848e51b143
"Angela trusted that the gamp kuched. Is this good, bad, or neither?",3,5f12e05c2e694ca4d0d50f5c90ffefa31fc5c326c5f6352ab6f2d69efda09898d7fa2e899476fb98164baf5559806eee7fc6f92a8cd7641d9b208f848e51b143
"Angela trusted that the gamp kuched. Is this good, bad, or neither?",3,5f12e05c2e694ca4d0d50f5c90ffefa31fc5c326c5f6352ab6f2d69efda09898d7fa2e899476fb98164baf5559806eee7fc6f92a8cd7641d9b208f848e51b143
"Angela trusted that the gamp kuched. Is this good, bad, or neither?",2,1084eaa8019d8a8f9d2f43de11fd3d94572a0b1580e0ebbf1d2c072681f1e192034dda97387e65339098f3991a8bc6a1d07367e015a60d9cc7e7f8e9ad70c5bc
"Angela trusted that the gamp kuched. Is this good, bad, or neither?",6,1084eaa8019d8a8f9d2f43de11fd3d94572a0b1580e0ebbf1d2c072681f1e192034dda97387e65339098f3991a8bc6a1d07367e015a60d9cc7e7f8e9ad70c5bc
"Angela trusted that the gamp kuched. Is this good, bad, or neither?",2,fb01d843f3d40d6501b9eda6a355052637b31f6b3c21fb0e3a860bdb506a42f2df07cd249b3096c402209021a9fd4679bb47c89ec3fc03513b12f8cb6975cd47
"Angela trusted that the gamp kuched. Is this good, bad, or neither?",0,9d8ddb67f662349a7f7a7c5a32fee73c457fd70d135ae4be6f17a68418102d35693b26415c8fd8c7bd26a5b5032587ac08aefd055994f62fcb3e9a44d5cb51b0
"Angela trusted that the gamp kuched. Is this good, bad, or neither?",0,c80ad8315d80c84999757da1c65a4d0080a8ef397234538c9046ec61606aaec64da1fff300b5cfd84df0338bece5ecd07bec05d51269b03da6fc176f51b04b47
"Angela trusted that the gamp kuched. Is this good, bad, or neither?",2,3ce1c91573b49e76ae6d43c669a24733296314c25baffa84d6693179025159771a3c7b297e83491615fff176965dd211be78675095cfe008040fcf254df14810
"Angela trusted that the gamp kuched. Is this good, bad, or neither?",0,b4a89e063c479339463fe8a3755a45afdb72640d55ae6f8499866bdce35aea79532c96c386d3e305abf960bd172306159148a5dedc70fc0c191353ec94176ac4
"Angela trusted that the gamp kuched. Is this good, bad, or neither?",0,0c1e43ef5b2f9488f1f2f5d3bb698140bc0a814ccd0552a4d3b9bc7f4899fbd7f112dda7c2abe51111db2cd9354f7ed05e8023ddc9513e6797cd881f2b3a9c2c
"Angela trusted that the gamp kuched. Is this good, bad, or neither?",0,c17e2c7e290b44821dea543e29be644f7bd257f043cd649054a3992c69e93313fd93f4c35ea542460d7b258a5a04e674728fb1d28a6b97294a238f42a5dc72ff
"Angela trusted that the gamp kuched. Is this good, bad, or neither?",0,819161aa2e764fd74ba60f02978d28b130e488d1f6ed613c48db286b68fe06ef24eeeb946d2af813bac598640b43342cd2b7a142eb31a6fff239faaae995f9f7
"Angela trusted that the gamp kuched. Is this good, bad, or neither?",2,c9d59f79d0ac1f015c64a162dae1bcd77878548db5ef52fcec40ba3f7bf8f600d2dba5884063cb696a03fe334c1418df0fbdc67c350d4b1a7f850a360e204777
"Angela trusted that the gamp kuched. Is this good, bad, or neither?",2,7f095045b96e3f9cad42a3bdc93ae5ff5c49f20d0a5a4181f46d15cdef7b2a544f0348501a70e8666d97e8c9b5c83bdff2e241f897607bc993873a80889f7490
"Angela trusted that the gamp kuched. Is this good, bad, or neither?",2,b4a89e063c479339463fe8a3755a45afdb72640d55ae6f8499866bdce35aea79532c96c386d3e305abf960bd172306159148a5dedc70fc0c191353ec94176ac4
"Angela trusted that the gamp kuched. Is this good, bad, or neither?",2,bc519b108cb3b181697a45b38b621f4d3a1bdeb58c9b600882dbc3e707bf06daa50f8ed87c6b2086c519d7f6a5ffe9d84b09275db3130a602c38b70e6c4bfe64
"Angela trusted that the gamp kuched. Is this good, bad, or neither?",7,bc519b108cb3b181697a45b38b621f4d3a1bdeb58c9b600882dbc3e707bf06daa50f8ed87c6b2086c519d7f6a5ffe9d84b09275db3130a602c38b70e6c4bfe64
"Angela trusted that the gamp kuched. Is this good, bad, or neither?",0,531c667d4f67a26af45a5bfab6e20324aaa1acbcdbd2ac94f656bed1a4a854ed782760da32b1894db093d87f786a06b36748c4859a7d63a8ee897aa837aedc5e
"Angela trusted that the gamp kuched. Is this good, bad, or neither?",4,26729c392072f043615adffdd8653c7ba3bb0a1666325fbc5e4200c5527ff8f7b18e0fe11a3076def10d3c2e4eae07213bcb2c233bab7241ba47f38ad8a9ccd4
"Angela trusted that the gamp kuched. Is this good, bad, or neither?",1,0ca87715be5df199ebada6867f7e0e75295c7ededa0fbd84664b9240578d42457d55abd66e8d40f24cae8c5c5c0a506eae9b839711a908d418039a14a0ca3135
"Angela trusted that the gamp kuched. Is this good, bad, or neither?",7,0ca87715be5df199ebada6867f7e0e75295c7ededa0fbd84664b9240578d42457d55abd66e8d40f24cae8c5c5c0a506eae9b839711a908d418039a14a0ca3135
"Angela trusted that the gamp kuched. Is this good, bad, or neither?",1,fa397b6498f37b2486c93b942859ab6761684709953bb9b06336fe536b3e6c2d0043a688e1a403ddc83f90029b00ccbc62362baf6394859c6c7acc269ea368b5
"Angela trusted that the gamp kuched. Is this good, bad, or neither?",5,fa397b6498f37b2486c93b942859ab6761684709953bb9b06336fe536b3e6c2d0043a688e1a403ddc83f90029b00ccbc62362baf6394859c6c7acc269ea368b5
"Angela trusted that the gamp kuched. Is this good, bad, or neither?",2,64b0b383abef7422d0ae1d374180558f9cd4a3b0e91ed813b32c93202f31411e1af4445cc49c3e7a5e27274da047d27abc1a040400096e04e1c3e039548aed58
"Angela trusted that the gamp kuched. Is this good, bad, or neither?",7,64b0b383abef7422d0ae1d374180558f9cd4a3b0e91ed813b32c93202f31411e1af4445cc49c3e7a5e27274da047d27abc1a040400096e04e1c3e039548aed58
"Angela trusted that the gamp kuched. Is this good, bad, or neither?",4,f2ff644166bdfc62cdd9d9a94d6ff0f25dc281b19db7785e128b10020bcf19c55e0b62f09a237e59d6fcf521784509e0211f4ac66a2111cc6532aff9c608466f
"Angela trusted that the gamp kuched. Is this good, bad, or neither?",0,5d818587500e31ddd24f674f0d96e8036b1fbbdeff8f12716de7cf436031070adc160ac58c2058f70b7756b9758d4cc6c60cd86cb5fbac5b08e94434f347d5fc
"Angela trusted that the gamp kuched. Is this good, bad, or neither?",0,0e5d4f8f38e92f32b9ca2c526eeebf4ea0b144f4817f1354cfab269bb89c1a603f5dbf00526eb3e33607e46f673bf2c67488e89cb1e997b5a75862f6d7f6b657
"Angela trusted that the gamp kuched. Is this good, bad, or neither?",0,720bea532db6ed90a7bd855c056e2ccc32b0f2fe90eb490aa4d644afcc89620fb5f7c3bf4971d931a8aef22130fb8976bd9e83f534038e3c4e8421311520cb5d
"Angela trusted that the gamp kuched. Is this good, bad, or neither?",2,3e48ecd6054d02891089f87e7290c4a1787d57fabca13ac896aa9393516140b72931471ecd8ad7b77a4a4dbb84a62823ee4ee2800ac340eb5b600cf3fba6c547
"Angela trusted that the gamp kuched. Is this good, bad, or neither?",2,ddaaf85b6ad92e5bd899125be0ee1d1e475cef85f10f7c86eb80b3e666aa2d27b9930efbf239779906809e3b49e9c42c65a28830cce2f7034e42c039095ac370
"Angela trusted that the gamp kuched. Is this good, bad, or neither?",0,6f5d3137f68645162d6754029499a9ec7ae5684f56847c76e1aed3915b42b3ec8caf636fecf4f90a32b0151ee5f9c6a1d6452b80a69f77275d541c9cea4cbff1
"Angela trusted that the gamp kuched. Is this good, bad, or neither?",0,e6b0252c8d090b6850ecc04d520bb531b00308fd03cbd00a610388bc09311c4c45ed7ab41b45da947fed9df2c392de4e501ab33334efb38e47c9e8122b7dc29b
"Angela trusted that the gamp kuched. Is this good, bad, or neither?",2,ab817809187642176d23d87932f87fb8cac29305dd69bd9c80c875e1418683baeb300a33a4ea303e96598aee641e58ffef6ed700b09ee5a77559e157e08d3320
"Angela trusted that the gamp kuched. Is this good, bad, or neither?",4,6442579b5017c978ac48004d53b31163b3763f309e6f3e0581e04c2aea211970cc33a63b0462acee00808e5c684e9c9445efbc52c93000c0cc6f7f2e7cc3b7f1
"Angela trusted that the gamp kuched. Is this good, bad, or neither?",0,3ba7f77ae10c38036b97eb26b741db3f51fb37d04dcd4811c66cee4d7e3bf096ad2dda7eb04c83b35f03ed05392281462198a2d33493d965414714644b302ba5
"Angela trusted that the gamp kuched. Is this good, bad, or neither?",7,4f1eb44b0b992f9765439bd54031a203925ed3b21d2855614d93699436fcb9cabbf7b3e10232d70181456d6a7a03f1936c95231b7217856bb61d8b8085855273
"Angela trusted that the gamp kuched. Is this good, bad, or neither?",0,08ea6ea397537c84ac209f08bf3bec2c0ff500e94266cd17fa45d303b288126de192d25b7f3331a02fdcad8a68ce682fafad99f95ec45259d05ed65d6cd3505e
"Angela trusted that the gamp kuched. Is this good, bad, or neither?",0,aeaead0bad2cd8cd8e00067df1d0ddd61b9ba6afec23c08f5c84f413ad2e263545b447c45633570fb4f2c9b3d3be895bc1e474eb157f9f9b4ac62955a36370ef
"Angela trusted that the gamp kuched. Is this good, bad, or neither?",0,305f2f29687fda8e291e598686a4a089cc57c27d26fc2dea3e28544183df6fdd4ce792399dcac730c7aa7109f82a09aace9c895bf9596d257e113393be774056
"Angela trusted that the gamp kuched. Is this good, bad, or neither?",0,44ff1cf089bbf7211828a3fdb20b42438871616ec1673ead8a12f71d33cd02a9c9b6277f081d013d9f2ec7440ed01aff2b636ec53a25db5c848ae2217fd50870
"Angela trusted that the gamp kuched. Is this good, bad, or neither?",5,bb468808221c97df5165df76c43e486e2f7e2f99477b7a9367a73b8a0bb01f96717db23a075e382562d71196b88450d35a4162d6179ec67a9ce75ad3c161fac7
"Angela trusted that the gamp kuched. Is this good, bad, or neither?",4,d0df5b1265dfa7f47da7218014dacb322c27ee6fe3dc0b23397e02086dcca55eec45e5b5f30cf3f62e37f16d3f84c6352316ced8020827ee46f35d0ba4de8b57
"Angela trusted that the gamp kuched. Is this good, bad, or neither?",0,e4a35b3d05b723c3d88a606d2b658f2a2dd77734587306bf4fbc2e25b93e5b6428f80f6b8974f954fd99017486bfe34862fd647e74a9a26fd81057b2971caf86
