"Anthony hated the harrent in him. Is this good, bad, or neither?",1,5d818587500e31ddd24f674f0d96e8036b1fbbdeff8f12716de7cf436031070adc160ac58c2058f70b7756b9758d4cc6c60cd86cb5fbac5b08e94434f347d5fc
"Anthony hated the harrent in him. Is this good, bad, or neither?",1,3aaa8438b73c4295f82cecfefcca0d30fdef245bc5e260023b49b993b0620cf50b726e95c7b96410f4842a7c7ff3fd8ee1494f92c0e8c415307556a968b2a992
"Anthony hated the harrent in him. Is this good, bad, or neither?",1,1087a43a37ae1cb35eccb8816ba7fc286c146a503720821260b4583da9758bf337636549d782ce5628cefa3a4e159821de84af1d07c4ba8f2aa730bcec6d8090
"Anthony hated the harrent in him. Is this good, bad, or neither?",1,ddaaf85b6ad92e5bd899125be0ee1d1e475cef85f10f7c86eb80b3e666aa2d27b9930efbf239779906809e3b49e9c42c65a28830cce2f7034e42c039095ac370
"Anthony hated the harrent in him. Is this good, bad, or neither?",0,6f5d3137f68645162d6754029499a9ec7ae5684f56847c76e1aed3915b42b3ec8caf636fecf4f90a32b0151ee5f9c6a1d6452b80a69f77275d541c9cea4cbff1
"Anthony hated the harrent in him. Is this good, bad, or neither?",4,247d016ad1965e185b284a032af50657ede03f4f6dfc65f402943ca2d27268dbc47a7ee39ad2eed9b24b64110dc50e8dd10ca6597e88d493637c358a9ba6470b
"Anthony hated the harrent in him. Is this good, bad, or neither?",1,3bf076b2b46510be3496a6f1f783cada202ec911154fe8e0a2bd32bbdd0c18c5782eb82ec01bd6d770fd2ce68562db5c73ef087af8900390f07d2df789ff7f6b
"Anthony hated the harrent in him. Is this good, bad, or neither?",2,9fc9d3de7ddb83580fc430d2d5c6ee47e775cabd5a982d7012deb44dbf1042f8b3db8ea6b2c4ee7b39f82b84b6b071d6968393ccc6520a6870f0883ccc441cf9
"Anthony hated the harrent in him. Is this good, bad, or neither?",1,2bddce971fb9dfadb0e50fcd15f5da42f2ef8c476a4212bde20a28dfb3b51b03b619ae1daafc7905fad410c42d69ea64cce4d2e705a9f283a1f36221d9537557
"Anthony hated the harrent in him. Is this good, bad, or neither?",1,609868e2cf6de58a506a6731afe55c53d93510e3a34e58705479846aa7ccef2469a0081dc7ad92826b214afccaa96b3202ca07a32e7d6afd795c5776ef5511be
"Anthony hated the harrent in him. Is this good, bad, or neither?",1,08ea6ea397537c84ac209f08bf3bec2c0ff500e94266cd17fa45d303b288126de192d25b7f3331a02fdcad8a68ce682fafad99f95ec45259d05ed65d6cd3505e
"Anthony hated the harrent in him. Is this good, bad, or neither?",2,aeaead0bad2cd8cd8e00067df1d0ddd61b9ba6afec23c08f5c84f413ad2e263545b447c45633570fb4f2c9b3d3be895bc1e474eb157f9f9b4ac62955a36370ef
"Anthony hated the harrent in him. Is this good, bad, or neither?",1,305f2f29687fda8e291e598686a4a089cc57c27d26fc2dea3e28544183df6fdd4ce792399dcac730c7aa7109f82a09aace9c895bf9596d257e113393be774056
"Anthony hated the harrent in him. Is this good, bad, or neither?",1,b57e6944a7f1cc6dfbfb5f19290d78629407851ccc0ed62e99ad91b56b9a0289ce66292c99e08f9f97f73e5607d085b86ae6f072fce59ab0809e150affa9cfab
"Anthony hated the harrent in him. Is this good, bad, or neither?",1,65ae2297454acec05c7ad3ec4d8d2e4386cbf4c1d2f25dac7e27648a31d58e0c16bd036fa4be3367b3235180fa8fc266498b3489fb83269569ce6f6dc073e189
"Anthony hated the harrent in him. Is this good, bad, or neither?",1,12653d61c4b8d51a85d7212448c40362eccbd5cbfa7c1a1a86765ce8d0ab64fc74e62aea6d37a72c72144106409ebe705a24a6ddbdb592cbe4a8c8c39eb0a6c2
"Anthony hated the harrent in him. Is this good, bad, or neither?",1,ac159058713bb786536395d849dcdcf98a8ffa433c0df23b7bc3208f1c1ce017c9e666811788def29dda032e13b5e11080c305f9a67c97282c112192adb437e0
"Anthony hated the harrent in him. Is this good, bad, or neither?",7,04665b205f6f8c8fcb7d43b2b2e659ccda3cbcd492d8e6aad14e94a0f2969ca313a7ab9145d9bdc85c84b2b73678a750809b4830752214c5d4bd22e04691fdec
"Anthony hated the harrent in him. Is this good, bad, or neither?",1,046c49a3897bb2e659014aae6223062acc33335ade703ec84b6044a6aa74117de10543d94ad858c09aab0dd91e321f14c7e051993cf9dc13844f913ffbdab9d0
"Anthony hated the harrent in him. Is this good, bad, or neither?",4,b9823f44a96a09bb0a39b059bc590571f243e6b4cae8f72f462a679bd66dd4a5df1300c501ee1ee59d2ef0b3924ec82649208ef3855c81f609b9a3b93dc2e442
"Anthony hated the harrent in him. Is this good, bad, or neither?",1,fb3ee4e72eb582b2b2920acd3ac5a4ed00149c2560bf0255b9bc8237d80cbadd7b353ced6ab5662f69dfe00d362575b7da94144cd2374866a682e39b17cc3c0d
"Anthony hated the harrent in him. Is this good, bad, or neither?",1,2cb44008208d14c82cf8868fc09b67e721d51c1b25835a53ce5c75d4338141e971e3aad3228e19b641ecd4278d4576dc2f1af7702b6c5731e30d7d54f5a829a5
"Anthony hated the harrent in him. Is this good, bad, or neither?",4,86176b5e48f64b6f25629a896860702d0f08b590cf95ae63771736a73dffea920ed966b550f9245ef9b64994aecc388426f5c084afb696eca8d0fb0f335761d6
"Anthony hated the harrent in him. Is this good, bad, or neither?",1,832b19ea4eb64ad4f6298c0933ec2f6ba994974bcbbda62a7a0088a00f6cd96bd27aca96187875bf07fe2c868f7cd9e74b39598b91c261fd45079e5150637de4
"Anthony hated the harrent in him. Is this good, bad, or neither?",1,28195e505193242d636c8cf88927e3353b64c1e9365b6d4fe6834ae467adb58cc661083c465cf575a9d4e6e6ea9daf2f4e5b8eaf892be186be05aa6b9c0519ec
"Anthony hated the harrent in him. Is this good, bad, or neither?",1,caff777a2303da77340521ef83945a07684b2612ccb93a9fe1e9e6b34d4e52177c4499982e59c5f493664f3123c4c9738867850e7445f494ca6c22600eb6e56a
"Anthony hated the harrent in him. Is this good, bad, or neither?",7,877578fb8afa2c3d1f85e89e48c572020b3dff271c96edb944fca01f5733c2b4687263dd05425a5a147c61f4b67999050a674de75f13940885d8ead140bf6e0b
"Anthony hated the harrent in him. Is this good, bad, or neither?",1,4a3b6525f743328fefbe54fa0e2a131c486a29ff6d59072386194011c355e03503043b89aa96a3e0f0cb2c3ce8c28128628fe40bd6ecd633c235bc5b4e6b3ca4
"Anthony hated the harrent in him. Is this good, bad, or neither?",1,afc467a2a260521f669c0728bcf5c5371a1d242b0caa81f378df380811bc38b01c00f29cd95374bd8e7e2b4d44a8dec79e102c89542c4e99e38fa0d0174b14c0
"Anthony hated the harrent in him. Is this good, bad, or neither?",1,1ae3ac3672819ef6cf11d0239ea713aff33b8d8df1eb6847b71fa97223ca6b5bd9717fe14b8dab839df7a09a2945383d32386a53f63e8e9e64b97139ec9da6ea
"Anthony hated the harrent in him. Is this good, bad, or neither?",4,2affe66e78ed0fdb8662d48e9de768393c88ec5e667c71326bc9ac141e2742f64028489e0a9dbbd820ca7d777483a05f81c195e5a46d9c595e8003584f94b06f
"Anthony hated the harrent in him. Is this good, bad, or neither?",1,efc1e514a0e19a946b7d90cf06d32291c52422f3a9db0525c73889e6a87d244f519c6329d5d3d5843f1fff3f477168dfb0692b5bafd72064d2a51981ed36279d
"Anthony hated the harrent in him. Is this good, bad, or neither?",6,55474608775b7d1e611b093b9e8a649e317fba4ecef5e205fa0a640c9efcba2a4998bddb88f2bf60e17514db37b08066312cd99d7fb6ad3fec03f835ac61acf5
"Anthony hated the harrent in him. Is this good, bad, or neither?",1,43a44e206ffa66beb925c3d2254448ae868e95ac4ca7ae71193f357ba697396a8c871dc16ea11278735829727f28f88443be078e05d6daf3374a9a8c9536f0e2
"Anthony hated the harrent in him. Is this good, bad, or neither?",1,ecd12f5c7840150b6bf31f41cfe805fbb7f1e24d87bc7f9a7e4a26034d172ee611537c7e49e1951d513a1b63598bec45f4cf8d3fd4936ebe2747d7e8018937e5
"Anthony hated the harrent in him. Is this good, bad, or neither?",1,2e08ea7a396b5dc2fc6ff518b56da9298cfd603a2f489e5145c092eb9870a320d2bfa8fd161fe5975a370e19055991d826fd24dea216f722fe25dbbf75088cd3
"Anthony hated the harrent in him. Is this good, bad, or neither?",7,96e0026396a2bf2c04df0ab1dc3bf52cf42197f54aedbd0ebf8e5e49cb291c318f02fcbaaf89dead07811fcef7e875758410e4cc8cc4f51bb7dfa7cfc3d03284
"Anthony hated the harrent in him. Is this good, bad, or neither?",4,24e11c553d6fdfc86682c52183b6c4a648727ffa8cf07b36e77ea754be25468560227ff19b399a38fcb1bde79fa88b77467d466c7b55d9e63ce7a3474c2c5cb6
"Anthony hated the harrent in him. Is this good, bad, or neither?",2,8e5028dac50b1a97cb19f1a582ea969df1787494e1b13b35a5c4abe344e2ae1f2b398777172f3fb964141db7501d0117a9ea6358b0127c10bfe8e1907eb1782d
"Anthony hated the harrent in him. Is this good, bad, or neither?",6,5e77ac9616ce579d6d3ef8ba6868ddd086ba0bb98638ffc358f9f697f24857cc997b25530cc944dbc5a08cca13c1cb949f744bfbb59d9286d5dfac582d4767c5
"Anthony hated the harrent in him. Is this good, bad, or neither?",4,cec74023ec011c05d418b07a92d9a9710762291380c8199164ef32a58d02dc79876bc9268c0910efe2625133d745da1e3445b3459271ac889dcc3494c32e5ae9
"Anthony hated the harrent in him. Is this good, bad, or neither?",1,37056029e774f16acec70038a23ae89a2c74792c8abf3d073dd50bd2bd372915fc370649b923f20aae3be324e4988b79f9f3d20fa5d4eb7fef4908919be4b3e0
"Anthony hated the harrent in him. Is this good, bad, or neither?",2,aae2ad222c2129a52d6ab034b29703d6904895dbc420491c217a43031bb0fafae12ae216e1c7873e4f009cc976be625e4cdc0f48ad0ba687b29a5d7b66e767cf
"Anthony hated the harrent in him. Is this good, bad, or neither?",1,840b09693e92e05e2dccddf3cd9843bbf39fa26d52f79a5d93fd75d4376c2ebb7f3df1d93ee27aa468aa33da0c520bb786f5d68beddf22bf8517c95bc3e2c4c4
"Anthony hated the harrent in him. Is this good, bad, or neither?",7,9c838bc25f7d73415dfdfc369790e75ca20217d3f23ca7cdc50de5c5cd5bce270b5117bd203166cf9456c1f094d6692990c0e03d23bc0596e6b173e69788859d
"Anthony hated the harrent in him. Is this good, bad, or neither?",2,f4d0a0e5543106139b65bc0db5d40eb416833c4fb456fd2272ffde8e7e162ac059f090e12c01686b7dd181834a59b46c179bb133739847ad085aeae5db86e3e7
"Anthony hated the harrent in him. Is this good, bad, or neither?",1,b4c66c5d89026ff9b94fd9e0d6551295f9af3e283539a0fbf69f20975d144a76ea50bc8d5ec1d8fec715ee7b7bad74483cc69714d5f9d7d0da47fd524fcef80c
"Anthony hated the harrent in him. Is this good, bad, or neither?",6,a80a1596f15e3dad2c373184227f2aed75b891f45bbdac7eb0dd2f80a038930fe550e9133cad227e665200a1e7870c01baedeacf1c5f0768106622164ae72576
"Anthony hated the harrent in him. Is this good, bad, or neither?",1,f152fccfa1b4275911c3d51209757f8f47524d9e0dac927fa3cf085a412f2995c54db4378764d73c2aeccf796c683eda37b79db7a22b6c9fb80818fa2a0358f7
"Anthony hated the harrent in him. Is this good, bad, or neither?",1,cdc82decc385f7e309df95e76665c1a374f59a26484512f2db2ccd400075c0e7168901954aff2916ae1ce00679770656b6a59e655a4e26263c3a91889d44fc1a
"Anthony hated the harrent in him. Is this good, bad, or neither?",1,19277661313b5118bd1b2e29039b47276f1f8235917f3217bf95498030989874a1ca10bb943fa21faf787d793095c0d4119e136013ed4a9be167f67c2a6d11d3
"Anthony hated the harrent in him. Is this good, bad, or neither?",2,dc1573fdf940f9fb09d57b0011d03c1c44d31b200b999056f3ba7a66f968fff14e39bb77a6b95cde426287b90f173b03c2bb7c514497e44276b0f589563d5728
"Anthony hated the harrent in him. Is this good, bad, or neither?",1,a8c587b500db841a040c834ea7e138d680f58a94067a016d1e34bb029e7a5755a7b629b83510771826624e6ba17f86d951b5c9399cff1af255e887a48cc06c67
"Anthony hated the harrent in him. Is this good, bad, or neither?",1,654abee2a34ea238dd9860279c2e4f4ca17d0745f80e3a567f1be1f8bc80565588c6bc0d387e4705bac6ad4b8113565bc4647802a60f9ec02d1e658cb7bd2331
"Anthony hated the harrent in him. Is this good, bad, or neither?",1,bdcab5cd1212582dca8e50813eb9d163931efe5267ebfa63e032c1b5b75d61e915f696c1245ea08eb59d0685c2c37571e2b97ec2b046d4d43886cecc5779d0eb
"Anthony hated the harrent in him. Is this good, bad, or neither?",4,5f12e05c2e694ca4d0d50f5c90ffefa31fc5c326c5f6352ab6f2d69efda09898d7fa2e899476fb98164baf5559806eee7fc6f92a8cd7641d9b208f848e51b143
"Anthony hated the harrent in him. Is this good, bad, or neither?",1,65742ec00905d9ad667185f5a7511d343df8df345ed0fef3db00fd29f3e4040f867eeef26a01c000f7ceca04ea07537add62b3f1ff8422adb173a9bd22ecf46d
"Anthony hated the harrent in him. Is this good, bad, or neither?",1,e7071d603d000b9ae40280673e176247b9dfa7157b46021d3ae8666cec356b285366025414f5dae4b0134b61bb246b75d5bf85b6582298ebb0aef2ead4d9a641
"Anthony hated the harrent in him. Is this good, bad, or neither?",1,04e4a70db48d0ad6825469974dbd2d49b05cfecc626140edb6ccfee2622fee550d59743f0cee3fcd73faa74650344e992844d89c148d74b9224eaf39cd4b06b2
"Anthony hated the harrent in him. Is this good, bad, or neither?",0,3ce1c91573b49e76ae6d43c669a24733296314c25baffa84d6693179025159771a3c7b297e83491615fff176965dd211be78675095cfe008040fcf254df14810
"Anthony hated the harrent in him. Is this good, bad, or neither?",2,f3285e952e201a33639358abf4b7414c261329a8aa8fd45df169b9e5d6998f8970331580e6d22fa82a21183312f6e0a66855c2abab9526f6c7e0eca79cc45a35
"Anthony hated the harrent in him. Is this good, bad, or neither?",1,819161aa2e764fd74ba60f02978d28b130e488d1f6ed613c48db286b68fe06ef24eeeb946d2af813bac598640b43342cd2b7a142eb31a6fff239faaae995f9f7
"Anthony hated the harrent in him. Is this good, bad, or neither?",2,3cef95e32667ae918cab2aa2b28a4532ccb88fc050913b1cf708dccce8f714a548d113968c30ddf044b9c5fafd3ff032af11f5dfa8629e9f8f8bd81dc72ea187
"Anthony hated the harrent in him. Is this good, bad, or neither?",4,f7d9ce2e89c1cc500ec58e8a4c1a0b6810ba4a55bdca93cc84cd6a331ae7cd856bc420bc2b71f1e5cfa354d3a3bff6777db90f88f56751c676a6aade3f73b564
"Anthony hated the harrent in him. Is this good, bad, or neither?",6,f7d9ce2e89c1cc500ec58e8a4c1a0b6810ba4a55bdca93cc84cd6a331ae7cd856bc420bc2b71f1e5cfa354d3a3bff6777db90f88f56751c676a6aade3f73b564
"Anthony hated the harrent in him. Is this good, bad, or neither?",4,bc519b108cb3b181697a45b38b621f4d3a1bdeb58c9b600882dbc3e707bf06daa50f8ed87c6b2086c519d7f6a5ffe9d84b09275db3130a602c38b70e6c4bfe64
"Anthony hated the harrent in him. Is this good, bad, or neither?",1,a04441347c7a31798c34e1a297af024142381cfd06d1679184d6b0cf7ea8eda83518c819aaa67808a7238790be4a54c02324be8e270298ac207e0fa103ba2135
"Anthony hated the harrent in him. Is this good, bad, or neither?",1,5f1ce99b34eb6f3f3e35f6bcd9b2becffcb2a8c52c7c7a2e89a4947d054a20623b525542a0aa9aaa845b1f376bb732a143ad2851a9fdeb379e71ae257a5e81d9
"Anthony hated the harrent in him. Is this good, bad, or neither?",1,aad7840fcb5dff54e3eae36cda774cd4ad1caa08acc4c6e55b69d4de5cb05abf67d4dd55cb8d7c319fbf56033a93753e4406cc086ac2b1625057d19815817666
"Anthony hated the harrent in him. Is this good, bad, or neither?",1,b4a89e063c479339463fe8a3755a45afdb72640d55ae6f8499866bdce35aea79532c96c386d3e305abf960bd172306159148a5dedc70fc0c191353ec94176ac4
"Anthony hated the harrent in him. Is this good, bad, or neither?",4,fe335eb035885bcc91b62d044886d275a73e393f97a1240551ea73da7a3895d96220d44e70577de3f7c55b866ad00306ae3af88d3b8db226c811cd5c0d50dd64
"Anthony hated the harrent in him. Is this good, bad, or neither?",6,0ca87715be5df199ebada6867f7e0e75295c7ededa0fbd84664b9240578d42457d55abd66e8d40f24cae8c5c5c0a506eae9b839711a908d418039a14a0ca3135
"Anthony hated the harrent in him. Is this good, bad, or neither?",1,5d818587500e31ddd24f674f0d96e8036b1fbbdeff8f12716de7cf436031070adc160ac58c2058f70b7756b9758d4cc6c60cd86cb5fbac5b08e94434f347d5fc
"Anthony hated the harrent in him. Is this good, bad, or neither?",1,3aaa8438b73c4295f82cecfefcca0d30fdef245bc5e260023b49b993b0620cf50b726e95c7b96410f4842a7c7ff3fd8ee1494f92c0e8c415307556a968b2a992
"Anthony hated the harrent in him. Is this good, bad, or neither?",1,1087a43a37ae1cb35eccb8816ba7fc286c146a503720821260b4583da9758bf337636549d782ce5628cefa3a4e159821de84af1d07c4ba8f2aa730bcec6d8090
"Anthony hated the harrent in him. Is this good, bad, or neither?",1,ddaaf85b6ad92e5bd899125be0ee1d1e475cef85f10f7c86eb80b3e666aa2d27b9930efbf239779906809e3b49e9c42c65a28830cce2f7034e42c039095ac370
"Anthony hated the harrent in him. Is this good, bad, or neither?",0,6f5d3137f68645162d6754029499a9ec7ae5684f56847c76e1aed3915b42b3ec8caf636fecf4f90a32b0151ee5f9c6a1d6452b80a69f77275d541c9cea4cbff1
"Anthony hated the harrent in him. Is this good, bad, or neither?",4,247d016ad1965e185b284a032af50657ede03f4f6dfc65f402943ca2d27268dbc47a7ee39ad2eed9b24b64110dc50e8dd10ca6597e88d493637c358a9ba6470b
"Anthony hated the harrent in him. Is this good, bad, or neither?",1,3bf076b2b46510be3496a6f1f783cada202ec911154fe8e0a2bd32bbdd0c18c5782eb82ec01bd6d770fd2ce68562db5c73ef087af8900390f07d2df789ff7f6b
"Anthony hated the harrent in him. Is this good, bad, or neither?",2,9fc9d3de7ddb83580fc430d2d5c6ee47e775cabd5a982d7012deb44dbf1042f8b3db8ea6b2c4ee7b39f82b84b6b071d6968393ccc6520a6870f0883ccc441cf9
"Anthony hated the harrent in him. Is this good, bad, or neither?",1,2bddce971fb9dfadb0e50fcd15f5da42f2ef8c476a4212bde20a28dfb3b51b03b619ae1daafc7905fad410c42d69ea64cce4d2e705a9f283a1f36221d9537557
"Anthony hated the harrent in him. Is this good, bad, or neither?",1,609868e2cf6de58a506a6731afe55c53d93510e3a34e58705479846aa7ccef2469a0081dc7ad92826b214afccaa96b3202ca07a32e7d6afd795c5776ef5511be
"Anthony hated the harrent in him. Is this good, bad, or neither?",1,08ea6ea397537c84ac209f08bf3bec2c0ff500e94266cd17fa45d303b288126de192d25b7f3331a02fdcad8a68ce682fafad99f95ec45259d05ed65d6cd3505e
"Anthony hated the harrent in him. Is this good, bad, or neither?",2,aeaead0bad2cd8cd8e00067df1d0ddd61b9ba6afec23c08f5c84f413ad2e263545b447c45633570fb4f2c9b3d3be895bc1e474eb157f9f9b4ac62955a36370ef
"Anthony hated the harrent in him. Is this good, bad, or neither?",1,305f2f29687fda8e291e598686a4a089cc57c27d26fc2dea3e28544183df6fdd4ce792399dcac730c7aa7109f82a09aace9c895bf9596d257e113393be774056
"Anthony hated the harrent in him. Is this good, bad, or neither?",1,b57e6944a7f1cc6dfbfb5f19290d78629407851ccc0ed62e99ad91b56b9a0289ce66292c99e08f9f97f73e5607d085b86ae6f072fce59ab0809e150affa9cfab
"Anthony hated the harrent in him. Is this good, bad, or neither?",1,65ae2297454acec05c7ad3ec4d8d2e4386cbf4c1d2f25dac7e27648a31d58e0c16bd036fa4be3367b3235180fa8fc266498b3489fb83269569ce6f6dc073e189
"Anthony hated the harrent in him. Is this good, bad, or neither?",1,12653d61c4b8d51a85d7212448c40362eccbd5cbfa7c1a1a86765ce8d0ab64fc74e62aea6d37a72c72144106409ebe705a24a6ddbdb592cbe4a8c8c39eb0a6c2
"Anthony hated the harrent in him. Is this good, bad, or neither?",7,04665b205f6f8c8fcb7d43b2b2e659ccda3cbcd492d8e6aad14e94a0f2969ca313a7ab9145d9bdc85c84b2b73678a750809b4830752214c5d4bd22e04691fdec
"Anthony hated the harrent in him. Is this good, bad, or neither?",7,877578fb8afa2c3d1f85e89e48c572020b3dff271c96edb944fca01f5733c2b4687263dd05425a5a147c61f4b67999050a674de75f13940885d8ead140bf6e0b
"Anthony hated the harrent in him. Is this good, bad, or neither?",6,55474608775b7d1e611b093b9e8a649e317fba4ecef5e205fa0a640c9efcba2a4998bddb88f2bf60e17514db37b08066312cd99d7fb6ad3fec03f835ac61acf5
"Anthony hated the harrent in him. Is this good, bad, or neither?",6,5e77ac9616ce579d6d3ef8ba6868ddd086ba0bb98638ffc358f9f697f24857cc997b25530cc944dbc5a08cca13c1cb949f744bfbb59d9286d5dfac582d4767c5
