"The gink bounced to a frimpy position. Is this good, bad, or neither?",2,5d818587500e31ddd24f674f0d96e8036b1fbbdeff8f12716de7cf436031070adc160ac58c2058f70b7756b9758d4cc6c60cd86cb5fbac5b08e94434f347d5fc
"The gink bounced to a frimpy position. Is this good, bad, or neither?",2,720bea532db6ed90a7bd855c056e2ccc32b0f2fe90eb490aa4d644afcc89620fb5f7c3bf4971d931a8aef22130fb8976bd9e83f534038e3c4e8421311520cb5d
"The gink bounced to a frimpy position. Is this good, bad, or neither?",2,ddaaf85b6ad92e5bd899125be0ee1d1e475cef85f10f7c86eb80b3e666aa2d27b9930efbf239779906809e3b49e9c42c65a28830cce2f7034e42c039095ac370
"The gink bounced to a frimpy position. Is this good, bad, or neither?",2,875020ab790a2a14de66f1031c9dbe948349d58ca878a7ebdf2af07b04dd9e5ab4a699ced7cd5f0dd4086c9d36d349e952b257a9921f440dc5f764a7d05e7b7f
"The gink bounced to a frimpy position. Is this good, bad, or neither?",0,949e348794c3e18581f7b55ecef851e605235f7c9cafa5c3b4d3e91106a8ea5851849ec1edc9cd0b8dbea5b628ab5f49181d508855ed809569304963bc219caa
"The gink bounced to a frimpy position. Is this good, bad, or neither?",2,a2d9d2b53a64cc210c5d5ae513697dde98962d35ab23b7f1d01f7dbee0ab2bd758c58bb31ad6a0ab40ecb1fa916498f9711de450706865a35f42029ae3c0a523
"The gink bounced to a frimpy position. Is this good, bad, or neither?",3,a3e39d02ddf912469943ec929e775773a24e374daac162862640a1b0fe008d13fc5f1ab5065286643ae8d1402c26505fd29101251873259e188854035a000312
"The gink bounced to a frimpy position. Is this good, bad, or neither?",2,6442579b5017c978ac48004d53b31163b3763f309e6f3e0581e04c2aea211970cc33a63b0462acee00808e5c684e9c9445efbc52c93000c0cc6f7f2e7cc3b7f1
"The gink bounced to a frimpy position. Is this good, bad, or neither?",1,59f9fb2d80a907d4d42fd24e80968f0546968c720ca6ff1d319927820c64f1b93bce30413125798a8f42aadcc8463378749ebe476c327aada10e699d2772fbfe
"The gink bounced to a frimpy position. Is this good, bad, or neither?",4,08ea6ea397537c84ac209f08bf3bec2c0ff500e94266cd17fa45d303b288126de192d25b7f3331a02fdcad8a68ce682fafad99f95ec45259d05ed65d6cd3505e
"The gink bounced to a frimpy position. Is this good, bad, or neither?",2,aeaead0bad2cd8cd8e00067df1d0ddd61b9ba6afec23c08f5c84f413ad2e263545b447c45633570fb4f2c9b3d3be895bc1e474eb157f9f9b4ac62955a36370ef
"The gink bounced to a frimpy position. Is this good, bad, or neither?",2,97d5e2bcd2d3eb87a65c6730ec7df167145f2177c85116c6f53b71d5e991000e8908e4e837ae70a165200438865a4a7935d618d6a044af8be68d419edd32db14
"The gink bounced to a frimpy position. Is this good, bad, or neither?",2,305f2f29687fda8e291e598686a4a089cc57c27d26fc2dea3e28544183df6fdd4ce792399dcac730c7aa7109f82a09aace9c895bf9596d257e113393be774056
"The gink bounced to a frimpy position. Is this good, bad, or neither?",4,5b56973b88ed7b736ff3966dd5900790af0d217684769981e05a869fd0482e4eb627fbc83ef164acdcc19dfee68958f3688d63269cfdc0cd3c3ec35969e3c934
"The gink bounced to a frimpy position. Is this good, bad, or neither?",2,7f45982c84b0e62975c836530ebc5c20ed43e2aaac4d7f1c99d59dac30103bb0a2c7f0c3eb3c011244e3b29b96036757199959b8d8fbcc5cf995fee8253a05f5
"The gink bounced to a frimpy position. Is this good, bad, or neither?",2,fb3ee4e72eb582b2b2920acd3ac5a4ed00149c2560bf0255b9bc8237d80cbadd7b353ced6ab5662f69dfe00d362575b7da94144cd2374866a682e39b17cc3c0d
"The gink bounced to a frimpy position. Is this good, bad, or neither?",2,59b08a645fc422cb906b374cc090da670df1abebf75166991a77077ed223dd4c51870e8cde0bf0e157eb15f92e1904e7be1238a91c5a1d6cc4e58493f33ab7fe
"The gink bounced to a frimpy position. Is this good, bad, or neither?",2,2cb44008208d14c82cf8868fc09b67e721d51c1b25835a53ce5c75d4338141e971e3aad3228e19b641ecd4278d4576dc2f1af7702b6c5731e30d7d54f5a829a5
"The gink bounced to a frimpy position. Is this good, bad, or neither?",2,caff777a2303da77340521ef83945a07684b2612ccb93a9fe1e9e6b34d4e52177c4499982e59c5f493664f3123c4c9738867850e7445f494ca6c22600eb6e56a
"The gink bounced to a frimpy position. Is this good, bad, or neither?",2,28195e505193242d636c8cf88927e3353b64c1e9365b6d4fe6834ae467adb58cc661083c465cf575a9d4e6e6ea9daf2f4e5b8eaf892be186be05aa6b9c0519ec
"The gink bounced to a frimpy position. Is this good, bad, or neither?",2,ecd12f5c7840150b6bf31f41cfe805fbb7f1e24d87bc7f9a7e4a26034d172ee611537c7e49e1951d513a1b63598bec45f4cf8d3fd4936ebe2747d7e8018937e5
"The gink bounced to a frimpy position. Is this good, bad, or neither?",2,41628a0f8849c48d09c00e99c4a99cae8b10c5d31c76fc5043a816bea93afdb63771aa227c3fc1235d69b6c482ed4c1972716b6868be483c3ecaba9ca7efddc1
"The gink bounced to a frimpy position. Is this good, bad, or neither?",2,50382e84cff15ff279d039319537be609c34e7eab94add3958257e22f73035e78293431d69b5d6328a9568c7554ac16f8ab7fa01e06221ed1536637cd148de0b
"The gink bounced to a frimpy position. Is this good, bad, or neither?",2,fce00a4ae7d3a432de329b9a6565c363a592130bba149228a5d18d7e141f01725003046cc2f477fe8494d10692aa0f1e793f7e61f54fe897de3f1ac1d78d0a20
"The gink bounced to a frimpy position. Is this good, bad, or neither?",4,2e08ea7a396b5dc2fc6ff518b56da9298cfd603a2f489e5145c092eb9870a320d2bfa8fd161fe5975a370e19055991d826fd24dea216f722fe25dbbf75088cd3
"The gink bounced to a frimpy position. Is this good, bad, or neither?",2,7c64f7686991b716f2c8a1f23985ab2fd23437673d2545fd04bad67b01dac983ceadc4e43a724592e2fc51a24adddcd836dc0f67b56a423fdbd02901d0382fff
"The gink bounced to a frimpy position. Is this good, bad, or neither?",2,57bea9325630634f64ca23960a806b5b77d105fb3dd5bd966d3b4726e90e989e426b4d22fc29f615a806fc3b1095d183c1346659c163e0bb1a14a3f4fc75c529
"The gink bounced to a frimpy position. Is this good, bad, or neither?",3,e7cca07f5099c1ae6cff00bbefa508fd67cbfbb1c391947dce6431d2441c8eedcf41252ae96a8d66687a5002af95a1a0cfe125de05ca85fd628e7adf8a240e85
"The gink bounced to a frimpy position. Is this good, bad, or neither?",4,ac3b1b10808f1753ec2a45dbfd111934fc15f5c99e8d54caa1b9fa0399c450a1b4489cb0037029cbf93008625f0c076357a1b8e164d2f400a000fbd6062f7bad
"The gink bounced to a frimpy position. Is this good, bad, or neither?",1,5d776ea6f5b634281723b9b880f215c0af75310bb9434f05289b31410a88219da4854bdf1706ef734c866d755f8830ca7d8323da3b08cad72dc3ae2114a9a258
"The gink bounced to a frimpy position. Is this good, bad, or neither?",2,10b8dd0a33c9f9a0916324eafdcca631e13b6ff8f7f5f56c7e4dfe89868cc357f1a929eafe4002a5070d99628417526ad4495e6b9b0bbf3a900600936d60229f
"The gink bounced to a frimpy position. Is this good, bad, or neither?",4,ec2ad47841a52336867abb7c569dd78e940dfc3520ddc7b0fac19e6fa3f50086f8c01696911d38c87825dd066145108dad38fcdbc4e8b8844a622d804bcc6930
"The gink bounced to a frimpy position. Is this good, bad, or neither?",2,4d597427355b386d236216b658b41a25aac3860f7378550307537b4946db382603a46f6844f584339f9befe3a84156eaef8351fc4d1fe1c0c652a66d08dbd42e
"The gink bounced to a frimpy position. Is this good, bad, or neither?",4,a3fe48d172465fbb24a650eeb520bd4c4631496b6d9d7a38bf192e1566aa97e662f2b2e76290bf0e0a6c2a90ffb291b31ff1e75bb29714c834646a850ace5bf6
"The gink bounced to a frimpy position. Is this good, bad, or neither?",2,c06061e9252b0616c0202fd36ce38a30c50bb1fc17651f6dcda01d750dd8dc0c2c312475a7e48a6d0217b81b0f2ebfca3453d005c32412ec337e86854ca4f6ef
"The gink bounced to a frimpy position. Is this good, bad, or neither?",4,d132ac951e6a9ee5aec8426f6f4c6159adabebeb33426fd8ed1864eb38c6196f3afee305ac784c458ed9d74777ef7698622c355e89235891e218ce6c8fdd0993
"The gink bounced to a frimpy position. Is this good, bad, or neither?",2,1831481d8d3eec3a2fb2eab505a1b3de37697dbd0fcd9eac9ec06146ca2f124f7ecd5dcaee89b5a0287ae89cdd959821afdbe8bf3dd36d8674059f59fc7f1061
"The gink bounced to a frimpy position. Is this good, bad, or neither?",2,891dd03066bd0aff97d59506dd4ad95d855b864c7d3c139e37b53a37c4730a2f2abc5aed9f012e35ce7e9fa0f838788f2293f9c9cae0731a6bec2c96485e8cc6
"The gink bounced to a frimpy position. Is this good, bad, or neither?",2,864fd6d6c6f3b061f8849268ccbe26a8df17226567b244b0760c60bacd2b79ced559640987941fff3ebd0eb3949cea7885c56e467856a8919d1736aa402c8087
"The gink bounced to a frimpy position. Is this good, bad, or neither?",4,0a10cfbe96898e179a6989823d1b388e63fd11f48fd9bb0f118bf62cd7dfea5dd88a7b1d57cbd9606e10dc7e76ef4a52208822cd8d1992d9cbf67431ac76dda0
"The gink bounced to a frimpy position. Is this good, bad, or neither?",2,0b758c080becd2e51fb547953fb231adf7c6d1daaf4927c18f89a1b7e048d64c06db646ae0dc8d3626ea83e69d29dfcf12f4ba613469fba4ce33c5955b0f75fb
"The gink bounced to a frimpy position. Is this good, bad, or neither?",3,61e4401019bd844c015c0b9bf10e64f574385838bed97b5cbf8a5ea4235d2f15091781c260ecfce0b198014ce60e8a271d18dd1614ebc2401361e299d21f5ace
"The gink bounced to a frimpy position. Is this good, bad, or neither?",3,61e4401019bd844c015c0b9bf10e64f574385838bed97b5cbf8a5ea4235d2f15091781c260ecfce0b198014ce60e8a271d18dd1614ebc2401361e299d21f5ace
"The gink bounced to a frimpy position. Is this good, bad, or neither?",4,a8c587b500db841a040c834ea7e138d680f58a94067a016d1e34bb029e7a5755a7b629b83510771826624e6ba17f86d951b5c9399cff1af255e887a48cc06c67
"The gink bounced to a frimpy position. Is this good, bad, or neither?",4,654abee2a34ea238dd9860279c2e4f4ca17d0745f80e3a567f1be1f8bc80565588c6bc0d387e4705bac6ad4b8113565bc4647802a60f9ec02d1e658cb7bd2331
"The gink bounced to a frimpy position. Is this good, bad, or neither?",3,56a2b34e49f9557631468359926842316cea745b33afb873d8ef38db1111579cc6bfe7f87f618a058f9448b79d6bfdad05746157efe70fef3ceb876d3e53a4f5
"The gink bounced to a frimpy position. Is this good, bad, or neither?",3,56a2b34e49f9557631468359926842316cea745b33afb873d8ef38db1111579cc6bfe7f87f618a058f9448b79d6bfdad05746157efe70fef3ceb876d3e53a4f5
"The gink bounced to a frimpy position. Is this good, bad, or neither?",3,56a2b34e49f9557631468359926842316cea745b33afb873d8ef38db1111579cc6bfe7f87f618a058f9448b79d6bfdad05746157efe70fef3ceb876d3e53a4f5
"The gink bounced to a frimpy position. Is this good, bad, or neither?",2,cf3acd50e78817e886b7c9033a67b96058d6010e56219bec7c8a89a181b4780a4af248cec6fb536ffa254d902e101056ae1801999191a13961a5516fc9cd9a34
"The gink bounced to a frimpy position. Is this good, bad, or neither?",3,5f12e05c2e694ca4d0d50f5c90ffefa31fc5c326c5f6352ab6f2d69efda09898d7fa2e899476fb98164baf5559806eee7fc6f92a8cd7641d9b208f848e51b143
"The gink bounced to a frimpy position. Is this good, bad, or neither?",3,5f12e05c2e694ca4d0d50f5c90ffefa31fc5c326c5f6352ab6f2d69efda09898d7fa2e899476fb98164baf5559806eee7fc6f92a8cd7641d9b208f848e51b143
"The gink bounced to a frimpy position. Is this good, bad, or neither?",3,5f12e05c2e694ca4d0d50f5c90ffefa31fc5c326c5f6352ab6f2d69efda09898d7fa2e899476fb98164baf5559806eee7fc6f92a8cd7641d9b208f848e51b143
"The gink bounced to a frimpy position. Is this good, bad, or neither?",3,5f12e05c2e694ca4d0d50f5c90ffefa31fc5c326c5f6352ab6f2d69efda09898d7fa2e899476fb98164baf5559806eee7fc6f92a8cd7641d9b208f848e51b143
"The gink bounced to a frimpy position. Is this good, bad, or neither?",3,5f12e05c2e694ca4d0d50f5c90ffefa31fc5c326c5f6352ab6f2d69efda09898d7fa2e899476fb98164baf5559806eee7fc6f92a8cd7641d9b208f848e51b143
"The gink bounced to a frimpy position. Is this good, bad, or neither?",3,5f12e05c2e694ca4d0d50f5c90ffefa31fc5c326c5f6352ab6f2d69efda09898d7fa2e899476fb98164baf5559806eee7fc6f92a8cd7641d9b208f848e51b143
"The gink bounced to a frimpy position. Is this good, bad, or neither?",3,5f12e05c2e694ca4d0d50f5c90ffefa31fc5c326c5f6352ab6f2d69efda09898d7fa2e899476fb98164baf5559806eee7fc6f92a8cd7641d9b208f848e51b143
"The gink bounced to a frimpy position. Is this good, bad, or neither?",3,5f12e05c2e694ca4d0d50f5c90ffefa31fc5c326c5f6352ab6f2d69efda09898d7fa2e899476fb98164baf5559806eee7fc6f92a8cd7641d9b208f848e51b143
"The gink bounced to a frimpy position. Is this good, bad, or neither?",0,6e11c6189e61f5530a28ce74f5a88aa315adaaf4398e10fdd2a4c0be031fdd73d6ab9f2c0bf20c7aa150e03eda1a55891b02391f2c03d21cdc8ccd401fd78cb8
"The gink bounced to a frimpy position. Is this good, bad, or neither?",0,c89754b99807251a49c11ddf6f29de872a05baa5126d5737c11d38dc32ca7269a8320288bec3b97723633698f26ac2f193aae82688ca53ef17a221e4339a459f
"The gink bounced to a frimpy position. Is this good, bad, or neither?",1,3ce1c91573b49e76ae6d43c669a24733296314c25baffa84d6693179025159771a3c7b297e83491615fff176965dd211be78675095cfe008040fcf254df14810
"The gink bounced to a frimpy position. Is this good, bad, or neither?",2,0c1e43ef5b2f9488f1f2f5d3bb698140bc0a814ccd0552a4d3b9bc7f4899fbd7f112dda7c2abe51111db2cd9354f7ed05e8023ddc9513e6797cd881f2b3a9c2c
"The gink bounced to a frimpy position. Is this good, bad, or neither?",1,83e68bdb3c8d06734b9c63de2e996ad5203cfadd686bffeb5371242a53bd2562e4ee27b56455e36057ad2b7ff679b1bc0942e1b5e336f4762c4ed9cc49cb339a
"The gink bounced to a frimpy position. Is this good, bad, or neither?",2,b4a89e063c479339463fe8a3755a45afdb72640d55ae6f8499866bdce35aea79532c96c386d3e305abf960bd172306159148a5dedc70fc0c191353ec94176ac4
"The gink bounced to a frimpy position. Is this good, bad, or neither?",1,819161aa2e764fd74ba60f02978d28b130e488d1f6ed613c48db286b68fe06ef24eeeb946d2af813bac598640b43342cd2b7a142eb31a6fff239faaae995f9f7
"The gink bounced to a frimpy position. Is this good, bad, or neither?",2,6f16233ce91dd3e70004541a71a1aba0a5b74fecbe7fff7debed231210556cc15f33e0ad09ee39575226d8e7f5ba397aae9fe9240be5507f04db735ef4ee3b92
"The gink bounced to a frimpy position. Is this good, bad, or neither?",2,f74a189a696ebb5d3833d4b89b0f94733b24c099235b93e38989b213817f3f6c519b8f67d99e68d2aae2d8cec42afe0dc9936b8765108818964591269daa19f6
"The gink bounced to a frimpy position. Is this good, bad, or neither?",2,93c7036b79a7067a106c2cd4223276dd446c2c72895d509f80be5d6eee41883385bb69360c7da00f9264787a1a356ab846a84ec970d0be5d899ed01e316f758f
"The gink bounced to a frimpy position. Is this good, bad, or neither?",4,b4a89e063c479339463fe8a3755a45afdb72640d55ae6f8499866bdce35aea79532c96c386d3e305abf960bd172306159148a5dedc70fc0c191353ec94176ac4
"The gink bounced to a frimpy position. Is this good, bad, or neither?",1,99cce8dee7a406636d6fe7e300e2704a13fa5ce1c3b18dd5f134736c075a0b54eb0db79c82c1e55388375429ed6e9dd6b95cbdc19ede24fa6a96e83de3f5220a
"The gink bounced to a frimpy position. Is this good, bad, or neither?",2,1be222c39120244cfe6a47d90c27706b2e543b95521a627341fee86271e94d0469c20d55487f5f96287823c9ea56224f299c7f034feab447356e17f10d0617aa
"The gink bounced to a frimpy position. Is this good, bad, or neither?",5,1be222c39120244cfe6a47d90c27706b2e543b95521a627341fee86271e94d0469c20d55487f5f96287823c9ea56224f299c7f034feab447356e17f10d0617aa
"The gink bounced to a frimpy position. Is this good, bad, or neither?",1,72d1c9853df3d3644610f651fe7698341b570aaefc46052d0ded8bbbdc6d391fd63756a98ecba6103b15777dc7237c385637dd01aa20a1dae807fa976cc0b5fd
"The gink bounced to a frimpy position. Is this good, bad, or neither?",4,7a240d666f5915bc0b4352ee25c0bec23e764181f1916a83812b64551c86b7461b4244f488dcbbc692e85f67f3fe8c4e3e54738fdd4a925a9d38ade9e9ea32b5
"The gink bounced to a frimpy position. Is this good, bad, or neither?",6,7a240d666f5915bc0b4352ee25c0bec23e764181f1916a83812b64551c86b7461b4244f488dcbbc692e85f67f3fe8c4e3e54738fdd4a925a9d38ade9e9ea32b5
"The gink bounced to a frimpy position. Is this good, bad, or neither?",2,5d818587500e31ddd24f674f0d96e8036b1fbbdeff8f12716de7cf436031070adc160ac58c2058f70b7756b9758d4cc6c60cd86cb5fbac5b08e94434f347d5fc
"The gink bounced to a frimpy position. Is this good, bad, or neither?",2,720bea532db6ed90a7bd855c056e2ccc32b0f2fe90eb490aa4d644afcc89620fb5f7c3bf4971d931a8aef22130fb8976bd9e83f534038e3c4e8421311520cb5d
"The gink bounced to a frimpy position. Is this good, bad, or neither?",2,ddaaf85b6ad92e5bd899125be0ee1d1e475cef85f10f7c86eb80b3e666aa2d27b9930efbf239779906809e3b49e9c42c65a28830cce2f7034e42c039095ac370
"The gink bounced to a frimpy position. Is this good, bad, or neither?",2,875020ab790a2a14de66f1031c9dbe948349d58ca878a7ebdf2af07b04dd9e5ab4a699ced7cd5f0dd4086c9d36d349e952b257a9921f440dc5f764a7d05e7b7f
"The gink bounced to a frimpy position. Is this good, bad, or neither?",0,949e348794c3e18581f7b55ecef851e605235f7c9cafa5c3b4d3e91106a8ea5851849ec1edc9cd0b8dbea5b628ab5f49181d508855ed809569304963bc219caa
"The gink bounced to a frimpy position. Is this good, bad, or neither?",2,a2d9d2b53a64cc210c5d5ae513697dde98962d35ab23b7f1d01f7dbee0ab2bd758c58bb31ad6a0ab40ecb1fa916498f9711de450706865a35f42029ae3c0a523
"The gink bounced to a frimpy position. Is this good, bad, or neither?",3,a3e39d02ddf912469943ec929e775773a24e374daac162862640a1b0fe008d13fc5f1ab5065286643ae8d1402c26505fd29101251873259e188854035a000312
"The gink bounced to a frimpy position. Is this good, bad, or neither?",2,6442579b5017c978ac48004d53b31163b3763f309e6f3e0581e04c2aea211970cc33a63b0462acee00808e5c684e9c9445efbc52c93000c0cc6f7f2e7cc3b7f1
"The gink bounced to a frimpy position. Is this good, bad, or neither?",1,59f9fb2d80a907d4d42fd24e80968f0546968c720ca6ff1d319927820c64f1b93bce30413125798a8f42aadcc8463378749ebe476c327aada10e699d2772fbfe
"The gink bounced to a frimpy position. Is this good, bad, or neither?",4,08ea6ea397537c84ac209f08bf3bec2c0ff500e94266cd17fa45d303b288126de192d25b7f3331a02fdcad8a68ce682fafad99f95ec45259d05ed65d6cd3505e
"The gink bounced to a frimpy position. Is this good, bad, or neither?",2,aeaead0bad2cd8cd8e00067df1d0ddd61b9ba6afec23c08f5c84f413ad2e263545b447c45633570fb4f2c9b3d3be895bc1e474eb157f9f9b4ac62955a36370ef
"The gink bounced to a frimpy position. Is this good, bad, or neither?",2,97d5e2bcd2d3eb87a65c6730ec7df167145f2177c85116c6f53b71d5e991000e8908e4e837ae70a165200438865a4a7935d618d6a044af8be68d419edd32db14
"The gink bounced to a frimpy position. Is this good, bad, or neither?",2,305f2f29687fda8e291e598686a4a089cc57c27d26fc2dea3e28544183df6fdd4ce792399dcac730c7aa7109f82a09aace9c895bf9596d257e113393be774056
