"Molly expected the vatter. Is this good, bad, or neither?",2,5d818587500e31ddd24f674f0d96e8036b1fbbdeff8f12716de7cf436031070adc160ac58c2058f70b7756b9758d4cc6c60cd86cb5fbac5b08e94434f347d5fc
"Molly expected the vatter. Is this good, bad, or neither?",4,9d8ddb67f662349a7f7a7c5a32fee73c457fd70d135ae4be6f17a68418102d35693b26415c8fd8c7bd26a5b5032587ac08aefd055994f62fcb3e9a44d5cb51b0
"Molly expected the vatter. Is this good, bad, or neither?",2,e32acc3720de73ab257e923557ba791b4db98db203286f956cc7d117906e5547f3f7e338aaa78b9152b0dfd10ce0ae962b8dfa72e117028b43b70fce1d3ee9ca
"Molly expected the vatter. Is this good, bad, or neither?",2,ddaaf85b6ad92e5bd899125be0ee1d1e475cef85f10f7c86eb80b3e666aa2d27b9930efbf239779906809e3b49e9c42c65a28830cce2f7034e42c039095ac370
"Molly expected the vatter. Is this good, bad, or neither?",2,eb4b6b706a0f89e14a2d8d16dfc7aa9c87a7d0595820e60b0d5dec6c005f0197619f954c3c62e433d7c45a2749d03a361351da7118319f5edfc5ea8c0c918e14
"Molly expected the vatter. Is this good, bad, or neither?",2,2e01b78941a717c0ad838299571b3a20181cd7eebb1f8468875e0eda962634c7cfe16535ce09f8845d56bf1e7bc5b06564e54ae2583419ffaddc46502cafdfb7
"Molly expected the vatter. Is this good, bad, or neither?",2,9959399dd0f5ea51253ee55ac296126172618fa2f3c77606cfc54c56f8f3680b5bbb420997b6758e670a84614a5af66fd6aec69c8b558ee3102024d78c651902
"Molly expected the vatter. Is this good, bad, or neither?",2,6f5d3137f68645162d6754029499a9ec7ae5684f56847c76e1aed3915b42b3ec8caf636fecf4f90a32b0151ee5f9c6a1d6452b80a69f77275d541c9cea4cbff1
"Molly expected the vatter. Is this good, bad, or neither?",2,ab817809187642176d23d87932f87fb8cac29305dd69bd9c80c875e1418683baeb300a33a4ea303e96598aee641e58ffef6ed700b09ee5a77559e157e08d3320
"Molly expected the vatter. Is this good, bad, or neither?",2,247d016ad1965e185b284a032af50657ede03f4f6dfc65f402943ca2d27268dbc47a7ee39ad2eed9b24b64110dc50e8dd10ca6597e88d493637c358a9ba6470b
"Molly expected the vatter. Is this good, bad, or neither?",2,dfe836f0d8ab62de55eb3e54ad1c3e0e32ad6f38b80b9adf3ea39aeac10ef8c53157196f05fae80fd753b1c8d5b7e4507094829b4342cf1e466f4188ea877ce8
"Molly expected the vatter. Is this good, bad, or neither?",2,17f6732cbcd360848927fad93c861a02892af401338bc95414692acfacfa7d9ad8dd7dc0691a31a9d719f2dded1671f031232d2413fb564895308f69d045f664
"Molly expected the vatter. Is this good, bad, or neither?",2,9fc9d3de7ddb83580fc430d2d5c6ee47e775cabd5a982d7012deb44dbf1042f8b3db8ea6b2c4ee7b39f82b84b6b071d6968393ccc6520a6870f0883ccc441cf9
"Molly expected the vatter. Is this good, bad, or neither?",2,609868e2cf6de58a506a6731afe55c53d93510e3a34e58705479846aa7ccef2469a0081dc7ad92826b214afccaa96b3202ca07a32e7d6afd795c5776ef5511be
"Molly expected the vatter. Is this good, bad, or neither?",2,3ba7f77ae10c38036b97eb26b741db3f51fb37d04dcd4811c66cee4d7e3bf096ad2dda7eb04c83b35f03ed05392281462198a2d33493d965414714644b302ba5
"Molly expected the vatter. Is this good, bad, or neither?",0,08ea6ea397537c84ac209f08bf3bec2c0ff500e94266cd17fa45d303b288126de192d25b7f3331a02fdcad8a68ce682fafad99f95ec45259d05ed65d6cd3505e
"Molly expected the vatter. Is this good, bad, or neither?",2,aeaead0bad2cd8cd8e00067df1d0ddd61b9ba6afec23c08f5c84f413ad2e263545b447c45633570fb4f2c9b3d3be895bc1e474eb157f9f9b4ac62955a36370ef
"Molly expected the vatter. Is this good, bad, or neither?",2,97d5e2bcd2d3eb87a65c6730ec7df167145f2177c85116c6f53b71d5e991000e8908e4e837ae70a165200438865a4a7935d618d6a044af8be68d419edd32db14
"Molly expected the vatter. Is this good, bad, or neither?",2,548be18a804b583e710199c91257d8f418a9cac4c83824b32bc71702131d3981e08b4de0c2829e16caf1fb82d504d912feb6dab330307d59e5265d88db51f05e
"Molly expected the vatter. Is this good, bad, or neither?",2,5ed859beff22cb7346bbd1bb520b4e40c6fd44610478d66cd057f78c274bfe00e0cfd791b7f2e25ec9b478d601bfa4906bcd9751e895cada9d7ddb10a781a789
"Molly expected the vatter. Is this good, bad, or neither?",2,305f2f29687fda8e291e598686a4a089cc57c27d26fc2dea3e28544183df6fdd4ce792399dcac730c7aa7109f82a09aace9c895bf9596d257e113393be774056
"Molly expected the vatter. Is this good, bad, or neither?",4,5413a412d4833ac9cfad22dce2c78e46f7ad8e3534e1741f4732e318296028ad444f1ba913fed810c1af16b369223c94f1ec5ea721d12e9753ad7d6d7ba1cf04
"Molly expected the vatter. Is this good, bad, or neither?",2,aeaead0bad2cd8cd8e00067df1d0ddd61b9ba6afec23c08f5c84f413ad2e263545b447c45633570fb4f2c9b3d3be895bc1e474eb157f9f9b4ac62955a36370ef
"Molly expected the vatter. Is this good, bad, or neither?",2,b9823f44a96a09bb0a39b059bc590571f243e6b4cae8f72f462a679bd66dd4a5df1300c501ee1ee59d2ef0b3924ec82649208ef3855c81f609b9a3b93dc2e442
"Molly expected the vatter. Is this good, bad, or neither?",2,5de7b886a8e9d03160145a2c857e7a513d279c1afda8a15e2f3b842b220911a0db6d8f73ebf2fa9d9628aa86f669ca60c7bb844f3535032c2078a13a63bb8b6e
"Molly expected the vatter. Is this good, bad, or neither?",2,fb3ee4e72eb582b2b2920acd3ac5a4ed00149c2560bf0255b9bc8237d80cbadd7b353ced6ab5662f69dfe00d362575b7da94144cd2374866a682e39b17cc3c0d
"Molly expected the vatter. Is this good, bad, or neither?",2,28195e505193242d636c8cf88927e3353b64c1e9365b6d4fe6834ae467adb58cc661083c465cf575a9d4e6e6ea9daf2f4e5b8eaf892be186be05aa6b9c0519ec
"Molly expected the vatter. Is this good, bad, or neither?",2,caff777a2303da77340521ef83945a07684b2612ccb93a9fe1e9e6b34d4e52177c4499982e59c5f493664f3123c4c9738867850e7445f494ca6c22600eb6e56a
"Molly expected the vatter. Is this good, bad, or neither?",2,d52d0f79310a4a1585de2ba281cae55d8bf4f66ee89a3b0afe5bec86ac64f3fbcf4ac04acc90a017d6f66a1259e7c33c370048fe26771c06104f79c7f0e7daea
"Molly expected the vatter. Is this good, bad, or neither?",2,832b19ea4eb64ad4f6298c0933ec2f6ba994974bcbbda62a7a0088a00f6cd96bd27aca96187875bf07fe2c868f7cd9e74b39598b91c261fd45079e5150637de4
"Molly expected the vatter. Is this good, bad, or neither?",2,ecd12f5c7840150b6bf31f41cfe805fbb7f1e24d87bc7f9a7e4a26034d172ee611537c7e49e1951d513a1b63598bec45f4cf8d3fd4936ebe2747d7e8018937e5
"Molly expected the vatter. Is this good, bad, or neither?",4,ed956aa7b693923b4bbdca90bb8c9c7505a9b43b440a32d8e1732ec0744525e4b8029f98d2e191a87a21fd37fedcce4d0d0ecd73edb5a6bc98a77369444c8b50
"Molly expected the vatter. Is this good, bad, or neither?",0,34ef1f05271654743005d09f6ddcde9b366a900be98f28a982b8327dde6d04bf19e0fd7522bf5d3227ea5e144e30f99798b079c0b2a8f10fd07deafd8d5bac27
"Molly expected the vatter. Is this good, bad, or neither?",0,41628a0f8849c48d09c00e99c4a99cae8b10c5d31c76fc5043a816bea93afdb63771aa227c3fc1235d69b6c482ed4c1972716b6868be483c3ecaba9ca7efddc1
"Molly expected the vatter. Is this good, bad, or neither?",2,2affe66e78ed0fdb8662d48e9de768393c88ec5e667c71326bc9ac141e2742f64028489e0a9dbbd820ca7d777483a05f81c195e5a46d9c595e8003584f94b06f
"Molly expected the vatter. Is this good, bad, or neither?",2,cc0871e8722d4330e488f627f44045b079dae6fde2bbf3afd7c3be53cc3e1fb99ebbca2ab0030b2da305882a933de524e82e888fc6312ef025a48f5c6f826bfd
"Molly expected the vatter. Is this good, bad, or neither?",2,a613c9cd549108541405b08d4f6cc6c36896fb3b86524ba21afbba223d886e286ff70613f14f3fd0be2db4e5a277df9c5035d31a8d4b9d05015df47e5414f3f5
"Molly expected the vatter. Is this good, bad, or neither?",2,2e08ea7a396b5dc2fc6ff518b56da9298cfd603a2f489e5145c092eb9870a320d2bfa8fd161fe5975a370e19055991d826fd24dea216f722fe25dbbf75088cd3
"Molly expected the vatter. Is this good, bad, or neither?",2,b0d9c2d8691f4316e1b262befbbf21875e54953ac94d958088ee327ec7e4b9a519987db3fe0c492b3c1bee962b256ef852d45c6ea7760841c756f9361c5f1c88
"Molly expected the vatter. Is this good, bad, or neither?",6,87b7db97683ca235baa7cb0f0fc4ebe6efc8a98e0e60e431fa43046bb3096bb3a10d93e751c710b64b6f63b5e27c255a8fe9df2b2ef7ae4586f84673c0b32ec6
"Molly expected the vatter. Is this good, bad, or neither?",2,6671cef884eff89abdee6f20eb91c059292413d1e724929aed387a2a1a01f8f354763046e3fb6da8a2807e9a3963223a88628fdbaf3dcfa9fd8299d542f2fecd
"Molly expected the vatter. Is this good, bad, or neither?",2,8820ca0fee9b0a5c02f49d0f3b7657681fccad3476550b7fe2a1eded58c5a107f5acf35477ad51cd539b1a9dc0d02f752c76a43a20c0f7260c0e4816cdfab361
"Molly expected the vatter. Is this good, bad, or neither?",2,cb1b2e639a0f5ae9de031dfc344bac7048df549f596bef1465c7647ba664fd2ecd867966d320533c800d835d5c141215657f6d18cb76c96e1748702108bb52ac
"Molly expected the vatter. Is this good, bad, or neither?",6,583fad497c319fab2b6e002d7d21b40beabe57b7cdab7d658a9399f426f5a743cf2c573b09920cbb9cee33ee38d6e38f2d6411943afb516d9a68ad2a8e44105f
"Molly expected the vatter. Is this good, bad, or neither?",1,e026cbf1f92ffcd63549ad9958fb5feeaed2d6b545677b809b1cafc3fc96349d27e28ef3da4919854a8b6d9ce320dc40b10f705c361b77a717ca1cc8d70dca1b
"Molly expected the vatter. Is this good, bad, or neither?",4,a3fe48d172465fbb24a650eeb520bd4c4631496b6d9d7a38bf192e1566aa97e662f2b2e76290bf0e0a6c2a90ffb291b31ff1e75bb29714c834646a850ace5bf6
"Molly expected the vatter. Is this good, bad, or neither?",0,6f584a2292fcdead193993356855ecc69394ee6e71878f23e0bf338388d960094cb9b47f31c47901714ad33d0171864b21a7fbf301d62f82acbac4e17c303ef3
"Molly expected the vatter. Is this good, bad, or neither?",4,fd1957fc4ac94c9d517d3a1ebd22f70bd60231bd9afdf765049797f4d73442fadeba7eefb97518ec49c2375e20d096ac8dc87cc4b1f160eee060f18f36a38e7b
"Molly expected the vatter. Is this good, bad, or neither?",6,fd1957fc4ac94c9d517d3a1ebd22f70bd60231bd9afdf765049797f4d73442fadeba7eefb97518ec49c2375e20d096ac8dc87cc4b1f160eee060f18f36a38e7b
"Molly expected the vatter. Is this good, bad, or neither?",4,b5baf4ae9397a1db45e90f91577e6ae1c72f2a382c3f8f3e4598431110f5dbe118d3b13eafe24ec32f7fce05b8dd26969cef40c0c6a2cb18940cdfc76981ff2d
"Molly expected the vatter. Is this good, bad, or neither?",6,19277661313b5118bd1b2e29039b47276f1f8235917f3217bf95498030989874a1ca10bb943fa21faf787d793095c0d4119e136013ed4a9be167f67c2a6d11d3
"Molly expected the vatter. Is this good, bad, or neither?",4,a8c587b500db841a040c834ea7e138d680f58a94067a016d1e34bb029e7a5755a7b629b83510771826624e6ba17f86d951b5c9399cff1af255e887a48cc06c67
"Molly expected the vatter. Is this good, bad, or neither?",2,260f74a6ed1d18cc7fda68d019cb18bdf26e7694ae3f36bea5ffe52f068840c54fdfae459d2005a3ef405c9a325ffe740bc00e1d0f6c540c7be0fe7742f7ce4a
"Molly expected the vatter. Is this good, bad, or neither?",2,bdcab5cd1212582dca8e50813eb9d163931efe5267ebfa63e032c1b5b75d61e915f696c1245ea08eb59d0685c2c37571e2b97ec2b046d4d43886cecc5779d0eb
"Molly expected the vatter. Is this good, bad, or neither?",3,5f12e05c2e694ca4d0d50f5c90ffefa31fc5c326c5f6352ab6f2d69efda09898d7fa2e899476fb98164baf5559806eee7fc6f92a8cd7641d9b208f848e51b143
"Molly expected the vatter. Is this good, bad, or neither?",3,5f12e05c2e694ca4d0d50f5c90ffefa31fc5c326c5f6352ab6f2d69efda09898d7fa2e899476fb98164baf5559806eee7fc6f92a8cd7641d9b208f848e51b143
"Molly expected the vatter. Is this good, bad, or neither?",3,5f12e05c2e694ca4d0d50f5c90ffefa31fc5c326c5f6352ab6f2d69efda09898d7fa2e899476fb98164baf5559806eee7fc6f92a8cd7641d9b208f848e51b143
"Molly expected the vatter. Is this good, bad, or neither?",3,5f12e05c2e694ca4d0d50f5c90ffefa31fc5c326c5f6352ab6f2d69efda09898d7fa2e899476fb98164baf5559806eee7fc6f92a8cd7641d9b208f848e51b143
"Molly expected the vatter. Is this good, bad, or neither?",3,5f12e05c2e694ca4d0d50f5c90ffefa31fc5c326c5f6352ab6f2d69efda09898d7fa2e899476fb98164baf5559806eee7fc6f92a8cd7641d9b208f848e51b143
"Molly expected the vatter. Is this good, bad, or neither?",3,5f12e05c2e694ca4d0d50f5c90ffefa31fc5c326c5f6352ab6f2d69efda09898d7fa2e899476fb98164baf5559806eee7fc6f92a8cd7641d9b208f848e51b143
"Molly expected the vatter. Is this good, bad, or neither?",3,5f12e05c2e694ca4d0d50f5c90ffefa31fc5c326c5f6352ab6f2d69efda09898d7fa2e899476fb98164baf5559806eee7fc6f92a8cd7641d9b208f848e51b143
"Molly expected the vatter. Is this good, bad, or neither?",3,5f12e05c2e694ca4d0d50f5c90ffefa31fc5c326c5f6352ab6f2d69efda09898d7fa2e899476fb98164baf5559806eee7fc6f92a8cd7641d9b208f848e51b143
"Molly expected the vatter. Is this good, bad, or neither?",2,6ccda9e181706cf0885a3913cd5cbb8da57e13baeeb2edc8a8e7e24fa7326d7a145a9a7a658fe8efadf7130503aa66f780e8067f399f34262efd05d0c1d12837
"Molly expected the vatter. Is this good, bad, or neither?",6,0922204cba1987d228b1ed215f44474d41c45f1114c1e2c8f95abd461bf7d51328540886fe24fe816d8402861727f174af38a6fdcffd8fd4bda6d19c270d9ba5
"Molly expected the vatter. Is this good, bad, or neither?",2,e7071d603d000b9ae40280673e176247b9dfa7157b46021d3ae8666cec356b285366025414f5dae4b0134b61bb246b75d5bf85b6582298ebb0aef2ead4d9a641
"Molly expected the vatter. Is this good, bad, or neither?",0,b6f2e1344ebdd16df984a569b364694e74d76b32cc3d59d2dffcc4d11ac6f38e551c9c180de2ef82243330ba19068b623902e0a25624aa0e128b8c46b7d589cb
"Molly expected the vatter. Is this good, bad, or neither?",2,3ce1c91573b49e76ae6d43c669a24733296314c25baffa84d6693179025159771a3c7b297e83491615fff176965dd211be78675095cfe008040fcf254df14810
"Molly expected the vatter. Is this good, bad, or neither?",0,b4a89e063c479339463fe8a3755a45afdb72640d55ae6f8499866bdce35aea79532c96c386d3e305abf960bd172306159148a5dedc70fc0c191353ec94176ac4
"Molly expected the vatter. Is this good, bad, or neither?",0,0c1e43ef5b2f9488f1f2f5d3bb698140bc0a814ccd0552a4d3b9bc7f4899fbd7f112dda7c2abe51111db2cd9354f7ed05e8023ddc9513e6797cd881f2b3a9c2c
"Molly expected the vatter. Is this good, bad, or neither?",4,f3285e952e201a33639358abf4b7414c261329a8aa8fd45df169b9e5d6998f8970331580e6d22fa82a21183312f6e0a66855c2abab9526f6c7e0eca79cc45a35
"Molly expected the vatter. Is this good, bad, or neither?",2,4e3799b1278f00eb1b7eac339fe106a21f8becb0e531e92e21de44164cd29c65d7022d2ec5aa533c5ba5e87ad738b4033a5d63cf55f0b3a9ffa544fcf9e570f9
"Molly expected the vatter. Is this good, bad, or neither?",4,4e3799b1278f00eb1b7eac339fe106a21f8becb0e531e92e21de44164cd29c65d7022d2ec5aa533c5ba5e87ad738b4033a5d63cf55f0b3a9ffa544fcf9e570f9
"Molly expected the vatter. Is this good, bad, or neither?",2,819161aa2e764fd74ba60f02978d28b130e488d1f6ed613c48db286b68fe06ef24eeeb946d2af813bac598640b43342cd2b7a142eb31a6fff239faaae995f9f7
"Molly expected the vatter. Is this good, bad, or neither?",0,f162a9eace4545ab3748bcc1b5e87034f6d0dd27a713d1727b110d181abbcb306512c9c17c589c05c14876a905d370d73270a2603b249a0a1b523a5fc5d176dc
"Molly expected the vatter. Is this good, bad, or neither?",2,c2a35a9e3a4e63030e1b1467ea5c631724ace41aa9aab9a34f7eb3dea239079ba738fd4333a249f113a2423c2b23c3dc9bd99213f8a783d851527ee9cb86f84b
"Molly expected the vatter. Is this good, bad, or neither?",4,b4a89e063c479339463fe8a3755a45afdb72640d55ae6f8499866bdce35aea79532c96c386d3e305abf960bd172306159148a5dedc70fc0c191353ec94176ac4
"Molly expected the vatter. Is this good, bad, or neither?",2,db5894e7704bd3e18456183db64f0bf6282068716ecee460b6eda88c8e306dd754810796ca807ac7eb2eac0c97e611c05ab6908ff5a7e26c64e444edcc05a200
"Molly expected the vatter. Is this good, bad, or neither?",2,a04441347c7a31798c34e1a297af024142381cfd06d1679184d6b0cf7ea8eda83518c819aaa67808a7238790be4a54c02324be8e270298ac207e0fa103ba2135
"Molly expected the vatter. Is this good, bad, or neither?",4,f4d9df3e95561be89fa631a24a2a7cfda71b3dcf1521ff7aeb2bb5f5e10db350a90ee38cd816af772d264171ac3888366069d1043792a6f469887bc351f3c520
"Molly expected the vatter. Is this good, bad, or neither?",6,f4d9df3e95561be89fa631a24a2a7cfda71b3dcf1521ff7aeb2bb5f5e10db350a90ee38cd816af772d264171ac3888366069d1043792a6f469887bc351f3c520
"Molly expected the vatter. Is this good, bad, or neither?",6,0ca87715be5df199ebada6867f7e0e75295c7ededa0fbd84664b9240578d42457d55abd66e8d40f24cae8c5c5c0a506eae9b839711a908d418039a14a0ca3135
"Molly expected the vatter. Is this good, bad, or neither?",4,4d06d199b18510244d1a02467a2d14558362e194ac48b66c86bfc9a6f6f13cc8a1142b4675cf5a952e74a2f5a2ca24aecd6f9e0dc550a578a9536dc6c10e39b0
"Molly expected the vatter. Is this good, bad, or neither?",2,5d818587500e31ddd24f674f0d96e8036b1fbbdeff8f12716de7cf436031070adc160ac58c2058f70b7756b9758d4cc6c60cd86cb5fbac5b08e94434f347d5fc
"Molly expected the vatter. Is this good, bad, or neither?",4,9d8ddb67f662349a7f7a7c5a32fee73c457fd70d135ae4be6f17a68418102d35693b26415c8fd8c7bd26a5b5032587ac08aefd055994f62fcb3e9a44d5cb51b0
"Molly expected the vatter. Is this good, bad, or neither?",2,e32acc3720de73ab257e923557ba791b4db98db203286f956cc7d117906e5547f3f7e338aaa78b9152b0dfd10ce0ae962b8dfa72e117028b43b70fce1d3ee9ca
"Molly expected the vatter. Is this good, bad, or neither?",2,ddaaf85b6ad92e5bd899125be0ee1d1e475cef85f10f7c86eb80b3e666aa2d27b9930efbf239779906809e3b49e9c42c65a28830cce2f7034e42c039095ac370
"Molly expected the vatter. Is this good, bad, or neither?",2,eb4b6b706a0f89e14a2d8d16dfc7aa9c87a7d0595820e60b0d5dec6c005f0197619f954c3c62e433d7c45a2749d03a361351da7118319f5edfc5ea8c0c918e14
"Molly expected the vatter. Is this good, bad, or neither?",2,2e01b78941a717c0ad838299571b3a20181cd7eebb1f8468875e0eda962634c7cfe16535ce09f8845d56bf1e7bc5b06564e54ae2583419ffaddc46502cafdfb7
"Molly expected the vatter. Is this good, bad, or neither?",2,9959399dd0f5ea51253ee55ac296126172618fa2f3c77606cfc54c56f8f3680b5bbb420997b6758e670a84614a5af66fd6aec69c8b558ee3102024d78c651902
"Molly expected the vatter. Is this good, bad, or neither?",2,6f5d3137f68645162d6754029499a9ec7ae5684f56847c76e1aed3915b42b3ec8caf636fecf4f90a32b0151ee5f9c6a1d6452b80a69f77275d541c9cea4cbff1
"Molly expected the vatter. Is this good, bad, or neither?",2,ab817809187642176d23d87932f87fb8cac29305dd69bd9c80c875e1418683baeb300a33a4ea303e96598aee641e58ffef6ed700b09ee5a77559e157e08d3320
"Molly expected the vatter. Is this good, bad, or neither?",2,247d016ad1965e185b284a032af50657ede03f4f6dfc65f402943ca2d27268dbc47a7ee39ad2eed9b24b64110dc50e8dd10ca6597e88d493637c358a9ba6470b
"Molly expected the vatter. Is this good, bad, or neither?",2,dfe836f0d8ab62de55eb3e54ad1c3e0e32ad6f38b80b9adf3ea39aeac10ef8c53157196f05fae80fd753b1c8d5b7e4507094829b4342cf1e466f4188ea877ce8
"Molly expected the vatter. Is this good, bad, or neither?",2,17f6732cbcd360848927fad93c861a02892af401338bc95414692acfacfa7d9ad8dd7dc0691a31a9d719f2dded1671f031232d2413fb564895308f69d045f664
"Molly expected the vatter. Is this good, bad, or neither?",2,9fc9d3de7ddb83580fc430d2d5c6ee47e775cabd5a982d7012deb44dbf1042f8b3db8ea6b2c4ee7b39f82b84b6b071d6968393ccc6520a6870f0883ccc441cf9
"Molly expected the vatter. Is this good, bad, or neither?",2,609868e2cf6de58a506a6731afe55c53d93510e3a34e58705479846aa7ccef2469a0081dc7ad92826b214afccaa96b3202ca07a32e7d6afd795c5776ef5511be
"Molly expected the vatter. Is this good, bad, or neither?",2,3ba7f77ae10c38036b97eb26b741db3f51fb37d04dcd4811c66cee4d7e3bf096ad2dda7eb04c83b35f03ed05392281462198a2d33493d965414714644b302ba5
"Molly expected the vatter. Is this good, bad, or neither?",0,08ea6ea397537c84ac209f08bf3bec2c0ff500e94266cd17fa45d303b288126de192d25b7f3331a02fdcad8a68ce682fafad99f95ec45259d05ed65d6cd3505e
"Molly expected the vatter. Is this good, bad, or neither?",2,aeaead0bad2cd8cd8e00067df1d0ddd61b9ba6afec23c08f5c84f413ad2e263545b447c45633570fb4f2c9b3d3be895bc1e474eb157f9f9b4ac62955a36370ef
"Molly expected the vatter. Is this good, bad, or neither?",2,97d5e2bcd2d3eb87a65c6730ec7df167145f2177c85116c6f53b71d5e991000e8908e4e837ae70a165200438865a4a7935d618d6a044af8be68d419edd32db14
"Molly expected the vatter. Is this good, bad, or neither?",2,548be18a804b583e710199c91257d8f418a9cac4c83824b32bc71702131d3981e08b4de0c2829e16caf1fb82d504d912feb6dab330307d59e5265d88db51f05e
"Molly expected the vatter. Is this good, bad, or neither?",2,5ed859beff22cb7346bbd1bb520b4e40c6fd44610478d66cd057f78c274bfe00e0cfd791b7f2e25ec9b478d601bfa4906bcd9751e895cada9d7ddb10a781a789
"Molly expected the vatter. Is this good, bad, or neither?",2,305f2f29687fda8e291e598686a4a089cc57c27d26fc2dea3e28544183df6fdd4ce792399dcac730c7aa7109f82a09aace9c895bf9596d257e113393be774056
"Molly expected the vatter. Is this good, bad, or neither?",4,5413a412d4833ac9cfad22dce2c78e46f7ad8e3534e1741f4732e318296028ad444f1ba913fed810c1af16b369223c94f1ec5ea721d12e9753ad7d6d7ba1cf04
