"Ryan smashed the zog into trabs with a verp. Is this good, bad, or neither?",1,5d818587500e31ddd24f674f0d96e8036b1fbbdeff8f12716de7cf436031070adc160ac58c2058f70b7756b9758d4cc6c60cd86cb5fbac5b08e94434f347d5fc
"Ryan smashed the zog into trabs with a verp. Is this good, bad, or neither?",1,9d8ddb67f662349a7f7a7c5a32fee73c457fd70d135ae4be6f17a68418102d35693b26415c8fd8c7bd26a5b5032587ac08aefd055994f62fcb3e9a44d5cb51b0
"Ryan smashed the zog into trabs with a verp. Is this good, bad, or neither?",1,720bea532db6ed90a7bd855c056e2ccc32b0f2fe90eb490aa4d644afcc89620fb5f7c3bf4971d931a8aef22130fb8976bd9e83f534038e3c4e8421311520cb5d
"Ryan smashed the zog into trabs with a verp. Is this good, bad, or neither?",4,3e48ecd6054d02891089f87e7290c4a1787d57fabca13ac896aa9393516140b72931471ecd8ad7b77a4a4dbb84a62823ee4ee2800ac340eb5b600cf3fba6c547
"Ryan smashed the zog into trabs with a verp. Is this good, bad, or neither?",1,521be8382c26a998ddd1ff5595f86f10ce89e6da1893278d219ec39e53b52b505fe38d0c89220146e5830f108e1d66df5a75c9e16aba98e6b396d3195c7ed6ab
"Ryan smashed the zog into trabs with a verp. Is this good, bad, or neither?",2,ddaaf85b6ad92e5bd899125be0ee1d1e475cef85f10f7c86eb80b3e666aa2d27b9930efbf239779906809e3b49e9c42c65a28830cce2f7034e42c039095ac370
"Ryan smashed the zog into trabs with a verp. Is this good, bad, or neither?",1,1e3d11b48e903b21ee5412e681e8b2c9e1e11d004ecb0408df781ddbc152646f4fb045e52f60f3bafc3d538ef0cdc971b7fb549ef562f568e0a7470fa1a60d98
"Ryan smashed the zog into trabs with a verp. Is this good, bad, or neither?",4,6a09456051925c31f00924be49a1288263f5f5fffd3e5b816ca5ee6d9345ed6ef2d70a2f4e131a6133f14c004da739a39e8079293d3807fa3623a6664874b3d3
"Ryan smashed the zog into trabs with a verp. Is this good, bad, or neither?",0,5c6e2593611db7a28a83a4462c9f1bd47f73edd5d7b09820e7dfa1413ec64cebcb439328ed1623bbab8f75bc8aa1b66df9ccc3ea2fa76b8f2b065047f7ec8910
"Ryan smashed the zog into trabs with a verp. Is this good, bad, or neither?",1,6f5d3137f68645162d6754029499a9ec7ae5684f56847c76e1aed3915b42b3ec8caf636fecf4f90a32b0151ee5f9c6a1d6452b80a69f77275d541c9cea4cbff1
"Ryan smashed the zog into trabs with a verp. Is this good, bad, or neither?",1,ab817809187642176d23d87932f87fb8cac29305dd69bd9c80c875e1418683baeb300a33a4ea303e96598aee641e58ffef6ed700b09ee5a77559e157e08d3320
"Ryan smashed the zog into trabs with a verp. Is this good, bad, or neither?",4,a2d9d2b53a64cc210c5d5ae513697dde98962d35ab23b7f1d01f7dbee0ab2bd758c58bb31ad6a0ab40ecb1fa916498f9711de450706865a35f42029ae3c0a523
"Ryan smashed the zog into trabs with a verp. Is this good, bad, or neither?",1,6442579b5017c978ac48004d53b31163b3763f309e6f3e0581e04c2aea211970cc33a63b0462acee00808e5c684e9c9445efbc52c93000c0cc6f7f2e7cc3b7f1
"Ryan smashed the zog into trabs with a verp. Is this good, bad, or neither?",2,609868e2cf6de58a506a6731afe55c53d93510e3a34e58705479846aa7ccef2469a0081dc7ad92826b214afccaa96b3202ca07a32e7d6afd795c5776ef5511be
"Ryan smashed the zog into trabs with a verp. Is this good, bad, or neither?",1,08ea6ea397537c84ac209f08bf3bec2c0ff500e94266cd17fa45d303b288126de192d25b7f3331a02fdcad8a68ce682fafad99f95ec45259d05ed65d6cd3505e
"Ryan smashed the zog into trabs with a verp. Is this good, bad, or neither?",1,aeaead0bad2cd8cd8e00067df1d0ddd61b9ba6afec23c08f5c84f413ad2e263545b447c45633570fb4f2c9b3d3be895bc1e474eb157f9f9b4ac62955a36370ef
"Ryan smashed the zog into trabs with a verp. Is this good, bad, or neither?",2,305f2f29687fda8e291e598686a4a089cc57c27d26fc2dea3e28544183df6fdd4ce792399dcac730c7aa7109f82a09aace9c895bf9596d257e113393be774056
"Ryan smashed the zog into trabs with a verp. Is this good, bad, or neither?",7,41199bc2972b5df3991b6fa456281dfe6be768efbbaf18823c41cfbc7f1597d7d847e7fea8762c0393cb1c37ab1387c1848c018f49913fbacfb8c34c086c6360
"Ryan smashed the zog into trabs with a verp. Is this good, bad, or neither?",1,5ed859beff22cb7346bbd1bb520b4e40c6fd44610478d66cd057f78c274bfe00e0cfd791b7f2e25ec9b478d601bfa4906bcd9751e895cada9d7ddb10a781a789
"Ryan smashed the zog into trabs with a verp. Is this good, bad, or neither?",1,8a74478a9db13d691c15cdcee8e51f2a7166c095ebc46b46a45db0f7e71f25326113b63f51c722ce73b2f2cb4b6c23f1f5bcf0819b2b17e93467b4e32ae84781
"Ryan smashed the zog into trabs with a verp. Is this good, bad, or neither?",4,ac159058713bb786536395d849dcdcf98a8ffa433c0df23b7bc3208f1c1ce017c9e666811788def29dda032e13b5e11080c305f9a67c97282c112192adb437e0
"Ryan smashed the zog into trabs with a verp. Is this good, bad, or neither?",1,a04441347c7a31798c34e1a297af024142381cfd06d1679184d6b0cf7ea8eda83518c819aaa67808a7238790be4a54c02324be8e270298ac207e0fa103ba2135
"Ryan smashed the zog into trabs with a verp. Is this good, bad, or neither?",6,b2e4ef616f0e1cac30a4ca570ef5fcdd39f29c1d43a6f1aee2542fd1b0997436fa6ac58d4b97fa4b3ef9a0ae56b199c150a1682687603e5266cfc82b866b7ed2
"Ryan smashed the zog into trabs with a verp. Is this good, bad, or neither?",4,4f1eb1039a45417b74d679abbdfcfaeab4494eff254f3b30465ef93ca66d21c563273f51be5f3d9abfb468e6063b9bbbcc05a3ea43529f7a79c25a14ac53b959
"Ryan smashed the zog into trabs with a verp. Is this good, bad, or neither?",2,c7a93a1a31d259cbb634d580334bbade3ce106ee969a90e587caf773a032d589ff5b759885e1c6b6263eedcc4340eb250a485471beb78180478fae5199e93485
"Ryan smashed the zog into trabs with a verp. Is this good, bad, or neither?",7,b842921b72de52f8a133a6e3e7dba5c9b826e818a240917bcd1460be154725c1bf3e61829383a5f36d6212bb3b09806d108579faebca1147451159918b352073
"Ryan smashed the zog into trabs with a verp. Is this good, bad, or neither?",1,4f9deb2661d65f513467f6edd92732225432ee516a2eaa704195a133c8af7abae72fff830f90663ad642b26fd7f6a4bf8f39208e34834d98b0170fded5b88ae9
"Ryan smashed the zog into trabs with a verp. Is this good, bad, or neither?",1,4ffc2db6a39a68933e1bb525ce217b5efe8dc7a65ebbaaaac26c38732bd49217244891a55c5614335219686aff6c588014a90164b02957752136736af9740e30
"Ryan smashed the zog into trabs with a verp. Is this good, bad, or neither?",1,7f45982c84b0e62975c836530ebc5c20ed43e2aaac4d7f1c99d59dac30103bb0a2c7f0c3eb3c011244e3b29b96036757199959b8d8fbcc5cf995fee8253a05f5
"Ryan smashed the zog into trabs with a verp. Is this good, bad, or neither?",2,fb3ee4e72eb582b2b2920acd3ac5a4ed00149c2560bf0255b9bc8237d80cbadd7b353ced6ab5662f69dfe00d362575b7da94144cd2374866a682e39b17cc3c0d
"Ryan smashed the zog into trabs with a verp. Is this good, bad, or neither?",1,948b1546ab23598285d2f77f39e4276a3a82e5d340295aa6760c9fc6f36b7437bb3a495a3ba88d447f3fe661e3d3dc2ca10e32b8b5eb3feb6619e793bc050ef2
"Ryan smashed the zog into trabs with a verp. Is this good, bad, or neither?",4,2cb44008208d14c82cf8868fc09b67e721d51c1b25835a53ce5c75d4338141e971e3aad3228e19b641ecd4278d4576dc2f1af7702b6c5731e30d7d54f5a829a5
"Ryan smashed the zog into trabs with a verp. Is this good, bad, or neither?",0,1ed0bb2665cb4dd58cea42da06456284df8d47ce3f60e1b4deb61177d441689d642fe4808e13d2c3f127b0a4ada8c7c109203d28758facb7b744363da01596ab
"Ryan smashed the zog into trabs with a verp. Is this good, bad, or neither?",1,caff777a2303da77340521ef83945a07684b2612ccb93a9fe1e9e6b34d4e52177c4499982e59c5f493664f3123c4c9738867850e7445f494ca6c22600eb6e56a
"Ryan smashed the zog into trabs with a verp. Is this good, bad, or neither?",1,28195e505193242d636c8cf88927e3353b64c1e9365b6d4fe6834ae467adb58cc661083c465cf575a9d4e6e6ea9daf2f4e5b8eaf892be186be05aa6b9c0519ec
"Ryan smashed the zog into trabs with a verp. Is this good, bad, or neither?",1,d52d0f79310a4a1585de2ba281cae55d8bf4f66ee89a3b0afe5bec86ac64f3fbcf4ac04acc90a017d6f66a1259e7c33c370048fe26771c06104f79c7f0e7daea
"Ryan smashed the zog into trabs with a verp. Is this good, bad, or neither?",1,8104307bc4ebc3070d994c1846c423ccef53b8e663deba8805103da843013a27f7d118e81ff145c6e9a435e48701b38d7e5960bae3355d5b12a69ed329c6b819
"Ryan smashed the zog into trabs with a verp. Is this good, bad, or neither?",2,41628a0f8849c48d09c00e99c4a99cae8b10c5d31c76fc5043a816bea93afdb63771aa227c3fc1235d69b6c482ed4c1972716b6868be483c3ecaba9ca7efddc1
"Ryan smashed the zog into trabs with a verp. Is this good, bad, or neither?",4,2affe66e78ed0fdb8662d48e9de768393c88ec5e667c71326bc9ac141e2742f64028489e0a9dbbd820ca7d777483a05f81c195e5a46d9c595e8003584f94b06f
"Ryan smashed the zog into trabs with a verp. Is this good, bad, or neither?",1,16a458abdde94706888dd34c14ba738fcae3622d483279b467a96d2428a4fb7816af38b4a78d5db113b2c34f9404d974c5b5c90914a62dd1ebb2a81e681f587b
"Ryan smashed the zog into trabs with a verp. Is this good, bad, or neither?",4,cc0871e8722d4330e488f627f44045b079dae6fde2bbf3afd7c3be53cc3e1fb99ebbca2ab0030b2da305882a933de524e82e888fc6312ef025a48f5c6f826bfd
"Ryan smashed the zog into trabs with a verp. Is this good, bad, or neither?",1,ecd12f5c7840150b6bf31f41cfe805fbb7f1e24d87bc7f9a7e4a26034d172ee611537c7e49e1951d513a1b63598bec45f4cf8d3fd4936ebe2747d7e8018937e5
"Ryan smashed the zog into trabs with a verp. Is this good, bad, or neither?",4,e816c25d00cf8e91122f1f3b229f41f298ddc4b6b47fcb5da8174bd83a0554271a821e737026ea6a344d4c078e1b3f87611f069ea877657588a824cf10970207
"Ryan smashed the zog into trabs with a verp. Is this good, bad, or neither?",1,2e08ea7a396b5dc2fc6ff518b56da9298cfd603a2f489e5145c092eb9870a320d2bfa8fd161fe5975a370e19055991d826fd24dea216f722fe25dbbf75088cd3
"Ryan smashed the zog into trabs with a verp. Is this good, bad, or neither?",1,3583b0685c896b2bb761bb88b3e50bdf3b46e0f1bd5ac255d8fd6fcc6732ddfe848d58c93607e81f8f862cefc5a53f77e66c84990425d9f8a58c8c4cd2670b5b
"Ryan smashed the zog into trabs with a verp. Is this good, bad, or neither?",1,912ea83cdfc5cf06bd44077cb51de35e88b6654f5af0eb7f6f78d434377245fc012b228a5334411a8d988514eee1d5ac22fb8453f995095120ccaea0e01fac17
"Ryan smashed the zog into trabs with a verp. Is this good, bad, or neither?",1,24e11c553d6fdfc86682c52183b6c4a648727ffa8cf07b36e77ea754be25468560227ff19b399a38fcb1bde79fa88b77467d466c7b55d9e63ce7a3474c2c5cb6
"Ryan smashed the zog into trabs with a verp. Is this good, bad, or neither?",1,a7dc9d4f184ea86b7b6e6869b9a53887f9af455a7a9b3f701cc20ec18e11435fdb90d9c3eed921996792de6c1628b7a27219b25f044ffe99d725092cbc88af6e
"Ryan smashed the zog into trabs with a verp. Is this good, bad, or neither?",4,b05d82565e83d12b188e5caf0f919c85cc5210949b071a4ccd05d15d68732f4c519eab6a1a064843c142d15875030bbe2192f54e160706cd2a4f92e06e49d74f
"Ryan smashed the zog into trabs with a verp. Is this good, bad, or neither?",1,90c8c114b2ac4d6f1e62e52bc301dd65a525f994d43a9296dc09c93befbef5e24c5ce552fac13db1b1a127b83446b3a4893a06c8ab19e050405b8c2c0cc89fab
"Ryan smashed the zog into trabs with a verp. Is this good, bad, or neither?",1,ac3b1b10808f1753ec2a45dbfd111934fc15f5c99e8d54caa1b9fa0399c450a1b4489cb0037029cbf93008625f0c076357a1b8e164d2f400a000fbd6062f7bad
"Ryan smashed the zog into trabs with a verp. Is this good, bad, or neither?",4,a3fe48d172465fbb24a650eeb520bd4c4631496b6d9d7a38bf192e1566aa97e662f2b2e76290bf0e0a6c2a90ffb291b31ff1e75bb29714c834646a850ace5bf6
"Ryan smashed the zog into trabs with a verp. Is this good, bad, or neither?",1,59c6e6ecca7aed6faf69351ead07ea14299ef4a8d166147d454e28e696ea27faa1e70307fba3612ef991263b5b092d93a2c2f0df25220aa29c69a40fdc93db08
"Ryan smashed the zog into trabs with a verp. Is this good, bad, or neither?",1,f152fccfa1b4275911c3d51209757f8f47524d9e0dac927fa3cf085a412f2995c54db4378764d73c2aeccf796c683eda37b79db7a22b6c9fb80818fa2a0358f7
"Ryan smashed the zog into trabs with a verp. Is this good, bad, or neither?",1,3c8531bb3749b3282e99702b70769c7bcd6b29a0d042d14dc5503c6b3ba8ad06db2e1ea1f368db105a7162e6e67e6647a82b6d22f5d7f4f0d7f4cff6c956b9c7
"Ryan smashed the zog into trabs with a verp. Is this good, bad, or neither?",3,7b8d0ea57a7a07b927229c68dbf9b2b3c70fa413735ee8bef51bc014ff37b6066827b11f67dca80ea43b74e34ec245c8931e9f04d55b85563144751e6ede5338
"Ryan smashed the zog into trabs with a verp. Is this good, bad, or neither?",5,af8a38336d92249b322e970e7fda2ac11d51761c496ed87bf1d77d1e99083a7e344df56c3c77cb4fb114298619d6ed36fa9cc3bb0ed11be3c946f677b3161cb0
"Ryan smashed the zog into trabs with a verp. Is this good, bad, or neither?",3,5f12e05c2e694ca4d0d50f5c90ffefa31fc5c326c5f6352ab6f2d69efda09898d7fa2e899476fb98164baf5559806eee7fc6f92a8cd7641d9b208f848e51b143
"Ryan smashed the zog into trabs with a verp. Is this good, bad, or neither?",3,5f12e05c2e694ca4d0d50f5c90ffefa31fc5c326c5f6352ab6f2d69efda09898d7fa2e899476fb98164baf5559806eee7fc6f92a8cd7641d9b208f848e51b143
"Ryan smashed the zog into trabs with a verp. Is this good, bad, or neither?",3,5f12e05c2e694ca4d0d50f5c90ffefa31fc5c326c5f6352ab6f2d69efda09898d7fa2e899476fb98164baf5559806eee7fc6f92a8cd7641d9b208f848e51b143
"Ryan smashed the zog into trabs with a verp. Is this good, bad, or neither?",3,5f12e05c2e694ca4d0d50f5c90ffefa31fc5c326c5f6352ab6f2d69efda09898d7fa2e899476fb98164baf5559806eee7fc6f92a8cd7641d9b208f848e51b143
"Ryan smashed the zog into trabs with a verp. Is this good, bad, or neither?",3,5f12e05c2e694ca4d0d50f5c90ffefa31fc5c326c5f6352ab6f2d69efda09898d7fa2e899476fb98164baf5559806eee7fc6f92a8cd7641d9b208f848e51b143
"Ryan smashed the zog into trabs with a verp. Is this good, bad, or neither?",3,5f12e05c2e694ca4d0d50f5c90ffefa31fc5c326c5f6352ab6f2d69efda09898d7fa2e899476fb98164baf5559806eee7fc6f92a8cd7641d9b208f848e51b143
"Ryan smashed the zog into trabs with a verp. Is this good, bad, or neither?",3,5f12e05c2e694ca4d0d50f5c90ffefa31fc5c326c5f6352ab6f2d69efda09898d7fa2e899476fb98164baf5559806eee7fc6f92a8cd7641d9b208f848e51b143
"Ryan smashed the zog into trabs with a verp. Is this good, bad, or neither?",3,5f12e05c2e694ca4d0d50f5c90ffefa31fc5c326c5f6352ab6f2d69efda09898d7fa2e899476fb98164baf5559806eee7fc6f92a8cd7641d9b208f848e51b143
"Ryan smashed the zog into trabs with a verp. Is this good, bad, or neither?",2,96e27a5546c2428bf62b7b2a96c0fcc8e86b33270ea8b5765a19dd06b6c24654d9b6b600eab150ee62569b675f93cae7b44875c312d827a4fc5bfeca7fda0645
"Ryan smashed the zog into trabs with a verp. Is this good, bad, or neither?",6,96e27a5546c2428bf62b7b2a96c0fcc8e86b33270ea8b5765a19dd06b6c24654d9b6b600eab150ee62569b675f93cae7b44875c312d827a4fc5bfeca7fda0645
"Ryan smashed the zog into trabs with a verp. Is this good, bad, or neither?",1,8e176a02087f9e24f28cecc547e6af9ccde15fac091e68abb588add3fb554a717c252a2aaac52e4064dbce28f7e6171562dc7f7153512c5f0ca1ab24d41fc019
"Ryan smashed the zog into trabs with a verp. Is this good, bad, or neither?",1,138a9e562648c08d9c6ac98bd7942309c86588c91b78686f82eddb4832388a43fb44b7f280b9e3eb49cbeec29242f2f10d71b467c9475a5b05c0bf3a4a00185a
"Ryan smashed the zog into trabs with a verp. Is this good, bad, or neither?",1,936d0ed6b945163efa98a12f9ada206cf38e906fb0e64d7b871384882890f5300a21af0feaa11ef5e210e1be97add27020da2cfbdfd03955f7991a131402dcea
"Ryan smashed the zog into trabs with a verp. Is this good, bad, or neither?",1,b6f2e1344ebdd16df984a569b364694e74d76b32cc3d59d2dffcc4d11ac6f38e551c9c180de2ef82243330ba19068b623902e0a25624aa0e128b8c46b7d589cb
"Ryan smashed the zog into trabs with a verp. Is this good, bad, or neither?",1,3ce1c91573b49e76ae6d43c669a24733296314c25baffa84d6693179025159771a3c7b297e83491615fff176965dd211be78675095cfe008040fcf254df14810
"Ryan smashed the zog into trabs with a verp. Is this good, bad, or neither?",3,0c1e43ef5b2f9488f1f2f5d3bb698140bc0a814ccd0552a4d3b9bc7f4899fbd7f112dda7c2abe51111db2cd9354f7ed05e8023ddc9513e6797cd881f2b3a9c2c
"Ryan smashed the zog into trabs with a verp. Is this good, bad, or neither?",3,0c1e43ef5b2f9488f1f2f5d3bb698140bc0a814ccd0552a4d3b9bc7f4899fbd7f112dda7c2abe51111db2cd9354f7ed05e8023ddc9513e6797cd881f2b3a9c2c
"Ryan smashed the zog into trabs with a verp. Is this good, bad, or neither?",1,819161aa2e764fd74ba60f02978d28b130e488d1f6ed613c48db286b68fe06ef24eeeb946d2af813bac598640b43342cd2b7a142eb31a6fff239faaae995f9f7
"Ryan smashed the zog into trabs with a verp. Is this good, bad, or neither?",2,f74a189a696ebb5d3833d4b89b0f94733b24c099235b93e38989b213817f3f6c519b8f67d99e68d2aae2d8cec42afe0dc9936b8765108818964591269daa19f6
"Ryan smashed the zog into trabs with a verp. Is this good, bad, or neither?",2,0ca87715be5df199ebada6867f7e0e75295c7ededa0fbd84664b9240578d42457d55abd66e8d40f24cae8c5c5c0a506eae9b839711a908d418039a14a0ca3135
"Ryan smashed the zog into trabs with a verp. Is this good, bad, or neither?",7,0ca87715be5df199ebada6867f7e0e75295c7ededa0fbd84664b9240578d42457d55abd66e8d40f24cae8c5c5c0a506eae9b839711a908d418039a14a0ca3135
"Ryan smashed the zog into trabs with a verp. Is this good, bad, or neither?",1,b4a89e063c479339463fe8a3755a45afdb72640d55ae6f8499866bdce35aea79532c96c386d3e305abf960bd172306159148a5dedc70fc0c191353ec94176ac4
"Ryan smashed the zog into trabs with a verp. Is this good, bad, or neither?",1,fa397b6498f37b2486c93b942859ab6761684709953bb9b06336fe536b3e6c2d0043a688e1a403ddc83f90029b00ccbc62362baf6394859c6c7acc269ea368b5
"Ryan smashed the zog into trabs with a verp. Is this good, bad, or neither?",1,5d818587500e31ddd24f674f0d96e8036b1fbbdeff8f12716de7cf436031070adc160ac58c2058f70b7756b9758d4cc6c60cd86cb5fbac5b08e94434f347d5fc
"Ryan smashed the zog into trabs with a verp. Is this good, bad, or neither?",1,9d8ddb67f662349a7f7a7c5a32fee73c457fd70d135ae4be6f17a68418102d35693b26415c8fd8c7bd26a5b5032587ac08aefd055994f62fcb3e9a44d5cb51b0
"Ryan smashed the zog into trabs with a verp. Is this good, bad, or neither?",1,720bea532db6ed90a7bd855c056e2ccc32b0f2fe90eb490aa4d644afcc89620fb5f7c3bf4971d931a8aef22130fb8976bd9e83f534038e3c4e8421311520cb5d
"Ryan smashed the zog into trabs with a verp. Is this good, bad, or neither?",4,3e48ecd6054d02891089f87e7290c4a1787d57fabca13ac896aa9393516140b72931471ecd8ad7b77a4a4dbb84a62823ee4ee2800ac340eb5b600cf3fba6c547
"Ryan smashed the zog into trabs with a verp. Is this good, bad, or neither?",1,521be8382c26a998ddd1ff5595f86f10ce89e6da1893278d219ec39e53b52b505fe38d0c89220146e5830f108e1d66df5a75c9e16aba98e6b396d3195c7ed6ab
"Ryan smashed the zog into trabs with a verp. Is this good, bad, or neither?",2,ddaaf85b6ad92e5bd899125be0ee1d1e475cef85f10f7c86eb80b3e666aa2d27b9930efbf239779906809e3b49e9c42c65a28830cce2f7034e42c039095ac370
"Ryan smashed the zog into trabs with a verp. Is this good, bad, or neither?",1,1e3d11b48e903b21ee5412e681e8b2c9e1e11d004ecb0408df781ddbc152646f4fb045e52f60f3bafc3d538ef0cdc971b7fb549ef562f568e0a7470fa1a60d98
"Ryan smashed the zog into trabs with a verp. Is this good, bad, or neither?",4,6a09456051925c31f00924be49a1288263f5f5fffd3e5b816ca5ee6d9345ed6ef2d70a2f4e131a6133f14c004da739a39e8079293d3807fa3623a6664874b3d3
"Ryan smashed the zog into trabs with a verp. Is this good, bad, or neither?",0,5c6e2593611db7a28a83a4462c9f1bd47f73edd5d7b09820e7dfa1413ec64cebcb439328ed1623bbab8f75bc8aa1b66df9ccc3ea2fa76b8f2b065047f7ec8910
"Ryan smashed the zog into trabs with a verp. Is this good, bad, or neither?",1,6f5d3137f68645162d6754029499a9ec7ae5684f56847c76e1aed3915b42b3ec8caf636fecf4f90a32b0151ee5f9c6a1d6452b80a69f77275d541c9cea4cbff1
"Ryan smashed the zog into trabs with a verp. Is this good, bad, or neither?",1,ab817809187642176d23d87932f87fb8cac29305dd69bd9c80c875e1418683baeb300a33a4ea303e96598aee641e58ffef6ed700b09ee5a77559e157e08d3320
"Ryan smashed the zog into trabs with a verp. Is this good, bad, or neither?",4,a2d9d2b53a64cc210c5d5ae513697dde98962d35ab23b7f1d01f7dbee0ab2bd758c58bb31ad6a0ab40ecb1fa916498f9711de450706865a35f42029ae3c0a523
"Ryan smashed the zog into trabs with a verp. Is this good, bad, or neither?",1,6442579b5017c978ac48004d53b31163b3763f309e6f3e0581e04c2aea211970cc33a63b0462acee00808e5c684e9c9445efbc52c93000c0cc6f7f2e7cc3b7f1
"Ryan smashed the zog into trabs with a verp. Is this good, bad, or neither?",2,609868e2cf6de58a506a6731afe55c53d93510e3a34e58705479846aa7ccef2469a0081dc7ad92826b214afccaa96b3202ca07a32e7d6afd795c5776ef5511be
"Ryan smashed the zog into trabs with a verp. Is this good, bad, or neither?",1,08ea6ea397537c84ac209f08bf3bec2c0ff500e94266cd17fa45d303b288126de192d25b7f3331a02fdcad8a68ce682fafad99f95ec45259d05ed65d6cd3505e
"Ryan smashed the zog into trabs with a verp. Is this good, bad, or neither?",1,aeaead0bad2cd8cd8e00067df1d0ddd61b9ba6afec23c08f5c84f413ad2e263545b447c45633570fb4f2c9b3d3be895bc1e474eb157f9f9b4ac62955a36370ef
"Ryan smashed the zog into trabs with a verp. Is this good, bad, or neither?",2,305f2f29687fda8e291e598686a4a089cc57c27d26fc2dea3e28544183df6fdd4ce792399dcac730c7aa7109f82a09aace9c895bf9596d257e113393be774056
"Ryan smashed the zog into trabs with a verp. Is this good, bad, or neither?",7,41199bc2972b5df3991b6fa456281dfe6be768efbbaf18823c41cfbc7f1597d7d847e7fea8762c0393cb1c37ab1387c1848c018f49913fbacfb8c34c086c6360
"Ryan smashed the zog into trabs with a verp. Is this good, bad, or neither?",1,5ed859beff22cb7346bbd1bb520b4e40c6fd44610478d66cd057f78c274bfe00e0cfd791b7f2e25ec9b478d601bfa4906bcd9751e895cada9d7ddb10a781a789
"Ryan smashed the zog into trabs with a verp. Is this good, bad, or neither?",7,b842921b72de52f8a133a6e3e7dba5c9b826e818a240917bcd1460be154725c1bf3e61829383a5f36d6212bb3b09806d108579faebca1147451159918b352073
