"Samantha enjoyed Alyssa. Is this good, bad, or neither?",0,5d818587500e31ddd24f674f0d96e8036b1fbbdeff8f12716de7cf436031070adc160ac58c2058f70b7756b9758d4cc6c60cd86cb5fbac5b08e94434f347d5fc
"Samantha enjoyed Alyssa. Is this good, bad, or neither?",0,0e5d4f8f38e92f32b9ca2c526eeebf4ea0b144f4817f1354cfab269bb89c1a603f5dbf00526eb3e33607e46f673bf2c67488e89cb1e997b5a75862f6d7f6b657
"Samantha enjoyed Alyssa. Is this good, bad, or neither?",0,720bea532db6ed90a7bd855c056e2ccc32b0f2fe90eb490aa4d644afcc89620fb5f7c3bf4971d931a8aef22130fb8976bd9e83f534038e3c4e8421311520cb5d
"Samantha enjoyed Alyssa. Is this good, bad, or neither?",0,ddaaf85b6ad92e5bd899125be0ee1d1e475cef85f10f7c86eb80b3e666aa2d27b9930efbf239779906809e3b49e9c42c65a28830cce2f7034e42c039095ac370
"Samantha enjoyed Alyssa. Is this good, bad, or neither?",0,ab817809187642176d23d87932f87fb8cac29305dd69bd9c80c875e1418683baeb300a33a4ea303e96598aee641e58ffef6ed700b09ee5a77559e157e08d3320
"Samantha enjoyed Alyssa. Is this good, bad, or neither?",1,949e348794c3e18581f7b55ecef851e605235f7c9cafa5c3b4d3e91106a8ea5851849ec1edc9cd0b8dbea5b628ab5f49181d508855ed809569304963bc219caa
"Samantha enjoyed Alyssa. Is this good, bad, or neither?",3,2bddce971fb9dfadb0e50fcd15f5da42f2ef8c476a4212bde20a28dfb3b51b03b619ae1daafc7905fad410c42d69ea64cce4d2e705a9f283a1f36221d9537557
"Samantha enjoyed Alyssa. Is this good, bad, or neither?",0,3002cf418cc46b25d43f1ad9159d09eef6460fa2f207739147fbcaed98358862cf97ed858880b6f5b593a4b325c7408efc4cb1d987aff392dd201897c8177d9d
"Samantha enjoyed Alyssa. Is this good, bad, or neither?",0,6442579b5017c978ac48004d53b31163b3763f309e6f3e0581e04c2aea211970cc33a63b0462acee00808e5c684e9c9445efbc52c93000c0cc6f7f2e7cc3b7f1
"Samantha enjoyed Alyssa. Is this good, bad, or neither?",0,aeaead0bad2cd8cd8e00067df1d0ddd61b9ba6afec23c08f5c84f413ad2e263545b447c45633570fb4f2c9b3d3be895bc1e474eb157f9f9b4ac62955a36370ef
"Samantha enjoyed Alyssa. Is this good, bad, or neither?",0,08ea6ea397537c84ac209f08bf3bec2c0ff500e94266cd17fa45d303b288126de192d25b7f3331a02fdcad8a68ce682fafad99f95ec45259d05ed65d6cd3505e
"Samantha enjoyed Alyssa. Is this good, bad, or neither?",0,97d5e2bcd2d3eb87a65c6730ec7df167145f2177c85116c6f53b71d5e991000e8908e4e837ae70a165200438865a4a7935d618d6a044af8be68d419edd32db14
"Samantha enjoyed Alyssa. Is this good, bad, or neither?",0,49dcb1441d32656cba9d11b70043b0c4d17712f6a50e97b4a50054f5ed2de2456bfaa95cc13099b9c4e56b3877f0d046a24ebafe7ba804cb86d78cf96ab92a6b
"Samantha enjoyed Alyssa. Is this good, bad, or neither?",0,5ed859beff22cb7346bbd1bb520b4e40c6fd44610478d66cd057f78c274bfe00e0cfd791b7f2e25ec9b478d601bfa4906bcd9751e895cada9d7ddb10a781a789
"Samantha enjoyed Alyssa. Is this good, bad, or neither?",0,305f2f29687fda8e291e598686a4a089cc57c27d26fc2dea3e28544183df6fdd4ce792399dcac730c7aa7109f82a09aace9c895bf9596d257e113393be774056
"Samantha enjoyed Alyssa. Is this good, bad, or neither?",0,ac159058713bb786536395d849dcdcf98a8ffa433c0df23b7bc3208f1c1ce017c9e666811788def29dda032e13b5e11080c305f9a67c97282c112192adb437e0
"Samantha enjoyed Alyssa. Is this good, bad, or neither?",0,a04441347c7a31798c34e1a297af024142381cfd06d1679184d6b0cf7ea8eda83518c819aaa67808a7238790be4a54c02324be8e270298ac207e0fa103ba2135
"Samantha enjoyed Alyssa. Is this good, bad, or neither?",4,b2e4ef616f0e1cac30a4ca570ef5fcdd39f29c1d43a6f1aee2542fd1b0997436fa6ac58d4b97fa4b3ef9a0ae56b199c150a1682687603e5266cfc82b866b7ed2
"Samantha enjoyed Alyssa. Is this good, bad, or neither?",0,b736dcb3bedc2b15ba0c673e46668b0305e858f3f8394cf4c3eb36ea7de200ad7496d64c4b1d53fd4e7aeef19bd4c422f099fad6b7844bd75590a6c8b603bbf5
"Samantha enjoyed Alyssa. Is this good, bad, or neither?",0,fb3ee4e72eb582b2b2920acd3ac5a4ed00149c2560bf0255b9bc8237d80cbadd7b353ced6ab5662f69dfe00d362575b7da94144cd2374866a682e39b17cc3c0d
"Samantha enjoyed Alyssa. Is this good, bad, or neither?",2,2cb44008208d14c82cf8868fc09b67e721d51c1b25835a53ce5c75d4338141e971e3aad3228e19b641ecd4278d4576dc2f1af7702b6c5731e30d7d54f5a829a5
"Samantha enjoyed Alyssa. Is this good, bad, or neither?",0,28195e505193242d636c8cf88927e3353b64c1e9365b6d4fe6834ae467adb58cc661083c465cf575a9d4e6e6ea9daf2f4e5b8eaf892be186be05aa6b9c0519ec
"Samantha enjoyed Alyssa. Is this good, bad, or neither?",0,caff777a2303da77340521ef83945a07684b2612ccb93a9fe1e9e6b34d4e52177c4499982e59c5f493664f3123c4c9738867850e7445f494ca6c22600eb6e56a
"Samantha enjoyed Alyssa. Is this good, bad, or neither?",2,409c12d0dd20b01733637a680f5229f9e32d49b7e5334090b79c8103ff6c2e3fa89a893c347853858d6340039bdbe9d67ffbb578ffd7aca629dd3a26b0805200
"Samantha enjoyed Alyssa. Is this good, bad, or neither?",0,9d8ddb67f662349a7f7a7c5a32fee73c457fd70d135ae4be6f17a68418102d35693b26415c8fd8c7bd26a5b5032587ac08aefd055994f62fcb3e9a44d5cb51b0
"Samantha enjoyed Alyssa. Is this good, bad, or neither?",0,4fc0018974e48c2a689f8f1adf0eddb7b9b2b618943904eebf76868f893e99c087a24304db0c91a10a1a8fc74ccf5891c047f0c2636db1ee14842df50a3f1228
"Samantha enjoyed Alyssa. Is this good, bad, or neither?",0,d52d0f79310a4a1585de2ba281cae55d8bf4f66ee89a3b0afe5bec86ac64f3fbcf4ac04acc90a017d6f66a1259e7c33c370048fe26771c06104f79c7f0e7daea
"Samantha enjoyed Alyssa. Is this good, bad, or neither?",0,f79df501344dd9ff75cd925944cfd558eebd8c13c2683e5f1b9a875547feff8f6d9b5e609adf970b8e6787032b4c78c254d7275def1033b2e1a4cf62b86ae157
"Samantha enjoyed Alyssa. Is this good, bad, or neither?",0,d58527ee038d24c4daed6d842fd85e5d5dd7065edc9df22198558c98d9bd121e0c0c2599f391dc9ad4b9831e4ce1e5e94b36558c0cf3e52d88c9a3687ee93516
"Samantha enjoyed Alyssa. Is this good, bad, or neither?",0,41628a0f8849c48d09c00e99c4a99cae8b10c5d31c76fc5043a816bea93afdb63771aa227c3fc1235d69b6c482ed4c1972716b6868be483c3ecaba9ca7efddc1
"Samantha enjoyed Alyssa. Is this good, bad, or neither?",0,65dbf29a361549ac50e30f45361caa81629fd4163a4cc1a3e8400adf0a480b18f74e445f6d965c403f4b5e9718d1a9922c1afaa02294caad8116e2a808ed026f
"Samantha enjoyed Alyssa. Is this good, bad, or neither?",3,1b84ff0642bec6ec49104f00b5eb33e1704ac85e84837e0b05217a87c9e8319c48a3db58255abd38501f0a4732348608fe5c9337c46aa0ffc94b5bccde106bda
"Samantha enjoyed Alyssa. Is this good, bad, or neither?",0,ecd12f5c7840150b6bf31f41cfe805fbb7f1e24d87bc7f9a7e4a26034d172ee611537c7e49e1951d513a1b63598bec45f4cf8d3fd4936ebe2747d7e8018937e5
"Samantha enjoyed Alyssa. Is this good, bad, or neither?",0,5cb68de784a0f4007ab4500b929c5a220aad7ac1e707616fe15246e3ef9fa02d29e3bc67887a0b0835978d235888d04fe06c6dcd8383028db054011db6771690
"Samantha enjoyed Alyssa. Is this good, bad, or neither?",0,2e08ea7a396b5dc2fc6ff518b56da9298cfd603a2f489e5145c092eb9870a320d2bfa8fd161fe5975a370e19055991d826fd24dea216f722fe25dbbf75088cd3
"Samantha enjoyed Alyssa. Is this good, bad, or neither?",2,b0d9c2d8691f4316e1b262befbbf21875e54953ac94d958088ee327ec7e4b9a519987db3fe0c492b3c1bee962b256ef852d45c6ea7760841c756f9361c5f1c88
"Samantha enjoyed Alyssa. Is this good, bad, or neither?",0,a9cde819f8250c7689cb51a730bc45e0e5ed0f8072684132cb0272da0385938f97aa4ef5c2d61138f4f895b5823356ce5b966f9538d8fc91978211eb3fe10401
"Samantha enjoyed Alyssa. Is this good, bad, or neither?",0,226f28341b1750400605391f877bad3ef25cbb894addea599f29febeb81ac400a9bcf238a6366b52bc29d4fa586423b91fbaece0561a495907a09f904e483616
"Samantha enjoyed Alyssa. Is this good, bad, or neither?",0,a7dc9d4f184ea86b7b6e6869b9a53887f9af455a7a9b3f701cc20ec18e11435fdb90d9c3eed921996792de6c1628b7a27219b25f044ffe99d725092cbc88af6e
"Samantha enjoyed Alyssa. Is this good, bad, or neither?",0,8820ca0fee9b0a5c02f49d0f3b7657681fccad3476550b7fe2a1eded58c5a107f5acf35477ad51cd539b1a9dc0d02f752c76a43a20c0f7260c0e4816cdfab361
"Samantha enjoyed Alyssa. Is this good, bad, or neither?",0,f01784af74a83b8e4c2d61799385b28fd491da04b0e6e8e6bba46ec92dc99861f7b3381f70e7f81b64bb3042424d19c2402c6927b1d90d5fe8747fb1e3424fc5
"Samantha enjoyed Alyssa. Is this good, bad, or neither?",0,3dd7ff53be07f8d72042472584bf379bcd78eb96940dcc6e0f4bcf0b8f7d5c5f679eaa10b4cc83a57202ef875263c59b04ef8d7d54e320694bea43a5a4c2bc99
"Samantha enjoyed Alyssa. Is this good, bad, or neither?",0,2cafff9925221b88b02142cc2b8bf6d73c6cc372cd21c3c833ea05ded4a0c176bf7a436027646e1c46b075c0cff1d9030b6f4b22e303c30077d7a12d94d18582
"Samantha enjoyed Alyssa. Is this good, bad, or neither?",0,e026cbf1f92ffcd63549ad9958fb5feeaed2d6b545677b809b1cafc3fc96349d27e28ef3da4919854a8b6d9ce320dc40b10f705c361b77a717ca1cc8d70dca1b
"Samantha enjoyed Alyssa. Is this good, bad, or neither?",0,42456a86a5a57c4cbe83c9605891f76dac9dd62cb78b32ef4ab31dc8980cfef7702340790804057fcf58b6e7448a8782fdb7bf7fd2673f1f2c1ade4031737ca7
"Samantha enjoyed Alyssa. Is this good, bad, or neither?",1,f4d0a0e5543106139b65bc0db5d40eb416833c4fb456fd2272ffde8e7e162ac059f090e12c01686b7dd181834a59b46c179bb133739847ad085aeae5db86e3e7
"Samantha enjoyed Alyssa. Is this good, bad, or neither?",0,30cb0d42c57087052ff768a8d8fdf6d3a33e80ce1bd8ffdcb4918d6768d6361e6e81c3b22896b50c65813302e4db3287569a3a87ed1b1f3fa82da1ac59cb904f
"Samantha enjoyed Alyssa. Is this good, bad, or neither?",1,ba2d26f4dd8b4ccde0d80cd193e49becdc1a6ced8451c530f884e2ecde79ac6d58475ad5ef1dfdcd67bd7d965d15a61fba11b234efe086db92e4fbf0c0fb3855
"Samantha enjoyed Alyssa. Is this good, bad, or neither?",4,03e1165452b1a4fd8781fad87e4706f6741fc6c797f650aedad4ec39a21290903e129e51d27998643473f23675d36db141346b830d03e9235c4c80bf0603163a
"Samantha enjoyed Alyssa. Is this good, bad, or neither?",0,f152fccfa1b4275911c3d51209757f8f47524d9e0dac927fa3cf085a412f2995c54db4378764d73c2aeccf796c683eda37b79db7a22b6c9fb80818fa2a0358f7
"Samantha enjoyed Alyssa. Is this good, bad, or neither?",0,864fd6d6c6f3b061f8849268ccbe26a8df17226567b244b0760c60bacd2b79ced559640987941fff3ebd0eb3949cea7885c56e467856a8919d1736aa402c8087
"Samantha enjoyed Alyssa. Is this good, bad, or neither?",5,25f59b566bfd6c48199f78f2ca8c9e3394ba87dd2b89641de88eadfe68d9f750c0706df1f2c4ec7d3b8a68dc3684d43958937d6d1b9641bd2933ada2425d599f
"Samantha enjoyed Alyssa. Is this good, bad, or neither?",5,19277661313b5118bd1b2e29039b47276f1f8235917f3217bf95498030989874a1ca10bb943fa21faf787d793095c0d4119e136013ed4a9be167f67c2a6d11d3
"Samantha enjoyed Alyssa. Is this good, bad, or neither?",0,37805ee1b41c781e6b817afc72031a1f1835c0a0d72be46238fe34898913ac47a840d4c391f835e42277def943f95cb3ffc89b1bc79669615995d531f0a9cc63
"Samantha enjoyed Alyssa. Is this good, bad, or neither?",4,5f12e05c2e694ca4d0d50f5c90ffefa31fc5c326c5f6352ab6f2d69efda09898d7fa2e899476fb98164baf5559806eee7fc6f92a8cd7641d9b208f848e51b143
"Samantha enjoyed Alyssa. Is this good, bad, or neither?",0,8763c2859ae1f15c76b03dd6e3e423cbfb4a6f9094bb4fe4ad233250789373a6b284f7704541a5ef13fa60632d2ca2cc5c3ce333d05680a82e6ec32c45adc516
"Samantha enjoyed Alyssa. Is this good, bad, or neither?",0,322f3fc9a65b52f17cfe21ce3e2a9d9d92a47fa515825ca5dfa09748ce6bc96e42524a760635bfbe96a7226586be29c5348d2b5b9422d1ce92b61d9bca99d317
"Samantha enjoyed Alyssa. Is this good, bad, or neither?",0,9d1e218c00ea80e58ce7018037867f85cf423b8b054ce540e733658feb011d8b4e74c3042094479203f4a35d49ce11ad3f6aea2171761e88c99afbc2a750c13d
"Samantha enjoyed Alyssa. Is this good, bad, or neither?",0,f8119f08bb0e7ba72061c628449c0ab13487410abe3deca32abedb04fbee3f98a039700245b091a41421f1f0babc1cf9ba35817dcc08b6c5a52006c75d7e836f
"Samantha enjoyed Alyssa. Is this good, bad, or neither?",0,2ccf32988a8f71f31a8c3163073551efd766cf444849d381dc329025d82098de35131444641fc3f31a2fe1235d7ab9bf7bef278f2fd41bae3abe3a3a45252df4
"Samantha enjoyed Alyssa. Is this good, bad, or neither?",0,3ce1c91573b49e76ae6d43c669a24733296314c25baffa84d6693179025159771a3c7b297e83491615fff176965dd211be78675095cfe008040fcf254df14810
"Samantha enjoyed Alyssa. Is this good, bad, or neither?",0,21a65c15b3bbe24844899a284fb2239e80247056750510b98b004d6d5a236e73e581c1d7e033eb03d4649d2d009d6deaf5dba070dafb69aa762c6dae0ff06e3a
"Samantha enjoyed Alyssa. Is this good, bad, or neither?",0,a2e6df552487befd608a9f750cb8b27c0871c2706e72ce4d856dd31ec3b2ec8e1debe6176c895cb0378e76a113b8b464b055fcdc18efa122a24dc83cc46b7067
"Samantha enjoyed Alyssa. Is this good, bad, or neither?",0,819161aa2e764fd74ba60f02978d28b130e488d1f6ed613c48db286b68fe06ef24eeeb946d2af813bac598640b43342cd2b7a142eb31a6fff239faaae995f9f7
"Samantha enjoyed Alyssa. Is this good, bad, or neither?",4,ae6f2e85d7a7ff1cdcdddcbbc6e6f78d202e9f364d850b708c9e0584b9485b2073c14ea4ae571571ee2380c812e0486c22e053abe39ef13367ee26305af69840
"Samantha enjoyed Alyssa. Is this good, bad, or neither?",3,9a1d423a034466fb17269b946064e1dba12b50fd8a7890c9cf2e41e2a2363dcd929a2f72140fca08500c70bc55f2b65836333b20f4758e81e87bc43fd826e511
"Samantha enjoyed Alyssa. Is this good, bad, or neither?",4,b4a89e063c479339463fe8a3755a45afdb72640d55ae6f8499866bdce35aea79532c96c386d3e305abf960bd172306159148a5dedc70fc0c191353ec94176ac4
"Samantha enjoyed Alyssa. Is this good, bad, or neither?",0,2875bb83ac513aa97aeba11f5622c2c75fccba605aaa9f43dc177c153d69f186934e7fc596231d9e343c02adb5a04642c268209f6359ec200e2985f45c4b4e28
"Samantha enjoyed Alyssa. Is this good, bad, or neither?",2,b4a89e063c479339463fe8a3755a45afdb72640d55ae6f8499866bdce35aea79532c96c386d3e305abf960bd172306159148a5dedc70fc0c191353ec94176ac4
"Samantha enjoyed Alyssa. Is this good, bad, or neither?",0,25e31b4d80e94d2c4801481a440b5ddc554a132d91634eb8bb035a50d56440cc732a12ea555c9eaf910eb05300e715d6d2e07d102209bb9144baa9ca8fc3879c
"Samantha enjoyed Alyssa. Is this good, bad, or neither?",3,64b0b383abef7422d0ae1d374180558f9cd4a3b0e91ed813b32c93202f31411e1af4445cc49c3e7a5e27274da047d27abc1a040400096e04e1c3e039548aed58
"Samantha enjoyed Alyssa. Is this good, bad, or neither?",3,64b0b383abef7422d0ae1d374180558f9cd4a3b0e91ed813b32c93202f31411e1af4445cc49c3e7a5e27274da047d27abc1a040400096e04e1c3e039548aed58
"Samantha enjoyed Alyssa. Is this good, bad, or neither?",5,b01aed1d1a30cfe2c56b0b5d553b5f66c21000eb8e54d22a576839bf2f9c60deef89c4065dc106576bd72d9efbb44aa8ce92093f01d157b974c1dfd90e632356
"Samantha enjoyed Alyssa. Is this good, bad, or neither?",0,2f9462113b5e9601214e682c9cca4bae20f7a2bd9f6b7580e21b2ed74c953986cd53cac441413ec6c175876577943995429763c2ac64cd4327329f8013b68332
"Samantha enjoyed Alyssa. Is this good, bad, or neither?",0,5d818587500e31ddd24f674f0d96e8036b1fbbdeff8f12716de7cf436031070adc160ac58c2058f70b7756b9758d4cc6c60cd86cb5fbac5b08e94434f347d5fc
"Samantha enjoyed Alyssa. Is this good, bad, or neither?",0,0e5d4f8f38e92f32b9ca2c526eeebf4ea0b144f4817f1354cfab269bb89c1a603f5dbf00526eb3e33607e46f673bf2c67488e89cb1e997b5a75862f6d7f6b657
"Samantha enjoyed Alyssa. Is this good, bad, or neither?",0,720bea532db6ed90a7bd855c056e2ccc32b0f2fe90eb490aa4d644afcc89620fb5f7c3bf4971d931a8aef22130fb8976bd9e83f534038e3c4e8421311520cb5d
"Samantha enjoyed Alyssa. Is this good, bad, or neither?",0,ddaaf85b6ad92e5bd899125be0ee1d1e475cef85f10f7c86eb80b3e666aa2d27b9930efbf239779906809e3b49e9c42c65a28830cce2f7034e42c039095ac370
"Samantha enjoyed Alyssa. Is this good, bad, or neither?",0,ab817809187642176d23d87932f87fb8cac29305dd69bd9c80c875e1418683baeb300a33a4ea303e96598aee641e58ffef6ed700b09ee5a77559e157e08d3320
"Samantha enjoyed Alyssa. Is this good, bad, or neither?",1,949e348794c3e18581f7b55ecef851e605235f7c9cafa5c3b4d3e91106a8ea5851849ec1edc9cd0b8dbea5b628ab5f49181d508855ed809569304963bc219caa
"Samantha enjoyed Alyssa. Is this good, bad, or neither?",3,2bddce971fb9dfadb0e50fcd15f5da42f2ef8c476a4212bde20a28dfb3b51b03b619ae1daafc7905fad410c42d69ea64cce4d2e705a9f283a1f36221d9537557
"Samantha enjoyed Alyssa. Is this good, bad, or neither?",0,3002cf418cc46b25d43f1ad9159d09eef6460fa2f207739147fbcaed98358862cf97ed858880b6f5b593a4b325c7408efc4cb1d987aff392dd201897c8177d9d
"Samantha enjoyed Alyssa. Is this good, bad, or neither?",0,6442579b5017c978ac48004d53b31163b3763f309e6f3e0581e04c2aea211970cc33a63b0462acee00808e5c684e9c9445efbc52c93000c0cc6f7f2e7cc3b7f1
"Samantha enjoyed Alyssa. Is this good, bad, or neither?",0,aeaead0bad2cd8cd8e00067df1d0ddd61b9ba6afec23c08f5c84f413ad2e263545b447c45633570fb4f2c9b3d3be895bc1e474eb157f9f9b4ac62955a36370ef
"Samantha enjoyed Alyssa. Is this good, bad, or neither?",0,08ea6ea397537c84ac209f08bf3bec2c0ff500e94266cd17fa45d303b288126de192d25b7f3331a02fdcad8a68ce682fafad99f95ec45259d05ed65d6cd3505e
"Samantha enjoyed Alyssa. Is this good, bad, or neither?",0,97d5e2bcd2d3eb87a65c6730ec7df167145f2177c85116c6f53b71d5e991000e8908e4e837ae70a165200438865a4a7935d618d6a044af8be68d419edd32db14
"Samantha enjoyed Alyssa. Is this good, bad, or neither?",0,49dcb1441d32656cba9d11b70043b0c4d17712f6a50e97b4a50054f5ed2de2456bfaa95cc13099b9c4e56b3877f0d046a24ebafe7ba804cb86d78cf96ab92a6b
"Samantha enjoyed Alyssa. Is this good, bad, or neither?",0,5ed859beff22cb7346bbd1bb520b4e40c6fd44610478d66cd057f78c274bfe00e0cfd791b7f2e25ec9b478d601bfa4906bcd9751e895cada9d7ddb10a781a789
"Samantha enjoyed Alyssa. Is this good, bad, or neither?",0,305f2f29687fda8e291e598686a4a089cc57c27d26fc2dea3e28544183df6fdd4ce792399dcac730c7aa7109f82a09aace9c895bf9596d257e113393be774056
"Samantha enjoyed Alyssa. Is this good, bad, or neither?",3,1b84ff0642bec6ec49104f00b5eb33e1704ac85e84837e0b05217a87c9e8319c48a3db58255abd38501f0a4732348608fe5c9337c46aa0ffc94b5bccde106bda
