"Samuel trusted the crose for its zurk. Is this good, bad, or neither?",0,5d818587500e31ddd24f674f0d96e8036b1fbbdeff8f12716de7cf436031070adc160ac58c2058f70b7756b9758d4cc6c60cd86cb5fbac5b08e94434f347d5fc
"Samuel trusted the crose for its zurk. Is this good, bad, or neither?",0,9d8ddb67f662349a7f7a7c5a32fee73c457fd70d135ae4be6f17a68418102d35693b26415c8fd8c7bd26a5b5032587ac08aefd055994f62fcb3e9a44d5cb51b0
"Samuel trusted the crose for its zurk. Is this good, bad, or neither?",0,9fa34cf7fb8dea4ed69138f7a8cb88f05fb7799bd02a2c55f01ffabfc4886b672b779cf89dcf7bec0a19171745d3989b0613cd31bb6b5fe5ff447993c52886b4
"Samuel trusted the crose for its zurk. Is this good, bad, or neither?",0,720bea532db6ed90a7bd855c056e2ccc32b0f2fe90eb490aa4d644afcc89620fb5f7c3bf4971d931a8aef22130fb8976bd9e83f534038e3c4e8421311520cb5d
"Samuel trusted the crose for its zurk. Is this good, bad, or neither?",0,ed02e20cfb42701b476bcdd51d82462911339c3c6c02b25cd0dcc8c9f6b2e2cb15f1b8f3f6c18e3ceb05290902f1230bb8570f448a59fefb7e4a0987a0461d1b
"Samuel trusted the crose for its zurk. Is this good, bad, or neither?",2,ddaaf85b6ad92e5bd899125be0ee1d1e475cef85f10f7c86eb80b3e666aa2d27b9930efbf239779906809e3b49e9c42c65a28830cce2f7034e42c039095ac370
"Samuel trusted the crose for its zurk. Is this good, bad, or neither?",0,8c485b8d8102e3b3f5f75842faf138c57e422ec6e89849811afebe94cc7117a9a64b4c0ddf6d65608bb622699cd6c0d4017c3eb4352790a1877a2c123f0cfabe
"Samuel trusted the crose for its zurk. Is this good, bad, or neither?",2,eb4b6b706a0f89e14a2d8d16dfc7aa9c87a7d0595820e60b0d5dec6c005f0197619f954c3c62e433d7c45a2749d03a361351da7118319f5edfc5ea8c0c918e14
"Samuel trusted the crose for its zurk. Is this good, bad, or neither?",2,09bbb38f5dd8235cf44d38725804029527c42a20731ab136a3b8aab53630ce178689a70589bf9dd53a48c43ad209e01377be814f8d9e02d22ee971162d2206b8
"Samuel trusted the crose for its zurk. Is this good, bad, or neither?",2,ab817809187642176d23d87932f87fb8cac29305dd69bd9c80c875e1418683baeb300a33a4ea303e96598aee641e58ffef6ed700b09ee5a77559e157e08d3320
"Samuel trusted the crose for its zurk. Is this good, bad, or neither?",5,17f6732cbcd360848927fad93c861a02892af401338bc95414692acfacfa7d9ad8dd7dc0691a31a9d719f2dded1671f031232d2413fb564895308f69d045f664
"Samuel trusted the crose for its zurk. Is this good, bad, or neither?",1,65746cc9b5d124cd0c8912e8404568e181bb7f047ee2e30ba13e513d13c16914a6941e60166d98e1fde3dfdc2ff7ad123e94554ca2f65d6661436db99bb614fe
"Samuel trusted the crose for its zurk. Is this good, bad, or neither?",0,6442579b5017c978ac48004d53b31163b3763f309e6f3e0581e04c2aea211970cc33a63b0462acee00808e5c684e9c9445efbc52c93000c0cc6f7f2e7cc3b7f1
"Samuel trusted the crose for its zurk. Is this good, bad, or neither?",0,af673fb7363bd7bbfff4234c51ef17d95617d29ee586c0b8c95d5fb752a2648b71a9d7248a61f666dfd2110500dfaae73fa3761dab9a99bdee3a72b029e4aad4
"Samuel trusted the crose for its zurk. Is this good, bad, or neither?",0,305f2f29687fda8e291e598686a4a089cc57c27d26fc2dea3e28544183df6fdd4ce792399dcac730c7aa7109f82a09aace9c895bf9596d257e113393be774056
"Samuel trusted the crose for its zurk. Is this good, bad, or neither?",2,08ea6ea397537c84ac209f08bf3bec2c0ff500e94266cd17fa45d303b288126de192d25b7f3331a02fdcad8a68ce682fafad99f95ec45259d05ed65d6cd3505e
"Samuel trusted the crose for its zurk. Is this good, bad, or neither?",0,aeaead0bad2cd8cd8e00067df1d0ddd61b9ba6afec23c08f5c84f413ad2e263545b447c45633570fb4f2c9b3d3be895bc1e474eb157f9f9b4ac62955a36370ef
"Samuel trusted the crose for its zurk. Is this good, bad, or neither?",0,e62b4297dd8ca20fffcd5ac1980e37d78b9f2883e69baf92048f305d861c258a0be9028817fa64adff81fef161c19e187aa31cc5d1e509e07abd4aba10cd07e7
"Samuel trusted the crose for its zurk. Is this good, bad, or neither?",0,e5c54b148812d9f4ba2101ddff4243c473928ca1de8f477a01fada72f619a2825635f933faf4e019565336a25699a2747c8af9c28b65314c21c511d17537a5b9
"Samuel trusted the crose for its zurk. Is this good, bad, or neither?",0,6c6c49ee869b4ca1ba79f9e7161de8bf469354e88f91864b66c80b413102959cddfeccd497a130d4d9dccb97f91a2d4061527fd34a6a5660aa9c5ec30fa2c11f
"Samuel trusted the crose for its zurk. Is this good, bad, or neither?",0,a04441347c7a31798c34e1a297af024142381cfd06d1679184d6b0cf7ea8eda83518c819aaa67808a7238790be4a54c02324be8e270298ac207e0fa103ba2135
"Samuel trusted the crose for its zurk. Is this good, bad, or neither?",0,7f45982c84b0e62975c836530ebc5c20ed43e2aaac4d7f1c99d59dac30103bb0a2c7f0c3eb3c011244e3b29b96036757199959b8d8fbcc5cf995fee8253a05f5
"Samuel trusted the crose for its zurk. Is this good, bad, or neither?",0,5de7b886a8e9d03160145a2c857e7a513d279c1afda8a15e2f3b842b220911a0db6d8f73ebf2fa9d9628aa86f669ca60c7bb844f3535032c2078a13a63bb8b6e
"Samuel trusted the crose for its zurk. Is this good, bad, or neither?",5,5f3db39fa8be904f16214747ac3745370d0bfde90dd521c9ee324890a95e02210ccc1d8f6df8a71d9c45d04ad3b8b1152d6aa89fc37bc7db4d1e87559736f6f4
"Samuel trusted the crose for its zurk. Is this good, bad, or neither?",0,d52d0f79310a4a1585de2ba281cae55d8bf4f66ee89a3b0afe5bec86ac64f3fbcf4ac04acc90a017d6f66a1259e7c33c370048fe26771c06104f79c7f0e7daea
"Samuel trusted the crose for its zurk. Is this good, bad, or neither?",0,fb3ee4e72eb582b2b2920acd3ac5a4ed00149c2560bf0255b9bc8237d80cbadd7b353ced6ab5662f69dfe00d362575b7da94144cd2374866a682e39b17cc3c0d
"Samuel trusted the crose for its zurk. Is this good, bad, or neither?",0,948b1546ab23598285d2f77f39e4276a3a82e5d340295aa6760c9fc6f36b7437bb3a495a3ba88d447f3fe661e3d3dc2ca10e32b8b5eb3feb6619e793bc050ef2
"Samuel trusted the crose for its zurk. Is this good, bad, or neither?",0,66ab85eabac73555896b5e2d0edb83fa95f45bc84fb8ea138679613161d8f2eeff6419a65df002bbae10680df73519943e9312e58b7f88d19d9b33c4d93114b6
"Samuel trusted the crose for its zurk. Is this good, bad, or neither?",0,caff777a2303da77340521ef83945a07684b2612ccb93a9fe1e9e6b34d4e52177c4499982e59c5f493664f3123c4c9738867850e7445f494ca6c22600eb6e56a
"Samuel trusted the crose for its zurk. Is this good, bad, or neither?",0,28195e505193242d636c8cf88927e3353b64c1e9365b6d4fe6834ae467adb58cc661083c465cf575a9d4e6e6ea9daf2f4e5b8eaf892be186be05aa6b9c0519ec
"Samuel trusted the crose for its zurk. Is this good, bad, or neither?",0,832b19ea4eb64ad4f6298c0933ec2f6ba994974bcbbda62a7a0088a00f6cd96bd27aca96187875bf07fe2c868f7cd9e74b39598b91c261fd45079e5150637de4
"Samuel trusted the crose for its zurk. Is this good, bad, or neither?",0,69bf71a23950a19d51588205bb33b43a6c847df0a5e564427b2d61a5489a3d037dcf472674ab77e4abb6133e088ce98f278ad721e939562236b4f32ab79e07e7
"Samuel trusted the crose for its zurk. Is this good, bad, or neither?",0,a5c073306569583b1452bb0d9993ce03eb3064e9c24ad08478942dcaa9253f72224cded64b65c25665f6015f552724e340f2ed78c1f3fbe29f5ded4dfc3eaf99
"Samuel trusted the crose for its zurk. Is this good, bad, or neither?",4,4677c4143517d2051de5cbf9aa5a25ccb653037481ff35e9c2b97f50c613a1b28c85c55b0cf0b7ce955543185f3480a0c2b351ab73eea654efb2a2bc1e366d6d
"Samuel trusted the crose for its zurk. Is this good, bad, or neither?",6,86bc1d1555195ec4284c6b52b4c6fa28d97d6b13a1cf2c6e88c4f15efbc2b557cd0895c151b69d3044d558b65b27d4c6971ef5825d37f4c87ea811af34099764
"Samuel trusted the crose for its zurk. Is this good, bad, or neither?",4,0d19c982875c6e1039857c9e12d569d24a88f16afb8274468f683859c7fb1e8f625bea82d85acacf66faaeda9f4f894656a3ef87fab4ef398b355a0624ab70c2
"Samuel trusted the crose for its zurk. Is this good, bad, or neither?",0,41628a0f8849c48d09c00e99c4a99cae8b10c5d31c76fc5043a816bea93afdb63771aa227c3fc1235d69b6c482ed4c1972716b6868be483c3ecaba9ca7efddc1
"Samuel trusted the crose for its zurk. Is this good, bad, or neither?",0,d8d36b556cb88089c396a1aa18d3b2fcc76975bf65b7c36c6bfdde6fb04622148a36cd6ddaf29b2df5b5d98328fadebc0d4a61203ea283c2a49ea9dc69cc2a86
"Samuel trusted the crose for its zurk. Is this good, bad, or neither?",0,ecd12f5c7840150b6bf31f41cfe805fbb7f1e24d87bc7f9a7e4a26034d172ee611537c7e49e1951d513a1b63598bec45f4cf8d3fd4936ebe2747d7e8018937e5
"Samuel trusted the crose for its zurk. Is this good, bad, or neither?",2,fce00a4ae7d3a432de329b9a6565c363a592130bba149228a5d18d7e141f01725003046cc2f477fe8494d10692aa0f1e793f7e61f54fe897de3f1ac1d78d0a20
"Samuel trusted the crose for its zurk. Is this good, bad, or neither?",2,ecd12f5c7840150b6bf31f41cfe805fbb7f1e24d87bc7f9a7e4a26034d172ee611537c7e49e1951d513a1b63598bec45f4cf8d3fd4936ebe2747d7e8018937e5
"Samuel trusted the crose for its zurk. Is this good, bad, or neither?",4,2e08ea7a396b5dc2fc6ff518b56da9298cfd603a2f489e5145c092eb9870a320d2bfa8fd161fe5975a370e19055991d826fd24dea216f722fe25dbbf75088cd3
"Samuel trusted the crose for its zurk. Is this good, bad, or neither?",4,57a947b4726b316ef3de8125c96372e75e16dce1aa9280a41fe713e4af5e81c427ef0c9f7309dd4e6521a571c229df06f801b07f3d6052cc26e4692df5f2e0b4
"Samuel trusted the crose for its zurk. Is this good, bad, or neither?",2,d03fd8d397cfad2998f59b35fe4b50c99d8593288e43304639e4dd6f84235d3b4deffde0e31dd1b4c8a1bf290b1260f14e9bb710dec3de0987727bd0cec0da36
"Samuel trusted the crose for its zurk. Is this good, bad, or neither?",0,9e4013154f0a1507ccbad82f319a33f94cbca2b3500085187724eb8c6b9c15a77844a8e06291b2ecc7a5be930a9f3d32ebcf81ed14be737e9d4a7803f2677cec
"Samuel trusted the crose for its zurk. Is this good, bad, or neither?",0,a7dc9d4f184ea86b7b6e6869b9a53887f9af455a7a9b3f701cc20ec18e11435fdb90d9c3eed921996792de6c1628b7a27219b25f044ffe99d725092cbc88af6e
"Samuel trusted the crose for its zurk. Is this good, bad, or neither?",0,5a23402dc15233be68d0f6f87dcdce887a714a5507871ff7b39191fbd84ad58479f2c95fb420e292d80b74051e38f9f54e2670ad4b963f05e83c6224babbf504
"Samuel trusted the crose for its zurk. Is this good, bad, or neither?",0,ec2ad47841a52336867abb7c569dd78e940dfc3520ddc7b0fac19e6fa3f50086f8c01696911d38c87825dd066145108dad38fcdbc4e8b8844a622d804bcc6930
"Samuel trusted the crose for its zurk. Is this good, bad, or neither?",0,fd1957fc4ac94c9d517d3a1ebd22f70bd60231bd9afdf765049797f4d73442fadeba7eefb97518ec49c2375e20d096ac8dc87cc4b1f160eee060f18f36a38e7b
"Samuel trusted the crose for its zurk. Is this good, bad, or neither?",4,432e022d70279ade11f7ad8d4d28802e40cc70f4fce90942fa41ece53dc18bac5a2450df2933fb7b5d853a2b031598cf2a9eedfc5fca596949fb0165bb8d7838
"Samuel trusted the crose for its zurk. Is this good, bad, or neither?",6,dbceabc8fc6daffd15d6d12d8cb2eb569115e451c6563e2e129ed0473f68e7b1e4bac3f2c24877e333d7eb6b0c0084bc4fc0dd2ab373c40e2543fd9dbbe8bb01
"Samuel trusted the crose for its zurk. Is this good, bad, or neither?",0,af2a334d706c1b69573a219943b69d932d7ab19af138b53be67e9aecd99fabaeb2a49b44537009c3139302d498eb4b5f83a8e2bb09d9b9cfb8869bd630c6c757
"Samuel trusted the crose for its zurk. Is this good, bad, or neither?",0,f152fccfa1b4275911c3d51209757f8f47524d9e0dac927fa3cf085a412f2995c54db4378764d73c2aeccf796c683eda37b79db7a22b6c9fb80818fa2a0358f7
"Samuel trusted the crose for its zurk. Is this good, bad, or neither?",2,512926c32568782467c043d9acacef7e1297fe10e47106d36f90ed38f8036a40a0f8a10a29ae7a31a0a93e5ad4fed44921abf919134ac7a8d096c8022d200715
"Samuel trusted the crose for its zurk. Is this good, bad, or neither?",0,25f59b566bfd6c48199f78f2ca8c9e3394ba87dd2b89641de88eadfe68d9f750c0706df1f2c4ec7d3b8a68dc3684d43958937d6d1b9641bd2933ada2425d599f
"Samuel trusted the crose for its zurk. Is this good, bad, or neither?",0,654abee2a34ea238dd9860279c2e4f4ca17d0745f80e3a567f1be1f8bc80565588c6bc0d387e4705bac6ad4b8113565bc4647802a60f9ec02d1e658cb7bd2331
"Samuel trusted the crose for its zurk. Is this good, bad, or neither?",4,5f12e05c2e694ca4d0d50f5c90ffefa31fc5c326c5f6352ab6f2d69efda09898d7fa2e899476fb98164baf5559806eee7fc6f92a8cd7641d9b208f848e51b143
"Samuel trusted the crose for its zurk. Is this good, bad, or neither?",0,d8df607040709fef5fb20aa491224fa16acfc168677e32ca2d49bcfb2a46636d9689ca87bb80c6414053f1a4e7f6a603dea0eab18b40e08c1654ec0212613b5e
"Samuel trusted the crose for its zurk. Is this good, bad, or neither?",0,5cd49a816d389109ba1de471234af76714b514d25e6deb8ee8312e6ccc4ad6f8fb1090ea989df4adcd6fcdf54fd1b3b5001f883eaf1aa0d3324fcb4ec691aa30
"Samuel trusted the crose for its zurk. Is this good, bad, or neither?",2,3ce1c91573b49e76ae6d43c669a24733296314c25baffa84d6693179025159771a3c7b297e83491615fff176965dd211be78675095cfe008040fcf254df14810
"Samuel trusted the crose for its zurk. Is this good, bad, or neither?",0,21a65c15b3bbe24844899a284fb2239e80247056750510b98b004d6d5a236e73e581c1d7e033eb03d4649d2d009d6deaf5dba070dafb69aa762c6dae0ff06e3a
"Samuel trusted the crose for its zurk. Is this good, bad, or neither?",0,819161aa2e764fd74ba60f02978d28b130e488d1f6ed613c48db286b68fe06ef24eeeb946d2af813bac598640b43342cd2b7a142eb31a6fff239faaae995f9f7
"Samuel trusted the crose for its zurk. Is this good, bad, or neither?",0,531c667d4f67a26af45a5bfab6e20324aaa1acbcdbd2ac94f656bed1a4a854ed782760da32b1894db093d87f786a06b36748c4859a7d63a8ee897aa837aedc5e
"Samuel trusted the crose for its zurk. Is this good, bad, or neither?",0,b4a89e063c479339463fe8a3755a45afdb72640d55ae6f8499866bdce35aea79532c96c386d3e305abf960bd172306159148a5dedc70fc0c191353ec94176ac4
"Samuel trusted the crose for its zurk. Is this good, bad, or neither?",0,6f16233ce91dd3e70004541a71a1aba0a5b74fecbe7fff7debed231210556cc15f33e0ad09ee39575226d8e7f5ba397aae9fe9240be5507f04db735ef4ee3b92
"Samuel trusted the crose for its zurk. Is this good, bad, or neither?",0,50aa0d086dd851849cd5a0886f2973d2a3890a8c58a57cda4dcc57a3e2c937d12bfb291a2b527534fdf3492d785729e551a00efe81e3c3ecc0a90205774f05bd
"Samuel trusted the crose for its zurk. Is this good, bad, or neither?",0,f162a9eace4545ab3748bcc1b5e87034f6d0dd27a713d1727b110d181abbcb306512c9c17c589c05c14876a905d370d73270a2603b249a0a1b523a5fc5d176dc
"Samuel trusted the crose for its zurk. Is this good, bad, or neither?",0,c2a35a9e3a4e63030e1b1467ea5c631724ace41aa9aab9a34f7eb3dea239079ba738fd4333a249f113a2423c2b23c3dc9bd99213f8a783d851527ee9cb86f84b
"Samuel trusted the crose for its zurk. Is this good, bad, or neither?",2,b4a89e063c479339463fe8a3755a45afdb72640d55ae6f8499866bdce35aea79532c96c386d3e305abf960bd172306159148a5dedc70fc0c191353ec94176ac4
"Samuel trusted the crose for its zurk. Is this good, bad, or neither?",0,7f095045b96e3f9cad42a3bdc93ae5ff5c49f20d0a5a4181f46d15cdef7b2a544f0348501a70e8666d97e8c9b5c83bdff2e241f897607bc993873a80889f7490
"Samuel trusted the crose for its zurk. Is this good, bad, or neither?",0,26729c392072f043615adffdd8653c7ba3bb0a1666325fbc5e4200c5527ff8f7b18e0fe11a3076def10d3c2e4eae07213bcb2c233bab7241ba47f38ad8a9ccd4
"Samuel trusted the crose for its zurk. Is this good, bad, or neither?",7,0ca87715be5df199ebada6867f7e0e75295c7ededa0fbd84664b9240578d42457d55abd66e8d40f24cae8c5c5c0a506eae9b839711a908d418039a14a0ca3135
"Samuel trusted the crose for its zurk. Is this good, bad, or neither?",0,2f9462113b5e9601214e682c9cca4bae20f7a2bd9f6b7580e21b2ed74c953986cd53cac441413ec6c175876577943995429763c2ac64cd4327329f8013b68332
"Samuel trusted the crose for its zurk. Is this good, bad, or neither?",4,51cc995b1f5ffa024424a253cec1e499b8a7b112ea9c416812d86689d68beb1c938cc39495ade8e54db0b2168969989c5832dd3200cdc0bd798367a8b09a7964
"Samuel trusted the crose for its zurk. Is this good, bad, or neither?",6,51cc995b1f5ffa024424a253cec1e499b8a7b112ea9c416812d86689d68beb1c938cc39495ade8e54db0b2168969989c5832dd3200cdc0bd798367a8b09a7964
"Samuel trusted the crose for its zurk. Is this good, bad, or neither?",0,5d818587500e31ddd24f674f0d96e8036b1fbbdeff8f12716de7cf436031070adc160ac58c2058f70b7756b9758d4cc6c60cd86cb5fbac5b08e94434f347d5fc
"Samuel trusted the crose for its zurk. Is this good, bad, or neither?",0,9d8ddb67f662349a7f7a7c5a32fee73c457fd70d135ae4be6f17a68418102d35693b26415c8fd8c7bd26a5b5032587ac08aefd055994f62fcb3e9a44d5cb51b0
"Samuel trusted the crose for its zurk. Is this good, bad, or neither?",0,9fa34cf7fb8dea4ed69138f7a8cb88f05fb7799bd02a2c55f01ffabfc4886b672b779cf89dcf7bec0a19171745d3989b0613cd31bb6b5fe5ff447993c52886b4
"Samuel trusted the crose for its zurk. Is this good, bad, or neither?",0,720bea532db6ed90a7bd855c056e2ccc32b0f2fe90eb490aa4d644afcc89620fb5f7c3bf4971d931a8aef22130fb8976bd9e83f534038e3c4e8421311520cb5d
"Samuel trusted the crose for its zurk. Is this good, bad, or neither?",0,ed02e20cfb42701b476bcdd51d82462911339c3c6c02b25cd0dcc8c9f6b2e2cb15f1b8f3f6c18e3ceb05290902f1230bb8570f448a59fefb7e4a0987a0461d1b
"Samuel trusted the crose for its zurk. Is this good, bad, or neither?",2,ddaaf85b6ad92e5bd899125be0ee1d1e475cef85f10f7c86eb80b3e666aa2d27b9930efbf239779906809e3b49e9c42c65a28830cce2f7034e42c039095ac370
"Samuel trusted the crose for its zurk. Is this good, bad, or neither?",0,8c485b8d8102e3b3f5f75842faf138c57e422ec6e89849811afebe94cc7117a9a64b4c0ddf6d65608bb622699cd6c0d4017c3eb4352790a1877a2c123f0cfabe
"Samuel trusted the crose for its zurk. Is this good, bad, or neither?",2,eb4b6b706a0f89e14a2d8d16dfc7aa9c87a7d0595820e60b0d5dec6c005f0197619f954c3c62e433d7c45a2749d03a361351da7118319f5edfc5ea8c0c918e14
"Samuel trusted the crose for its zurk. Is this good, bad, or neither?",2,09bbb38f5dd8235cf44d38725804029527c42a20731ab136a3b8aab53630ce178689a70589bf9dd53a48c43ad209e01377be814f8d9e02d22ee971162d2206b8
"Samuel trusted the crose for its zurk. Is this good, bad, or neither?",2,ab817809187642176d23d87932f87fb8cac29305dd69bd9c80c875e1418683baeb300a33a4ea303e96598aee641e58ffef6ed700b09ee5a77559e157e08d3320
"Samuel trusted the crose for its zurk. Is this good, bad, or neither?",5,17f6732cbcd360848927fad93c861a02892af401338bc95414692acfacfa7d9ad8dd7dc0691a31a9d719f2dded1671f031232d2413fb564895308f69d045f664
"Samuel trusted the crose for its zurk. Is this good, bad, or neither?",1,65746cc9b5d124cd0c8912e8404568e181bb7f047ee2e30ba13e513d13c16914a6941e60166d98e1fde3dfdc2ff7ad123e94554ca2f65d6661436db99bb614fe
"Samuel trusted the crose for its zurk. Is this good, bad, or neither?",0,6442579b5017c978ac48004d53b31163b3763f309e6f3e0581e04c2aea211970cc33a63b0462acee00808e5c684e9c9445efbc52c93000c0cc6f7f2e7cc3b7f1
"Samuel trusted the crose for its zurk. Is this good, bad, or neither?",0,af673fb7363bd7bbfff4234c51ef17d95617d29ee586c0b8c95d5fb752a2648b71a9d7248a61f666dfd2110500dfaae73fa3761dab9a99bdee3a72b029e4aad4
"Samuel trusted the crose for its zurk. Is this good, bad, or neither?",0,305f2f29687fda8e291e598686a4a089cc57c27d26fc2dea3e28544183df6fdd4ce792399dcac730c7aa7109f82a09aace9c895bf9596d257e113393be774056
"Samuel trusted the crose for its zurk. Is this good, bad, or neither?",2,08ea6ea397537c84ac209f08bf3bec2c0ff500e94266cd17fa45d303b288126de192d25b7f3331a02fdcad8a68ce682fafad99f95ec45259d05ed65d6cd3505e
"Samuel trusted the crose for its zurk. Is this good, bad, or neither?",0,aeaead0bad2cd8cd8e00067df1d0ddd61b9ba6afec23c08f5c84f413ad2e263545b447c45633570fb4f2c9b3d3be895bc1e474eb157f9f9b4ac62955a36370ef
"Samuel trusted the crose for its zurk. Is this good, bad, or neither?",0,e62b4297dd8ca20fffcd5ac1980e37d78b9f2883e69baf92048f305d861c258a0be9028817fa64adff81fef161c19e187aa31cc5d1e509e07abd4aba10cd07e7
"Samuel trusted the crose for its zurk. Is this good, bad, or neither?",5,5f3db39fa8be904f16214747ac3745370d0bfde90dd521c9ee324890a95e02210ccc1d8f6df8a71d9c45d04ad3b8b1152d6aa89fc37bc7db4d1e87559736f6f4
