"The pord entertained Jacob moopy. Is this good, bad, or neither?",0,5d818587500e31ddd24f674f0d96e8036b1fbbdeff8f12716de7cf436031070adc160ac58c2058f70b7756b9758d4cc6c60cd86cb5fbac5b08e94434f347d5fc
"The pord entertained Jacob moopy. Is this good, bad, or neither?",0,9d8ddb67f662349a7f7a7c5a32fee73c457fd70d135ae4be6f17a68418102d35693b26415c8fd8c7bd26a5b5032587ac08aefd055994f62fcb3e9a44d5cb51b0
"The pord entertained Jacob moopy. Is this good, bad, or neither?",0,720bea532db6ed90a7bd855c056e2ccc32b0f2fe90eb490aa4d644afcc89620fb5f7c3bf4971d931a8aef22130fb8976bd9e83f534038e3c4e8421311520cb5d
"The pord entertained Jacob moopy. Is this good, bad, or neither?",0,ddaaf85b6ad92e5bd899125be0ee1d1e475cef85f10f7c86eb80b3e666aa2d27b9930efbf239779906809e3b49e9c42c65a28830cce2f7034e42c039095ac370
"The pord entertained Jacob moopy. Is this good, bad, or neither?",2,6f5d3137f68645162d6754029499a9ec7ae5684f56847c76e1aed3915b42b3ec8caf636fecf4f90a32b0151ee5f9c6a1d6452b80a69f77275d541c9cea4cbff1
"The pord entertained Jacob moopy. Is this good, bad, or neither?",2,ab817809187642176d23d87932f87fb8cac29305dd69bd9c80c875e1418683baeb300a33a4ea303e96598aee641e58ffef6ed700b09ee5a77559e157e08d3320
"The pord entertained Jacob moopy. Is this good, bad, or neither?",0,6442579b5017c978ac48004d53b31163b3763f309e6f3e0581e04c2aea211970cc33a63b0462acee00808e5c684e9c9445efbc52c93000c0cc6f7f2e7cc3b7f1
"The pord entertained Jacob moopy. Is this good, bad, or neither?",0,609868e2cf6de58a506a6731afe55c53d93510e3a34e58705479846aa7ccef2469a0081dc7ad92826b214afccaa96b3202ca07a32e7d6afd795c5776ef5511be
"The pord entertained Jacob moopy. Is this good, bad, or neither?",0,675a6154d38e7981c932127e219f374c1a8880011eab4c932106ac51314fb2868ba8fd7264f3bb40c5a96272dc019e5c9cf6c60011e9e9a04b73042a43219af2
"The pord entertained Jacob moopy. Is this good, bad, or neither?",0,08ea6ea397537c84ac209f08bf3bec2c0ff500e94266cd17fa45d303b288126de192d25b7f3331a02fdcad8a68ce682fafad99f95ec45259d05ed65d6cd3505e
"The pord entertained Jacob moopy. Is this good, bad, or neither?",2,aeaead0bad2cd8cd8e00067df1d0ddd61b9ba6afec23c08f5c84f413ad2e263545b447c45633570fb4f2c9b3d3be895bc1e474eb157f9f9b4ac62955a36370ef
"The pord entertained Jacob moopy. Is this good, bad, or neither?",2,f809aecd182f2a7610b3bcb063779a7f02b85e58126d1d7433ff9c7e0ff8b61a4dd7550404e90a1423050ed8fdb03de7720d8065b11ab6b95d238943cdbbea81
"The pord entertained Jacob moopy. Is this good, bad, or neither?",2,305f2f29687fda8e291e598686a4a089cc57c27d26fc2dea3e28544183df6fdd4ce792399dcac730c7aa7109f82a09aace9c895bf9596d257e113393be774056
"The pord entertained Jacob moopy. Is this good, bad, or neither?",0,305f2f29687fda8e291e598686a4a089cc57c27d26fc2dea3e28544183df6fdd4ce792399dcac730c7aa7109f82a09aace9c895bf9596d257e113393be774056
"The pord entertained Jacob moopy. Is this good, bad, or neither?",4,5413a412d4833ac9cfad22dce2c78e46f7ad8e3534e1741f4732e318296028ad444f1ba913fed810c1af16b369223c94f1ec5ea721d12e9753ad7d6d7ba1cf04
"The pord entertained Jacob moopy. Is this good, bad, or neither?",0,44ff1cf089bbf7211828a3fdb20b42438871616ec1673ead8a12f71d33cd02a9c9b6277f081d013d9f2ec7440ed01aff2b636ec53a25db5c848ae2217fd50870
"The pord entertained Jacob moopy. Is this good, bad, or neither?",7,7d9ca1b7ff2381bd13ad93aab1b1302f3ba5f14fb208c81ab0983ba6f04b30ff727df4cf48e7f8934004608a1283712fabc1421db5259737bfc4be65ff4abcca
"The pord entertained Jacob moopy. Is this good, bad, or neither?",0,8a74478a9db13d691c15cdcee8e51f2a7166c095ebc46b46a45db0f7e71f25326113b63f51c722ce73b2f2cb4b6c23f1f5bcf0819b2b17e93467b4e32ae84781
"The pord entertained Jacob moopy. Is this good, bad, or neither?",2,c7a93a1a31d259cbb634d580334bbade3ce106ee969a90e587caf773a032d589ff5b759885e1c6b6263eedcc4340eb250a485471beb78180478fae5199e93485
"The pord entertained Jacob moopy. Is this good, bad, or neither?",2,87ef026014587c59d56fa4c2071e6bb9d3bed56b2c3afb54b24d4cc832295bd62bbfb4a581d1881c6fcb84d2fb80ee66fccefc5a7457a6dc6289793ff7e7d0dc
"The pord entertained Jacob moopy. Is this good, bad, or neither?",0,fb3ee4e72eb582b2b2920acd3ac5a4ed00149c2560bf0255b9bc8237d80cbadd7b353ced6ab5662f69dfe00d362575b7da94144cd2374866a682e39b17cc3c0d
"The pord entertained Jacob moopy. Is this good, bad, or neither?",0,832b19ea4eb64ad4f6298c0933ec2f6ba994974bcbbda62a7a0088a00f6cd96bd27aca96187875bf07fe2c868f7cd9e74b39598b91c261fd45079e5150637de4
"The pord entertained Jacob moopy. Is this good, bad, or neither?",0,948b1546ab23598285d2f77f39e4276a3a82e5d340295aa6760c9fc6f36b7437bb3a495a3ba88d447f3fe661e3d3dc2ca10e32b8b5eb3feb6619e793bc050ef2
"The pord entertained Jacob moopy. Is this good, bad, or neither?",0,28195e505193242d636c8cf88927e3353b64c1e9365b6d4fe6834ae467adb58cc661083c465cf575a9d4e6e6ea9daf2f4e5b8eaf892be186be05aa6b9c0519ec
"The pord entertained Jacob moopy. Is this good, bad, or neither?",0,caff777a2303da77340521ef83945a07684b2612ccb93a9fe1e9e6b34d4e52177c4499982e59c5f493664f3123c4c9738867850e7445f494ca6c22600eb6e56a
"The pord entertained Jacob moopy. Is this good, bad, or neither?",5,d79e7515461bb1786cfade2fd1b566088466eb1af1860429e53f7824487f48c6430b7adafdb3398234e0c986489fd6d24eab828da7779aaeebbb45b45da90de1
"The pord entertained Jacob moopy. Is this good, bad, or neither?",0,ecd12f5c7840150b6bf31f41cfe805fbb7f1e24d87bc7f9a7e4a26034d172ee611537c7e49e1951d513a1b63598bec45f4cf8d3fd4936ebe2747d7e8018937e5
"The pord entertained Jacob moopy. Is this good, bad, or neither?",2,401591f278e1aaec5101f645338fca5fbbdec09332561ec98cafc52acdfccf065d04e4648dd1bf79814b86322d53768e40cef7ca3015a513d4528319988a1d5c
"The pord entertained Jacob moopy. Is this good, bad, or neither?",0,34ef1f05271654743005d09f6ddcde9b366a900be98f28a982b8327dde6d04bf19e0fd7522bf5d3227ea5e144e30f99798b079c0b2a8f10fd07deafd8d5bac27
"The pord entertained Jacob moopy. Is this good, bad, or neither?",0,41628a0f8849c48d09c00e99c4a99cae8b10c5d31c76fc5043a816bea93afdb63771aa227c3fc1235d69b6c482ed4c1972716b6868be483c3ecaba9ca7efddc1
"The pord entertained Jacob moopy. Is this good, bad, or neither?",0,819308386a595fdf2e7fee072f96383a8b6401282510662eaf379f6a21537740d7d77947a0135b2801650ee337e4bb810bbf97978fafe8ee6a8adfdd187cb77b
"The pord entertained Jacob moopy. Is this good, bad, or neither?",0,ce597c3be1c1e56ec52318cd374ec9d0decd95ec3e3309c025230b262a1150576aaabd5d3e3645d3fe3748bd405ed9ecde5f7d74cd33acbcc887690d9f32d7b4
"The pord entertained Jacob moopy. Is this good, bad, or neither?",0,cc9c9987906623603e2e9eba2dba21b651fc990b297db78b47b8f58fc67b11653f6fc502335a3079e49d106820c7f4e14791f69466c2759cd4683c52bdd58599
"The pord entertained Jacob moopy. Is this good, bad, or neither?",2,ecd12f5c7840150b6bf31f41cfe805fbb7f1e24d87bc7f9a7e4a26034d172ee611537c7e49e1951d513a1b63598bec45f4cf8d3fd4936ebe2747d7e8018937e5
"The pord entertained Jacob moopy. Is this good, bad, or neither?",0,2e08ea7a396b5dc2fc6ff518b56da9298cfd603a2f489e5145c092eb9870a320d2bfa8fd161fe5975a370e19055991d826fd24dea216f722fe25dbbf75088cd3
"The pord entertained Jacob moopy. Is this good, bad, or neither?",4,b0d9c2d8691f4316e1b262befbbf21875e54953ac94d958088ee327ec7e4b9a519987db3fe0c492b3c1bee962b256ef852d45c6ea7760841c756f9361c5f1c88
"The pord entertained Jacob moopy. Is this good, bad, or neither?",7,b6f36c56a6860c8bb436d8ee918bb26ce4e97f2edd09d955bc69b54682b5a044e59c18487cc69b3daf2525be1cc49f3f5e7b2acc14cf6aab41fefbac00fbdc59
"The pord entertained Jacob moopy. Is this good, bad, or neither?",0,a7dc9d4f184ea86b7b6e6869b9a53887f9af455a7a9b3f701cc20ec18e11435fdb90d9c3eed921996792de6c1628b7a27219b25f044ffe99d725092cbc88af6e
"The pord entertained Jacob moopy. Is this good, bad, or neither?",5,9cf8e8e6615ae2fe3e5aa3c1e47ccb1d10a536f77a6a854e4fcb940bd99ad008c6f1e6da515208802c533542294e8c102eb7f1aff6177f7a260903064f739dc0
"The pord entertained Jacob moopy. Is this good, bad, or neither?",4,218993547dbe97092e5e18ff43232db1135fa68459f10e67862cc3d1f0484852eeee9396f1056729dac7eb827ae501441e3b13dd360e53368aa7155435302f57
"The pord entertained Jacob moopy. Is this good, bad, or neither?",2,d9817c12ce36a895955c17e41a3ca19fb4ef7d6ac1a96738ed1f5b0e31276adb39221dcdf83a2de7d505b5e15f4700cb346343c6be6b2499e77d4b33ee5d7ef2
"The pord entertained Jacob moopy. Is this good, bad, or neither?",4,ac3b1b10808f1753ec2a45dbfd111934fc15f5c99e8d54caa1b9fa0399c450a1b4489cb0037029cbf93008625f0c076357a1b8e164d2f400a000fbd6062f7bad
"The pord entertained Jacob moopy. Is this good, bad, or neither?",0,58143be60853bd556d7cffab84a2afec618957571d30d8f278fb68ddcb193110e27edb7bb3e63a4073e62b9d311d34b4e62f5389cabcc22784d5a9e90fff8d72
"The pord entertained Jacob moopy. Is this good, bad, or neither?",2,8d4efa84a9bb8e9667071655f47b628c31c63fbecebcc52f82985ee4451fd33209295878ea20723664feed0efa795368fe04610f416253abf1f3fb549e8de7c4
"The pord entertained Jacob moopy. Is this good, bad, or neither?",4,6585205dbb5b6e4cc2330767cbcc92273e98547bc5a165daf0f88f893b711de745ac1b38f1fb6db5f5aff86c6925f0344b2e7a27a0682de64fcb4ae734f3396f
"The pord entertained Jacob moopy. Is this good, bad, or neither?",7,6585205dbb5b6e4cc2330767cbcc92273e98547bc5a165daf0f88f893b711de745ac1b38f1fb6db5f5aff86c6925f0344b2e7a27a0682de64fcb4ae734f3396f
"The pord entertained Jacob moopy. Is this good, bad, or neither?",0,d132ac951e6a9ee5aec8426f6f4c6159adabebeb33426fd8ed1864eb38c6196f3afee305ac784c458ed9d74777ef7698622c355e89235891e218ce6c8fdd0993
"The pord entertained Jacob moopy. Is this good, bad, or neither?",0,cb6d6950764e25c2e4086fb82936da4ed7085eb43c94536c7cf7c2c5a9f5b01377e930612201c8b71eba2f2644413c3442b9de2edb3e6dfc8012cacb57188e03
"The pord entertained Jacob moopy. Is this good, bad, or neither?",2,90a8f4e9c6304a51968e4385112cc74998b5b2947bd690613dc1f296d8e62b250b7cc50ecd80b1fd931a040b3b9b27dcce43f11dfe81ff6b1a53f359c0d008b9
"The pord entertained Jacob moopy. Is this good, bad, or neither?",0,0d3afeda5c04607df671120a803dc79ab9ad5cf78295c7255b686bf87700166fc3e3beed0fad9e1982877c59c524f8a7b726871b19050d47ffbc6c6e369a8497
"The pord entertained Jacob moopy. Is this good, bad, or neither?",3,572ca118c9e17c907bbf284c9c1f4bebe555a97fc81204f81bcd5016de55a67f8f0f518a630dd066ed202b30bf87697c0fee9a4a88a99709c36f8a56e2e7cb27
"The pord entertained Jacob moopy. Is this good, bad, or neither?",3,572ca118c9e17c907bbf284c9c1f4bebe555a97fc81204f81bcd5016de55a67f8f0f518a630dd066ed202b30bf87697c0fee9a4a88a99709c36f8a56e2e7cb27
"The pord entertained Jacob moopy. Is this good, bad, or neither?",2,512926c32568782467c043d9acacef7e1297fe10e47106d36f90ed38f8036a40a0f8a10a29ae7a31a0a93e5ad4fed44921abf919134ac7a8d096c8022d200715
"The pord entertained Jacob moopy. Is this good, bad, or neither?",0,864fd6d6c6f3b061f8849268ccbe26a8df17226567b244b0760c60bacd2b79ced559640987941fff3ebd0eb3949cea7885c56e467856a8919d1736aa402c8087
"The pord entertained Jacob moopy. Is this good, bad, or neither?",0,2e5811234ed8384e899048967a6c6cb894abd6b53357d91c38554e420e7b50d64df50d176e09b02fefd002548bf5fd6fea291bc50f736bb0994b6d5bc51effe2
"The pord entertained Jacob moopy. Is this good, bad, or neither?",0,0a10cfbe96898e179a6989823d1b388e63fd11f48fd9bb0f118bf62cd7dfea5dd88a7b1d57cbd9606e10dc7e76ef4a52208822cd8d1992d9cbf67431ac76dda0
"The pord entertained Jacob moopy. Is this good, bad, or neither?",0,19277661313b5118bd1b2e29039b47276f1f8235917f3217bf95498030989874a1ca10bb943fa21faf787d793095c0d4119e136013ed4a9be167f67c2a6d11d3
"The pord entertained Jacob moopy. Is this good, bad, or neither?",0,a8c587b500db841a040c834ea7e138d680f58a94067a016d1e34bb029e7a5755a7b629b83510771826624e6ba17f86d951b5c9399cff1af255e887a48cc06c67
"The pord entertained Jacob moopy. Is this good, bad, or neither?",5,ad0648afc53f455e63dddc592e5fcdd7d11c44e10d9fbffaed44a85958e6092aecaaec2f8276dc7de1359eadec2f899a6b42d3d680b18460b23cbe5c3801c874
"The pord entertained Jacob moopy. Is this good, bad, or neither?",6,ad0648afc53f455e63dddc592e5fcdd7d11c44e10d9fbffaed44a85958e6092aecaaec2f8276dc7de1359eadec2f899a6b42d3d680b18460b23cbe5c3801c874
"The pord entertained Jacob moopy. Is this good, bad, or neither?",3,5f12e05c2e694ca4d0d50f5c90ffefa31fc5c326c5f6352ab6f2d69efda09898d7fa2e899476fb98164baf5559806eee7fc6f92a8cd7641d9b208f848e51b143
"The pord entertained Jacob moopy. Is this good, bad, or neither?",3,5f12e05c2e694ca4d0d50f5c90ffefa31fc5c326c5f6352ab6f2d69efda09898d7fa2e899476fb98164baf5559806eee7fc6f92a8cd7641d9b208f848e51b143
"The pord entertained Jacob moopy. Is this good, bad, or neither?",3,5f12e05c2e694ca4d0d50f5c90ffefa31fc5c326c5f6352ab6f2d69efda09898d7fa2e899476fb98164baf5559806eee7fc6f92a8cd7641d9b208f848e51b143
"The pord entertained Jacob moopy. Is this good, bad, or neither?",3,5f12e05c2e694ca4d0d50f5c90ffefa31fc5c326c5f6352ab6f2d69efda09898d7fa2e899476fb98164baf5559806eee7fc6f92a8cd7641d9b208f848e51b143
"The pord entertained Jacob moopy. Is this good, bad, or neither?",3,5f12e05c2e694ca4d0d50f5c90ffefa31fc5c326c5f6352ab6f2d69efda09898d7fa2e899476fb98164baf5559806eee7fc6f92a8cd7641d9b208f848e51b143
"The pord entertained Jacob moopy. Is this good, bad, or neither?",3,5f12e05c2e694ca4d0d50f5c90ffefa31fc5c326c5f6352ab6f2d69efda09898d7fa2e899476fb98164baf5559806eee7fc6f92a8cd7641d9b208f848e51b143
"The pord entertained Jacob moopy. Is this good, bad, or neither?",3,5f12e05c2e694ca4d0d50f5c90ffefa31fc5c326c5f6352ab6f2d69efda09898d7fa2e899476fb98164baf5559806eee7fc6f92a8cd7641d9b208f848e51b143
"The pord entertained Jacob moopy. Is this good, bad, or neither?",3,5f12e05c2e694ca4d0d50f5c90ffefa31fc5c326c5f6352ab6f2d69efda09898d7fa2e899476fb98164baf5559806eee7fc6f92a8cd7641d9b208f848e51b143
"The pord entertained Jacob moopy. Is this good, bad, or neither?",4,84c1afe799d4272aa7977a14634bac231bb8cd519e4e038a83f42b7bac79ab979744a4f36ac27e8a7c3b6de9f9e3cf7976056363ef06c626d95efc1c7069738d
"The pord entertained Jacob moopy. Is this good, bad, or neither?",0,936d0ed6b945163efa98a12f9ada206cf38e906fb0e64d7b871384882890f5300a21af0feaa11ef5e210e1be97add27020da2cfbdfd03955f7991a131402dcea
"The pord entertained Jacob moopy. Is this good, bad, or neither?",0,3ce1c91573b49e76ae6d43c669a24733296314c25baffa84d6693179025159771a3c7b297e83491615fff176965dd211be78675095cfe008040fcf254df14810
"The pord entertained Jacob moopy. Is this good, bad, or neither?",0,0c1e43ef5b2f9488f1f2f5d3bb698140bc0a814ccd0552a4d3b9bc7f4899fbd7f112dda7c2abe51111db2cd9354f7ed05e8023ddc9513e6797cd881f2b3a9c2c
"The pord entertained Jacob moopy. Is this good, bad, or neither?",0,83e68bdb3c8d06734b9c63de2e996ad5203cfadd686bffeb5371242a53bd2562e4ee27b56455e36057ad2b7ff679b1bc0942e1b5e336f4762c4ed9cc49cb339a
"The pord entertained Jacob moopy. Is this good, bad, or neither?",4,f3285e952e201a33639358abf4b7414c261329a8aa8fd45df169b9e5d6998f8970331580e6d22fa82a21183312f6e0a66855c2abab9526f6c7e0eca79cc45a35
"The pord entertained Jacob moopy. Is this good, bad, or neither?",0,819161aa2e764fd74ba60f02978d28b130e488d1f6ed613c48db286b68fe06ef24eeeb946d2af813bac598640b43342cd2b7a142eb31a6fff239faaae995f9f7
"The pord entertained Jacob moopy. Is this good, bad, or neither?",0,8eb8eb9ee8a5dc5a76832099bd61e3988c8e01c2c58daae7a5a78563d2f5449d2ac146d6d35c79e2f33b7fe14c8d00f78deea59045dcb4570a6484c7fe7175f4
"The pord entertained Jacob moopy. Is this good, bad, or neither?",5,f74a189a696ebb5d3833d4b89b0f94733b24c099235b93e38989b213817f3f6c519b8f67d99e68d2aae2d8cec42afe0dc9936b8765108818964591269daa19f6
"The pord entertained Jacob moopy. Is this good, bad, or neither?",3,f87bd797138e7719152d98c926f1c7c9f1c76ac38dc498695a648e7526a6cfcb95b64d368fe3ebc5bc3ac51f533a0d85174785af52dd69f9395a9df7ff444cf4
"The pord entertained Jacob moopy. Is this good, bad, or neither?",0,1f8a6b22caaddfbb343721e8e04400288709447dcc8d0f1b6c2a090dde0f46f10b7ee7275599d94eae76c6354d88ba874f6349019ffa4b14642676ff0c017ad8
"The pord entertained Jacob moopy. Is this good, bad, or neither?",0,531c667d4f67a26af45a5bfab6e20324aaa1acbcdbd2ac94f656bed1a4a854ed782760da32b1894db093d87f786a06b36748c4859a7d63a8ee897aa837aedc5e
"The pord entertained Jacob moopy. Is this good, bad, or neither?",2,72d1c9853df3d3644610f651fe7698341b570aaefc46052d0ded8bbbdc6d391fd63756a98ecba6103b15777dc7237c385637dd01aa20a1dae807fa976cc0b5fd
"The pord entertained Jacob moopy. Is this good, bad, or neither?",0,7484c2f908d62bd3244bab7768ff7918480e6a0e39d71ef0478ca7b2f1aa49bc679d17a77a5149744105626d9cbf86008859de1cd7005530d0c7d7fe62ba175d
"The pord entertained Jacob moopy. Is this good, bad, or neither?",0,5d818587500e31ddd24f674f0d96e8036b1fbbdeff8f12716de7cf436031070adc160ac58c2058f70b7756b9758d4cc6c60cd86cb5fbac5b08e94434f347d5fc
"The pord entertained Jacob moopy. Is this good, bad, or neither?",0,9d8ddb67f662349a7f7a7c5a32fee73c457fd70d135ae4be6f17a68418102d35693b26415c8fd8c7bd26a5b5032587ac08aefd055994f62fcb3e9a44d5cb51b0
"The pord entertained Jacob moopy. Is this good, bad, or neither?",0,720bea532db6ed90a7bd855c056e2ccc32b0f2fe90eb490aa4d644afcc89620fb5f7c3bf4971d931a8aef22130fb8976bd9e83f534038e3c4e8421311520cb5d
"The pord entertained Jacob moopy. Is this good, bad, or neither?",0,ddaaf85b6ad92e5bd899125be0ee1d1e475cef85f10f7c86eb80b3e666aa2d27b9930efbf239779906809e3b49e9c42c65a28830cce2f7034e42c039095ac370
"The pord entertained Jacob moopy. Is this good, bad, or neither?",2,6f5d3137f68645162d6754029499a9ec7ae5684f56847c76e1aed3915b42b3ec8caf636fecf4f90a32b0151ee5f9c6a1d6452b80a69f77275d541c9cea4cbff1
"The pord entertained Jacob moopy. Is this good, bad, or neither?",2,ab817809187642176d23d87932f87fb8cac29305dd69bd9c80c875e1418683baeb300a33a4ea303e96598aee641e58ffef6ed700b09ee5a77559e157e08d3320
"The pord entertained Jacob moopy. Is this good, bad, or neither?",0,6442579b5017c978ac48004d53b31163b3763f309e6f3e0581e04c2aea211970cc33a63b0462acee00808e5c684e9c9445efbc52c93000c0cc6f7f2e7cc3b7f1
"The pord entertained Jacob moopy. Is this good, bad, or neither?",0,609868e2cf6de58a506a6731afe55c53d93510e3a34e58705479846aa7ccef2469a0081dc7ad92826b214afccaa96b3202ca07a32e7d6afd795c5776ef5511be
"The pord entertained Jacob moopy. Is this good, bad, or neither?",0,675a6154d38e7981c932127e219f374c1a8880011eab4c932106ac51314fb2868ba8fd7264f3bb40c5a96272dc019e5c9cf6c60011e9e9a04b73042a43219af2
"The pord entertained Jacob moopy. Is this good, bad, or neither?",0,08ea6ea397537c84ac209f08bf3bec2c0ff500e94266cd17fa45d303b288126de192d25b7f3331a02fdcad8a68ce682fafad99f95ec45259d05ed65d6cd3505e
"The pord entertained Jacob moopy. Is this good, bad, or neither?",2,aeaead0bad2cd8cd8e00067df1d0ddd61b9ba6afec23c08f5c84f413ad2e263545b447c45633570fb4f2c9b3d3be895bc1e474eb157f9f9b4ac62955a36370ef
"The pord entertained Jacob moopy. Is this good, bad, or neither?",2,f809aecd182f2a7610b3bcb063779a7f02b85e58126d1d7433ff9c7e0ff8b61a4dd7550404e90a1423050ed8fdb03de7720d8065b11ab6b95d238943cdbbea81
"The pord entertained Jacob moopy. Is this good, bad, or neither?",2,305f2f29687fda8e291e598686a4a089cc57c27d26fc2dea3e28544183df6fdd4ce792399dcac730c7aa7109f82a09aace9c895bf9596d257e113393be774056
"The pord entertained Jacob moopy. Is this good, bad, or neither?",0,305f2f29687fda8e291e598686a4a089cc57c27d26fc2dea3e28544183df6fdd4ce792399dcac730c7aa7109f82a09aace9c895bf9596d257e113393be774056
"The pord entertained Jacob moopy. Is this good, bad, or neither?",4,5413a412d4833ac9cfad22dce2c78e46f7ad8e3534e1741f4732e318296028ad444f1ba913fed810c1af16b369223c94f1ec5ea721d12e9753ad7d6d7ba1cf04
"The pord entertained Jacob moopy. Is this good, bad, or neither?",0,44ff1cf089bbf7211828a3fdb20b42438871616ec1673ead8a12f71d33cd02a9c9b6277f081d013d9f2ec7440ed01aff2b636ec53a25db5c848ae2217fd50870
"The pord entertained Jacob moopy. Is this good, bad, or neither?",7,7d9ca1b7ff2381bd13ad93aab1b1302f3ba5f14fb208c81ab0983ba6f04b30ff727df4cf48e7f8934004608a1283712fabc1421db5259737bfc4be65ff4abcca
"The pord entertained Jacob moopy. Is this good, bad, or neither?",5,d79e7515461bb1786cfade2fd1b566088466eb1af1860429e53f7824487f48c6430b7adafdb3398234e0c986489fd6d24eab828da7779aaeebbb45b45da90de1
