"Emily broke the gamp with a treem. Is this good, bad, or neither?",1,5d818587500e31ddd24f674f0d96e8036b1fbbdeff8f12716de7cf436031070adc160ac58c2058f70b7756b9758d4cc6c60cd86cb5fbac5b08e94434f347d5fc
"Emily broke the gamp with a treem. Is this good, bad, or neither?",2,ddaaf85b6ad92e5bd899125be0ee1d1e475cef85f10f7c86eb80b3e666aa2d27b9930efbf239779906809e3b49e9c42c65a28830cce2f7034e42c039095ac370
"Emily broke the gamp with a treem. Is this good, bad, or neither?",2,720bea532db6ed90a7bd855c056e2ccc32b0f2fe90eb490aa4d644afcc89620fb5f7c3bf4971d931a8aef22130fb8976bd9e83f534038e3c4e8421311520cb5d
"Emily broke the gamp with a treem. Is this good, bad, or neither?",1,c5fd9cfb80da8eeedda47b99cd536cef1dc23bacba71c65feb38fab52a1a667e2ef0b340dbb344b26f19e5fb98c9e52383735dd3ff2f7e7f0a0cc524a9b8bf2e
"Emily broke the gamp with a treem. Is this good, bad, or neither?",1,6f5d3137f68645162d6754029499a9ec7ae5684f56847c76e1aed3915b42b3ec8caf636fecf4f90a32b0151ee5f9c6a1d6452b80a69f77275d541c9cea4cbff1
"Emily broke the gamp with a treem. Is this good, bad, or neither?",4,ab817809187642176d23d87932f87fb8cac29305dd69bd9c80c875e1418683baeb300a33a4ea303e96598aee641e58ffef6ed700b09ee5a77559e157e08d3320
"Emily broke the gamp with a treem. Is this good, bad, or neither?",4,2bddce971fb9dfadb0e50fcd15f5da42f2ef8c476a4212bde20a28dfb3b51b03b619ae1daafc7905fad410c42d69ea64cce4d2e705a9f283a1f36221d9537557
"Emily broke the gamp with a treem. Is this good, bad, or neither?",1,6442579b5017c978ac48004d53b31163b3763f309e6f3e0581e04c2aea211970cc33a63b0462acee00808e5c684e9c9445efbc52c93000c0cc6f7f2e7cc3b7f1
"Emily broke the gamp with a treem. Is this good, bad, or neither?",4,fdcb2b05d3a3aa943a3b3391fa64407435c94b0436e74263463c67e17e9953705d3526147878dc1d17eeb8a37311cc71097d78d69109654a83ffff02ede3aedb
"Emily broke the gamp with a treem. Is this good, bad, or neither?",1,3ba7f77ae10c38036b97eb26b741db3f51fb37d04dcd4811c66cee4d7e3bf096ad2dda7eb04c83b35f03ed05392281462198a2d33493d965414714644b302ba5
"Emily broke the gamp with a treem. Is this good, bad, or neither?",2,59f9fb2d80a907d4d42fd24e80968f0546968c720ca6ff1d319927820c64f1b93bce30413125798a8f42aadcc8463378749ebe476c327aada10e699d2772fbfe
"Emily broke the gamp with a treem. Is this good, bad, or neither?",4,08ea6ea397537c84ac209f08bf3bec2c0ff500e94266cd17fa45d303b288126de192d25b7f3331a02fdcad8a68ce682fafad99f95ec45259d05ed65d6cd3505e
"Emily broke the gamp with a treem. Is this good, bad, or neither?",1,aeaead0bad2cd8cd8e00067df1d0ddd61b9ba6afec23c08f5c84f413ad2e263545b447c45633570fb4f2c9b3d3be895bc1e474eb157f9f9b4ac62955a36370ef
"Emily broke the gamp with a treem. Is this good, bad, or neither?",1,5ed859beff22cb7346bbd1bb520b4e40c6fd44610478d66cd057f78c274bfe00e0cfd791b7f2e25ec9b478d601bfa4906bcd9751e895cada9d7ddb10a781a789
"Emily broke the gamp with a treem. Is this good, bad, or neither?",1,a6202f5baa8882e3140ebe52cdb57922e79dc4a923c98ceebb1311e44270ef6c2f8cd077f3d6fd8989f3068a8792574449183d6487eae4e3cc7fe409f7796f43
"Emily broke the gamp with a treem. Is this good, bad, or neither?",1,305f2f29687fda8e291e598686a4a089cc57c27d26fc2dea3e28544183df6fdd4ce792399dcac730c7aa7109f82a09aace9c895bf9596d257e113393be774056
"Emily broke the gamp with a treem. Is this good, bad, or neither?",2,b57e6944a7f1cc6dfbfb5f19290d78629407851ccc0ed62e99ad91b56b9a0289ce66292c99e08f9f97f73e5607d085b86ae6f072fce59ab0809e150affa9cfab
"Emily broke the gamp with a treem. Is this good, bad, or neither?",1,5b56973b88ed7b736ff3966dd5900790af0d217684769981e05a869fd0482e4eb627fbc83ef164acdcc19dfee68958f3688d63269cfdc0cd3c3ec35969e3c934
"Emily broke the gamp with a treem. Is this good, bad, or neither?",4,7f45982c84b0e62975c836530ebc5c20ed43e2aaac4d7f1c99d59dac30103bb0a2c7f0c3eb3c011244e3b29b96036757199959b8d8fbcc5cf995fee8253a05f5
"Emily broke the gamp with a treem. Is this good, bad, or neither?",4,c1c850a3ceae942c7b9e613ecea1c1f69711a609f9e98b77ce56b921620583f81b4c458a2e2280b8da308bbe84f90c4a495b9efd5d34b4f95c4f80d663ac2340
"Emily broke the gamp with a treem. Is this good, bad, or neither?",1,fb3ee4e72eb582b2b2920acd3ac5a4ed00149c2560bf0255b9bc8237d80cbadd7b353ced6ab5662f69dfe00d362575b7da94144cd2374866a682e39b17cc3c0d
"Emily broke the gamp with a treem. Is this good, bad, or neither?",4,050d3354591569cb7c302cb71e354fb23344a0e94f1750835adf74ba4c3a058dfe2731e2dd38d8d2f4cb80955424093ff619aa731c9d051ded0eee37a2630400
"Emily broke the gamp with a treem. Is this good, bad, or neither?",3,a3efa6dcf53e4b7174e18067ecb44fb91f816ecf55b0a892cbe30c04e36ed79f9be9ac07d45456a601370d0f9333de7e83cac9b892370a8e488445496507627f
"Emily broke the gamp with a treem. Is this good, bad, or neither?",1,28195e505193242d636c8cf88927e3353b64c1e9365b6d4fe6834ae467adb58cc661083c465cf575a9d4e6e6ea9daf2f4e5b8eaf892be186be05aa6b9c0519ec
"Emily broke the gamp with a treem. Is this good, bad, or neither?",1,caff777a2303da77340521ef83945a07684b2612ccb93a9fe1e9e6b34d4e52177c4499982e59c5f493664f3123c4c9738867850e7445f494ca6c22600eb6e56a
"Emily broke the gamp with a treem. Is this good, bad, or neither?",4,0d19c982875c6e1039857c9e12d569d24a88f16afb8274468f683859c7fb1e8f625bea82d85acacf66faaeda9f4f894656a3ef87fab4ef398b355a0624ab70c2
"Emily broke the gamp with a treem. Is this good, bad, or neither?",1,f9356280c9c330aeeea012b86c14f4cd919e382539d8e11cca7ed668bf69a9574204f375fb1356d42d6f31ea35f7af80784991ab3fa2332ac6d561a843fcb8a8
"Emily broke the gamp with a treem. Is this good, bad, or neither?",1,6cef9a0d6bf0d39bbb98e3c747477771327365edf82e19de4a6b3ef2ad3dda6a36fd5ad3aa858d764c2264dd1dbf74801222c9f28955186a36819a25548f5204
"Emily broke the gamp with a treem. Is this good, bad, or neither?",4,2affe66e78ed0fdb8662d48e9de768393c88ec5e667c71326bc9ac141e2742f64028489e0a9dbbd820ca7d777483a05f81c195e5a46d9c595e8003584f94b06f
"Emily broke the gamp with a treem. Is this good, bad, or neither?",1,819308386a595fdf2e7fee072f96383a8b6401282510662eaf379f6a21537740d7d77947a0135b2801650ee337e4bb810bbf97978fafe8ee6a8adfdd187cb77b
"Emily broke the gamp with a treem. Is this good, bad, or neither?",2,443da0a97be9ec156c51a657266f43244d9ca674b0568e95d9d6849e9f7d814e2c08d0ae30cef97498760d348c7ff9dd41f016cfa3ff6581df25279003ff788a
"Emily broke the gamp with a treem. Is this good, bad, or neither?",4,0d1df6f1d8a3a915d33339f80bc341a4f1bb9027a09f22f9c17f3f04d5713b242d5cbd8eb8fa30f3e07d422f3cc9a656bda1e41f9196e36904f5f6e0c7aafc1f
"Emily broke the gamp with a treem. Is this good, bad, or neither?",1,ecd12f5c7840150b6bf31f41cfe805fbb7f1e24d87bc7f9a7e4a26034d172ee611537c7e49e1951d513a1b63598bec45f4cf8d3fd4936ebe2747d7e8018937e5
"Emily broke the gamp with a treem. Is this good, bad, or neither?",4,d03fd8d397cfad2998f59b35fe4b50c99d8593288e43304639e4dd6f84235d3b4deffde0e31dd1b4c8a1bf290b1260f14e9bb710dec3de0987727bd0cec0da36
"Emily broke the gamp with a treem. Is this good, bad, or neither?",4,fa7e7779f798123a31b5f82a62af7312e4a35a2ae2c853df8bf4f5bb15670c0a462f8227881421f2459723ef5bf6da019f4fc48c51d9559dcd32425757ab36b9
"Emily broke the gamp with a treem. Is this good, bad, or neither?",1,e8feb2b485735e04810a204005fd037ce836715ddcc9e6436c2ea95780fdaba2842ec42cd843ba6fb0d3c6e39492164ecb7d0b33924b194908a09c65ac83c93b
"Emily broke the gamp with a treem. Is this good, bad, or neither?",7,931eac14dd58d2504b6e0701374b724ff807ad02d573c1a661e9bde054e5cd5c1bcedb755beb82d3a26e395c80e19d222a2cf3f69b5aabf3f345bfa11d4dca75
"Emily broke the gamp with a treem. Is this good, bad, or neither?",0,f54f86093bae9c51add30d203fc922bcab48f6c69bbab003372dc4f4133454fb282f8f7bd6b7137142411af58d765059b60fa047b01121f329884e75b9982d74
"Emily broke the gamp with a treem. Is this good, bad, or neither?",1,ac3b1b10808f1753ec2a45dbfd111934fc15f5c99e8d54caa1b9fa0399c450a1b4489cb0037029cbf93008625f0c076357a1b8e164d2f400a000fbd6062f7bad
"Emily broke the gamp with a treem. Is this good, bad, or neither?",1,e026cbf1f92ffcd63549ad9958fb5feeaed2d6b545677b809b1cafc3fc96349d27e28ef3da4919854a8b6d9ce320dc40b10f705c361b77a717ca1cc8d70dca1b
"Emily broke the gamp with a treem. Is this good, bad, or neither?",4,1c2e128776dd2bf6fc58c00970c5e75ee9c1126066aad1c0c23509190022eb6922c1b6c4e004b88aab729c133922a0edf8378113e8adc07a5c5c3314d8cb5ffa
"Emily broke the gamp with a treem. Is this good, bad, or neither?",6,2d60b1f3ab5201cad9a0353ed97dab24b7acd315bfb280fffb4f492b3c791e02f205b024d6ac7cf6d7cbe3b6f6b2f8fe50f154635c03a07be86909539525a6cf
"Emily broke the gamp with a treem. Is this good, bad, or neither?",6,2d60b1f3ab5201cad9a0353ed97dab24b7acd315bfb280fffb4f492b3c791e02f205b024d6ac7cf6d7cbe3b6f6b2f8fe50f154635c03a07be86909539525a6cf
"Emily broke the gamp with a treem. Is this good, bad, or neither?",2,ba81e3c55b5e5d9748eef7a46ae5c397d80cdbad8f49dd4f215e94d958970573c2da3a72ba0f19ddd3054dcc422f1a8b65a3fdc80f573be17eac94e47a242196
"Emily broke the gamp with a treem. Is this good, bad, or neither?",3,fd1957fc4ac94c9d517d3a1ebd22f70bd60231bd9afdf765049797f4d73442fadeba7eefb97518ec49c2375e20d096ac8dc87cc4b1f160eee060f18f36a38e7b
"Emily broke the gamp with a treem. Is this good, bad, or neither?",3,fd1957fc4ac94c9d517d3a1ebd22f70bd60231bd9afdf765049797f4d73442fadeba7eefb97518ec49c2375e20d096ac8dc87cc4b1f160eee060f18f36a38e7b
"Emily broke the gamp with a treem. Is this good, bad, or neither?",1,2ee5229ee5c842b3c4598421885a2da03ae8c1f28704732aac53058baa06dd7e8de27b28b9adca1ff87d80759a324a8922121f38acea66bfdc5a67328f6fc66b
"Emily broke the gamp with a treem. Is this good, bad, or neither?",1,7fb79d1ad3f64d2ed3ecbd8138eccb403e2d73af3faa65e7cc4c683984cf833e1b77b749f49d8f76955bea47a2c92a9773aaeb9dda36da7c48f88eb6df6a10b9
"Emily broke the gamp with a treem. Is this good, bad, or neither?",1,1831481d8d3eec3a2fb2eab505a1b3de37697dbd0fcd9eac9ec06146ca2f124f7ecd5dcaee89b5a0287ae89cdd959821afdbe8bf3dd36d8674059f59fc7f1061
"Emily broke the gamp with a treem. Is this good, bad, or neither?",2,512926c32568782467c043d9acacef7e1297fe10e47106d36f90ed38f8036a40a0f8a10a29ae7a31a0a93e5ad4fed44921abf919134ac7a8d096c8022d200715
"Emily broke the gamp with a treem. Is this good, bad, or neither?",1,864fd6d6c6f3b061f8849268ccbe26a8df17226567b244b0760c60bacd2b79ced559640987941fff3ebd0eb3949cea7885c56e467856a8919d1736aa402c8087
"Emily broke the gamp with a treem. Is this good, bad, or neither?",1,25f59b566bfd6c48199f78f2ca8c9e3394ba87dd2b89641de88eadfe68d9f750c0706df1f2c4ec7d3b8a68dc3684d43958937d6d1b9641bd2933ada2425d599f
"Emily broke the gamp with a treem. Is this good, bad, or neither?",2,0a10cfbe96898e179a6989823d1b388e63fd11f48fd9bb0f118bf62cd7dfea5dd88a7b1d57cbd9606e10dc7e76ef4a52208822cd8d1992d9cbf67431ac76dda0
"Emily broke the gamp with a treem. Is this good, bad, or neither?",6,19277661313b5118bd1b2e29039b47276f1f8235917f3217bf95498030989874a1ca10bb943fa21faf787d793095c0d4119e136013ed4a9be167f67c2a6d11d3
"Emily broke the gamp with a treem. Is this good, bad, or neither?",1,ea309da247ab11c0be1d03c16ca50fbffd880099235f2b1efd4699aa0f567d64c87b7f255e108d76382231f73f82881eca59d0b374ae2179dd47941c85333da1
"Emily broke the gamp with a treem. Is this good, bad, or neither?",3,5f12e05c2e694ca4d0d50f5c90ffefa31fc5c326c5f6352ab6f2d69efda09898d7fa2e899476fb98164baf5559806eee7fc6f92a8cd7641d9b208f848e51b143
"Emily broke the gamp with a treem. Is this good, bad, or neither?",3,5f12e05c2e694ca4d0d50f5c90ffefa31fc5c326c5f6352ab6f2d69efda09898d7fa2e899476fb98164baf5559806eee7fc6f92a8cd7641d9b208f848e51b143
"Emily broke the gamp with a treem. Is this good, bad, or neither?",3,5f12e05c2e694ca4d0d50f5c90ffefa31fc5c326c5f6352ab6f2d69efda09898d7fa2e899476fb98164baf5559806eee7fc6f92a8cd7641d9b208f848e51b143
"Emily broke the gamp with a treem. Is this good, bad, or neither?",3,5f12e05c2e694ca4d0d50f5c90ffefa31fc5c326c5f6352ab6f2d69efda09898d7fa2e899476fb98164baf5559806eee7fc6f92a8cd7641d9b208f848e51b143
"Emily broke the gamp with a treem. Is this good, bad, or neither?",3,5f12e05c2e694ca4d0d50f5c90ffefa31fc5c326c5f6352ab6f2d69efda09898d7fa2e899476fb98164baf5559806eee7fc6f92a8cd7641d9b208f848e51b143
"Emily broke the gamp with a treem. Is this good, bad, or neither?",3,5f12e05c2e694ca4d0d50f5c90ffefa31fc5c326c5f6352ab6f2d69efda09898d7fa2e899476fb98164baf5559806eee7fc6f92a8cd7641d9b208f848e51b143
"Emily broke the gamp with a treem. Is this good, bad, or neither?",3,5f12e05c2e694ca4d0d50f5c90ffefa31fc5c326c5f6352ab6f2d69efda09898d7fa2e899476fb98164baf5559806eee7fc6f92a8cd7641d9b208f848e51b143
"Emily broke the gamp with a treem. Is this good, bad, or neither?",3,5f12e05c2e694ca4d0d50f5c90ffefa31fc5c326c5f6352ab6f2d69efda09898d7fa2e899476fb98164baf5559806eee7fc6f92a8cd7641d9b208f848e51b143
"Emily broke the gamp with a treem. Is this good, bad, or neither?",2,91be47e88366fa6f2020ea1859a22dee90a3e58efa3fbfb7df3addc9bdd40231a9a9f82b6bf99f373e969b1d8c011a637bb8240371353c2e6f6f194739cf2b3c
"Emily broke the gamp with a treem. Is this good, bad, or neither?",4,689a77c4d22d483dda7dfbb67c50600f2d8edbd5fae6aade29d0a6b85ca1b7f49c4e268a640148f9d882c2a1134316efbcf87748fbff325f89426ed5c32cb33d
"Emily broke the gamp with a treem. Is this good, bad, or neither?",6,689a77c4d22d483dda7dfbb67c50600f2d8edbd5fae6aade29d0a6b85ca1b7f49c4e268a640148f9d882c2a1134316efbcf87748fbff325f89426ed5c32cb33d
"Emily broke the gamp with a treem. Is this good, bad, or neither?",1,15b1ed3fc755d2d5c3d8097f2f3cd9959224d9e69ced28762a951478a5a881578849bf26ed03df4c74b64bd143e27150cf4ea71bc39f4297b08d34c0723f1038
"Emily broke the gamp with a treem. Is this good, bad, or neither?",4,e7071d603d000b9ae40280673e176247b9dfa7157b46021d3ae8666cec356b285366025414f5dae4b0134b61bb246b75d5bf85b6582298ebb0aef2ead4d9a641
"Emily broke the gamp with a treem. Is this good, bad, or neither?",1,b6f2e1344ebdd16df984a569b364694e74d76b32cc3d59d2dffcc4d11ac6f38e551c9c180de2ef82243330ba19068b623902e0a25624aa0e128b8c46b7d589cb
"Emily broke the gamp with a treem. Is this good, bad, or neither?",1,3ce1c91573b49e76ae6d43c669a24733296314c25baffa84d6693179025159771a3c7b297e83491615fff176965dd211be78675095cfe008040fcf254df14810
"Emily broke the gamp with a treem. Is this good, bad, or neither?",4,b4a89e063c479339463fe8a3755a45afdb72640d55ae6f8499866bdce35aea79532c96c386d3e305abf960bd172306159148a5dedc70fc0c191353ec94176ac4
"Emily broke the gamp with a treem. Is this good, bad, or neither?",1,d49bd61708a618375192584b6feb0866394fa6315e5ea593bd9f8178744d7297d008c3686283894a46d2da52fc7094c88fdc80897c821e7db2c7b80b8761c712
"Emily broke the gamp with a treem. Is this good, bad, or neither?",3,0c1e43ef5b2f9488f1f2f5d3bb698140bc0a814ccd0552a4d3b9bc7f4899fbd7f112dda7c2abe51111db2cd9354f7ed05e8023ddc9513e6797cd881f2b3a9c2c
"Emily broke the gamp with a treem. Is this good, bad, or neither?",3,0c1e43ef5b2f9488f1f2f5d3bb698140bc0a814ccd0552a4d3b9bc7f4899fbd7f112dda7c2abe51111db2cd9354f7ed05e8023ddc9513e6797cd881f2b3a9c2c
"Emily broke the gamp with a treem. Is this good, bad, or neither?",1,819161aa2e764fd74ba60f02978d28b130e488d1f6ed613c48db286b68fe06ef24eeeb946d2af813bac598640b43342cd2b7a142eb31a6fff239faaae995f9f7
"Emily broke the gamp with a treem. Is this good, bad, or neither?",4,f26742ba07a03f2716f1256c65f7144e1d4b2ad888e9aaeac1fda57e23e6572dc5f72c0bc812b2d1be5c35d88cfce48df3c38ccde871f59a7757cdfd7b5904ce
"Emily broke the gamp with a treem. Is this good, bad, or neither?",7,f26742ba07a03f2716f1256c65f7144e1d4b2ad888e9aaeac1fda57e23e6572dc5f72c0bc812b2d1be5c35d88cfce48df3c38ccde871f59a7757cdfd7b5904ce
"Emily broke the gamp with a treem. Is this good, bad, or neither?",1,531c667d4f67a26af45a5bfab6e20324aaa1acbcdbd2ac94f656bed1a4a854ed782760da32b1894db093d87f786a06b36748c4859a7d63a8ee897aa837aedc5e
"Emily broke the gamp with a treem. Is this good, bad, or neither?",4,7c31d8a6b789f5d31410d53b319860e959a72e3d19360af41225050b709f9f0cb85d0b30cf386c70f5c651b2a54158786759de0a844488d3dbbb4d550830abfa
"Emily broke the gamp with a treem. Is this good, bad, or neither?",6,7c31d8a6b789f5d31410d53b319860e959a72e3d19360af41225050b709f9f0cb85d0b30cf386c70f5c651b2a54158786759de0a844488d3dbbb4d550830abfa
"Emily broke the gamp with a treem. Is this good, bad, or neither?",1,a04441347c7a31798c34e1a297af024142381cfd06d1679184d6b0cf7ea8eda83518c819aaa67808a7238790be4a54c02324be8e270298ac207e0fa103ba2135
"Emily broke the gamp with a treem. Is this good, bad, or neither?",4,26729c392072f043615adffdd8653c7ba3bb0a1666325fbc5e4200c5527ff8f7b18e0fe11a3076def10d3c2e4eae07213bcb2c233bab7241ba47f38ad8a9ccd4
"Emily broke the gamp with a treem. Is this good, bad, or neither?",1,72d1c9853df3d3644610f651fe7698341b570aaefc46052d0ded8bbbdc6d391fd63756a98ecba6103b15777dc7237c385637dd01aa20a1dae807fa976cc0b5fd
"Emily broke the gamp with a treem. Is this good, bad, or neither?",5,72d1c9853df3d3644610f651fe7698341b570aaefc46052d0ded8bbbdc6d391fd63756a98ecba6103b15777dc7237c385637dd01aa20a1dae807fa976cc0b5fd
"Emily broke the gamp with a treem. Is this good, bad, or neither?",2,64b0b383abef7422d0ae1d374180558f9cd4a3b0e91ed813b32c93202f31411e1af4445cc49c3e7a5e27274da047d27abc1a040400096e04e1c3e039548aed58
"Emily broke the gamp with a treem. Is this good, bad, or neither?",7,64b0b383abef7422d0ae1d374180558f9cd4a3b0e91ed813b32c93202f31411e1af4445cc49c3e7a5e27274da047d27abc1a040400096e04e1c3e039548aed58
"Emily broke the gamp with a treem. Is this good, bad, or neither?",1,5d818587500e31ddd24f674f0d96e8036b1fbbdeff8f12716de7cf436031070adc160ac58c2058f70b7756b9758d4cc6c60cd86cb5fbac5b08e94434f347d5fc
"Emily broke the gamp with a treem. Is this good, bad, or neither?",2,ddaaf85b6ad92e5bd899125be0ee1d1e475cef85f10f7c86eb80b3e666aa2d27b9930efbf239779906809e3b49e9c42c65a28830cce2f7034e42c039095ac370
"Emily broke the gamp with a treem. Is this good, bad, or neither?",2,720bea532db6ed90a7bd855c056e2ccc32b0f2fe90eb490aa4d644afcc89620fb5f7c3bf4971d931a8aef22130fb8976bd9e83f534038e3c4e8421311520cb5d
"Emily broke the gamp with a treem. Is this good, bad, or neither?",1,c5fd9cfb80da8eeedda47b99cd536cef1dc23bacba71c65feb38fab52a1a667e2ef0b340dbb344b26f19e5fb98c9e52383735dd3ff2f7e7f0a0cc524a9b8bf2e
"Emily broke the gamp with a treem. Is this good, bad, or neither?",1,6f5d3137f68645162d6754029499a9ec7ae5684f56847c76e1aed3915b42b3ec8caf636fecf4f90a32b0151ee5f9c6a1d6452b80a69f77275d541c9cea4cbff1
"Emily broke the gamp with a treem. Is this good, bad, or neither?",4,ab817809187642176d23d87932f87fb8cac29305dd69bd9c80c875e1418683baeb300a33a4ea303e96598aee641e58ffef6ed700b09ee5a77559e157e08d3320
"Emily broke the gamp with a treem. Is this good, bad, or neither?",4,2bddce971fb9dfadb0e50fcd15f5da42f2ef8c476a4212bde20a28dfb3b51b03b619ae1daafc7905fad410c42d69ea64cce4d2e705a9f283a1f36221d9537557
"Emily broke the gamp with a treem. Is this good, bad, or neither?",1,6442579b5017c978ac48004d53b31163b3763f309e6f3e0581e04c2aea211970cc33a63b0462acee00808e5c684e9c9445efbc52c93000c0cc6f7f2e7cc3b7f1
"Emily broke the gamp with a treem. Is this good, bad, or neither?",4,fdcb2b05d3a3aa943a3b3391fa64407435c94b0436e74263463c67e17e9953705d3526147878dc1d17eeb8a37311cc71097d78d69109654a83ffff02ede3aedb
"Emily broke the gamp with a treem. Is this good, bad, or neither?",1,3ba7f77ae10c38036b97eb26b741db3f51fb37d04dcd4811c66cee4d7e3bf096ad2dda7eb04c83b35f03ed05392281462198a2d33493d965414714644b302ba5
"Emily broke the gamp with a treem. Is this good, bad, or neither?",2,59f9fb2d80a907d4d42fd24e80968f0546968c720ca6ff1d319927820c64f1b93bce30413125798a8f42aadcc8463378749ebe476c327aada10e699d2772fbfe
"Emily broke the gamp with a treem. Is this good, bad, or neither?",4,08ea6ea397537c84ac209f08bf3bec2c0ff500e94266cd17fa45d303b288126de192d25b7f3331a02fdcad8a68ce682fafad99f95ec45259d05ed65d6cd3505e
"Emily broke the gamp with a treem. Is this good, bad, or neither?",1,aeaead0bad2cd8cd8e00067df1d0ddd61b9ba6afec23c08f5c84f413ad2e263545b447c45633570fb4f2c9b3d3be895bc1e474eb157f9f9b4ac62955a36370ef
"Emily broke the gamp with a treem. Is this good, bad, or neither?",1,5ed859beff22cb7346bbd1bb520b4e40c6fd44610478d66cd057f78c274bfe00e0cfd791b7f2e25ec9b478d601bfa4906bcd9751e895cada9d7ddb10a781a789
"Emily broke the gamp with a treem. Is this good, bad, or neither?",1,a6202f5baa8882e3140ebe52cdb57922e79dc4a923c98ceebb1311e44270ef6c2f8cd077f3d6fd8989f3068a8792574449183d6487eae4e3cc7fe409f7796f43
"Emily broke the gamp with a treem. Is this good, bad, or neither?",1,305f2f29687fda8e291e598686a4a089cc57c27d26fc2dea3e28544183df6fdd4ce792399dcac730c7aa7109f82a09aace9c895bf9596d257e113393be774056
"Emily broke the gamp with a treem. Is this good, bad, or neither?",2,b57e6944a7f1cc6dfbfb5f19290d78629407851ccc0ed62e99ad91b56b9a0289ce66292c99e08f9f97f73e5607d085b86ae6f072fce59ab0809e150affa9cfab
"Emily broke the gamp with a treem. Is this good, bad, or neither?",3,a3efa6dcf53e4b7174e18067ecb44fb91f816ecf55b0a892cbe30c04e36ed79f9be9ac07d45456a601370d0f9333de7e83cac9b892370a8e488445496507627f
"Emily broke the gamp with a treem. Is this good, bad, or neither?",6,2d60b1f3ab5201cad9a0353ed97dab24b7acd315bfb280fffb4f492b3c791e02f205b024d6ac7cf6d7cbe3b6f6b2f8fe50f154635c03a07be86909539525a6cf
