"Alyssa smashed the sevel into zeens with a shink. Is this good, bad, or neither?",1,5d818587500e31ddd24f674f0d96e8036b1fbbdeff8f12716de7cf436031070adc160ac58c2058f70b7756b9758d4cc6c60cd86cb5fbac5b08e94434f347d5fc
"Alyssa smashed the sevel into zeens with a shink. Is this good, bad, or neither?",2,ddaaf85b6ad92e5bd899125be0ee1d1e475cef85f10f7c86eb80b3e666aa2d27b9930efbf239779906809e3b49e9c42c65a28830cce2f7034e42c039095ac370
"Alyssa smashed the sevel into zeens with a shink. Is this good, bad, or neither?",1,720bea532db6ed90a7bd855c056e2ccc32b0f2fe90eb490aa4d644afcc89620fb5f7c3bf4971d931a8aef22130fb8976bd9e83f534038e3c4e8421311520cb5d
"Alyssa smashed the sevel into zeens with a shink. Is this good, bad, or neither?",4,c5fd9cfb80da8eeedda47b99cd536cef1dc23bacba71c65feb38fab52a1a667e2ef0b340dbb344b26f19e5fb98c9e52383735dd3ff2f7e7f0a0cc524a9b8bf2e
"Alyssa smashed the sevel into zeens with a shink. Is this good, bad, or neither?",4,ab817809187642176d23d87932f87fb8cac29305dd69bd9c80c875e1418683baeb300a33a4ea303e96598aee641e58ffef6ed700b09ee5a77559e157e08d3320
"Alyssa smashed the sevel into zeens with a shink. Is this good, bad, or neither?",4,247d016ad1965e185b284a032af50657ede03f4f6dfc65f402943ca2d27268dbc47a7ee39ad2eed9b24b64110dc50e8dd10ca6597e88d493637c358a9ba6470b
"Alyssa smashed the sevel into zeens with a shink. Is this good, bad, or neither?",0,949e348794c3e18581f7b55ecef851e605235f7c9cafa5c3b4d3e91106a8ea5851849ec1edc9cd0b8dbea5b628ab5f49181d508855ed809569304963bc219caa
"Alyssa smashed the sevel into zeens with a shink. Is this good, bad, or neither?",7,2bddce971fb9dfadb0e50fcd15f5da42f2ef8c476a4212bde20a28dfb3b51b03b619ae1daafc7905fad410c42d69ea64cce4d2e705a9f283a1f36221d9537557
"Alyssa smashed the sevel into zeens with a shink. Is this good, bad, or neither?",1,6442579b5017c978ac48004d53b31163b3763f309e6f3e0581e04c2aea211970cc33a63b0462acee00808e5c684e9c9445efbc52c93000c0cc6f7f2e7cc3b7f1
"Alyssa smashed the sevel into zeens with a shink. Is this good, bad, or neither?",4,85d1218385f688400596590a645587316e2eb7e685c30c6e4979d4f1b3efeca298b54835a69e165331173f118d68c1b4e73353e499acc711459f658f21052bce
"Alyssa smashed the sevel into zeens with a shink. Is this good, bad, or neither?",1,305f2f29687fda8e291e598686a4a089cc57c27d26fc2dea3e28544183df6fdd4ce792399dcac730c7aa7109f82a09aace9c895bf9596d257e113393be774056
"Alyssa smashed the sevel into zeens with a shink. Is this good, bad, or neither?",4,08ea6ea397537c84ac209f08bf3bec2c0ff500e94266cd17fa45d303b288126de192d25b7f3331a02fdcad8a68ce682fafad99f95ec45259d05ed65d6cd3505e
"Alyssa smashed the sevel into zeens with a shink. Is this good, bad, or neither?",1,aeaead0bad2cd8cd8e00067df1d0ddd61b9ba6afec23c08f5c84f413ad2e263545b447c45633570fb4f2c9b3d3be895bc1e474eb157f9f9b4ac62955a36370ef
"Alyssa smashed the sevel into zeens with a shink. Is this good, bad, or neither?",4,c4ed94657e69e8d0ab2fc62ae827e33b39befc4999fffa6f5fd6cc66b82427202a7aa870b5327b553f62a9c69474930cded1869d86d079f9aed5650135c1c560
"Alyssa smashed the sevel into zeens with a shink. Is this good, bad, or neither?",1,65292598f02f15c7af491c276e7b315923eb755df1ace9781f40d4379dd61e8822805a414b86be16cac64f18854c983a7b13ecd2abdf6edf2a94fb3540b8233a
"Alyssa smashed the sevel into zeens with a shink. Is this good, bad, or neither?",1,2ef83ca1078dec825457a8a96c3a4bad8efa18aa11d07f9b3787997d0e09e67116477e139d2397cc8db8431e7b2af373de8174a851c7f0305ccf30b2d51a89db
"Alyssa smashed the sevel into zeens with a shink. Is this good, bad, or neither?",1,5ed859beff22cb7346bbd1bb520b4e40c6fd44610478d66cd057f78c274bfe00e0cfd791b7f2e25ec9b478d601bfa4906bcd9751e895cada9d7ddb10a781a789
"Alyssa smashed the sevel into zeens with a shink. Is this good, bad, or neither?",4,3415cb76896388583d993ad3378b35b206d58d75cefaac5d45f01a38556aa4cfff136fd41536dcbdcf63f4029eac4463ac5567d313d8b3dc6bd8dd1e8a2833ac
"Alyssa smashed the sevel into zeens with a shink. Is this good, bad, or neither?",1,bcaeadfc56724d5a2432d2d012f80ea1f3af361fd2cc23ae85f9c718fc15e697164a11cbc8c601de2536a5c3f4d2cfa30f149dc06e2371384a24375be9cb90b5
"Alyssa smashed the sevel into zeens with a shink. Is this good, bad, or neither?",1,8a74478a9db13d691c15cdcee8e51f2a7166c095ebc46b46a45db0f7e71f25326113b63f51c722ce73b2f2cb4b6c23f1f5bcf0819b2b17e93467b4e32ae84781
"Alyssa smashed the sevel into zeens with a shink. Is this good, bad, or neither?",1,9d8ddb67f662349a7f7a7c5a32fee73c457fd70d135ae4be6f17a68418102d35693b26415c8fd8c7bd26a5b5032587ac08aefd055994f62fcb3e9a44d5cb51b0
"Alyssa smashed the sevel into zeens with a shink. Is this good, bad, or neither?",1,54f6b3e513c13bfcdbe1fe36eb012ee13d6a602793f7b0d77a58e9677d4df23396135d1671a38883db4788ebb0ed5a75fe3538b70666e0d9f1400e9f96cb120b
"Alyssa smashed the sevel into zeens with a shink. Is this good, bad, or neither?",1,1dd2b7decf71cf3c3953ceaa2dfeecb166ad37d2d2add9d55f91b6d8947afdffa3432b081f346e81dfbf6b6c345f4856dd5b2a8d9b581b8ea541f21dd562a687
"Alyssa smashed the sevel into zeens with a shink. Is this good, bad, or neither?",1,a04441347c7a31798c34e1a297af024142381cfd06d1679184d6b0cf7ea8eda83518c819aaa67808a7238790be4a54c02324be8e270298ac207e0fa103ba2135
"Alyssa smashed the sevel into zeens with a shink. Is this good, bad, or neither?",4,b842921b72de52f8a133a6e3e7dba5c9b826e818a240917bcd1460be154725c1bf3e61829383a5f36d6212bb3b09806d108579faebca1147451159918b352073
"Alyssa smashed the sevel into zeens with a shink. Is this good, bad, or neither?",4,b9823f44a96a09bb0a39b059bc590571f243e6b4cae8f72f462a679bd66dd4a5df1300c501ee1ee59d2ef0b3924ec82649208ef3855c81f609b9a3b93dc2e442
"Alyssa smashed the sevel into zeens with a shink. Is this good, bad, or neither?",1,7f45982c84b0e62975c836530ebc5c20ed43e2aaac4d7f1c99d59dac30103bb0a2c7f0c3eb3c011244e3b29b96036757199959b8d8fbcc5cf995fee8253a05f5
"Alyssa smashed the sevel into zeens with a shink. Is this good, bad, or neither?",1,423aab82b56b483c2e15f56ac97cdf96e24b5aa8de86ce044b547de7df882815fef4c833afe62510f5af7d59221a5d85a5f90bd70236952aef0e6e84aea1c507
"Alyssa smashed the sevel into zeens with a shink. Is this good, bad, or neither?",2,d52d0f79310a4a1585de2ba281cae55d8bf4f66ee89a3b0afe5bec86ac64f3fbcf4ac04acc90a017d6f66a1259e7c33c370048fe26771c06104f79c7f0e7daea
"Alyssa smashed the sevel into zeens with a shink. Is this good, bad, or neither?",1,fb3ee4e72eb582b2b2920acd3ac5a4ed00149c2560bf0255b9bc8237d80cbadd7b353ced6ab5662f69dfe00d362575b7da94144cd2374866a682e39b17cc3c0d
"Alyssa smashed the sevel into zeens with a shink. Is this good, bad, or neither?",1,948b1546ab23598285d2f77f39e4276a3a82e5d340295aa6760c9fc6f36b7437bb3a495a3ba88d447f3fe661e3d3dc2ca10e32b8b5eb3feb6619e793bc050ef2
"Alyssa smashed the sevel into zeens with a shink. Is this good, bad, or neither?",4,d58083d3503385b99444e74c7fff67184176406ee9cd07cbcfef4f1f5ff2257a313b1bfd92ade8e349bb034a507380c3229e5a2cea969ebd4923ad1f5ce15bce
"Alyssa smashed the sevel into zeens with a shink. Is this good, bad, or neither?",1,caff777a2303da77340521ef83945a07684b2612ccb93a9fe1e9e6b34d4e52177c4499982e59c5f493664f3123c4c9738867850e7445f494ca6c22600eb6e56a
"Alyssa smashed the sevel into zeens with a shink. Is this good, bad, or neither?",4,28195e505193242d636c8cf88927e3353b64c1e9365b6d4fe6834ae467adb58cc661083c465cf575a9d4e6e6ea9daf2f4e5b8eaf892be186be05aa6b9c0519ec
"Alyssa smashed the sevel into zeens with a shink. Is this good, bad, or neither?",1,ecd12f5c7840150b6bf31f41cfe805fbb7f1e24d87bc7f9a7e4a26034d172ee611537c7e49e1951d513a1b63598bec45f4cf8d3fd4936ebe2747d7e8018937e5
"Alyssa smashed the sevel into zeens with a shink. Is this good, bad, or neither?",1,34ef1f05271654743005d09f6ddcde9b366a900be98f28a982b8327dde6d04bf19e0fd7522bf5d3227ea5e144e30f99798b079c0b2a8f10fd07deafd8d5bac27
"Alyssa smashed the sevel into zeens with a shink. Is this good, bad, or neither?",4,2affe66e78ed0fdb8662d48e9de768393c88ec5e667c71326bc9ac141e2742f64028489e0a9dbbd820ca7d777483a05f81c195e5a46d9c595e8003584f94b06f
"Alyssa smashed the sevel into zeens with a shink. Is this good, bad, or neither?",3,352e7092221254de5346a08edec544947e6c369aab0f6c0c2a26748639cdfc5c9b0bf29304ec0f0417e95997f1f1e32da9511fd90788e68886b850c8d0860068
"Alyssa smashed the sevel into zeens with a shink. Is this good, bad, or neither?",1,69bf71a23950a19d51588205bb33b43a6c847df0a5e564427b2d61a5489a3d037dcf472674ab77e4abb6133e088ce98f278ad721e939562236b4f32ab79e07e7
"Alyssa smashed the sevel into zeens with a shink. Is this good, bad, or neither?",1,9620f475410219eaaa255043e0a3c7eaf9676fb0aa894ccd234c823520edd4662ee7e9ed81c3c56c42471d581f1b5f107b456c9a2b2cda9c14c9fd0136d2282f
"Alyssa smashed the sevel into zeens with a shink. Is this good, bad, or neither?",1,2e08ea7a396b5dc2fc6ff518b56da9298cfd603a2f489e5145c092eb9870a320d2bfa8fd161fe5975a370e19055991d826fd24dea216f722fe25dbbf75088cd3
"Alyssa smashed the sevel into zeens with a shink. Is this good, bad, or neither?",1,fe62b62fa77327aa44f8a4cb629224c867a55aa98fa766c602c8105fb25c031d5a5292782d0adc5e403a18b92485e8782032e826f7fb61b4e55e498116019e6d
"Alyssa smashed the sevel into zeens with a shink. Is this good, bad, or neither?",1,d0eb31c7721c9299b65ab31f8f28818d42198b3a6e8cc8938132f5959668a97785cfdae9f5a80e19f634c835e48e4927882efed9bd831c3285d6bc1c94123452
"Alyssa smashed the sevel into zeens with a shink. Is this good, bad, or neither?",4,3789f909ab27320df7bc38d05949f1b2099f9934b7f38b0d11adeaa1d90cda245071eb0560abe7ad927fa071dcad9686e9dbc2a727bb91d08ef1eaaeb8a9042c
"Alyssa smashed the sevel into zeens with a shink. Is this good, bad, or neither?",4,960e83683bfc1d55ace9c59ca383407f5391dabeaad41f7e5feb8bfeba253b4f66ac79901290e54e436499a9d8b50645618af66f691b7422b2bc47f4aa49c572
"Alyssa smashed the sevel into zeens with a shink. Is this good, bad, or neither?",2,ee47e0c15d50c35a9b471df221cd9fdacf8423f98053494692e630774589836405b9abe0ee632c43a5d4325fcab3775381df724a3b19c7e32b6e7887d5f58ee5
"Alyssa smashed the sevel into zeens with a shink. Is this good, bad, or neither?",1,5a23402dc15233be68d0f6f87dcdce887a714a5507871ff7b39191fbd84ad58479f2c95fb420e292d80b74051e38f9f54e2670ad4b963f05e83c6224babbf504
"Alyssa smashed the sevel into zeens with a shink. Is this good, bad, or neither?",1,a7dc9d4f184ea86b7b6e6869b9a53887f9af455a7a9b3f701cc20ec18e11435fdb90d9c3eed921996792de6c1628b7a27219b25f044ffe99d725092cbc88af6e
"Alyssa smashed the sevel into zeens with a shink. Is this good, bad, or neither?",2,731cbf415542badc9393be5e4b5bf83b4210a67153b2b6aff10ca5a2edf55b27fcee9dbf8d435e683f2f8efc2be85c90bddf8ae4e39c90b577c80946b267259a
"Alyssa smashed the sevel into zeens with a shink. Is this good, bad, or neither?",4,cec74023ec011c05d418b07a92d9a9710762291380c8199164ef32a58d02dc79876bc9268c0910efe2625133d745da1e3445b3459271ac889dcc3494c32e5ae9
"Alyssa smashed the sevel into zeens with a shink. Is this good, bad, or neither?",4,ad1326d97150be39c54e291e77d0742b8574db603daa5fed675d73efd780c3e2927bcda79127c867f203c13a3c429cfb8275f4624c00623e9396682bf3b88d60
"Alyssa smashed the sevel into zeens with a shink. Is this good, bad, or neither?",1,44cb69d363b6d99287402410490198709810d13e74a75276dbb979e5f5387c1256447125e35607b5fb4bd589b7d3c4067f5e02ae5e26e50c3be55284e647c71d
"Alyssa smashed the sevel into zeens with a shink. Is this good, bad, or neither?",4,a3fe48d172465fbb24a650eeb520bd4c4631496b6d9d7a38bf192e1566aa97e662f2b2e76290bf0e0a6c2a90ffb291b31ff1e75bb29714c834646a850ace5bf6
"Alyssa smashed the sevel into zeens with a shink. Is this good, bad, or neither?",1,c2270bb3c54b5eac09cfd6e38bee66d7b835dca70ddab0f7ab5e50089cf4dcb8b5a755b6067b31be48449fafafa2e80b6ac88e81da39816cab9b72e6154baa79
"Alyssa smashed the sevel into zeens with a shink. Is this good, bad, or neither?",6,0d3afeda5c04607df671120a803dc79ab9ad5cf78295c7255b686bf87700166fc3e3beed0fad9e1982877c59c524f8a7b726871b19050d47ffbc6c6e369a8497
"Alyssa smashed the sevel into zeens with a shink. Is this good, bad, or neither?",1,f152fccfa1b4275911c3d51209757f8f47524d9e0dac927fa3cf085a412f2995c54db4378764d73c2aeccf796c683eda37b79db7a22b6c9fb80818fa2a0358f7
"Alyssa smashed the sevel into zeens with a shink. Is this good, bad, or neither?",6,cdc82decc385f7e309df95e76665c1a374f59a26484512f2db2ccd400075c0e7168901954aff2916ae1ce00679770656b6a59e655a4e26263c3a91889d44fc1a
"Alyssa smashed the sevel into zeens with a shink. Is this good, bad, or neither?",1,864fd6d6c6f3b061f8849268ccbe26a8df17226567b244b0760c60bacd2b79ced559640987941fff3ebd0eb3949cea7885c56e467856a8919d1736aa402c8087
"Alyssa smashed the sevel into zeens with a shink. Is this good, bad, or neither?",1,0a10cfbe96898e179a6989823d1b388e63fd11f48fd9bb0f118bf62cd7dfea5dd88a7b1d57cbd9606e10dc7e76ef4a52208822cd8d1992d9cbf67431ac76dda0
"Alyssa smashed the sevel into zeens with a shink. Is this good, bad, or neither?",1,46c20b1adc9c36dfbc836763dc702a7b7b2dac8dd9e97644069c5032673cf2fd24b7f5f7ff76cc30dfbb4c2e17c943459f8ff26da2acbbd180d4e4e0646f1af7
"Alyssa smashed the sevel into zeens with a shink. Is this good, bad, or neither?",1,af989e3af8e0075e9bde53bd63f64cd6e74e8b4e5bd1927668d72c74602eac36c160300f69280c96acac6f88b8e2304f56fa42541c2b6de1348a754f5f87e17c
"Alyssa smashed the sevel into zeens with a shink. Is this good, bad, or neither?",4,654abee2a34ea238dd9860279c2e4f4ca17d0745f80e3a567f1be1f8bc80565588c6bc0d387e4705bac6ad4b8113565bc4647802a60f9ec02d1e658cb7bd2331
"Alyssa smashed the sevel into zeens with a shink. Is this good, bad, or neither?",2,e165d6e0d884a5dec3732fed9823a5dc658747e5e8a7cd6b8824c145a96f57e1c5ace3d686d19e4895e395a6a692ab2ec7e568bd0bdbf718b9ccf15472c92747
"Alyssa smashed the sevel into zeens with a shink. Is this good, bad, or neither?",6,e165d6e0d884a5dec3732fed9823a5dc658747e5e8a7cd6b8824c145a96f57e1c5ace3d686d19e4895e395a6a692ab2ec7e568bd0bdbf718b9ccf15472c92747
"Alyssa smashed the sevel into zeens with a shink. Is this good, bad, or neither?",3,5f12e05c2e694ca4d0d50f5c90ffefa31fc5c326c5f6352ab6f2d69efda09898d7fa2e899476fb98164baf5559806eee7fc6f92a8cd7641d9b208f848e51b143
"Alyssa smashed the sevel into zeens with a shink. Is this good, bad, or neither?",3,5f12e05c2e694ca4d0d50f5c90ffefa31fc5c326c5f6352ab6f2d69efda09898d7fa2e899476fb98164baf5559806eee7fc6f92a8cd7641d9b208f848e51b143
"Alyssa smashed the sevel into zeens with a shink. Is this good, bad, or neither?",3,5f12e05c2e694ca4d0d50f5c90ffefa31fc5c326c5f6352ab6f2d69efda09898d7fa2e899476fb98164baf5559806eee7fc6f92a8cd7641d9b208f848e51b143
"Alyssa smashed the sevel into zeens with a shink. Is this good, bad, or neither?",3,5f12e05c2e694ca4d0d50f5c90ffefa31fc5c326c5f6352ab6f2d69efda09898d7fa2e899476fb98164baf5559806eee7fc6f92a8cd7641d9b208f848e51b143
"Alyssa smashed the sevel into zeens with a shink. Is this good, bad, or neither?",3,5f12e05c2e694ca4d0d50f5c90ffefa31fc5c326c5f6352ab6f2d69efda09898d7fa2e899476fb98164baf5559806eee7fc6f92a8cd7641d9b208f848e51b143
"Alyssa smashed the sevel into zeens with a shink. Is this good, bad, or neither?",3,5f12e05c2e694ca4d0d50f5c90ffefa31fc5c326c5f6352ab6f2d69efda09898d7fa2e899476fb98164baf5559806eee7fc6f92a8cd7641d9b208f848e51b143
"Alyssa smashed the sevel into zeens with a shink. Is this good, bad, or neither?",3,5f12e05c2e694ca4d0d50f5c90ffefa31fc5c326c5f6352ab6f2d69efda09898d7fa2e899476fb98164baf5559806eee7fc6f92a8cd7641d9b208f848e51b143
"Alyssa smashed the sevel into zeens with a shink. Is this good, bad, or neither?",3,5f12e05c2e694ca4d0d50f5c90ffefa31fc5c326c5f6352ab6f2d69efda09898d7fa2e899476fb98164baf5559806eee7fc6f92a8cd7641d9b208f848e51b143
"Alyssa smashed the sevel into zeens with a shink. Is this good, bad, or neither?",4,17504e85be73d221ad19e99a98ac986d036f023c4a01ec85700a2fe55c864f4dd592e8f883dde6740ee9da0cf9acb1b3589b2774f6a21354af5811b35acbe633
"Alyssa smashed the sevel into zeens with a shink. Is this good, bad, or neither?",6,17504e85be73d221ad19e99a98ac986d036f023c4a01ec85700a2fe55c864f4dd592e8f883dde6740ee9da0cf9acb1b3589b2774f6a21354af5811b35acbe633
"Alyssa smashed the sevel into zeens with a shink. Is this good, bad, or neither?",4,3ce1c91573b49e76ae6d43c669a24733296314c25baffa84d6693179025159771a3c7b297e83491615fff176965dd211be78675095cfe008040fcf254df14810
"Alyssa smashed the sevel into zeens with a shink. Is this good, bad, or neither?",1,36c09886bcf34790a3057408ed9a30e450e97a94d845ac9f7082dc883dceb74a7a02965cb0ba3b453593ff2e472e6da031c42ac5ff355cbd4bb4e9670a65a684
"Alyssa smashed the sevel into zeens with a shink. Is this good, bad, or neither?",4,45e96d4dc82e3c4eb594ef8f391830979a8273ae7391b5a58289dcd36b5fb51bf69d318c0427c322ceb225c3133832f91707fb3c436c9d28ac54261e6d6ade7f
"Alyssa smashed the sevel into zeens with a shink. Is this good, bad, or neither?",1,b4a89e063c479339463fe8a3755a45afdb72640d55ae6f8499866bdce35aea79532c96c386d3e305abf960bd172306159148a5dedc70fc0c191353ec94176ac4
"Alyssa smashed the sevel into zeens with a shink. Is this good, bad, or neither?",1,83e68bdb3c8d06734b9c63de2e996ad5203cfadd686bffeb5371242a53bd2562e4ee27b56455e36057ad2b7ff679b1bc0942e1b5e336f4762c4ed9cc49cb339a
"Alyssa smashed the sevel into zeens with a shink. Is this good, bad, or neither?",1,819161aa2e764fd74ba60f02978d28b130e488d1f6ed613c48db286b68fe06ef24eeeb946d2af813bac598640b43342cd2b7a142eb31a6fff239faaae995f9f7
"Alyssa smashed the sevel into zeens with a shink. Is this good, bad, or neither?",4,c2a35a9e3a4e63030e1b1467ea5c631724ace41aa9aab9a34f7eb3dea239079ba738fd4333a249f113a2423c2b23c3dc9bd99213f8a783d851527ee9cb86f84b
"Alyssa smashed the sevel into zeens with a shink. Is this good, bad, or neither?",1,e144c3aae932ef874624a8c02856bd414068417234e5b80137e61dd663266d84bc23fa36329997345a42240c440c07c8e4419207b38bbe2b9d99063b876d4ff8
"Alyssa smashed the sevel into zeens with a shink. Is this good, bad, or neither?",1,6b3de6293ba36b85ccd3d2760ea4eafe74b4d4ded4b3ca11c8acef38ff16673de8de3d697bb263bdfb7fce65a0ec93464a04dc9a6d3637e832535e106a74b51d
"Alyssa smashed the sevel into zeens with a shink. Is this good, bad, or neither?",1,72d1c9853df3d3644610f651fe7698341b570aaefc46052d0ded8bbbdc6d391fd63756a98ecba6103b15777dc7237c385637dd01aa20a1dae807fa976cc0b5fd
"Alyssa smashed the sevel into zeens with a shink. Is this good, bad, or neither?",6,0ca87715be5df199ebada6867f7e0e75295c7ededa0fbd84664b9240578d42457d55abd66e8d40f24cae8c5c5c0a506eae9b839711a908d418039a14a0ca3135
"Alyssa smashed the sevel into zeens with a shink. Is this good, bad, or neither?",1,5d818587500e31ddd24f674f0d96e8036b1fbbdeff8f12716de7cf436031070adc160ac58c2058f70b7756b9758d4cc6c60cd86cb5fbac5b08e94434f347d5fc
"Alyssa smashed the sevel into zeens with a shink. Is this good, bad, or neither?",2,ddaaf85b6ad92e5bd899125be0ee1d1e475cef85f10f7c86eb80b3e666aa2d27b9930efbf239779906809e3b49e9c42c65a28830cce2f7034e42c039095ac370
"Alyssa smashed the sevel into zeens with a shink. Is this good, bad, or neither?",1,720bea532db6ed90a7bd855c056e2ccc32b0f2fe90eb490aa4d644afcc89620fb5f7c3bf4971d931a8aef22130fb8976bd9e83f534038e3c4e8421311520cb5d
"Alyssa smashed the sevel into zeens with a shink. Is this good, bad, or neither?",4,c5fd9cfb80da8eeedda47b99cd536cef1dc23bacba71c65feb38fab52a1a667e2ef0b340dbb344b26f19e5fb98c9e52383735dd3ff2f7e7f0a0cc524a9b8bf2e
"Alyssa smashed the sevel into zeens with a shink. Is this good, bad, or neither?",4,ab817809187642176d23d87932f87fb8cac29305dd69bd9c80c875e1418683baeb300a33a4ea303e96598aee641e58ffef6ed700b09ee5a77559e157e08d3320
"Alyssa smashed the sevel into zeens with a shink. Is this good, bad, or neither?",4,247d016ad1965e185b284a032af50657ede03f4f6dfc65f402943ca2d27268dbc47a7ee39ad2eed9b24b64110dc50e8dd10ca6597e88d493637c358a9ba6470b
"Alyssa smashed the sevel into zeens with a shink. Is this good, bad, or neither?",0,949e348794c3e18581f7b55ecef851e605235f7c9cafa5c3b4d3e91106a8ea5851849ec1edc9cd0b8dbea5b628ab5f49181d508855ed809569304963bc219caa
"Alyssa smashed the sevel into zeens with a shink. Is this good, bad, or neither?",7,2bddce971fb9dfadb0e50fcd15f5da42f2ef8c476a4212bde20a28dfb3b51b03b619ae1daafc7905fad410c42d69ea64cce4d2e705a9f283a1f36221d9537557
"Alyssa smashed the sevel into zeens with a shink. Is this good, bad, or neither?",1,6442579b5017c978ac48004d53b31163b3763f309e6f3e0581e04c2aea211970cc33a63b0462acee00808e5c684e9c9445efbc52c93000c0cc6f7f2e7cc3b7f1
"Alyssa smashed the sevel into zeens with a shink. Is this good, bad, or neither?",4,85d1218385f688400596590a645587316e2eb7e685c30c6e4979d4f1b3efeca298b54835a69e165331173f118d68c1b4e73353e499acc711459f658f21052bce
"Alyssa smashed the sevel into zeens with a shink. Is this good, bad, or neither?",1,305f2f29687fda8e291e598686a4a089cc57c27d26fc2dea3e28544183df6fdd4ce792399dcac730c7aa7109f82a09aace9c895bf9596d257e113393be774056
"Alyssa smashed the sevel into zeens with a shink. Is this good, bad, or neither?",4,08ea6ea397537c84ac209f08bf3bec2c0ff500e94266cd17fa45d303b288126de192d25b7f3331a02fdcad8a68ce682fafad99f95ec45259d05ed65d6cd3505e
"Alyssa smashed the sevel into zeens with a shink. Is this good, bad, or neither?",1,aeaead0bad2cd8cd8e00067df1d0ddd61b9ba6afec23c08f5c84f413ad2e263545b447c45633570fb4f2c9b3d3be895bc1e474eb157f9f9b4ac62955a36370ef
"Alyssa smashed the sevel into zeens with a shink. Is this good, bad, or neither?",4,c4ed94657e69e8d0ab2fc62ae827e33b39befc4999fffa6f5fd6cc66b82427202a7aa870b5327b553f62a9c69474930cded1869d86d079f9aed5650135c1c560
"Alyssa smashed the sevel into zeens with a shink. Is this good, bad, or neither?",1,65292598f02f15c7af491c276e7b315923eb755df1ace9781f40d4379dd61e8822805a414b86be16cac64f18854c983a7b13ecd2abdf6edf2a94fb3540b8233a
"Alyssa smashed the sevel into zeens with a shink. Is this good, bad, or neither?",1,2ef83ca1078dec825457a8a96c3a4bad8efa18aa11d07f9b3787997d0e09e67116477e139d2397cc8db8431e7b2af373de8174a851c7f0305ccf30b2d51a89db
"Alyssa smashed the sevel into zeens with a shink. Is this good, bad, or neither?",1,5ed859beff22cb7346bbd1bb520b4e40c6fd44610478d66cd057f78c274bfe00e0cfd791b7f2e25ec9b478d601bfa4906bcd9751e895cada9d7ddb10a781a789
"Alyssa smashed the sevel into zeens with a shink. Is this good, bad, or neither?",4,3415cb76896388583d993ad3378b35b206d58d75cefaac5d45f01a38556aa4cfff136fd41536dcbdcf63f4029eac4463ac5567d313d8b3dc6bd8dd1e8a2833ac
"Alyssa smashed the sevel into zeens with a shink. Is this good, bad, or neither?",3,352e7092221254de5346a08edec544947e6c369aab0f6c0c2a26748639cdfc5c9b0bf29304ec0f0417e95997f1f1e32da9511fd90788e68886b850c8d0860068
