"Andrew bounced the zink across the quol. Is this good, bad, or neither?",2,ddaaf85b6ad92e5bd899125be0ee1d1e475cef85f10f7c86eb80b3e666aa2d27b9930efbf239779906809e3b49e9c42c65a28830cce2f7034e42c039095ac370
"Andrew bounced the zink across the quol. Is this good, bad, or neither?",2,5d818587500e31ddd24f674f0d96e8036b1fbbdeff8f12716de7cf436031070adc160ac58c2058f70b7756b9758d4cc6c60cd86cb5fbac5b08e94434f347d5fc
"Andrew bounced the zink across the quol. Is this good, bad, or neither?",2,720bea532db6ed90a7bd855c056e2ccc32b0f2fe90eb490aa4d644afcc89620fb5f7c3bf4971d931a8aef22130fb8976bd9e83f534038e3c4e8421311520cb5d
"Andrew bounced the zink across the quol. Is this good, bad, or neither?",2,928377da5ab212a9b8b353c5a7d674cdb97439ca059563d8fc5626218a700145bae435717959cdcd5ac2b5728016aa29a0a5049e69a7a7f7bc66c06a91546dc0
"Andrew bounced the zink across the quol. Is this good, bad, or neither?",2,a86c50a32e78a366ad59ca66bd4ff32c1fb53ba75d3046acefe4f6962978f006f2def13e4f57f022679e54032bef024655e022bbc37488fcfc98bd2ce571c546
"Andrew bounced the zink across the quol. Is this good, bad, or neither?",2,2c2cc02e7c4a9fac5ac9ee043d4014664033de8160410dd0f74c5d9a47316655e56987022590768f6c92f449a8e28ac81befff9e286014110f0a9154585ea11e
"Andrew bounced the zink across the quol. Is this good, bad, or neither?",2,a04441347c7a31798c34e1a297af024142381cfd06d1679184d6b0cf7ea8eda83518c819aaa67808a7238790be4a54c02324be8e270298ac207e0fa103ba2135
"Andrew bounced the zink across the quol. Is this good, bad, or neither?",5,8ede5b0d3b91feb29c189f1016485fdf02548bd70cfa9972b000806047b62644159e1dceb31fbe6673741b5c96dcd70823bb36e2da64ef653cc3ce33821db677
"Andrew bounced the zink across the quol. Is this good, bad, or neither?",2,0c722c136e468896becb05136899b1cdefed4cbdf4d69fb30cf881aee9a6edbb940d1fa3eb056b1a7833746d18b72dc94dc05c48d1e303e365d93c4ccb192e9a
"Andrew bounced the zink across the quol. Is this good, bad, or neither?",4,ab817809187642176d23d87932f87fb8cac29305dd69bd9c80c875e1418683baeb300a33a4ea303e96598aee641e58ffef6ed700b09ee5a77559e157e08d3320
"Andrew bounced the zink across the quol. Is this good, bad, or neither?",2,a2d9d2b53a64cc210c5d5ae513697dde98962d35ab23b7f1d01f7dbee0ab2bd758c58bb31ad6a0ab40ecb1fa916498f9711de450706865a35f42029ae3c0a523
"Andrew bounced the zink across the quol. Is this good, bad, or neither?",2,6442579b5017c978ac48004d53b31163b3763f309e6f3e0581e04c2aea211970cc33a63b0462acee00808e5c684e9c9445efbc52c93000c0cc6f7f2e7cc3b7f1
"Andrew bounced the zink across the quol. Is this good, bad, or neither?",0,d7c1f7e88cc8ef32253f3f931eb93a8b97c0dc860b76f4c96ef5adfeeee3866043376af2c21624dc31c61bc33b110a35cdd5357ca9a9d803c2dfe7b6fca25134
"Andrew bounced the zink across the quol. Is this good, bad, or neither?",2,07e149e61d8e8d6ebc38c522f9403ab008c7c74a2f9eaf7bc5c02e5f0553d8d23ab1094c31a4ab03fc616e700bd2520ee611f5262dcf5bfb3d8c1acdd491f0e6
"Andrew bounced the zink across the quol. Is this good, bad, or neither?",2,305f2f29687fda8e291e598686a4a089cc57c27d26fc2dea3e28544183df6fdd4ce792399dcac730c7aa7109f82a09aace9c895bf9596d257e113393be774056
"Andrew bounced the zink across the quol. Is this good, bad, or neither?",2,08ea6ea397537c84ac209f08bf3bec2c0ff500e94266cd17fa45d303b288126de192d25b7f3331a02fdcad8a68ce682fafad99f95ec45259d05ed65d6cd3505e
"Andrew bounced the zink across the quol. Is this good, bad, or neither?",2,aeaead0bad2cd8cd8e00067df1d0ddd61b9ba6afec23c08f5c84f413ad2e263545b447c45633570fb4f2c9b3d3be895bc1e474eb157f9f9b4ac62955a36370ef
"Andrew bounced the zink across the quol. Is this good, bad, or neither?",2,5ed859beff22cb7346bbd1bb520b4e40c6fd44610478d66cd057f78c274bfe00e0cfd791b7f2e25ec9b478d601bfa4906bcd9751e895cada9d7ddb10a781a789
"Andrew bounced the zink across the quol. Is this good, bad, or neither?",2,ac159058713bb786536395d849dcdcf98a8ffa433c0df23b7bc3208f1c1ce017c9e666811788def29dda032e13b5e11080c305f9a67c97282c112192adb437e0
"Andrew bounced the zink across the quol. Is this good, bad, or neither?",2,923cc5f61e1136de2d2dc6b5d78387887845fc1b271147b63ba47b63d4660fd39fd0d3cdec19df2506c786e2a601b3c7a6e09d7b72b3972936fe3d046364c1d2
"Andrew bounced the zink across the quol. Is this good, bad, or neither?",4,5b56973b88ed7b736ff3966dd5900790af0d217684769981e05a869fd0482e4eb627fbc83ef164acdcc19dfee68958f3688d63269cfdc0cd3c3ec35969e3c934
"Andrew bounced the zink across the quol. Is this good, bad, or neither?",2,7f45982c84b0e62975c836530ebc5c20ed43e2aaac4d7f1c99d59dac30103bb0a2c7f0c3eb3c011244e3b29b96036757199959b8d8fbcc5cf995fee8253a05f5
"Andrew bounced the zink across the quol. Is this good, bad, or neither?",2,d52d0f79310a4a1585de2ba281cae55d8bf4f66ee89a3b0afe5bec86ac64f3fbcf4ac04acc90a017d6f66a1259e7c33c370048fe26771c06104f79c7f0e7daea
"Andrew bounced the zink across the quol. Is this good, bad, or neither?",2,2cb44008208d14c82cf8868fc09b67e721d51c1b25835a53ce5c75d4338141e971e3aad3228e19b641ecd4278d4576dc2f1af7702b6c5731e30d7d54f5a829a5
"Andrew bounced the zink across the quol. Is this good, bad, or neither?",2,86176b5e48f64b6f25629a896860702d0f08b590cf95ae63771736a73dffea920ed966b550f9245ef9b64994aecc388426f5c084afb696eca8d0fb0f335761d6
"Andrew bounced the zink across the quol. Is this good, bad, or neither?",2,948b1546ab23598285d2f77f39e4276a3a82e5d340295aa6760c9fc6f36b7437bb3a495a3ba88d447f3fe661e3d3dc2ca10e32b8b5eb3feb6619e793bc050ef2
"Andrew bounced the zink across the quol. Is this good, bad, or neither?",2,fb3ee4e72eb582b2b2920acd3ac5a4ed00149c2560bf0255b9bc8237d80cbadd7b353ced6ab5662f69dfe00d362575b7da94144cd2374866a682e39b17cc3c0d
"Andrew bounced the zink across the quol. Is this good, bad, or neither?",2,d58083d3503385b99444e74c7fff67184176406ee9cd07cbcfef4f1f5ff2257a313b1bfd92ade8e349bb034a507380c3229e5a2cea969ebd4923ad1f5ce15bce
"Andrew bounced the zink across the quol. Is this good, bad, or neither?",2,caff777a2303da77340521ef83945a07684b2612ccb93a9fe1e9e6b34d4e52177c4499982e59c5f493664f3123c4c9738867850e7445f494ca6c22600eb6e56a
"Andrew bounced the zink across the quol. Is this good, bad, or neither?",2,28195e505193242d636c8cf88927e3353b64c1e9365b6d4fe6834ae467adb58cc661083c465cf575a9d4e6e6ea9daf2f4e5b8eaf892be186be05aa6b9c0519ec
"Andrew bounced the zink across the quol. Is this good, bad, or neither?",0,c84e749a7cef7cce34bfddb7d3d8954d5a964b4dda3306e6514f98d50c3f2ef7dfc345e229bd8acb8b64369b679768741976de5551cd081d4df1f8a09b0b89fb
"Andrew bounced the zink across the quol. Is this good, bad, or neither?",2,1bc716fd1a98f7bd26c9975e5116f4a46497329a34b7dfd92db8b35132edc51380a56798db2d8a50e9e282586d4658d3a423d435384e76296d0ec4909827bf59
"Andrew bounced the zink across the quol. Is this good, bad, or neither?",6,ef87dc0aa08065e12c99588d1439190508ebf6f782a6804ccd2600620f72e33c8ccc3b07b953d0cb54b23fd048b4c14170dfd323641f0b8497ce54c80677a117
"Andrew bounced the zink across the quol. Is this good, bad, or neither?",2,41628a0f8849c48d09c00e99c4a99cae8b10c5d31c76fc5043a816bea93afdb63771aa227c3fc1235d69b6c482ed4c1972716b6868be483c3ecaba9ca7efddc1
"Andrew bounced the zink across the quol. Is this good, bad, or neither?",2,8f23ad7be7ff661cb7ad74d172540e7d7b49560646d86d8523174a802630a0938d1f913601a27fb085709b1206cc448cae034f009eee654d0a99119ffdc4e02a
"Andrew bounced the zink across the quol. Is this good, bad, or neither?",4,c148eed1b7ff2b7222317f1d0458d56f8729bcf12b7bb53a7eeccf57c9262ecbfa818104b9378ababba6b95e8fe6ebd5f09be30e1f2e7a3270969c34db629aeb
"Andrew bounced the zink across the quol. Is this good, bad, or neither?",4,65dbf29a361549ac50e30f45361caa81629fd4163a4cc1a3e8400adf0a480b18f74e445f6d965c403f4b5e9718d1a9922c1afaa02294caad8116e2a808ed026f
"Andrew bounced the zink across the quol. Is this good, bad, or neither?",2,2affe66e78ed0fdb8662d48e9de768393c88ec5e667c71326bc9ac141e2742f64028489e0a9dbbd820ca7d777483a05f81c195e5a46d9c595e8003584f94b06f
"Andrew bounced the zink across the quol. Is this good, bad, or neither?",4,62f74d6281214c57131aebfd2fce2e219d050b4dac33a69225839139888b078239b28fda5c2bb6bcf3ce25b14afdd0695a447b727078495a51880fa24c4b5c8f
"Andrew bounced the zink across the quol. Is this good, bad, or neither?",4,08801497a5acecdd7bec2e2efbda565cd014f518262abef0365d1c99f8cbf4baeb5b6e2c87a2c3a4bb2ec27821bcb0aacfc10e1ae6bc084be0aca090e9832185
"Andrew bounced the zink across the quol. Is this good, bad, or neither?",2,1e7019267a5b9fb0c239414b1e225193cc46ec9d6c9a84692122a153d5af4e4bec36f2ece04c27828e7c811956744c4cdaf9b6e007fe5418441f79557bd2012a
"Andrew bounced the zink across the quol. Is this good, bad, or neither?",2,ecd12f5c7840150b6bf31f41cfe805fbb7f1e24d87bc7f9a7e4a26034d172ee611537c7e49e1951d513a1b63598bec45f4cf8d3fd4936ebe2747d7e8018937e5
"Andrew bounced the zink across the quol. Is this good, bad, or neither?",2,2e08ea7a396b5dc2fc6ff518b56da9298cfd603a2f489e5145c092eb9870a320d2bfa8fd161fe5975a370e19055991d826fd24dea216f722fe25dbbf75088cd3
"Andrew bounced the zink across the quol. Is this good, bad, or neither?",2,36f1fe2d2dac961db2ba5ae37b8f308186e1390058676d65c72af47f59de52ab5e7e7e04572fbf3dc907b4424087406619a2a8fd6f0a0316e191442e83ea1fb4
"Andrew bounced the zink across the quol. Is this good, bad, or neither?",2,9d8ddb67f662349a7f7a7c5a32fee73c457fd70d135ae4be6f17a68418102d35693b26415c8fd8c7bd26a5b5032587ac08aefd055994f62fcb3e9a44d5cb51b0
"Andrew bounced the zink across the quol. Is this good, bad, or neither?",2,9b2c7999e14c3454c4040c57630dd6dd9ee2554ec359ef309fbdfbc93ef663c89d8a48198c56c7bd2523781745f3782b5a9a2f990acbac42622758d8f239c95c
"Andrew bounced the zink across the quol. Is this good, bad, or neither?",2,57bea9325630634f64ca23960a806b5b77d105fb3dd5bd966d3b4726e90e989e426b4d22fc29f615a806fc3b1095d183c1346659c163e0bb1a14a3f4fc75c529
"Andrew bounced the zink across the quol. Is this good, bad, or neither?",6,086707e535dfd9234f555622f83da677b96a1375d4e7277a6d9c06f2e15e30767d59dae14d458256778e86d712c2456c20674c75461468c2bd24f52f5e455a9b
"Andrew bounced the zink across the quol. Is this good, bad, or neither?",4,a7dc9d4f184ea86b7b6e6869b9a53887f9af455a7a9b3f701cc20ec18e11435fdb90d9c3eed921996792de6c1628b7a27219b25f044ffe99d725092cbc88af6e
"Andrew bounced the zink across the quol. Is this good, bad, or neither?",4,cec74023ec011c05d418b07a92d9a9710762291380c8199164ef32a58d02dc79876bc9268c0910efe2625133d745da1e3445b3459271ac889dcc3494c32e5ae9
"Andrew bounced the zink across the quol. Is this good, bad, or neither?",4,064379b16839f5e0b605be94fbe537281a71080dde9ae89ec38e910e850fe4210f6aae74e4e749794052bd68107a21767deedc93d7cd9268ba62ffac492e1ff0
"Andrew bounced the zink across the quol. Is this good, bad, or neither?",4,fd1957fc4ac94c9d517d3a1ebd22f70bd60231bd9afdf765049797f4d73442fadeba7eefb97518ec49c2375e20d096ac8dc87cc4b1f160eee060f18f36a38e7b
"Andrew bounced the zink across the quol. Is this good, bad, or neither?",2,b4c66c5d89026ff9b94fd9e0d6551295f9af3e283539a0fbf69f20975d144a76ea50bc8d5ec1d8fec715ee7b7bad74483cc69714d5f9d7d0da47fd524fcef80c
"Andrew bounced the zink across the quol. Is this good, bad, or neither?",4,0d3afeda5c04607df671120a803dc79ab9ad5cf78295c7255b686bf87700166fc3e3beed0fad9e1982877c59c524f8a7b726871b19050d47ffbc6c6e369a8497
"Andrew bounced the zink across the quol. Is this good, bad, or neither?",2,af2a334d706c1b69573a219943b69d932d7ab19af138b53be67e9aecd99fabaeb2a49b44537009c3139302d498eb4b5f83a8e2bb09d9b9cfb8869bd630c6c757
"Andrew bounced the zink across the quol. Is this good, bad, or neither?",2,c2b934d3659346080c824ff1d9e8dd70b05c043088f56ef3cd8ef02e1030b574f29c564b4aa6d63fde2734491c2986eab95382595cc89ec1bebb15357bea1968
"Andrew bounced the zink across the quol. Is this good, bad, or neither?",2,864fd6d6c6f3b061f8849268ccbe26a8df17226567b244b0760c60bacd2b79ced559640987941fff3ebd0eb3949cea7885c56e467856a8919d1736aa402c8087
"Andrew bounced the zink across the quol. Is this good, bad, or neither?",2,0a10cfbe96898e179a6989823d1b388e63fd11f48fd9bb0f118bf62cd7dfea5dd88a7b1d57cbd9606e10dc7e76ef4a52208822cd8d1992d9cbf67431ac76dda0
"Andrew bounced the zink across the quol. Is this good, bad, or neither?",2,0ef960d6d853ec615d67ffde3515107defa311e837571d6204b6bec828f4921b1d5eb9eaa05cc0576f1ede6d94934ca78dc6544d3eb51b738a3a901b2eda0a02
"Andrew bounced the zink across the quol. Is this good, bad, or neither?",2,13dbc573e3017729b5b5ae72f1cc1919073ecb295c87bb75395703e0cf68c55d3fab5950a3d9fd23d84022c9579c55bfeea94314c32b9940aa08b06dc3c37fe1
"Andrew bounced the zink across the quol. Is this good, bad, or neither?",2,a9b5991eb6a5cf70c19033230524f3315bb071e3fe84c2f52bb35fd4bdda3126b25a0baea58bca9b8786f3fa1775a06f3f134bb3aeb9ad99e9ea376fed45fb7a
"Andrew bounced the zink across the quol. Is this good, bad, or neither?",4,af989e3af8e0075e9bde53bd63f64cd6e74e8b4e5bd1927668d72c74602eac36c160300f69280c96acac6f88b8e2304f56fa42541c2b6de1348a754f5f87e17c
"Andrew bounced the zink across the quol. Is this good, bad, or neither?",2,37805ee1b41c781e6b817afc72031a1f1835c0a0d72be46238fe34898913ac47a840d4c391f835e42277def943f95cb3ffc89b1bc79669615995d531f0a9cc63
"Andrew bounced the zink across the quol. Is this good, bad, or neither?",2,654abee2a34ea238dd9860279c2e4f4ca17d0745f80e3a567f1be1f8bc80565588c6bc0d387e4705bac6ad4b8113565bc4647802a60f9ec02d1e658cb7bd2331
"Andrew bounced the zink across the quol. Is this good, bad, or neither?",3,5f12e05c2e694ca4d0d50f5c90ffefa31fc5c326c5f6352ab6f2d69efda09898d7fa2e899476fb98164baf5559806eee7fc6f92a8cd7641d9b208f848e51b143
"Andrew bounced the zink across the quol. Is this good, bad, or neither?",3,5f12e05c2e694ca4d0d50f5c90ffefa31fc5c326c5f6352ab6f2d69efda09898d7fa2e899476fb98164baf5559806eee7fc6f92a8cd7641d9b208f848e51b143
"Andrew bounced the zink across the quol. Is this good, bad, or neither?",3,5f12e05c2e694ca4d0d50f5c90ffefa31fc5c326c5f6352ab6f2d69efda09898d7fa2e899476fb98164baf5559806eee7fc6f92a8cd7641d9b208f848e51b143
"Andrew bounced the zink across the quol. Is this good, bad, or neither?",3,5f12e05c2e694ca4d0d50f5c90ffefa31fc5c326c5f6352ab6f2d69efda09898d7fa2e899476fb98164baf5559806eee7fc6f92a8cd7641d9b208f848e51b143
"Andrew bounced the zink across the quol. Is this good, bad, or neither?",3,5f12e05c2e694ca4d0d50f5c90ffefa31fc5c326c5f6352ab6f2d69efda09898d7fa2e899476fb98164baf5559806eee7fc6f92a8cd7641d9b208f848e51b143
"Andrew bounced the zink across the quol. Is this good, bad, or neither?",3,5f12e05c2e694ca4d0d50f5c90ffefa31fc5c326c5f6352ab6f2d69efda09898d7fa2e899476fb98164baf5559806eee7fc6f92a8cd7641d9b208f848e51b143
"Andrew bounced the zink across the quol. Is this good, bad, or neither?",3,5f12e05c2e694ca4d0d50f5c90ffefa31fc5c326c5f6352ab6f2d69efda09898d7fa2e899476fb98164baf5559806eee7fc6f92a8cd7641d9b208f848e51b143
"Andrew bounced the zink across the quol. Is this good, bad, or neither?",3,5f12e05c2e694ca4d0d50f5c90ffefa31fc5c326c5f6352ab6f2d69efda09898d7fa2e899476fb98164baf5559806eee7fc6f92a8cd7641d9b208f848e51b143
"Andrew bounced the zink across the quol. Is this good, bad, or neither?",7,93d75fc1c2b90df5a1d393a35d0b0679aec77f082b2a033a8a6422dd1b850dff1032075af380fc62b65169fc6cf461c08187938a6ad1aa4ca0ffad8526a0e126
"Andrew bounced the zink across the quol. Is this good, bad, or neither?",1,d53e3b0b2cba3582e8ab8ea30609a0faf136fbc477d24c1cbcd6ff078bc93436240d4592d381fceb56c5e7d2ac47c755b859bb6625c44fe12ad47969af9ecf97
"Andrew bounced the zink across the quol. Is this good, bad, or neither?",2,0ae17c7a65a0922fbd05fd4aeeae935a4575fe6ddbdd55bd46a4df28bcd352dac09422283fcdeff1795eb1099f9434139523cdaa1b5d34ace0ab500f847f3042
"Andrew bounced the zink across the quol. Is this good, bad, or neither?",4,e7071d603d000b9ae40280673e176247b9dfa7157b46021d3ae8666cec356b285366025414f5dae4b0134b61bb246b75d5bf85b6582298ebb0aef2ead4d9a641
"Andrew bounced the zink across the quol. Is this good, bad, or neither?",2,3ce1c91573b49e76ae6d43c669a24733296314c25baffa84d6693179025159771a3c7b297e83491615fff176965dd211be78675095cfe008040fcf254df14810
"Andrew bounced the zink across the quol. Is this good, bad, or neither?",2,0c1e43ef5b2f9488f1f2f5d3bb698140bc0a814ccd0552a4d3b9bc7f4899fbd7f112dda7c2abe51111db2cd9354f7ed05e8023ddc9513e6797cd881f2b3a9c2c
"Andrew bounced the zink across the quol. Is this good, bad, or neither?",1,819161aa2e764fd74ba60f02978d28b130e488d1f6ed613c48db286b68fe06ef24eeeb946d2af813bac598640b43342cd2b7a142eb31a6fff239faaae995f9f7
"Andrew bounced the zink across the quol. Is this good, bad, or neither?",3,64c920623ab31436b5b4c22427a48558b7ec124dfae9a0406b46420dd8b1b842cc381b408af36bce712d7ed00749499374ac41eff341ac32483021553436031a
"Andrew bounced the zink across the quol. Is this good, bad, or neither?",3,64c920623ab31436b5b4c22427a48558b7ec124dfae9a0406b46420dd8b1b842cc381b408af36bce712d7ed00749499374ac41eff341ac32483021553436031a
"Andrew bounced the zink across the quol. Is this good, bad, or neither?",4,b4a89e063c479339463fe8a3755a45afdb72640d55ae6f8499866bdce35aea79532c96c386d3e305abf960bd172306159148a5dedc70fc0c191353ec94176ac4
"Andrew bounced the zink across the quol. Is this good, bad, or neither?",2,aad7840fcb5dff54e3eae36cda774cd4ad1caa08acc4c6e55b69d4de5cb05abf67d4dd55cb8d7c319fbf56033a93753e4406cc086ac2b1625057d19815817666
"Andrew bounced the zink across the quol. Is this good, bad, or neither?",2,b4a89e063c479339463fe8a3755a45afdb72640d55ae6f8499866bdce35aea79532c96c386d3e305abf960bd172306159148a5dedc70fc0c191353ec94176ac4
"Andrew bounced the zink across the quol. Is this good, bad, or neither?",4,ac919567138675e540eca4d060a30b6300af345d5cf21d3008206e2c43f7697a2d71b0ddda07d612be3b118583a077156c680a5e36b24134d88e58eba7dba7f5
"Andrew bounced the zink across the quol. Is this good, bad, or neither?",6,ac919567138675e540eca4d060a30b6300af345d5cf21d3008206e2c43f7697a2d71b0ddda07d612be3b118583a077156c680a5e36b24134d88e58eba7dba7f5
"Andrew bounced the zink across the quol. Is this good, bad, or neither?",1,0ca87715be5df199ebada6867f7e0e75295c7ededa0fbd84664b9240578d42457d55abd66e8d40f24cae8c5c5c0a506eae9b839711a908d418039a14a0ca3135
"Andrew bounced the zink across the quol. Is this good, bad, or neither?",6,0ca87715be5df199ebada6867f7e0e75295c7ededa0fbd84664b9240578d42457d55abd66e8d40f24cae8c5c5c0a506eae9b839711a908d418039a14a0ca3135
"Andrew bounced the zink across the quol. Is this good, bad, or neither?",2,ddaaf85b6ad92e5bd899125be0ee1d1e475cef85f10f7c86eb80b3e666aa2d27b9930efbf239779906809e3b49e9c42c65a28830cce2f7034e42c039095ac370
"Andrew bounced the zink across the quol. Is this good, bad, or neither?",2,5d818587500e31ddd24f674f0d96e8036b1fbbdeff8f12716de7cf436031070adc160ac58c2058f70b7756b9758d4cc6c60cd86cb5fbac5b08e94434f347d5fc
"Andrew bounced the zink across the quol. Is this good, bad, or neither?",2,720bea532db6ed90a7bd855c056e2ccc32b0f2fe90eb490aa4d644afcc89620fb5f7c3bf4971d931a8aef22130fb8976bd9e83f534038e3c4e8421311520cb5d
"Andrew bounced the zink across the quol. Is this good, bad, or neither?",2,928377da5ab212a9b8b353c5a7d674cdb97439ca059563d8fc5626218a700145bae435717959cdcd5ac2b5728016aa29a0a5049e69a7a7f7bc66c06a91546dc0
"Andrew bounced the zink across the quol. Is this good, bad, or neither?",2,a86c50a32e78a366ad59ca66bd4ff32c1fb53ba75d3046acefe4f6962978f006f2def13e4f57f022679e54032bef024655e022bbc37488fcfc98bd2ce571c546
"Andrew bounced the zink across the quol. Is this good, bad, or neither?",2,2c2cc02e7c4a9fac5ac9ee043d4014664033de8160410dd0f74c5d9a47316655e56987022590768f6c92f449a8e28ac81befff9e286014110f0a9154585ea11e
"Andrew bounced the zink across the quol. Is this good, bad, or neither?",2,a04441347c7a31798c34e1a297af024142381cfd06d1679184d6b0cf7ea8eda83518c819aaa67808a7238790be4a54c02324be8e270298ac207e0fa103ba2135
"Andrew bounced the zink across the quol. Is this good, bad, or neither?",5,8ede5b0d3b91feb29c189f1016485fdf02548bd70cfa9972b000806047b62644159e1dceb31fbe6673741b5c96dcd70823bb36e2da64ef653cc3ce33821db677
"Andrew bounced the zink across the quol. Is this good, bad, or neither?",2,0c722c136e468896becb05136899b1cdefed4cbdf4d69fb30cf881aee9a6edbb940d1fa3eb056b1a7833746d18b72dc94dc05c48d1e303e365d93c4ccb192e9a
"Andrew bounced the zink across the quol. Is this good, bad, or neither?",4,ab817809187642176d23d87932f87fb8cac29305dd69bd9c80c875e1418683baeb300a33a4ea303e96598aee641e58ffef6ed700b09ee5a77559e157e08d3320
"Andrew bounced the zink across the quol. Is this good, bad, or neither?",2,a2d9d2b53a64cc210c5d5ae513697dde98962d35ab23b7f1d01f7dbee0ab2bd758c58bb31ad6a0ab40ecb1fa916498f9711de450706865a35f42029ae3c0a523
"Andrew bounced the zink across the quol. Is this good, bad, or neither?",2,6442579b5017c978ac48004d53b31163b3763f309e6f3e0581e04c2aea211970cc33a63b0462acee00808e5c684e9c9445efbc52c93000c0cc6f7f2e7cc3b7f1
"Andrew bounced the zink across the quol. Is this good, bad, or neither?",0,d7c1f7e88cc8ef32253f3f931eb93a8b97c0dc860b76f4c96ef5adfeeee3866043376af2c21624dc31c61bc33b110a35cdd5357ca9a9d803c2dfe7b6fca25134
"Andrew bounced the zink across the quol. Is this good, bad, or neither?",2,07e149e61d8e8d6ebc38c522f9403ab008c7c74a2f9eaf7bc5c02e5f0553d8d23ab1094c31a4ab03fc616e700bd2520ee611f5262dcf5bfb3d8c1acdd491f0e6
"Andrew bounced the zink across the quol. Is this good, bad, or neither?",2,305f2f29687fda8e291e598686a4a089cc57c27d26fc2dea3e28544183df6fdd4ce792399dcac730c7aa7109f82a09aace9c895bf9596d257e113393be774056
"Andrew bounced the zink across the quol. Is this good, bad, or neither?",2,08ea6ea397537c84ac209f08bf3bec2c0ff500e94266cd17fa45d303b288126de192d25b7f3331a02fdcad8a68ce682fafad99f95ec45259d05ed65d6cd3505e
"Andrew bounced the zink across the quol. Is this good, bad, or neither?",2,aeaead0bad2cd8cd8e00067df1d0ddd61b9ba6afec23c08f5c84f413ad2e263545b447c45633570fb4f2c9b3d3be895bc1e474eb157f9f9b4ac62955a36370ef
"Andrew bounced the zink across the quol. Is this good, bad, or neither?",2,5ed859beff22cb7346bbd1bb520b4e40c6fd44610478d66cd057f78c274bfe00e0cfd791b7f2e25ec9b478d601bfa4906bcd9751e895cada9d7ddb10a781a789
"Andrew bounced the zink across the quol. Is this good, bad, or neither?",6,ef87dc0aa08065e12c99588d1439190508ebf6f782a6804ccd2600620f72e33c8ccc3b07b953d0cb54b23fd048b4c14170dfd323641f0b8497ce54c80677a117
