"Victoria enjoyed the gink in her. Is this good, bad, or neither?",0,5d818587500e31ddd24f674f0d96e8036b1fbbdeff8f12716de7cf436031070adc160ac58c2058f70b7756b9758d4cc6c60cd86cb5fbac5b08e94434f347d5fc
"Victoria enjoyed the gink in her. Is this good, bad, or neither?",0,30606f8e98a0bcee757da1e043d90be8b99eadedcd615f42073de321f7cac52b276c746837817ac57abe806ae009898f8ad56e8d4fd98e0e5196145c47d6fea7
"Victoria enjoyed the gink in her. Is this good, bad, or neither?",0,0f39c6fe943705d2e1bcb2673a046c49cdb2fc032aa484b09b2aa61b1bb36eac2e663baaece1b9f7b16093e5230b27d4e9ede00dc43b0becd0df05dd91f74684
"Victoria enjoyed the gink in her. Is this good, bad, or neither?",7,c5fd9cfb80da8eeedda47b99cd536cef1dc23bacba71c65feb38fab52a1a667e2ef0b340dbb344b26f19e5fb98c9e52383735dd3ff2f7e7f0a0cc524a9b8bf2e
"Victoria enjoyed the gink in her. Is this good, bad, or neither?",0,c21e5e9ea1ec7e4fa57cb34b9d2724328636606e37e0c25966965fbbd4c6baa6acf6066ed80eb5abc87aab14c4d2f2ae364307b26eb184ec1c301bb6e2cf1131
"Victoria enjoyed the gink in her. Is this good, bad, or neither?",0,ddaaf85b6ad92e5bd899125be0ee1d1e475cef85f10f7c86eb80b3e666aa2d27b9930efbf239779906809e3b49e9c42c65a28830cce2f7034e42c039095ac370
"Victoria enjoyed the gink in her. Is this good, bad, or neither?",0,8c485b8d8102e3b3f5f75842faf138c57e422ec6e89849811afebe94cc7117a9a64b4c0ddf6d65608bb622699cd6c0d4017c3eb4352790a1877a2c123f0cfabe
"Victoria enjoyed the gink in her. Is this good, bad, or neither?",7,10087c913fe11e55fc88d155e4ebd206e92683386f737d2692498f286bbc341b8c70905eba24f353d4d2ec51c106a6fb85ecc546dcd7a743dcc69a3ce6ad75a8
"Victoria enjoyed the gink in her. Is this good, bad, or neither?",0,6f5d3137f68645162d6754029499a9ec7ae5684f56847c76e1aed3915b42b3ec8caf636fecf4f90a32b0151ee5f9c6a1d6452b80a69f77275d541c9cea4cbff1
"Victoria enjoyed the gink in her. Is this good, bad, or neither?",0,ab817809187642176d23d87932f87fb8cac29305dd69bd9c80c875e1418683baeb300a33a4ea303e96598aee641e58ffef6ed700b09ee5a77559e157e08d3320
"Victoria enjoyed the gink in her. Is this good, bad, or neither?",4,09b4c83407f0a73856e194f38a0e87c5c5e54b62468a8a936adbae328281110205de40ed0794893a57599de84c837f4426e4882b43cc57dde066d2670f93ccf8
"Victoria enjoyed the gink in her. Is this good, bad, or neither?",2,9fc9d3de7ddb83580fc430d2d5c6ee47e775cabd5a982d7012deb44dbf1042f8b3db8ea6b2c4ee7b39f82b84b6b071d6968393ccc6520a6870f0883ccc441cf9
"Victoria enjoyed the gink in her. Is this good, bad, or neither?",0,a2d9d2b53a64cc210c5d5ae513697dde98962d35ab23b7f1d01f7dbee0ab2bd758c58bb31ad6a0ab40ecb1fa916498f9711de450706865a35f42029ae3c0a523
"Victoria enjoyed the gink in her. Is this good, bad, or neither?",0,6442579b5017c978ac48004d53b31163b3763f309e6f3e0581e04c2aea211970cc33a63b0462acee00808e5c684e9c9445efbc52c93000c0cc6f7f2e7cc3b7f1
"Victoria enjoyed the gink in her. Is this good, bad, or neither?",0,609868e2cf6de58a506a6731afe55c53d93510e3a34e58705479846aa7ccef2469a0081dc7ad92826b214afccaa96b3202ca07a32e7d6afd795c5776ef5511be
"Victoria enjoyed the gink in her. Is this good, bad, or neither?",0,3ba7f77ae10c38036b97eb26b741db3f51fb37d04dcd4811c66cee4d7e3bf096ad2dda7eb04c83b35f03ed05392281462198a2d33493d965414714644b302ba5
"Victoria enjoyed the gink in her. Is this good, bad, or neither?",0,08ea6ea397537c84ac209f08bf3bec2c0ff500e94266cd17fa45d303b288126de192d25b7f3331a02fdcad8a68ce682fafad99f95ec45259d05ed65d6cd3505e
"Victoria enjoyed the gink in her. Is this good, bad, or neither?",0,aeaead0bad2cd8cd8e00067df1d0ddd61b9ba6afec23c08f5c84f413ad2e263545b447c45633570fb4f2c9b3d3be895bc1e474eb157f9f9b4ac62955a36370ef
"Victoria enjoyed the gink in her. Is this good, bad, or neither?",0,5ed859beff22cb7346bbd1bb520b4e40c6fd44610478d66cd057f78c274bfe00e0cfd791b7f2e25ec9b478d601bfa4906bcd9751e895cada9d7ddb10a781a789
"Victoria enjoyed the gink in her. Is this good, bad, or neither?",4,305f2f29687fda8e291e598686a4a089cc57c27d26fc2dea3e28544183df6fdd4ce792399dcac730c7aa7109f82a09aace9c895bf9596d257e113393be774056
"Victoria enjoyed the gink in her. Is this good, bad, or neither?",2,d57422294cc14ac4bbc24fb168a9930c38b68f3ad389ebd0087c2114f2f3269ac805b249e7fa5e1a41d2b6c28897cc39a81ecfa6cf8c657a269ce9003c0d27dd
"Victoria enjoyed the gink in her. Is this good, bad, or neither?",4,5413a412d4833ac9cfad22dce2c78e46f7ad8e3534e1741f4732e318296028ad444f1ba913fed810c1af16b369223c94f1ec5ea721d12e9753ad7d6d7ba1cf04
"Victoria enjoyed the gink in her. Is this good, bad, or neither?",0,44ff1cf089bbf7211828a3fdb20b42438871616ec1673ead8a12f71d33cd02a9c9b6277f081d013d9f2ec7440ed01aff2b636ec53a25db5c848ae2217fd50870
"Victoria enjoyed the gink in her. Is this good, bad, or neither?",0,aeaead0bad2cd8cd8e00067df1d0ddd61b9ba6afec23c08f5c84f413ad2e263545b447c45633570fb4f2c9b3d3be895bc1e474eb157f9f9b4ac62955a36370ef
"Victoria enjoyed the gink in her. Is this good, bad, or neither?",0,ac159058713bb786536395d849dcdcf98a8ffa433c0df23b7bc3208f1c1ce017c9e666811788def29dda032e13b5e11080c305f9a67c97282c112192adb437e0
"Victoria enjoyed the gink in her. Is this good, bad, or neither?",0,4df3b1dffcd142e69d97851b674594bd48b560172c6b5aa02f680f8ff8410b0594b4ee5df335a5298479ebd7bbda9a84c66e21bb9a27b7d0b449c203cbd67f6d
"Victoria enjoyed the gink in her. Is this good, bad, or neither?",0,5b56973b88ed7b736ff3966dd5900790af0d217684769981e05a869fd0482e4eb627fbc83ef164acdcc19dfee68958f3688d63269cfdc0cd3c3ec35969e3c934
"Victoria enjoyed the gink in her. Is this good, bad, or neither?",0,7f45982c84b0e62975c836530ebc5c20ed43e2aaac4d7f1c99d59dac30103bb0a2c7f0c3eb3c011244e3b29b96036757199959b8d8fbcc5cf995fee8253a05f5
"Victoria enjoyed the gink in her. Is this good, bad, or neither?",0,5de7b886a8e9d03160145a2c857e7a513d279c1afda8a15e2f3b842b220911a0db6d8f73ebf2fa9d9628aa86f669ca60c7bb844f3535032c2078a13a63bb8b6e
"Victoria enjoyed the gink in her. Is this good, bad, or neither?",0,374634f202202263ffdd8668a1488ecd7d08e9ad30a552d742cc8d6a4a6336712da7922b4a1a4dd141940d6c0fc175765c5a7bb0ae45350384eb54f9f136d3e3
"Victoria enjoyed the gink in her. Is this good, bad, or neither?",0,d52d0f79310a4a1585de2ba281cae55d8bf4f66ee89a3b0afe5bec86ac64f3fbcf4ac04acc90a017d6f66a1259e7c33c370048fe26771c06104f79c7f0e7daea
"Victoria enjoyed the gink in her. Is this good, bad, or neither?",0,fb3ee4e72eb582b2b2920acd3ac5a4ed00149c2560bf0255b9bc8237d80cbadd7b353ced6ab5662f69dfe00d362575b7da94144cd2374866a682e39b17cc3c0d
"Victoria enjoyed the gink in her. Is this good, bad, or neither?",0,59b08a645fc422cb906b374cc090da670df1abebf75166991a77077ed223dd4c51870e8cde0bf0e157eb15f92e1904e7be1238a91c5a1d6cc4e58493f33ab7fe
"Victoria enjoyed the gink in her. Is this good, bad, or neither?",0,2cb44008208d14c82cf8868fc09b67e721d51c1b25835a53ce5c75d4338141e971e3aad3228e19b641ecd4278d4576dc2f1af7702b6c5731e30d7d54f5a829a5
"Victoria enjoyed the gink in her. Is this good, bad, or neither?",0,832b19ea4eb64ad4f6298c0933ec2f6ba994974bcbbda62a7a0088a00f6cd96bd27aca96187875bf07fe2c868f7cd9e74b39598b91c261fd45079e5150637de4
"Victoria enjoyed the gink in her. Is this good, bad, or neither?",0,050d3354591569cb7c302cb71e354fb23344a0e94f1750835adf74ba4c3a058dfe2731e2dd38d8d2f4cb80955424093ff619aa731c9d051ded0eee37a2630400
"Victoria enjoyed the gink in her. Is this good, bad, or neither?",0,28195e505193242d636c8cf88927e3353b64c1e9365b6d4fe6834ae467adb58cc661083c465cf575a9d4e6e6ea9daf2f4e5b8eaf892be186be05aa6b9c0519ec
"Victoria enjoyed the gink in her. Is this good, bad, or neither?",0,caff777a2303da77340521ef83945a07684b2612ccb93a9fe1e9e6b34d4e52177c4499982e59c5f493664f3123c4c9738867850e7445f494ca6c22600eb6e56a
"Victoria enjoyed the gink in her. Is this good, bad, or neither?",0,69bf71a23950a19d51588205bb33b43a6c847df0a5e564427b2d61a5489a3d037dcf472674ab77e4abb6133e088ce98f278ad721e939562236b4f32ab79e07e7
"Victoria enjoyed the gink in her. Is this good, bad, or neither?",4,28195e505193242d636c8cf88927e3353b64c1e9365b6d4fe6834ae467adb58cc661083c465cf575a9d4e6e6ea9daf2f4e5b8eaf892be186be05aa6b9c0519ec
"Victoria enjoyed the gink in her. Is this good, bad, or neither?",0,f79df501344dd9ff75cd925944cfd558eebd8c13c2683e5f1b9a875547feff8f6d9b5e609adf970b8e6787032b4c78c254d7275def1033b2e1a4cf62b86ae157
"Victoria enjoyed the gink in her. Is this good, bad, or neither?",0,ecd12f5c7840150b6bf31f41cfe805fbb7f1e24d87bc7f9a7e4a26034d172ee611537c7e49e1951d513a1b63598bec45f4cf8d3fd4936ebe2747d7e8018937e5
"Victoria enjoyed the gink in her. Is this good, bad, or neither?",7,7c9cf1e65356f56845b215bd8c6ce87a7b3af26b3d38b3ffd214c12df7e33d3c83043ddae7656339c12e4712269592aa690f716231b6043d836fcc4008a16756
"Victoria enjoyed the gink in her. Is this good, bad, or neither?",0,1bc716fd1a98f7bd26c9975e5116f4a46497329a34b7dfd92db8b35132edc51380a56798db2d8a50e9e282586d4658d3a423d435384e76296d0ec4909827bf59
"Victoria enjoyed the gink in her. Is this good, bad, or neither?",0,f9356280c9c330aeeea012b86c14f4cd919e382539d8e11cca7ed668bf69a9574204f375fb1356d42d6f31ea35f7af80784991ab3fa2332ac6d561a843fcb8a8
"Victoria enjoyed the gink in her. Is this good, bad, or neither?",0,41628a0f8849c48d09c00e99c4a99cae8b10c5d31c76fc5043a816bea93afdb63771aa227c3fc1235d69b6c482ed4c1972716b6868be483c3ecaba9ca7efddc1
"Victoria enjoyed the gink in her. Is this good, bad, or neither?",4,9b485507ea85dba0ea079f030f448f95e5fe05b5380ef9b62ed71471c9676502c1d6feda5bf7b95ac412eeb2b18a838922f31e3eca4350a8b37b4631b65ec6a0
"Victoria enjoyed the gink in her. Is this good, bad, or neither?",2,1d6e25166a8b6d9220341b9777943f8f9207f6570ab6c8945b52785b99a53dd40db80a3523ca48d4ad74c2c963ef178eac19a5fa416cfaad04b8d26c00a35ca2
"Victoria enjoyed the gink in her. Is this good, bad, or neither?",0,5baa7d46ce987ef43ed4383d0b1a35d69dc63b0d6f14dce604037b55a8f09a07f2a1d542f39376a814f3fef3a63101b4fdbaf6bd3d94fdd034e0940263a70205
"Victoria enjoyed the gink in her. Is this good, bad, or neither?",0,8e602ad63048efcb745c43689fdd11c5963e87afe4f0e483fc6e63f878e4bfc35f1fe2bf006e007dc84304de9516c1cd6464275a341c2c3f4aa12d126eaa86d6
"Victoria enjoyed the gink in her. Is this good, bad, or neither?",0,43a44e206ffa66beb925c3d2254448ae868e95ac4ca7ae71193f357ba697396a8c871dc16ea11278735829727f28f88443be078e05d6daf3374a9a8c9536f0e2
"Victoria enjoyed the gink in her. Is this good, bad, or neither?",0,14f23fcc167988dce6e55bce50b355428b82f247209c572f82715aac881afcb8162ebc7b557e1438dd2f69b3e915e6bcd037041df1904f0c6fe886c4637565f6
"Victoria enjoyed the gink in her. Is this good, bad, or neither?",0,3ac821b56984fcebcba78a37547e5d1a30dc85a141a57d1f7182a33d3ff13bcb03f9f65e9e03de32cbd1bf27a557d1dfe31c6e3019e5954171e9eca6828af1e2
"Victoria enjoyed the gink in her. Is this good, bad, or neither?",0,8dd66cd628ab86210e3a00b78988e5ce4e2b6aab85432fd80abfde7022b751392ca65cd30c168bb90f140bb15142dd0acf5b5e20e77fb9768387cf2791f6295b
"Victoria enjoyed the gink in her. Is this good, bad, or neither?",0,7eac63dd734031a37e46a4e523aa6bfac9447229a7978f447e0dd64aaeb24d0d1a328b33c9c4f7113e04ffb0b3b9208c1ba47d96cd9c916cdf876f738fa5ae44
"Victoria enjoyed the gink in her. Is this good, bad, or neither?",7,2e6c1f40d0571051c0ea8a1847b6880e0bc7a77006b5321695458028ed16aaee17e4441570c1fdada543b9487f6a6b70ef0fb28b36eb6282d904884a8ed764d3
"Victoria enjoyed the gink in her. Is this good, bad, or neither?",7,8ddfd6838ba1192940f2bd23445c8e90647893143031a9f2d2528169e5f48ca952681641db3d41b742e754a50c9bba6f107c8ca81711ae3ed9bee1683a0ae0a6
"Victoria enjoyed the gink in her. Is this good, bad, or neither?",0,ee47e0c15d50c35a9b471df221cd9fdacf8423f98053494692e630774589836405b9abe0ee632c43a5d4325fcab3775381df724a3b19c7e32b6e7887d5f58ee5
"Victoria enjoyed the gink in her. Is this good, bad, or neither?",4,8e5028dac50b1a97cb19f1a582ea969df1787494e1b13b35a5c4abe344e2ae1f2b398777172f3fb964141db7501d0117a9ea6358b0127c10bfe8e1907eb1782d
"Victoria enjoyed the gink in her. Is this good, bad, or neither?",0,a7dc9d4f184ea86b7b6e6869b9a53887f9af455a7a9b3f701cc20ec18e11435fdb90d9c3eed921996792de6c1628b7a27219b25f044ffe99d725092cbc88af6e
"Victoria enjoyed the gink in her. Is this good, bad, or neither?",0,ac3b1b10808f1753ec2a45dbfd111934fc15f5c99e8d54caa1b9fa0399c450a1b4489cb0037029cbf93008625f0c076357a1b8e164d2f400a000fbd6062f7bad
"Victoria enjoyed the gink in her. Is this good, bad, or neither?",0,cc22c96641d2cc6d0ab5bbce479ca214d3415b5fc441e838096bcc0279ac5c9dd9fc498f3586621d54f0f67a2359def607e445feefe9a821a71fbf49559fceae
"Victoria enjoyed the gink in her. Is this good, bad, or neither?",4,9e3a61b80a05ca3a7c0ad9445b5049a5119f310f2ec0c8c2a9c320b1926a7af397dee82bd0f88577c42b6b0336fb46e77ed2e17b47f3166c818645fed5e98ceb
"Victoria enjoyed the gink in her. Is this good, bad, or neither?",0,859f31898854d64d9e440ccfc7d12d77661ac2e523933d699c28ae9606af8db5f2030d1b58400475b70621f412b80932cff2b4bf8f6db2c4c40f665ecf1a5251
"Victoria enjoyed the gink in her. Is this good, bad, or neither?",0,4d597427355b386d236216b658b41a25aac3860f7378550307537b4946db382603a46f6844f584339f9befe3a84156eaef8351fc4d1fe1c0c652a66d08dbd42e
"Victoria enjoyed the gink in her. Is this good, bad, or neither?",0,c5c7a359614b5a4a3081ea3fcad30ceb637d07f997531b3a5d7df5a3b7c21d6c3ea95af67e1163a07272fc0f0f99ad4ec8fa6aee59c5d52b6fc8e01d88cbb67a
"Victoria enjoyed the gink in her. Is this good, bad, or neither?",0,69853f0be37e993f717a2c5c639da75470623b6d462a082b1c1c0e6cefebb4ef7d30f6f5e673053acc928a4256ec916bf6f7528af161ac7eb726d86dc01ed3a5
"Victoria enjoyed the gink in her. Is this good, bad, or neither?",0,90a8f4e9c6304a51968e4385112cc74998b5b2947bd690613dc1f296d8e62b250b7cc50ecd80b1fd931a040b3b9b27dcce43f11dfe81ff6b1a53f359c0d008b9
"Victoria enjoyed the gink in her. Is this good, bad, or neither?",2,211db190933e6364d053bcb608decb56a39ead238d039f3e8e04ce7382ebc1ce9ed2e98050bbc80253966196a16c544eb2613c7ef8859452459b7707af070e20
"Victoria enjoyed the gink in her. Is this good, bad, or neither?",0,ea64ad6a42a21d4c8cbc48bf090ef805116de15778437596da86680797d3e62898467e5f97b29625139470497bda90acdbd776853b9cf9ba9609884a5d6b49c9
"Victoria enjoyed the gink in her. Is this good, bad, or neither?",2,512926c32568782467c043d9acacef7e1297fe10e47106d36f90ed38f8036a40a0f8a10a29ae7a31a0a93e5ad4fed44921abf919134ac7a8d096c8022d200715
"Victoria enjoyed the gink in her. Is this good, bad, or neither?",2,f7a066e7bc887adaa770daefabcd38875ccab967aebcce86d3743a34f895158101937a8ae99f666f04f576d6390f72503b7a1051879b5ff1a50ece82141e216f
"Victoria enjoyed the gink in her. Is this good, bad, or neither?",4,f7a066e7bc887adaa770daefabcd38875ccab967aebcce86d3743a34f895158101937a8ae99f666f04f576d6390f72503b7a1051879b5ff1a50ece82141e216f
"Victoria enjoyed the gink in her. Is this good, bad, or neither?",0,0a10cfbe96898e179a6989823d1b388e63fd11f48fd9bb0f118bf62cd7dfea5dd88a7b1d57cbd9606e10dc7e76ef4a52208822cd8d1992d9cbf67431ac76dda0
"Victoria enjoyed the gink in her. Is this good, bad, or neither?",0,3c45b41007f7d6fd060a5f600bd0519a71e4e037cf948009b8d655a263aed8549a76ba2755a3ab8a59685c59bfc217c76cfad6e641d20663cd70ae255d5f695f
"Victoria enjoyed the gink in her. Is this good, bad, or neither?",0,af989e3af8e0075e9bde53bd63f64cd6e74e8b4e5bd1927668d72c74602eac36c160300f69280c96acac6f88b8e2304f56fa42541c2b6de1348a754f5f87e17c
"Victoria enjoyed the gink in her. Is this good, bad, or neither?",0,b9a4f02c7efc90d3d81ce3c3a24ed6211862c500cd72c328edabb4a1aafac18c5e1e3187af1abec974c5d43df73f79454f0ba529ad554fcb5d22779bc35745ca
"Victoria enjoyed the gink in her. Is this good, bad, or neither?",0,654abee2a34ea238dd9860279c2e4f4ca17d0745f80e3a567f1be1f8bc80565588c6bc0d387e4705bac6ad4b8113565bc4647802a60f9ec02d1e658cb7bd2331
"Victoria enjoyed the gink in her. Is this good, bad, or neither?",2,99ff96e6b36e51ea6555845f79e5795199be310340093e4fef1ef6fa898ed97acfaa5950db6f7d594711cbd46f3e7b3bd8923e18ebca45a28d3e72de6dd5d9c6
"Victoria enjoyed the gink in her. Is this good, bad, or neither?",4,bdcab5cd1212582dca8e50813eb9d163931efe5267ebfa63e032c1b5b75d61e915f696c1245ea08eb59d0685c2c37571e2b97ec2b046d4d43886cecc5779d0eb
"Victoria enjoyed the gink in her. Is this good, bad, or neither?",0,cf3acd50e78817e886b7c9033a67b96058d6010e56219bec7c8a89a181b4780a4af248cec6fb536ffa254d902e101056ae1801999191a13961a5516fc9cd9a34
"Victoria enjoyed the gink in her. Is this good, bad, or neither?",0,de7db2cb39c5fad3d64b2bc0801f711e6669f5959c8b3ede519c683ab19904204e09062a5923b771f286b8e5318e6d7b5a936741c358e6ffe616bcc49572eb74
"Victoria enjoyed the gink in her. Is this good, bad, or neither?",0,8ded77a21fe05c7756085556cca8f98f5eb31dedfed36a6e262cb8adc9034cd291306beab7fc461a490aca5e434bd7146b3069946e787af0ebac1f4361b7c52a
"Victoria enjoyed the gink in her. Is this good, bad, or neither?",3,5f12e05c2e694ca4d0d50f5c90ffefa31fc5c326c5f6352ab6f2d69efda09898d7fa2e899476fb98164baf5559806eee7fc6f92a8cd7641d9b208f848e51b143
"Victoria enjoyed the gink in her. Is this good, bad, or neither?",3,5f12e05c2e694ca4d0d50f5c90ffefa31fc5c326c5f6352ab6f2d69efda09898d7fa2e899476fb98164baf5559806eee7fc6f92a8cd7641d9b208f848e51b143
"Victoria enjoyed the gink in her. Is this good, bad, or neither?",3,5f12e05c2e694ca4d0d50f5c90ffefa31fc5c326c5f6352ab6f2d69efda09898d7fa2e899476fb98164baf5559806eee7fc6f92a8cd7641d9b208f848e51b143
"Victoria enjoyed the gink in her. Is this good, bad, or neither?",3,5f12e05c2e694ca4d0d50f5c90ffefa31fc5c326c5f6352ab6f2d69efda09898d7fa2e899476fb98164baf5559806eee7fc6f92a8cd7641d9b208f848e51b143
"Victoria enjoyed the gink in her. Is this good, bad, or neither?",3,5f12e05c2e694ca4d0d50f5c90ffefa31fc5c326c5f6352ab6f2d69efda09898d7fa2e899476fb98164baf5559806eee7fc6f92a8cd7641d9b208f848e51b143
"Victoria enjoyed the gink in her. Is this good, bad, or neither?",3,5f12e05c2e694ca4d0d50f5c90ffefa31fc5c326c5f6352ab6f2d69efda09898d7fa2e899476fb98164baf5559806eee7fc6f92a8cd7641d9b208f848e51b143
"Victoria enjoyed the gink in her. Is this good, bad, or neither?",3,5f12e05c2e694ca4d0d50f5c90ffefa31fc5c326c5f6352ab6f2d69efda09898d7fa2e899476fb98164baf5559806eee7fc6f92a8cd7641d9b208f848e51b143
"Victoria enjoyed the gink in her. Is this good, bad, or neither?",3,5f12e05c2e694ca4d0d50f5c90ffefa31fc5c326c5f6352ab6f2d69efda09898d7fa2e899476fb98164baf5559806eee7fc6f92a8cd7641d9b208f848e51b143
"Victoria enjoyed the gink in her. Is this good, bad, or neither?",2,f7254fa48e88d20eafcf307ab377f0931c8b7f6cff90edc334a1024f7b68b589298aee17d0c37b67e1f458fb4b0cda57633a210dedb963df4ad1a13a1ee8113e
"Victoria enjoyed the gink in her. Is this good, bad, or neither?",6,f7254fa48e88d20eafcf307ab377f0931c8b7f6cff90edc334a1024f7b68b589298aee17d0c37b67e1f458fb4b0cda57633a210dedb963df4ad1a13a1ee8113e
"Victoria enjoyed the gink in her. Is this good, bad, or neither?",0,8136cc8513e58854ebc9e386209c625ce8fa6f0634fb7c1c384d2d7ec46b9c2bfbfa12cd9db499860ab7f4d795c5cc1b4ea7484211b421569140fa1ab21fdfa7
"Victoria enjoyed the gink in her. Is this good, bad, or neither?",0,622ce661e03326e61601a2923cb01cea820b5826bd028cb8b9de02308691bf067dc96e808c8a7309c676d0999f702bd1fdf28bdf0749e83d6810f0811c30afee
"Victoria enjoyed the gink in her. Is this good, bad, or neither?",0,3ce1c91573b49e76ae6d43c669a24733296314c25baffa84d6693179025159771a3c7b297e83491615fff176965dd211be78675095cfe008040fcf254df14810
"Victoria enjoyed the gink in her. Is this good, bad, or neither?",0,819161aa2e764fd74ba60f02978d28b130e488d1f6ed613c48db286b68fe06ef24eeeb946d2af813bac598640b43342cd2b7a142eb31a6fff239faaae995f9f7
"Victoria enjoyed the gink in her. Is this good, bad, or neither?",4,04796db8b836ba4476c551aebda1a3134ed45126a84207e190fa5aa556e75ffe840348b6e4ba3a15dc48be70cb73e87958be0af77c9d7fc69741b30e26249e68
"Victoria enjoyed the gink in her. Is this good, bad, or neither?",0,f74a189a696ebb5d3833d4b89b0f94733b24c099235b93e38989b213817f3f6c519b8f67d99e68d2aae2d8cec42afe0dc9936b8765108818964591269daa19f6
"Victoria enjoyed the gink in her. Is this good, bad, or neither?",0,1436ff75d069b1b6f9ac5dda5e26a3675486a3e67c9f248bf846ee1eaa9bac96a5cd9becc2ce37bc801a8a0fd3f2f105471c8904cdc521a4c95a3d8b7ceb3cf4
"Victoria enjoyed the gink in her. Is this good, bad, or neither?",4,b4a89e063c479339463fe8a3755a45afdb72640d55ae6f8499866bdce35aea79532c96c386d3e305abf960bd172306159148a5dedc70fc0c191353ec94176ac4
"Victoria enjoyed the gink in her. Is this good, bad, or neither?",2,b4a89e063c479339463fe8a3755a45afdb72640d55ae6f8499866bdce35aea79532c96c386d3e305abf960bd172306159148a5dedc70fc0c191353ec94176ac4
"Victoria enjoyed the gink in her. Is this good, bad, or neither?",0,b4a89e063c479339463fe8a3755a45afdb72640d55ae6f8499866bdce35aea79532c96c386d3e305abf960bd172306159148a5dedc70fc0c191353ec94176ac4
"Victoria enjoyed the gink in her. Is this good, bad, or neither?",0,e0ea4440352cd442487ac03e7ac1ad46e2d38ff32932dd48b8886165da2bfa5f3e2ba0b98538a024929d1eb3fce4ae90a76522df528ca85f49eac82da1ca7fa1
"Victoria enjoyed the gink in her. Is this good, bad, or neither?",4,0ca87715be5df199ebada6867f7e0e75295c7ededa0fbd84664b9240578d42457d55abd66e8d40f24cae8c5c5c0a506eae9b839711a908d418039a14a0ca3135
"Victoria enjoyed the gink in her. Is this good, bad, or neither?",0,b01aed1d1a30cfe2c56b0b5d553b5f66c21000eb8e54d22a576839bf2f9c60deef89c4065dc106576bd72d9efbb44aa8ce92093f01d157b974c1dfd90e632356
"Victoria enjoyed the gink in her. Is this good, bad, or neither?",0,4d06d199b18510244d1a02467a2d14558362e194ac48b66c86bfc9a6f6f13cc8a1142b4675cf5a952e74a2f5a2ca24aecd6f9e0dc550a578a9536dc6c10e39b0
"Victoria enjoyed the gink in her. Is this good, bad, or neither?",0,5d818587500e31ddd24f674f0d96e8036b1fbbdeff8f12716de7cf436031070adc160ac58c2058f70b7756b9758d4cc6c60cd86cb5fbac5b08e94434f347d5fc
"Victoria enjoyed the gink in her. Is this good, bad, or neither?",0,30606f8e98a0bcee757da1e043d90be8b99eadedcd615f42073de321f7cac52b276c746837817ac57abe806ae009898f8ad56e8d4fd98e0e5196145c47d6fea7
"Victoria enjoyed the gink in her. Is this good, bad, or neither?",0,0f39c6fe943705d2e1bcb2673a046c49cdb2fc032aa484b09b2aa61b1bb36eac2e663baaece1b9f7b16093e5230b27d4e9ede00dc43b0becd0df05dd91f74684
"Victoria enjoyed the gink in her. Is this good, bad, or neither?",7,c5fd9cfb80da8eeedda47b99cd536cef1dc23bacba71c65feb38fab52a1a667e2ef0b340dbb344b26f19e5fb98c9e52383735dd3ff2f7e7f0a0cc524a9b8bf2e
"Victoria enjoyed the gink in her. Is this good, bad, or neither?",0,c21e5e9ea1ec7e4fa57cb34b9d2724328636606e37e0c25966965fbbd4c6baa6acf6066ed80eb5abc87aab14c4d2f2ae364307b26eb184ec1c301bb6e2cf1131
"Victoria enjoyed the gink in her. Is this good, bad, or neither?",0,ddaaf85b6ad92e5bd899125be0ee1d1e475cef85f10f7c86eb80b3e666aa2d27b9930efbf239779906809e3b49e9c42c65a28830cce2f7034e42c039095ac370
"Victoria enjoyed the gink in her. Is this good, bad, or neither?",0,8c485b8d8102e3b3f5f75842faf138c57e422ec6e89849811afebe94cc7117a9a64b4c0ddf6d65608bb622699cd6c0d4017c3eb4352790a1877a2c123f0cfabe
"Victoria enjoyed the gink in her. Is this good, bad, or neither?",7,10087c913fe11e55fc88d155e4ebd206e92683386f737d2692498f286bbc341b8c70905eba24f353d4d2ec51c106a6fb85ecc546dcd7a743dcc69a3ce6ad75a8
"Victoria enjoyed the gink in her. Is this good, bad, or neither?",0,6f5d3137f68645162d6754029499a9ec7ae5684f56847c76e1aed3915b42b3ec8caf636fecf4f90a32b0151ee5f9c6a1d6452b80a69f77275d541c9cea4cbff1
"Victoria enjoyed the gink in her. Is this good, bad, or neither?",0,ab817809187642176d23d87932f87fb8cac29305dd69bd9c80c875e1418683baeb300a33a4ea303e96598aee641e58ffef6ed700b09ee5a77559e157e08d3320
"Victoria enjoyed the gink in her. Is this good, bad, or neither?",4,09b4c83407f0a73856e194f38a0e87c5c5e54b62468a8a936adbae328281110205de40ed0794893a57599de84c837f4426e4882b43cc57dde066d2670f93ccf8
"Victoria enjoyed the gink in her. Is this good, bad, or neither?",2,9fc9d3de7ddb83580fc430d2d5c6ee47e775cabd5a982d7012deb44dbf1042f8b3db8ea6b2c4ee7b39f82b84b6b071d6968393ccc6520a6870f0883ccc441cf9
"Victoria enjoyed the gink in her. Is this good, bad, or neither?",0,a2d9d2b53a64cc210c5d5ae513697dde98962d35ab23b7f1d01f7dbee0ab2bd758c58bb31ad6a0ab40ecb1fa916498f9711de450706865a35f42029ae3c0a523
"Victoria enjoyed the gink in her. Is this good, bad, or neither?",0,6442579b5017c978ac48004d53b31163b3763f309e6f3e0581e04c2aea211970cc33a63b0462acee00808e5c684e9c9445efbc52c93000c0cc6f7f2e7cc3b7f1
"Victoria enjoyed the gink in her. Is this good, bad, or neither?",0,609868e2cf6de58a506a6731afe55c53d93510e3a34e58705479846aa7ccef2469a0081dc7ad92826b214afccaa96b3202ca07a32e7d6afd795c5776ef5511be
"Victoria enjoyed the gink in her. Is this good, bad, or neither?",0,3ba7f77ae10c38036b97eb26b741db3f51fb37d04dcd4811c66cee4d7e3bf096ad2dda7eb04c83b35f03ed05392281462198a2d33493d965414714644b302ba5
"Victoria enjoyed the gink in her. Is this good, bad, or neither?",0,08ea6ea397537c84ac209f08bf3bec2c0ff500e94266cd17fa45d303b288126de192d25b7f3331a02fdcad8a68ce682fafad99f95ec45259d05ed65d6cd3505e
"Victoria enjoyed the gink in her. Is this good, bad, or neither?",0,aeaead0bad2cd8cd8e00067df1d0ddd61b9ba6afec23c08f5c84f413ad2e263545b447c45633570fb4f2c9b3d3be895bc1e474eb157f9f9b4ac62955a36370ef
"Victoria enjoyed the gink in her. Is this good, bad, or neither?",0,5ed859beff22cb7346bbd1bb520b4e40c6fd44610478d66cd057f78c274bfe00e0cfd791b7f2e25ec9b478d601bfa4906bcd9751e895cada9d7ddb10a781a789
"Victoria enjoyed the gink in her. Is this good, bad, or neither?",4,305f2f29687fda8e291e598686a4a089cc57c27d26fc2dea3e28544183df6fdd4ce792399dcac730c7aa7109f82a09aace9c895bf9596d257e113393be774056
"Victoria enjoyed the gink in her. Is this good, bad, or neither?",2,d57422294cc14ac4bbc24fb168a9930c38b68f3ad389ebd0087c2114f2f3269ac805b249e7fa5e1a41d2b6c28897cc39a81ecfa6cf8c657a269ce9003c0d27dd
"Victoria enjoyed the gink in her. Is this good, bad, or neither?",4,5413a412d4833ac9cfad22dce2c78e46f7ad8e3534e1741f4732e318296028ad444f1ba913fed810c1af16b369223c94f1ec5ea721d12e9753ad7d6d7ba1cf04
"Victoria enjoyed the gink in her. Is this good, bad, or neither?",0,44ff1cf089bbf7211828a3fdb20b42438871616ec1673ead8a12f71d33cd02a9c9b6277f081d013d9f2ec7440ed01aff2b636ec53a25db5c848ae2217fd50870
"Victoria enjoyed the gink in her. Is this good, bad, or neither?",7,7c9cf1e65356f56845b215bd8c6ce87a7b3af26b3d38b3ffd214c12df7e33d3c83043ddae7656339c12e4712269592aa690f716231b6043d836fcc4008a16756
