"Mark smashed at Matthew with the nork. Is this good, bad, or neither?",1,5d818587500e31ddd24f674f0d96e8036b1fbbdeff8f12716de7cf436031070adc160ac58c2058f70b7756b9758d4cc6c60cd86cb5fbac5b08e94434f347d5fc
"Mark smashed at Matthew with the nork. Is this good, bad, or neither?",4,22927ee1670c563a5b3e859ce3893489835d8146cf5623484252f540adf5e60d2e155d4627dc5e48cead896df2c732bcfe6c6d334d27106c4766f8cdc1c2fcae
"Mark smashed at Matthew with the nork. Is this good, bad, or neither?",1,a86ed65d61974d7dea82060be097f86c660af18270b8a54ee25f3a061989f9d295222b9d4acf42f927c58a5b72418c1f574ba07654f4e4dd0639ecc38dab1058
"Mark smashed at Matthew with the nork. Is this good, bad, or neither?",1,5f0e39b555ebcea878eba144fbf2166542c7dd1e5596db83479f7dd05e71a09af88fe26368661398fd0efd97e548a72765a5536fe4ff20f06e81f4d40816f2ec
"Mark smashed at Matthew with the nork. Is this good, bad, or neither?",2,ddaaf85b6ad92e5bd899125be0ee1d1e475cef85f10f7c86eb80b3e666aa2d27b9930efbf239779906809e3b49e9c42c65a28830cce2f7034e42c039095ac370
"Mark smashed at Matthew with the nork. Is this good, bad, or neither?",1,bea0fd542e426e9178f522ba9216343653116a9663397c9861abb8a5e57f4e10ecac30ad308d3f11abb8d01ff34fba133b6d3b91fafb6b47f663071d10ec78ae
"Mark smashed at Matthew with the nork. Is this good, bad, or neither?",1,875020ab790a2a14de66f1031c9dbe948349d58ca878a7ebdf2af07b04dd9e5ab4a699ced7cd5f0dd4086c9d36d349e952b257a9921f440dc5f764a7d05e7b7f
"Mark smashed at Matthew with the nork. Is this good, bad, or neither?",4,6f5d3137f68645162d6754029499a9ec7ae5684f56847c76e1aed3915b42b3ec8caf636fecf4f90a32b0151ee5f9c6a1d6452b80a69f77275d541c9cea4cbff1
"Mark smashed at Matthew with the nork. Is this good, bad, or neither?",1,949e348794c3e18581f7b55ecef851e605235f7c9cafa5c3b4d3e91106a8ea5851849ec1edc9cd0b8dbea5b628ab5f49181d508855ed809569304963bc219caa
"Mark smashed at Matthew with the nork. Is this good, bad, or neither?",1,c05c20b19bfac736223d995201caec3443e1880034895de95b3cb59dd4346a6be7b45a13643ce08200ba740941e12766d4634f1629daa5e4e4eeb57e2a14915f
"Mark smashed at Matthew with the nork. Is this good, bad, or neither?",1,6442579b5017c978ac48004d53b31163b3763f309e6f3e0581e04c2aea211970cc33a63b0462acee00808e5c684e9c9445efbc52c93000c0cc6f7f2e7cc3b7f1
"Mark smashed at Matthew with the nork. Is this good, bad, or neither?",1,5e58b85a8a08efdde5d18851c48201bdbef1b75a770b673f63f28ad78a41d2da873988735cb33f3020bbc57c4e70d4aa80c11db691774a88938c8ddf9ea88320
"Mark smashed at Matthew with the nork. Is this good, bad, or neither?",1,08ea6ea397537c84ac209f08bf3bec2c0ff500e94266cd17fa45d303b288126de192d25b7f3331a02fdcad8a68ce682fafad99f95ec45259d05ed65d6cd3505e
"Mark smashed at Matthew with the nork. Is this good, bad, or neither?",1,aeaead0bad2cd8cd8e00067df1d0ddd61b9ba6afec23c08f5c84f413ad2e263545b447c45633570fb4f2c9b3d3be895bc1e474eb157f9f9b4ac62955a36370ef
"Mark smashed at Matthew with the nork. Is this good, bad, or neither?",1,5ed859beff22cb7346bbd1bb520b4e40c6fd44610478d66cd057f78c274bfe00e0cfd791b7f2e25ec9b478d601bfa4906bcd9751e895cada9d7ddb10a781a789
"Mark smashed at Matthew with the nork. Is this good, bad, or neither?",1,305f2f29687fda8e291e598686a4a089cc57c27d26fc2dea3e28544183df6fdd4ce792399dcac730c7aa7109f82a09aace9c895bf9596d257e113393be774056
"Mark smashed at Matthew with the nork. Is this good, bad, or neither?",1,34734f181a6d0f6f1adaeab93f12885a5502ad61026b9ed89cbc4b5edde06b6c4a39e6bab3e35dd25dbc50ea945830d22220b8cc32a10aa14462d8b03177b6e7
"Mark smashed at Matthew with the nork. Is this good, bad, or neither?",1,5b56973b88ed7b736ff3966dd5900790af0d217684769981e05a869fd0482e4eb627fbc83ef164acdcc19dfee68958f3688d63269cfdc0cd3c3ec35969e3c934
"Mark smashed at Matthew with the nork. Is this good, bad, or neither?",5,b9823f44a96a09bb0a39b059bc590571f243e6b4cae8f72f462a679bd66dd4a5df1300c501ee1ee59d2ef0b3924ec82649208ef3855c81f609b9a3b93dc2e442
"Mark smashed at Matthew with the nork. Is this good, bad, or neither?",1,c1c850a3ceae942c7b9e613ecea1c1f69711a609f9e98b77ce56b921620583f81b4c458a2e2280b8da308bbe84f90c4a495b9efd5d34b4f95c4f80d663ac2340
"Mark smashed at Matthew with the nork. Is this good, bad, or neither?",1,87ef026014587c59d56fa4c2071e6bb9d3bed56b2c3afb54b24d4cc832295bd62bbfb4a581d1881c6fcb84d2fb80ee66fccefc5a7457a6dc6289793ff7e7d0dc
"Mark smashed at Matthew with the nork. Is this good, bad, or neither?",2,59b08a645fc422cb906b374cc090da670df1abebf75166991a77077ed223dd4c51870e8cde0bf0e157eb15f92e1904e7be1238a91c5a1d6cc4e58493f33ab7fe
"Mark smashed at Matthew with the nork. Is this good, bad, or neither?",1,948b1546ab23598285d2f77f39e4276a3a82e5d340295aa6760c9fc6f36b7437bb3a495a3ba88d447f3fe661e3d3dc2ca10e32b8b5eb3feb6619e793bc050ef2
"Mark smashed at Matthew with the nork. Is this good, bad, or neither?",1,66ab85eabac73555896b5e2d0edb83fa95f45bc84fb8ea138679613161d8f2eeff6419a65df002bbae10680df73519943e9312e58b7f88d19d9b33c4d93114b6
"Mark smashed at Matthew with the nork. Is this good, bad, or neither?",1,fb3ee4e72eb582b2b2920acd3ac5a4ed00149c2560bf0255b9bc8237d80cbadd7b353ced6ab5662f69dfe00d362575b7da94144cd2374866a682e39b17cc3c0d
"Mark smashed at Matthew with the nork. Is this good, bad, or neither?",1,832b19ea4eb64ad4f6298c0933ec2f6ba994974bcbbda62a7a0088a00f6cd96bd27aca96187875bf07fe2c868f7cd9e74b39598b91c261fd45079e5150637de4
"Mark smashed at Matthew with the nork. Is this good, bad, or neither?",1,caff777a2303da77340521ef83945a07684b2612ccb93a9fe1e9e6b34d4e52177c4499982e59c5f493664f3123c4c9738867850e7445f494ca6c22600eb6e56a
"Mark smashed at Matthew with the nork. Is this good, bad, or neither?",1,28195e505193242d636c8cf88927e3353b64c1e9365b6d4fe6834ae467adb58cc661083c465cf575a9d4e6e6ea9daf2f4e5b8eaf892be186be05aa6b9c0519ec
"Mark smashed at Matthew with the nork. Is this good, bad, or neither?",1,ca978fbf5801b37083b90ae8a1f1d76983657f6164bdfbcac3818329d1283ce88c8d1d6841f39fc1dff0cc42e758930ea9111a38545825a1ba9066c3c72aba2a
"Mark smashed at Matthew with the nork. Is this good, bad, or neither?",1,ecd12f5c7840150b6bf31f41cfe805fbb7f1e24d87bc7f9a7e4a26034d172ee611537c7e49e1951d513a1b63598bec45f4cf8d3fd4936ebe2747d7e8018937e5
"Mark smashed at Matthew with the nork. Is this good, bad, or neither?",1,a5c073306569583b1452bb0d9993ce03eb3064e9c24ad08478942dcaa9253f72224cded64b65c25665f6015f552724e340f2ed78c1f3fbe29f5ded4dfc3eaf99
"Mark smashed at Matthew with the nork. Is this good, bad, or neither?",5,401591f278e1aaec5101f645338fca5fbbdec09332561ec98cafc52acdfccf065d04e4648dd1bf79814b86322d53768e40cef7ca3015a513d4528319988a1d5c
"Mark smashed at Matthew with the nork. Is this good, bad, or neither?",1,e56af4edb43eb082300ea0e2ed3a960edd1de31c19caa7b68eef7bcb9a37c1635ab3acda4ebc1e026c52d3ecfa975f3445ed5c545d48b014afe4bafcee989b25
"Mark smashed at Matthew with the nork. Is this good, bad, or neither?",1,4c936421d33f89a86a2126ef307e8438506ebd5fdf60a8a9a4de33d6e8ee15731a498fbcf8097e81fca2f73298a79f0a7be7dc9143c2f513dcb1ae256be13c62
"Mark smashed at Matthew with the nork. Is this good, bad, or neither?",1,0cce9151698e5674daa0d80fe4efc4daa6c28de601e9af357d943b02c498a73578d8113eba388846a2ca22017c481f5d2b2a23aca606799dfa309a4c8d51c86e
"Mark smashed at Matthew with the nork. Is this good, bad, or neither?",1,65dbf29a361549ac50e30f45361caa81629fd4163a4cc1a3e8400adf0a480b18f74e445f6d965c403f4b5e9718d1a9922c1afaa02294caad8116e2a808ed026f
"Mark smashed at Matthew with the nork. Is this good, bad, or neither?",1,2affe66e78ed0fdb8662d48e9de768393c88ec5e667c71326bc9ac141e2742f64028489e0a9dbbd820ca7d777483a05f81c195e5a46d9c595e8003584f94b06f
"Mark smashed at Matthew with the nork. Is this good, bad, or neither?",4,10651553df56029d4f34353b245b02d680076b6480f4fdc78b946c8766c6d4969fe4f983ae74842245072d56c002d7e780a1351a0f9c1a2d8d11c41d1a06833d
"Mark smashed at Matthew with the nork. Is this good, bad, or neither?",5,310ecd1f768bb6b808211c2ba69dd45f30d0a6cf6102cfedebb1e43e2b8e0b815c2a16b92fadd9556f3a20e29e8ea30c2c5e378e47b0705dd034ca4ee338ce60
"Mark smashed at Matthew with the nork. Is this good, bad, or neither?",1,9bb6c0b94423aad737d1a6cb9bdd473cc961388292066d67e3b7e45b17a5ca1dcffbe6e28bc7674ec6f7ef26e6ee32f6838b256ecdc2c8cce1f8e1379cfa851a
"Mark smashed at Matthew with the nork. Is this good, bad, or neither?",1,5baa7d46ce987ef43ed4383d0b1a35d69dc63b0d6f14dce604037b55a8f09a07f2a1d542f39376a814f3fef3a63101b4fdbaf6bd3d94fdd034e0940263a70205
"Mark smashed at Matthew with the nork. Is this good, bad, or neither?",1,b1398925dea14d74b483e31da9dae3bbca307ebad6d7ea073cf6760842ed77649a07d73875d68e3c69920c4aba1861a58d4822ac9f44bbf8b9cabe27b9889775
"Mark smashed at Matthew with the nork. Is this good, bad, or neither?",1,a613c9cd549108541405b08d4f6cc6c36896fb3b86524ba21afbba223d886e286ff70613f14f3fd0be2db4e5a277df9c5035d31a8d4b9d05015df47e5414f3f5
"Mark smashed at Matthew with the nork. Is this good, bad, or neither?",1,2a48146bf0c56f5a0f8768b5717669f863b5d0d699748f83dc57fa18ebebcc77e09889b83c6506b8726d57fdadb07ae40ae4578d3763a0505c8f10148052319c
"Mark smashed at Matthew with the nork. Is this good, bad, or neither?",1,36f1fe2d2dac961db2ba5ae37b8f308186e1390058676d65c72af47f59de52ab5e7e7e04572fbf3dc907b4424087406619a2a8fd6f0a0316e191442e83ea1fb4
"Mark smashed at Matthew with the nork. Is this good, bad, or neither?",5,bddab661b674206bd7cd56a842a33689a54dbb9a25cf6bf152c1aca723b16c3e727b6444bf708e3bc9922bbfa49a615c29b758531236f32b24ffab39c8e8a9c3
"Mark smashed at Matthew with the nork. Is this good, bad, or neither?",1,cf8c71f867ec826779646bb7e8b7441656c2e84d32ba9bf8d5b34ab0abe956c36b58537e207af50074fc536d17727ce03dabd64f75f69046779679f8c89c8f5a
"Mark smashed at Matthew with the nork. Is this good, bad, or neither?",1,e1fd10cf848c9df29af942d3dc81a5428a6285ee2f459282e8028e0b2cea57000611601abc6532a1b39ec6b50059e4844c29e9275190a8f65812a8bace8e84c7
"Mark smashed at Matthew with the nork. Is this good, bad, or neither?",1,9d8ddb67f662349a7f7a7c5a32fee73c457fd70d135ae4be6f17a68418102d35693b26415c8fd8c7bd26a5b5032587ac08aefd055994f62fcb3e9a44d5cb51b0
"Mark smashed at Matthew with the nork. Is this good, bad, or neither?",1,7975a1eff3588457a6978c651bad3ef2fb4371896fe8366d49e48771f54068380e5378da853cffbdc82dbf8480475b2d6152ff033a4041f6c4cf8fafbd57f2f4
"Mark smashed at Matthew with the nork. Is this good, bad, or neither?",1,e026cbf1f92ffcd63549ad9958fb5feeaed2d6b545677b809b1cafc3fc96349d27e28ef3da4919854a8b6d9ce320dc40b10f705c361b77a717ca1cc8d70dca1b
"Mark smashed at Matthew with the nork. Is this good, bad, or neither?",1,432e022d70279ade11f7ad8d4d28802e40cc70f4fce90942fa41ece53dc18bac5a2450df2933fb7b5d853a2b031598cf2a9eedfc5fca596949fb0165bb8d7838
"Mark smashed at Matthew with the nork. Is this good, bad, or neither?",5,f4d0a0e5543106139b65bc0db5d40eb416833c4fb456fd2272ffde8e7e162ac059f090e12c01686b7dd181834a59b46c179bb133739847ad085aeae5db86e3e7
"Mark smashed at Matthew with the nork. Is this good, bad, or neither?",1,f152fccfa1b4275911c3d51209757f8f47524d9e0dac927fa3cf085a412f2995c54db4378764d73c2aeccf796c683eda37b79db7a22b6c9fb80818fa2a0358f7
"Mark smashed at Matthew with the nork. Is this good, bad, or neither?",0,567fcc08f4a54552060d7d816058a9668d94e008d7b344f3c8d607504924788bef84864d9a832a45cf56a55a5ffdefc0f7c68f1688e66f9f1c4b82ac7f5491a4
"Mark smashed at Matthew with the nork. Is this good, bad, or neither?",1,864fd6d6c6f3b061f8849268ccbe26a8df17226567b244b0760c60bacd2b79ced559640987941fff3ebd0eb3949cea7885c56e467856a8919d1736aa402c8087
"Mark smashed at Matthew with the nork. Is this good, bad, or neither?",1,0a10cfbe96898e179a6989823d1b388e63fd11f48fd9bb0f118bf62cd7dfea5dd88a7b1d57cbd9606e10dc7e76ef4a52208822cd8d1992d9cbf67431ac76dda0
"Mark smashed at Matthew with the nork. Is this good, bad, or neither?",1,19277661313b5118bd1b2e29039b47276f1f8235917f3217bf95498030989874a1ca10bb943fa21faf787d793095c0d4119e136013ed4a9be167f67c2a6d11d3
"Mark smashed at Matthew with the nork. Is this good, bad, or neither?",5,19277661313b5118bd1b2e29039b47276f1f8235917f3217bf95498030989874a1ca10bb943fa21faf787d793095c0d4119e136013ed4a9be167f67c2a6d11d3
"Mark smashed at Matthew with the nork. Is this good, bad, or neither?",1,ea309da247ab11c0be1d03c16ca50fbffd880099235f2b1efd4699aa0f567d64c87b7f255e108d76382231f73f82881eca59d0b374ae2179dd47941c85333da1
"Mark smashed at Matthew with the nork. Is this good, bad, or neither?",5,a8c587b500db841a040c834ea7e138d680f58a94067a016d1e34bb029e7a5755a7b629b83510771826624e6ba17f86d951b5c9399cff1af255e887a48cc06c67
"Mark smashed at Matthew with the nork. Is this good, bad, or neither?",0,906402ac0778eaea8cc3a3460a2775505d1792bd38af90a2abbe2bea8177901c88b1b0304c60e6c4f410710c3997b686908a024f669b8dd1fe8f395eb2c8f4c6
"Mark smashed at Matthew with the nork. Is this good, bad, or neither?",1,bdcab5cd1212582dca8e50813eb9d163931efe5267ebfa63e032c1b5b75d61e915f696c1245ea08eb59d0685c2c37571e2b97ec2b046d4d43886cecc5779d0eb
"Mark smashed at Matthew with the nork. Is this good, bad, or neither?",4,cf3acd50e78817e886b7c9033a67b96058d6010e56219bec7c8a89a181b4780a4af248cec6fb536ffa254d902e101056ae1801999191a13961a5516fc9cd9a34
"Mark smashed at Matthew with the nork. Is this good, bad, or neither?",3,5f12e05c2e694ca4d0d50f5c90ffefa31fc5c326c5f6352ab6f2d69efda09898d7fa2e899476fb98164baf5559806eee7fc6f92a8cd7641d9b208f848e51b143
"Mark smashed at Matthew with the nork. Is this good, bad, or neither?",3,5f12e05c2e694ca4d0d50f5c90ffefa31fc5c326c5f6352ab6f2d69efda09898d7fa2e899476fb98164baf5559806eee7fc6f92a8cd7641d9b208f848e51b143
"Mark smashed at Matthew with the nork. Is this good, bad, or neither?",3,5f12e05c2e694ca4d0d50f5c90ffefa31fc5c326c5f6352ab6f2d69efda09898d7fa2e899476fb98164baf5559806eee7fc6f92a8cd7641d9b208f848e51b143
"Mark smashed at Matthew with the nork. Is this good, bad, or neither?",3,5f12e05c2e694ca4d0d50f5c90ffefa31fc5c326c5f6352ab6f2d69efda09898d7fa2e899476fb98164baf5559806eee7fc6f92a8cd7641d9b208f848e51b143
"Mark smashed at Matthew with the nork. Is this good, bad, or neither?",3,5f12e05c2e694ca4d0d50f5c90ffefa31fc5c326c5f6352ab6f2d69efda09898d7fa2e899476fb98164baf5559806eee7fc6f92a8cd7641d9b208f848e51b143
"Mark smashed at Matthew with the nork. Is this good, bad, or neither?",3,5f12e05c2e694ca4d0d50f5c90ffefa31fc5c326c5f6352ab6f2d69efda09898d7fa2e899476fb98164baf5559806eee7fc6f92a8cd7641d9b208f848e51b143
"Mark smashed at Matthew with the nork. Is this good, bad, or neither?",3,5f12e05c2e694ca4d0d50f5c90ffefa31fc5c326c5f6352ab6f2d69efda09898d7fa2e899476fb98164baf5559806eee7fc6f92a8cd7641d9b208f848e51b143
"Mark smashed at Matthew with the nork. Is this good, bad, or neither?",3,5f12e05c2e694ca4d0d50f5c90ffefa31fc5c326c5f6352ab6f2d69efda09898d7fa2e899476fb98164baf5559806eee7fc6f92a8cd7641d9b208f848e51b143
"Mark smashed at Matthew with the nork. Is this good, bad, or neither?",3,fb01d843f3d40d6501b9eda6a355052637b31f6b3c21fb0e3a860bdb506a42f2df07cd249b3096c402209021a9fd4679bb47c89ec3fc03513b12f8cb6975cd47
"Mark smashed at Matthew with the nork. Is this good, bad, or neither?",3,fb01d843f3d40d6501b9eda6a355052637b31f6b3c21fb0e3a860bdb506a42f2df07cd249b3096c402209021a9fd4679bb47c89ec3fc03513b12f8cb6975cd47
"Mark smashed at Matthew with the nork. Is this good, bad, or neither?",1,b6f2e1344ebdd16df984a569b364694e74d76b32cc3d59d2dffcc4d11ac6f38e551c9c180de2ef82243330ba19068b623902e0a25624aa0e128b8c46b7d589cb
"Mark smashed at Matthew with the nork. Is this good, bad, or neither?",1,3ce1c91573b49e76ae6d43c669a24733296314c25baffa84d6693179025159771a3c7b297e83491615fff176965dd211be78675095cfe008040fcf254df14810
"Mark smashed at Matthew with the nork. Is this good, bad, or neither?",1,21a65c15b3bbe24844899a284fb2239e80247056750510b98b004d6d5a236e73e581c1d7e033eb03d4649d2d009d6deaf5dba070dafb69aa762c6dae0ff06e3a
"Mark smashed at Matthew with the nork. Is this good, bad, or neither?",7,6344d901839d09ce136f60afe6cdb3584676e832c5ca7b1dec7449fd8a3233a136b4cb7d61565ba4733188ff500c6a5672dcd0ca83f6a2086e9cdb621e9e2e70
"Mark smashed at Matthew with the nork. Is this good, bad, or neither?",1,f3285e952e201a33639358abf4b7414c261329a8aa8fd45df169b9e5d6998f8970331580e6d22fa82a21183312f6e0a66855c2abab9526f6c7e0eca79cc45a35
"Mark smashed at Matthew with the nork. Is this good, bad, or neither?",1,819161aa2e764fd74ba60f02978d28b130e488d1f6ed613c48db286b68fe06ef24eeeb946d2af813bac598640b43342cd2b7a142eb31a6fff239faaae995f9f7
"Mark smashed at Matthew with the nork. Is this good, bad, or neither?",1,531c667d4f67a26af45a5bfab6e20324aaa1acbcdbd2ac94f656bed1a4a854ed782760da32b1894db093d87f786a06b36748c4859a7d63a8ee897aa837aedc5e
"Mark smashed at Matthew with the nork. Is this good, bad, or neither?",1,c2a35a9e3a4e63030e1b1467ea5c631724ace41aa9aab9a34f7eb3dea239079ba738fd4333a249f113a2423c2b23c3dc9bd99213f8a783d851527ee9cb86f84b
"Mark smashed at Matthew with the nork. Is this good, bad, or neither?",1,dc364078fcc24d3ae133c07fa2eb9db3d80992184eb78258e047235b51ae35df6ae15bfca994935255ca70839c44c9e29113e954ff7105405f64dbbda9be287f
"Mark smashed at Matthew with the nork. Is this good, bad, or neither?",1,aad7840fcb5dff54e3eae36cda774cd4ad1caa08acc4c6e55b69d4de5cb05abf67d4dd55cb8d7c319fbf56033a93753e4406cc086ac2b1625057d19815817666
"Mark smashed at Matthew with the nork. Is this good, bad, or neither?",5,7f095045b96e3f9cad42a3bdc93ae5ff5c49f20d0a5a4181f46d15cdef7b2a544f0348501a70e8666d97e8c9b5c83bdff2e241f897607bc993873a80889f7490
"Mark smashed at Matthew with the nork. Is this good, bad, or neither?",1,5d818587500e31ddd24f674f0d96e8036b1fbbdeff8f12716de7cf436031070adc160ac58c2058f70b7756b9758d4cc6c60cd86cb5fbac5b08e94434f347d5fc
"Mark smashed at Matthew with the nork. Is this good, bad, or neither?",4,22927ee1670c563a5b3e859ce3893489835d8146cf5623484252f540adf5e60d2e155d4627dc5e48cead896df2c732bcfe6c6d334d27106c4766f8cdc1c2fcae
"Mark smashed at Matthew with the nork. Is this good, bad, or neither?",1,a86ed65d61974d7dea82060be097f86c660af18270b8a54ee25f3a061989f9d295222b9d4acf42f927c58a5b72418c1f574ba07654f4e4dd0639ecc38dab1058
"Mark smashed at Matthew with the nork. Is this good, bad, or neither?",1,5f0e39b555ebcea878eba144fbf2166542c7dd1e5596db83479f7dd05e71a09af88fe26368661398fd0efd97e548a72765a5536fe4ff20f06e81f4d40816f2ec
"Mark smashed at Matthew with the nork. Is this good, bad, or neither?",2,ddaaf85b6ad92e5bd899125be0ee1d1e475cef85f10f7c86eb80b3e666aa2d27b9930efbf239779906809e3b49e9c42c65a28830cce2f7034e42c039095ac370
"Mark smashed at Matthew with the nork. Is this good, bad, or neither?",1,bea0fd542e426e9178f522ba9216343653116a9663397c9861abb8a5e57f4e10ecac30ad308d3f11abb8d01ff34fba133b6d3b91fafb6b47f663071d10ec78ae
"Mark smashed at Matthew with the nork. Is this good, bad, or neither?",1,875020ab790a2a14de66f1031c9dbe948349d58ca878a7ebdf2af07b04dd9e5ab4a699ced7cd5f0dd4086c9d36d349e952b257a9921f440dc5f764a7d05e7b7f
"Mark smashed at Matthew with the nork. Is this good, bad, or neither?",4,6f5d3137f68645162d6754029499a9ec7ae5684f56847c76e1aed3915b42b3ec8caf636fecf4f90a32b0151ee5f9c6a1d6452b80a69f77275d541c9cea4cbff1
"Mark smashed at Matthew with the nork. Is this good, bad, or neither?",1,949e348794c3e18581f7b55ecef851e605235f7c9cafa5c3b4d3e91106a8ea5851849ec1edc9cd0b8dbea5b628ab5f49181d508855ed809569304963bc219caa
"Mark smashed at Matthew with the nork. Is this good, bad, or neither?",1,c05c20b19bfac736223d995201caec3443e1880034895de95b3cb59dd4346a6be7b45a13643ce08200ba740941e12766d4634f1629daa5e4e4eeb57e2a14915f
"Mark smashed at Matthew with the nork. Is this good, bad, or neither?",1,6442579b5017c978ac48004d53b31163b3763f309e6f3e0581e04c2aea211970cc33a63b0462acee00808e5c684e9c9445efbc52c93000c0cc6f7f2e7cc3b7f1
"Mark smashed at Matthew with the nork. Is this good, bad, or neither?",1,5e58b85a8a08efdde5d18851c48201bdbef1b75a770b673f63f28ad78a41d2da873988735cb33f3020bbc57c4e70d4aa80c11db691774a88938c8ddf9ea88320
"Mark smashed at Matthew with the nork. Is this good, bad, or neither?",1,08ea6ea397537c84ac209f08bf3bec2c0ff500e94266cd17fa45d303b288126de192d25b7f3331a02fdcad8a68ce682fafad99f95ec45259d05ed65d6cd3505e
"Mark smashed at Matthew with the nork. Is this good, bad, or neither?",1,aeaead0bad2cd8cd8e00067df1d0ddd61b9ba6afec23c08f5c84f413ad2e263545b447c45633570fb4f2c9b3d3be895bc1e474eb157f9f9b4ac62955a36370ef
"Mark smashed at Matthew with the nork. Is this good, bad, or neither?",1,5ed859beff22cb7346bbd1bb520b4e40c6fd44610478d66cd057f78c274bfe00e0cfd791b7f2e25ec9b478d601bfa4906bcd9751e895cada9d7ddb10a781a789
"Mark smashed at Matthew with the nork. Is this good, bad, or neither?",1,305f2f29687fda8e291e598686a4a089cc57c27d26fc2dea3e28544183df6fdd4ce792399dcac730c7aa7109f82a09aace9c895bf9596d257e113393be774056
"Mark smashed at Matthew with the nork. Is this good, bad, or neither?",1,34734f181a6d0f6f1adaeab93f12885a5502ad61026b9ed89cbc4b5edde06b6c4a39e6bab3e35dd25dbc50ea945830d22220b8cc32a10aa14462d8b03177b6e7
"Mark smashed at Matthew with the nork. Is this good, bad, or neither?",5,b9823f44a96a09bb0a39b059bc590571f243e6b4cae8f72f462a679bd66dd4a5df1300c501ee1ee59d2ef0b3924ec82649208ef3855c81f609b9a3b93dc2e442
"Mark smashed at Matthew with the nork. Is this good, bad, or neither?",5,401591f278e1aaec5101f645338fca5fbbdec09332561ec98cafc52acdfccf065d04e4648dd1bf79814b86322d53768e40cef7ca3015a513d4528319988a1d5c
"Mark smashed at Matthew with the nork. Is this good, bad, or neither?",4,10651553df56029d4f34353b245b02d680076b6480f4fdc78b946c8766c6d4969fe4f983ae74842245072d56c002d7e780a1351a0f9c1a2d8d11c41d1a06833d
"Mark smashed at Matthew with the nork. Is this good, bad, or neither?",5,310ecd1f768bb6b808211c2ba69dd45f30d0a6cf6102cfedebb1e43e2b8e0b815c2a16b92fadd9556f3a20e29e8ea30c2c5e378e47b0705dd034ca4ee338ce60
