"There bounced out of the sevel Andrea. Is this good, bad, or neither?",2,5d818587500e31ddd24f674f0d96e8036b1fbbdeff8f12716de7cf436031070adc160ac58c2058f70b7756b9758d4cc6c60cd86cb5fbac5b08e94434f347d5fc
"There bounced out of the sevel Andrea. Is this good, bad, or neither?",2,9d8ddb67f662349a7f7a7c5a32fee73c457fd70d135ae4be6f17a68418102d35693b26415c8fd8c7bd26a5b5032587ac08aefd055994f62fcb3e9a44d5cb51b0
"There bounced out of the sevel Andrea. Is this good, bad, or neither?",0,e32acc3720de73ab257e923557ba791b4db98db203286f956cc7d117906e5547f3f7e338aaa78b9152b0dfd10ce0ae962b8dfa72e117028b43b70fce1d3ee9ca
"There bounced out of the sevel Andrea. Is this good, bad, or neither?",2,ddaaf85b6ad92e5bd899125be0ee1d1e475cef85f10f7c86eb80b3e666aa2d27b9930efbf239779906809e3b49e9c42c65a28830cce2f7034e42c039095ac370
"There bounced out of the sevel Andrea. Is this good, bad, or neither?",4,ac724fc5fb40437657716148e67ce96d7833e23cb99ba2729a7b08527de53c0ff20fb2f1642005cea59e47b70d45720137e984675680b17c656205a979bd9ddd
"There bounced out of the sevel Andrea. Is this good, bad, or neither?",7,10087c913fe11e55fc88d155e4ebd206e92683386f737d2692498f286bbc341b8c70905eba24f353d4d2ec51c106a6fb85ecc546dcd7a743dcc69a3ce6ad75a8
"There bounced out of the sevel Andrea. Is this good, bad, or neither?",2,63fb29225c9979c1671fd2ce04d602393b74456d884373366d4fd1f996a3c42f9b9cd82fdb0fbc4878c282e4bac938cb0f101b0b78c2f9c6765d900bdf06db22
"There bounced out of the sevel Andrea. Is this good, bad, or neither?",2,6f5d3137f68645162d6754029499a9ec7ae5684f56847c76e1aed3915b42b3ec8caf636fecf4f90a32b0151ee5f9c6a1d6452b80a69f77275d541c9cea4cbff1
"There bounced out of the sevel Andrea. Is this good, bad, or neither?",5,18f0cae3eed31e4f24e66b5b840edac561a049e4c99712c4d4d4ebe34f89c4f61238696c8ee2ca3209a28348d8fc629d7f58a544dc829149cb56ad93af8df17a
"There bounced out of the sevel Andrea. Is this good, bad, or neither?",2,d7f1c3b2d2fe87a3de6a4dafedd42767c88cd67beb876ec4c7fb64fb328c8b5436358fa7826a02ee25fcc3b011627df8958c4127177cb27a99ab8e7af0e75041
"There bounced out of the sevel Andrea. Is this good, bad, or neither?",0,3002cf418cc46b25d43f1ad9159d09eef6460fa2f207739147fbcaed98358862cf97ed858880b6f5b593a4b325c7408efc4cb1d987aff392dd201897c8177d9d
"There bounced out of the sevel Andrea. Is this good, bad, or neither?",2,6442579b5017c978ac48004d53b31163b3763f309e6f3e0581e04c2aea211970cc33a63b0462acee00808e5c684e9c9445efbc52c93000c0cc6f7f2e7cc3b7f1
"There bounced out of the sevel Andrea. Is this good, bad, or neither?",5,005ffae1a901ae0d1247bfb3cf6d7c43e7167bb481c5f7836ac1c5ccde13e810b32a1712d684919c2b4060c9f8207fe16f2e4d432ef2d64ffa64f6beb00f1afa
"There bounced out of the sevel Andrea. Is this good, bad, or neither?",0,2531206edef94c461161d27b4fbc0c202c370b9d300bccd02239c652d3a45689081304d986f9604d6bfc06f4bba449dba5891d94061d04cc9f8f152b24e6ff67
"There bounced out of the sevel Andrea. Is this good, bad, or neither?",2,305f2f29687fda8e291e598686a4a089cc57c27d26fc2dea3e28544183df6fdd4ce792399dcac730c7aa7109f82a09aace9c895bf9596d257e113393be774056
"There bounced out of the sevel Andrea. Is this good, bad, or neither?",2,08ea6ea397537c84ac209f08bf3bec2c0ff500e94266cd17fa45d303b288126de192d25b7f3331a02fdcad8a68ce682fafad99f95ec45259d05ed65d6cd3505e
"There bounced out of the sevel Andrea. Is this good, bad, or neither?",2,aeaead0bad2cd8cd8e00067df1d0ddd61b9ba6afec23c08f5c84f413ad2e263545b447c45633570fb4f2c9b3d3be895bc1e474eb157f9f9b4ac62955a36370ef
"There bounced out of the sevel Andrea. Is this good, bad, or neither?",2,5ed859beff22cb7346bbd1bb520b4e40c6fd44610478d66cd057f78c274bfe00e0cfd791b7f2e25ec9b478d601bfa4906bcd9751e895cada9d7ddb10a781a789
"There bounced out of the sevel Andrea. Is this good, bad, or neither?",2,8a74478a9db13d691c15cdcee8e51f2a7166c095ebc46b46a45db0f7e71f25326113b63f51c722ce73b2f2cb4b6c23f1f5bcf0819b2b17e93467b4e32ae84781
"There bounced out of the sevel Andrea. Is this good, bad, or neither?",2,7f45982c84b0e62975c836530ebc5c20ed43e2aaac4d7f1c99d59dac30103bb0a2c7f0c3eb3c011244e3b29b96036757199959b8d8fbcc5cf995fee8253a05f5
"There bounced out of the sevel Andrea. Is this good, bad, or neither?",5,271ebdc0ba38b0a97a6957c1d0358a439611de62206ab21aed17cdd20c5201415a0dcf6f159de63720309c7c52ae7332c6a0350d359d4922279a3d3353308160
"There bounced out of the sevel Andrea. Is this good, bad, or neither?",2,fb3ee4e72eb582b2b2920acd3ac5a4ed00149c2560bf0255b9bc8237d80cbadd7b353ced6ab5662f69dfe00d362575b7da94144cd2374866a682e39b17cc3c0d
"There bounced out of the sevel Andrea. Is this good, bad, or neither?",5,59b08a645fc422cb906b374cc090da670df1abebf75166991a77077ed223dd4c51870e8cde0bf0e157eb15f92e1904e7be1238a91c5a1d6cc4e58493f33ab7fe
"There bounced out of the sevel Andrea. Is this good, bad, or neither?",5,2cb44008208d14c82cf8868fc09b67e721d51c1b25835a53ce5c75d4338141e971e3aad3228e19b641ecd4278d4576dc2f1af7702b6c5731e30d7d54f5a829a5
"There bounced out of the sevel Andrea. Is this good, bad, or neither?",2,86176b5e48f64b6f25629a896860702d0f08b590cf95ae63771736a73dffea920ed966b550f9245ef9b64994aecc388426f5c084afb696eca8d0fb0f335761d6
"There bounced out of the sevel Andrea. Is this good, bad, or neither?",2,9d8ddb67f662349a7f7a7c5a32fee73c457fd70d135ae4be6f17a68418102d35693b26415c8fd8c7bd26a5b5032587ac08aefd055994f62fcb3e9a44d5cb51b0
"There bounced out of the sevel Andrea. Is this good, bad, or neither?",2,d52d0f79310a4a1585de2ba281cae55d8bf4f66ee89a3b0afe5bec86ac64f3fbcf4ac04acc90a017d6f66a1259e7c33c370048fe26771c06104f79c7f0e7daea
"There bounced out of the sevel Andrea. Is this good, bad, or neither?",2,28195e505193242d636c8cf88927e3353b64c1e9365b6d4fe6834ae467adb58cc661083c465cf575a9d4e6e6ea9daf2f4e5b8eaf892be186be05aa6b9c0519ec
"There bounced out of the sevel Andrea. Is this good, bad, or neither?",2,caff777a2303da77340521ef83945a07684b2612ccb93a9fe1e9e6b34d4e52177c4499982e59c5f493664f3123c4c9738867850e7445f494ca6c22600eb6e56a
"There bounced out of the sevel Andrea. Is this good, bad, or neither?",2,7d8ba861c21abf1c5ebf09025ab512f461c3e08ffd9d52f468c2d2f57dee4809c799b2b5f831f2ac2a3abe9bf584250ac0431bf167bdce2cf0d50c7d10bf54dd
"There bounced out of the sevel Andrea. Is this good, bad, or neither?",2,ecd12f5c7840150b6bf31f41cfe805fbb7f1e24d87bc7f9a7e4a26034d172ee611537c7e49e1951d513a1b63598bec45f4cf8d3fd4936ebe2747d7e8018937e5
"There bounced out of the sevel Andrea. Is this good, bad, or neither?",5,41628a0f8849c48d09c00e99c4a99cae8b10c5d31c76fc5043a816bea93afdb63771aa227c3fc1235d69b6c482ed4c1972716b6868be483c3ecaba9ca7efddc1
"There bounced out of the sevel Andrea. Is this good, bad, or neither?",2,b1398925dea14d74b483e31da9dae3bbca307ebad6d7ea073cf6760842ed77649a07d73875d68e3c69920c4aba1861a58d4822ac9f44bbf8b9cabe27b9889775
"There bounced out of the sevel Andrea. Is this good, bad, or neither?",2,2affe66e78ed0fdb8662d48e9de768393c88ec5e667c71326bc9ac141e2742f64028489e0a9dbbd820ca7d777483a05f81c195e5a46d9c595e8003584f94b06f
"There bounced out of the sevel Andrea. Is this good, bad, or neither?",5,310ecd1f768bb6b808211c2ba69dd45f30d0a6cf6102cfedebb1e43e2b8e0b815c2a16b92fadd9556f3a20e29e8ea30c2c5e378e47b0705dd034ca4ee338ce60
"There bounced out of the sevel Andrea. Is this good, bad, or neither?",5,9a561c9dfacc1f679e61c03952f6a34bc2a6618f128fba116a48aabe6ff39b26f267f403443a4c9ec22a14ec490913987d25a99ad31303c60e456e2c791e777e
"There bounced out of the sevel Andrea. Is this good, bad, or neither?",2,c210e5d2e997d068c99f653a8984714d815460592aceca4621377041a5500a6954f6379ef48b4744ad013fe07fcd8d1b5c3e9c1ac166cec9474803f37280c64e
"There bounced out of the sevel Andrea. Is this good, bad, or neither?",0,a7dc9d4f184ea86b7b6e6869b9a53887f9af455a7a9b3f701cc20ec18e11435fdb90d9c3eed921996792de6c1628b7a27219b25f044ffe99d725092cbc88af6e
"There bounced out of the sevel Andrea. Is this good, bad, or neither?",5,8a5d1281d0315ed910b4451f8fabcfb0d36be3709c3b35b233dd17390a153728ffc2a0a404b6c009629858a2d1b257911129f1026edeb2d6ac38cf47cf6a6b26
"There bounced out of the sevel Andrea. Is this good, bad, or neither?",6,8a5d1281d0315ed910b4451f8fabcfb0d36be3709c3b35b233dd17390a153728ffc2a0a404b6c009629858a2d1b257911129f1026edeb2d6ac38cf47cf6a6b26
"There bounced out of the sevel Andrea. Is this good, bad, or neither?",2,c3c45610090ecdde60e1dcc409af02ca28a4659f908ea0530544f11d27dbfc6bb633fd13eacf8543f487c6032bef0159d8118d809bff6b76ba0872262f08b325
"There bounced out of the sevel Andrea. Is this good, bad, or neither?",7,17cedc2a92b08092073cd658d42004f31e8e48c25e05fbabd417417e71efeb123dc483ca7bbcc42d4719c1ce9e742dd3d96eb53354a6f21868992b7c476a6c99
"There bounced out of the sevel Andrea. Is this good, bad, or neither?",5,1b40c074bc8927f5ceb8412a93fe0d55120df20512aeaa4ca04ea0532af43222fd451ad25c84131d025386dd46836ceba6dad2915191f430bc225da3add712b9
"There bounced out of the sevel Andrea. Is this good, bad, or neither?",7,1b40c074bc8927f5ceb8412a93fe0d55120df20512aeaa4ca04ea0532af43222fd451ad25c84131d025386dd46836ceba6dad2915191f430bc225da3add712b9
"There bounced out of the sevel Andrea. Is this good, bad, or neither?",2,4e7eec0b4c791b7812ac1fe61c328091aa558e15cd301a58a52d5af41f14a2a272a78bc4c9b77b14b3948c6ae330bb51a18dd1ffd838f1b24e11ebf8bf2570cf
"There bounced out of the sevel Andrea. Is this good, bad, or neither?",2,2c67dc02cd888344bfa1e1250faca9503398644e119e31ab8fd176e1cccf52fa608f6f99ad4cde7120c0a00aad38ff4e3f678099fe53d54a7bae192f4c5f33c1
"There bounced out of the sevel Andrea. Is this good, bad, or neither?",2,5e1aff0165ac2574553a03f9a2de68ffe688b05b9fbface0af90e3a45dcd8566da8111ef2bc182c02f93187dc19289c345ce7932a503d38e7e2f93ac8284064b
"There bounced out of the sevel Andrea. Is this good, bad, or neither?",2,512926c32568782467c043d9acacef7e1297fe10e47106d36f90ed38f8036a40a0f8a10a29ae7a31a0a93e5ad4fed44921abf919134ac7a8d096c8022d200715
"There bounced out of the sevel Andrea. Is this good, bad, or neither?",2,864fd6d6c6f3b061f8849268ccbe26a8df17226567b244b0760c60bacd2b79ced559640987941fff3ebd0eb3949cea7885c56e467856a8919d1736aa402c8087
"There bounced out of the sevel Andrea. Is this good, bad, or neither?",4,37805ee1b41c781e6b817afc72031a1f1835c0a0d72be46238fe34898913ac47a840d4c391f835e42277def943f95cb3ffc89b1bc79669615995d531f0a9cc63
"There bounced out of the sevel Andrea. Is this good, bad, or neither?",3,5f12e05c2e694ca4d0d50f5c90ffefa31fc5c326c5f6352ab6f2d69efda09898d7fa2e899476fb98164baf5559806eee7fc6f92a8cd7641d9b208f848e51b143
"There bounced out of the sevel Andrea. Is this good, bad, or neither?",3,5f12e05c2e694ca4d0d50f5c90ffefa31fc5c326c5f6352ab6f2d69efda09898d7fa2e899476fb98164baf5559806eee7fc6f92a8cd7641d9b208f848e51b143
"There bounced out of the sevel Andrea. Is this good, bad, or neither?",3,5f12e05c2e694ca4d0d50f5c90ffefa31fc5c326c5f6352ab6f2d69efda09898d7fa2e899476fb98164baf5559806eee7fc6f92a8cd7641d9b208f848e51b143
"There bounced out of the sevel Andrea. Is this good, bad, or neither?",3,5f12e05c2e694ca4d0d50f5c90ffefa31fc5c326c5f6352ab6f2d69efda09898d7fa2e899476fb98164baf5559806eee7fc6f92a8cd7641d9b208f848e51b143
"There bounced out of the sevel Andrea. Is this good, bad, or neither?",3,5f12e05c2e694ca4d0d50f5c90ffefa31fc5c326c5f6352ab6f2d69efda09898d7fa2e899476fb98164baf5559806eee7fc6f92a8cd7641d9b208f848e51b143
"There bounced out of the sevel Andrea. Is this good, bad, or neither?",3,5f12e05c2e694ca4d0d50f5c90ffefa31fc5c326c5f6352ab6f2d69efda09898d7fa2e899476fb98164baf5559806eee7fc6f92a8cd7641d9b208f848e51b143
"There bounced out of the sevel Andrea. Is this good, bad, or neither?",3,5f12e05c2e694ca4d0d50f5c90ffefa31fc5c326c5f6352ab6f2d69efda09898d7fa2e899476fb98164baf5559806eee7fc6f92a8cd7641d9b208f848e51b143
"There bounced out of the sevel Andrea. Is this good, bad, or neither?",3,5f12e05c2e694ca4d0d50f5c90ffefa31fc5c326c5f6352ab6f2d69efda09898d7fa2e899476fb98164baf5559806eee7fc6f92a8cd7641d9b208f848e51b143
"There bounced out of the sevel Andrea. Is this good, bad, or neither?",5,f567d6a6237d6557ffdcb7899c8566957144b8dea66be90187125fb3ae4279e947fb7249e98a18ccad3cf0cb2b59a19ac8c1e09356734fa6ee67a4836b4d3c37
"There bounced out of the sevel Andrea. Is this good, bad, or neither?",2,f3b841891e5973ebee03875402c59a024155569c6804f2dce6635efbbf5ec0ae75026127efcafa87579a72b7c0b21c4ed1aa8d88916f3767637795ff1be173ce
"There bounced out of the sevel Andrea. Is this good, bad, or neither?",5,f3b841891e5973ebee03875402c59a024155569c6804f2dce6635efbbf5ec0ae75026127efcafa87579a72b7c0b21c4ed1aa8d88916f3767637795ff1be173ce
"There bounced out of the sevel Andrea. Is this good, bad, or neither?",5,9d0d39cf59bd187336aeed710e3d62f5ae57162f65cddfa22c43c90e5b1249d450aeed5444643aa6b101c9ef790d8769b63d57936afbc23f36652ea3f04cb63b
"There bounced out of the sevel Andrea. Is this good, bad, or neither?",6,dc7d24a5c0ddf78e13844eaf54a8d62bca4f9fb35cd0dacfd2d316a0885e9635adcece54a35604c452cf0b38c1c3c5496d89121f6efed92d03e2e8355ef87b82
"There bounced out of the sevel Andrea. Is this good, bad, or neither?",0,3ce1c91573b49e76ae6d43c669a24733296314c25baffa84d6693179025159771a3c7b297e83491615fff176965dd211be78675095cfe008040fcf254df14810
"There bounced out of the sevel Andrea. Is this good, bad, or neither?",0,83e68bdb3c8d06734b9c63de2e996ad5203cfadd686bffeb5371242a53bd2562e4ee27b56455e36057ad2b7ff679b1bc0942e1b5e336f4762c4ed9cc49cb339a
"There bounced out of the sevel Andrea. Is this good, bad, or neither?",0,5be5d4825b593eba7e0e0389f1f7bbe0628bc16c8ee94a384cfdf474affa1fee73a628c559dfcd3aac1362130f2ff36b516f3b4f64db295f118aa2de92b824d1
"There bounced out of the sevel Andrea. Is this good, bad, or neither?",4,d7d3664786a0a086d477342e212a92296f84cbd9c3cc4d5c38a6602127dd99ea7fd6bc9bd7178b3e8f6dfce7779707b28379800da50dd40e9d554b49ce678e65
"There bounced out of the sevel Andrea. Is this good, bad, or neither?",2,819161aa2e764fd74ba60f02978d28b130e488d1f6ed613c48db286b68fe06ef24eeeb946d2af813bac598640b43342cd2b7a142eb31a6fff239faaae995f9f7
"There bounced out of the sevel Andrea. Is this good, bad, or neither?",5,64c920623ab31436b5b4c22427a48558b7ec124dfae9a0406b46420dd8b1b842cc381b408af36bce712d7ed00749499374ac41eff341ac32483021553436031a
"There bounced out of the sevel Andrea. Is this good, bad, or neither?",2,a04441347c7a31798c34e1a297af024142381cfd06d1679184d6b0cf7ea8eda83518c819aaa67808a7238790be4a54c02324be8e270298ac207e0fa103ba2135
"There bounced out of the sevel Andrea. Is this good, bad, or neither?",1,b4a89e063c479339463fe8a3755a45afdb72640d55ae6f8499866bdce35aea79532c96c386d3e305abf960bd172306159148a5dedc70fc0c191353ec94176ac4
"There bounced out of the sevel Andrea. Is this good, bad, or neither?",2,ac919567138675e540eca4d060a30b6300af345d5cf21d3008206e2c43f7697a2d71b0ddda07d612be3b118583a077156c680a5e36b24134d88e58eba7dba7f5
"There bounced out of the sevel Andrea. Is this good, bad, or neither?",5,0ca87715be5df199ebada6867f7e0e75295c7ededa0fbd84664b9240578d42457d55abd66e8d40f24cae8c5c5c0a506eae9b839711a908d418039a14a0ca3135
"There bounced out of the sevel Andrea. Is this good, bad, or neither?",2,5d818587500e31ddd24f674f0d96e8036b1fbbdeff8f12716de7cf436031070adc160ac58c2058f70b7756b9758d4cc6c60cd86cb5fbac5b08e94434f347d5fc
"There bounced out of the sevel Andrea. Is this good, bad, or neither?",2,9d8ddb67f662349a7f7a7c5a32fee73c457fd70d135ae4be6f17a68418102d35693b26415c8fd8c7bd26a5b5032587ac08aefd055994f62fcb3e9a44d5cb51b0
"There bounced out of the sevel Andrea. Is this good, bad, or neither?",0,e32acc3720de73ab257e923557ba791b4db98db203286f956cc7d117906e5547f3f7e338aaa78b9152b0dfd10ce0ae962b8dfa72e117028b43b70fce1d3ee9ca
"There bounced out of the sevel Andrea. Is this good, bad, or neither?",2,ddaaf85b6ad92e5bd899125be0ee1d1e475cef85f10f7c86eb80b3e666aa2d27b9930efbf239779906809e3b49e9c42c65a28830cce2f7034e42c039095ac370
"There bounced out of the sevel Andrea. Is this good, bad, or neither?",4,ac724fc5fb40437657716148e67ce96d7833e23cb99ba2729a7b08527de53c0ff20fb2f1642005cea59e47b70d45720137e984675680b17c656205a979bd9ddd
"There bounced out of the sevel Andrea. Is this good, bad, or neither?",7,10087c913fe11e55fc88d155e4ebd206e92683386f737d2692498f286bbc341b8c70905eba24f353d4d2ec51c106a6fb85ecc546dcd7a743dcc69a3ce6ad75a8
"There bounced out of the sevel Andrea. Is this good, bad, or neither?",2,63fb29225c9979c1671fd2ce04d602393b74456d884373366d4fd1f996a3c42f9b9cd82fdb0fbc4878c282e4bac938cb0f101b0b78c2f9c6765d900bdf06db22
"There bounced out of the sevel Andrea. Is this good, bad, or neither?",2,6f5d3137f68645162d6754029499a9ec7ae5684f56847c76e1aed3915b42b3ec8caf636fecf4f90a32b0151ee5f9c6a1d6452b80a69f77275d541c9cea4cbff1
"There bounced out of the sevel Andrea. Is this good, bad, or neither?",5,18f0cae3eed31e4f24e66b5b840edac561a049e4c99712c4d4d4ebe34f89c4f61238696c8ee2ca3209a28348d8fc629d7f58a544dc829149cb56ad93af8df17a
"There bounced out of the sevel Andrea. Is this good, bad, or neither?",2,d7f1c3b2d2fe87a3de6a4dafedd42767c88cd67beb876ec4c7fb64fb328c8b5436358fa7826a02ee25fcc3b011627df8958c4127177cb27a99ab8e7af0e75041
"There bounced out of the sevel Andrea. Is this good, bad, or neither?",0,3002cf418cc46b25d43f1ad9159d09eef6460fa2f207739147fbcaed98358862cf97ed858880b6f5b593a4b325c7408efc4cb1d987aff392dd201897c8177d9d
"There bounced out of the sevel Andrea. Is this good, bad, or neither?",2,6442579b5017c978ac48004d53b31163b3763f309e6f3e0581e04c2aea211970cc33a63b0462acee00808e5c684e9c9445efbc52c93000c0cc6f7f2e7cc3b7f1
"There bounced out of the sevel Andrea. Is this good, bad, or neither?",5,005ffae1a901ae0d1247bfb3cf6d7c43e7167bb481c5f7836ac1c5ccde13e810b32a1712d684919c2b4060c9f8207fe16f2e4d432ef2d64ffa64f6beb00f1afa
"There bounced out of the sevel Andrea. Is this good, bad, or neither?",0,2531206edef94c461161d27b4fbc0c202c370b9d300bccd02239c652d3a45689081304d986f9604d6bfc06f4bba449dba5891d94061d04cc9f8f152b24e6ff67
"There bounced out of the sevel Andrea. Is this good, bad, or neither?",2,305f2f29687fda8e291e598686a4a089cc57c27d26fc2dea3e28544183df6fdd4ce792399dcac730c7aa7109f82a09aace9c895bf9596d257e113393be774056
"There bounced out of the sevel Andrea. Is this good, bad, or neither?",2,08ea6ea397537c84ac209f08bf3bec2c0ff500e94266cd17fa45d303b288126de192d25b7f3331a02fdcad8a68ce682fafad99f95ec45259d05ed65d6cd3505e
"There bounced out of the sevel Andrea. Is this good, bad, or neither?",2,aeaead0bad2cd8cd8e00067df1d0ddd61b9ba6afec23c08f5c84f413ad2e263545b447c45633570fb4f2c9b3d3be895bc1e474eb157f9f9b4ac62955a36370ef
"There bounced out of the sevel Andrea. Is this good, bad, or neither?",2,5ed859beff22cb7346bbd1bb520b4e40c6fd44610478d66cd057f78c274bfe00e0cfd791b7f2e25ec9b478d601bfa4906bcd9751e895cada9d7ddb10a781a789
"There bounced out of the sevel Andrea. Is this good, bad, or neither?",5,271ebdc0ba38b0a97a6957c1d0358a439611de62206ab21aed17cdd20c5201415a0dcf6f159de63720309c7c52ae7332c6a0350d359d4922279a3d3353308160
"There bounced out of the sevel Andrea. Is this good, bad, or neither?",5,59b08a645fc422cb906b374cc090da670df1abebf75166991a77077ed223dd4c51870e8cde0bf0e157eb15f92e1904e7be1238a91c5a1d6cc4e58493f33ab7fe
"There bounced out of the sevel Andrea. Is this good, bad, or neither?",5,2cb44008208d14c82cf8868fc09b67e721d51c1b25835a53ce5c75d4338141e971e3aad3228e19b641ecd4278d4576dc2f1af7702b6c5731e30d7d54f5a829a5
"There bounced out of the sevel Andrea. Is this good, bad, or neither?",5,41628a0f8849c48d09c00e99c4a99cae8b10c5d31c76fc5043a816bea93afdb63771aa227c3fc1235d69b6c482ed4c1972716b6868be483c3ecaba9ca7efddc1
"There bounced out of the sevel Andrea. Is this good, bad, or neither?",5,310ecd1f768bb6b808211c2ba69dd45f30d0a6cf6102cfedebb1e43e2b8e0b815c2a16b92fadd9556f3a20e29e8ea30c2c5e378e47b0705dd034ca4ee338ce60
