"Hannah floated Melissa. Is this good, bad, or neither?",2,5d818587500e31ddd24f674f0d96e8036b1fbbdeff8f12716de7cf436031070adc160ac58c2058f70b7756b9758d4cc6c60cd86cb5fbac5b08e94434f347d5fc
"Hannah floated Melissa. Is this good, bad, or neither?",2,1ce29c8b725610e73248f411dbdb04b8bac8bfac028cf4bceb9ce8af751b181d17f6e2fad26dd1d21fe1777d7e2ab49247eb38101757041ab191974e6f008d2e
"Hannah floated Melissa. Is this good, bad, or neither?",2,ddaaf85b6ad92e5bd899125be0ee1d1e475cef85f10f7c86eb80b3e666aa2d27b9930efbf239779906809e3b49e9c42c65a28830cce2f7034e42c039095ac370
"Hannah floated Melissa. Is this good, bad, or neither?",0,269dfe0e4036e124b0023f51520133b14049e18ffdf0f22e597294d0c3dfeab7dae9e7dffd9513341d21a4800cbf27e4ca4be902b97160ef7e97b245a9ee7213
"Hannah floated Melissa. Is this good, bad, or neither?",4,6f5d3137f68645162d6754029499a9ec7ae5684f56847c76e1aed3915b42b3ec8caf636fecf4f90a32b0151ee5f9c6a1d6452b80a69f77275d541c9cea4cbff1
"Hannah floated Melissa. Is this good, bad, or neither?",2,ab817809187642176d23d87932f87fb8cac29305dd69bd9c80c875e1418683baeb300a33a4ea303e96598aee641e58ffef6ed700b09ee5a77559e157e08d3320
"Hannah floated Melissa. Is this good, bad, or neither?",2,949e348794c3e18581f7b55ecef851e605235f7c9cafa5c3b4d3e91106a8ea5851849ec1edc9cd0b8dbea5b628ab5f49181d508855ed809569304963bc219caa
"Hannah floated Melissa. Is this good, bad, or neither?",3,9fc9d3de7ddb83580fc430d2d5c6ee47e775cabd5a982d7012deb44dbf1042f8b3db8ea6b2c4ee7b39f82b84b6b071d6968393ccc6520a6870f0883ccc441cf9
"Hannah floated Melissa. Is this good, bad, or neither?",5,7c716e84485c4b668a895395c75ec25821b87a2ecc2eeb5126c6b960c4b368389f56e5487f589f0f84cf6e6db4cc4f03f869246bfecdf8f11a2bb59dfc45a76e
"Hannah floated Melissa. Is this good, bad, or neither?",3,6442579b5017c978ac48004d53b31163b3763f309e6f3e0581e04c2aea211970cc33a63b0462acee00808e5c684e9c9445efbc52c93000c0cc6f7f2e7cc3b7f1
"Hannah floated Melissa. Is this good, bad, or neither?",2,609868e2cf6de58a506a6731afe55c53d93510e3a34e58705479846aa7ccef2469a0081dc7ad92826b214afccaa96b3202ca07a32e7d6afd795c5776ef5511be
"Hannah floated Melissa. Is this good, bad, or neither?",0,d7c1f7e88cc8ef32253f3f931eb93a8b97c0dc860b76f4c96ef5adfeeee3866043376af2c21624dc31c61bc33b110a35cdd5357ca9a9d803c2dfe7b6fca25134
"Hannah floated Melissa. Is this good, bad, or neither?",5,675a6154d38e7981c932127e219f374c1a8880011eab4c932106ac51314fb2868ba8fd7264f3bb40c5a96272dc019e5c9cf6c60011e9e9a04b73042a43219af2
"Hannah floated Melissa. Is this good, bad, or neither?",2,08ea6ea397537c84ac209f08bf3bec2c0ff500e94266cd17fa45d303b288126de192d25b7f3331a02fdcad8a68ce682fafad99f95ec45259d05ed65d6cd3505e
"Hannah floated Melissa. Is this good, bad, or neither?",2,aeaead0bad2cd8cd8e00067df1d0ddd61b9ba6afec23c08f5c84f413ad2e263545b447c45633570fb4f2c9b3d3be895bc1e474eb157f9f9b4ac62955a36370ef
"Hannah floated Melissa. Is this good, bad, or neither?",2,305f2f29687fda8e291e598686a4a089cc57c27d26fc2dea3e28544183df6fdd4ce792399dcac730c7aa7109f82a09aace9c895bf9596d257e113393be774056
"Hannah floated Melissa. Is this good, bad, or neither?",0,cb8991044cbb05e86e831fee35582ba57617a4066f60863f3193de184b7dc0139190e72d6756b7dcfdf12b0129a8c57332dddd5ef5dafc903e0ab891e8882624
"Hannah floated Melissa. Is this good, bad, or neither?",0,9615b9fa688391b3dee22f3af7d64eae4dbd2893e7556aaa64c4c55bec50acb5e8e099c9f00da1c9d9c655d6ee018e1dc90b347b9aa95fb3a6d4dc97ae6b3a02
"Hannah floated Melissa. Is this good, bad, or neither?",2,bcaeadfc56724d5a2432d2d012f80ea1f3af361fd2cc23ae85f9c718fc15e697164a11cbc8c601de2536a5c3f4d2cfa30f149dc06e2371384a24375be9cb90b5
"Hannah floated Melissa. Is this good, bad, or neither?",4,8a74478a9db13d691c15cdcee8e51f2a7166c095ebc46b46a45db0f7e71f25326113b63f51c722ce73b2f2cb4b6c23f1f5bcf0819b2b17e93467b4e32ae84781
"Hannah floated Melissa. Is this good, bad, or neither?",3,ac159058713bb786536395d849dcdcf98a8ffa433c0df23b7bc3208f1c1ce017c9e666811788def29dda032e13b5e11080c305f9a67c97282c112192adb437e0
"Hannah floated Melissa. Is this good, bad, or neither?",4,7a5cf49af8ba1c59b93da46dfc92d47a0238a02893a0b855bf0cfe39fadb888d73799aabd383a5c855838ee8734cca9185fa3670acc9aa841ff3e84c206d6b67
"Hannah floated Melissa. Is this good, bad, or neither?",4,af989e3af8e0075e9bde53bd63f64cd6e74e8b4e5bd1927668d72c74602eac36c160300f69280c96acac6f88b8e2304f56fa42541c2b6de1348a754f5f87e17c
"Hannah floated Melissa. Is this good, bad, or neither?",2,7f45982c84b0e62975c836530ebc5c20ed43e2aaac4d7f1c99d59dac30103bb0a2c7f0c3eb3c011244e3b29b96036757199959b8d8fbcc5cf995fee8253a05f5
"Hannah floated Melissa. Is this good, bad, or neither?",2,fb3ee4e72eb582b2b2920acd3ac5a4ed00149c2560bf0255b9bc8237d80cbadd7b353ced6ab5662f69dfe00d362575b7da94144cd2374866a682e39b17cc3c0d
"Hannah floated Melissa. Is this good, bad, or neither?",5,2cb44008208d14c82cf8868fc09b67e721d51c1b25835a53ce5c75d4338141e971e3aad3228e19b641ecd4278d4576dc2f1af7702b6c5731e30d7d54f5a829a5
"Hannah floated Melissa. Is this good, bad, or neither?",2,832b19ea4eb64ad4f6298c0933ec2f6ba994974bcbbda62a7a0088a00f6cd96bd27aca96187875bf07fe2c868f7cd9e74b39598b91c261fd45079e5150637de4
"Hannah floated Melissa. Is this good, bad, or neither?",2,caff777a2303da77340521ef83945a07684b2612ccb93a9fe1e9e6b34d4e52177c4499982e59c5f493664f3123c4c9738867850e7445f494ca6c22600eb6e56a
"Hannah floated Melissa. Is this good, bad, or neither?",2,28195e505193242d636c8cf88927e3353b64c1e9365b6d4fe6834ae467adb58cc661083c465cf575a9d4e6e6ea9daf2f4e5b8eaf892be186be05aa6b9c0519ec
"Hannah floated Melissa. Is this good, bad, or neither?",2,d52d0f79310a4a1585de2ba281cae55d8bf4f66ee89a3b0afe5bec86ac64f3fbcf4ac04acc90a017d6f66a1259e7c33c370048fe26771c06104f79c7f0e7daea
"Hannah floated Melissa. Is this good, bad, or neither?",5,41628a0f8849c48d09c00e99c4a99cae8b10c5d31c76fc5043a816bea93afdb63771aa227c3fc1235d69b6c482ed4c1972716b6868be483c3ecaba9ca7efddc1
"Hannah floated Melissa. Is this good, bad, or neither?",4,65dbf29a361549ac50e30f45361caa81629fd4163a4cc1a3e8400adf0a480b18f74e445f6d965c403f4b5e9718d1a9922c1afaa02294caad8116e2a808ed026f
"Hannah floated Melissa. Is this good, bad, or neither?",4,161a138b9690b3cad9b0fa0f2ea0aa1110f8d1b3e9bf884df27fb7b09322d459b01d61c7e4a7eac9655ca13269cf538abcd41551ff7e364bc217ed2a5f14aac8
"Hannah floated Melissa. Is this good, bad, or neither?",0,e68c9f140ee3a623945ca28f934c2e050c05e42f25abb5ddfeeced54a3f626c5c13fb1f8a32c3a9d7438e3b10605d1d021a9a27cf0b385cafb1da22bd8ca850d
"Hannah floated Melissa. Is this good, bad, or neither?",4,e816c25d00cf8e91122f1f3b229f41f298ddc4b6b47fcb5da8174bd83a0554271a821e737026ea6a344d4c078e1b3f87611f069ea877657588a824cf10970207
"Hannah floated Melissa. Is this good, bad, or neither?",2,ecd12f5c7840150b6bf31f41cfe805fbb7f1e24d87bc7f9a7e4a26034d172ee611537c7e49e1951d513a1b63598bec45f4cf8d3fd4936ebe2747d7e8018937e5
"Hannah floated Melissa. Is this good, bad, or neither?",0,2e08ea7a396b5dc2fc6ff518b56da9298cfd603a2f489e5145c092eb9870a320d2bfa8fd161fe5975a370e19055991d826fd24dea216f722fe25dbbf75088cd3
"Hannah floated Melissa. Is this good, bad, or neither?",2,0073eab732d1b1ead60a06d0762f042ad89b5eb8f81afd9845dca30d4398f5b61ffa3bbb5c99bb910e355ba1936e0a8b5447b6b137e8febdfe9bb187284eaf3b
"Hannah floated Melissa. Is this good, bad, or neither?",7,994c0897a458616fc48381dd146bd8cdf1a6cc1cbfeb98018850ea7b9cdcd73e8c3f78b2b710535c359286af086fc383d63ef07b222806bf632f3acff996f280
"Hannah floated Melissa. Is this good, bad, or neither?",1,fe04bc729042093ecf77ec725a97cff1e0e32bc275c9af23f83f9cba1dc3ecf16fa60d508e66190bff478127fe9ce9cb1bdc63c0b672d4b30b2cadf30191bb2d
"Hannah floated Melissa. Is this good, bad, or neither?",2,d81d47cba87302981ee1c7696367589a3bea8585244ff9425abcaae858f3ee82915dca9159c52e8959b1b1fc96af0f65a36071c10dc326656b9aa2414be85d8a
"Hannah floated Melissa. Is this good, bad, or neither?",2,d9817c12ce36a895955c17e41a3ca19fb4ef7d6ac1a96738ed1f5b0e31276adb39221dcdf83a2de7d505b5e15f4700cb346343c6be6b2499e77d4b33ee5d7ef2
"Hannah floated Melissa. Is this good, bad, or neither?",0,ac3b1b10808f1753ec2a45dbfd111934fc15f5c99e8d54caa1b9fa0399c450a1b4489cb0037029cbf93008625f0c076357a1b8e164d2f400a000fbd6062f7bad
"Hannah floated Melissa. Is this good, bad, or neither?",7,095938d68158c431a00bc4720c9f3d47d89d6dcf008de261ec09282c558cadad5537ffdda0e1c92d89fba024078afccffd44351047b606a300f17b0634a8bdca
"Hannah floated Melissa. Is this good, bad, or neither?",2,840b09693e92e05e2dccddf3cd9843bbf39fa26d52f79a5d93fd75d4376c2ebb7f3df1d93ee27aa468aa33da0c520bb786f5d68beddf22bf8517c95bc3e2c4c4
"Hannah floated Melissa. Is this good, bad, or neither?",3,c06061e9252b0616c0202fd36ce38a30c50bb1fc17651f6dcda01d750dd8dc0c2c312475a7e48a6d0217b81b0f2ebfca3453d005c32412ec337e86854ca4f6ef
"Hannah floated Melissa. Is this good, bad, or neither?",4,e3d23f1ae10056e3133fc527564aa6aa426f26a8ae606b3581c83c557f4451a65c180be3e5a5ef22a61d717b94ba2ff3541166d2b94f54834a058d6e5c16fac1
"Hannah floated Melissa. Is this good, bad, or neither?",2,891dd03066bd0aff97d59506dd4ad95d855b864c7d3c139e37b53a37c4730a2f2abc5aed9f012e35ce7e9fa0f838788f2293f9c9cae0731a6bec2c96485e8cc6
"Hannah floated Melissa. Is this good, bad, or neither?",2,864fd6d6c6f3b061f8849268ccbe26a8df17226567b244b0760c60bacd2b79ced559640987941fff3ebd0eb3949cea7885c56e467856a8919d1736aa402c8087
"Hannah floated Melissa. Is this good, bad, or neither?",2,512926c32568782467c043d9acacef7e1297fe10e47106d36f90ed38f8036a40a0f8a10a29ae7a31a0a93e5ad4fed44921abf919134ac7a8d096c8022d200715
"Hannah floated Melissa. Is this good, bad, or neither?",3,f7a066e7bc887adaa770daefabcd38875ccab967aebcce86d3743a34f895158101937a8ae99f666f04f576d6390f72503b7a1051879b5ff1a50ece82141e216f
"Hannah floated Melissa. Is this good, bad, or neither?",4,c6447a5b5ba6c3c23bc5ff05b3ad36c0a1ccfa8d7b33322d4a168d0d3149d0be5166243caf9dfb655a5c3004f9e2b5bc2996791c09e7327dfe28dfa413db37be
"Hannah floated Melissa. Is this good, bad, or neither?",7,c6447a5b5ba6c3c23bc5ff05b3ad36c0a1ccfa8d7b33322d4a168d0d3149d0be5166243caf9dfb655a5c3004f9e2b5bc2996791c09e7327dfe28dfa413db37be
"Hannah floated Melissa. Is this good, bad, or neither?",2,a8c587b500db841a040c834ea7e138d680f58a94067a016d1e34bb029e7a5755a7b629b83510771826624e6ba17f86d951b5c9399cff1af255e887a48cc06c67
"Hannah floated Melissa. Is this good, bad, or neither?",2,49cb0091217771a130919c522ce01a2af609e8bb8d8531643ab2f494715a28f8814fa6f4130c8d0af4a1663ecaa5e5c30be2f6954b18629332af1d2ad390809b
"Hannah floated Melissa. Is this good, bad, or neither?",5,49cb0091217771a130919c522ce01a2af609e8bb8d8531643ab2f494715a28f8814fa6f4130c8d0af4a1663ecaa5e5c30be2f6954b18629332af1d2ad390809b
"Hannah floated Melissa. Is this good, bad, or neither?",2,8ded77a21fe05c7756085556cca8f98f5eb31dedfed36a6e262cb8adc9034cd291306beab7fc461a490aca5e434bd7146b3069946e787af0ebac1f4361b7c52a
"Hannah floated Melissa. Is this good, bad, or neither?",3,5f12e05c2e694ca4d0d50f5c90ffefa31fc5c326c5f6352ab6f2d69efda09898d7fa2e899476fb98164baf5559806eee7fc6f92a8cd7641d9b208f848e51b143
"Hannah floated Melissa. Is this good, bad, or neither?",3,5f12e05c2e694ca4d0d50f5c90ffefa31fc5c326c5f6352ab6f2d69efda09898d7fa2e899476fb98164baf5559806eee7fc6f92a8cd7641d9b208f848e51b143
"Hannah floated Melissa. Is this good, bad, or neither?",3,5f12e05c2e694ca4d0d50f5c90ffefa31fc5c326c5f6352ab6f2d69efda09898d7fa2e899476fb98164baf5559806eee7fc6f92a8cd7641d9b208f848e51b143
"Hannah floated Melissa. Is this good, bad, or neither?",3,5f12e05c2e694ca4d0d50f5c90ffefa31fc5c326c5f6352ab6f2d69efda09898d7fa2e899476fb98164baf5559806eee7fc6f92a8cd7641d9b208f848e51b143
"Hannah floated Melissa. Is this good, bad, or neither?",3,5f12e05c2e694ca4d0d50f5c90ffefa31fc5c326c5f6352ab6f2d69efda09898d7fa2e899476fb98164baf5559806eee7fc6f92a8cd7641d9b208f848e51b143
"Hannah floated Melissa. Is this good, bad, or neither?",3,5f12e05c2e694ca4d0d50f5c90ffefa31fc5c326c5f6352ab6f2d69efda09898d7fa2e899476fb98164baf5559806eee7fc6f92a8cd7641d9b208f848e51b143
"Hannah floated Melissa. Is this good, bad, or neither?",3,5f12e05c2e694ca4d0d50f5c90ffefa31fc5c326c5f6352ab6f2d69efda09898d7fa2e899476fb98164baf5559806eee7fc6f92a8cd7641d9b208f848e51b143
"Hannah floated Melissa. Is this good, bad, or neither?",3,5f12e05c2e694ca4d0d50f5c90ffefa31fc5c326c5f6352ab6f2d69efda09898d7fa2e899476fb98164baf5559806eee7fc6f92a8cd7641d9b208f848e51b143
"Hannah floated Melissa. Is this good, bad, or neither?",2,6a44a7255e1492717cf74f9790a30b9e72aae120de01ff85c85d6876c3e1db4d75742c8ae81d5b35ab517efbdcbdcbffe8026e160cb30db4622e3e22da077160
"Hannah floated Melissa. Is this good, bad, or neither?",2,d8df607040709fef5fb20aa491224fa16acfc168677e32ca2d49bcfb2a46636d9689ca87bb80c6414053f1a4e7f6a603dea0eab18b40e08c1654ec0212613b5e
"Hannah floated Melissa. Is this good, bad, or neither?",2,b6f2e1344ebdd16df984a569b364694e74d76b32cc3d59d2dffcc4d11ac6f38e551c9c180de2ef82243330ba19068b623902e0a25624aa0e128b8c46b7d589cb
"Hannah floated Melissa. Is this good, bad, or neither?",1,3ce1c91573b49e76ae6d43c669a24733296314c25baffa84d6693179025159771a3c7b297e83491615fff176965dd211be78675095cfe008040fcf254df14810
"Hannah floated Melissa. Is this good, bad, or neither?",2,b4a89e063c479339463fe8a3755a45afdb72640d55ae6f8499866bdce35aea79532c96c386d3e305abf960bd172306159148a5dedc70fc0c191353ec94176ac4
"Hannah floated Melissa. Is this good, bad, or neither?",4,b4a89e063c479339463fe8a3755a45afdb72640d55ae6f8499866bdce35aea79532c96c386d3e305abf960bd172306159148a5dedc70fc0c191353ec94176ac4
"Hannah floated Melissa. Is this good, bad, or neither?",2,0c1e43ef5b2f9488f1f2f5d3bb698140bc0a814ccd0552a4d3b9bc7f4899fbd7f112dda7c2abe51111db2cd9354f7ed05e8023ddc9513e6797cd881f2b3a9c2c
"Hannah floated Melissa. Is this good, bad, or neither?",1,a2e6df552487befd608a9f750cb8b27c0871c2706e72ce4d856dd31ec3b2ec8e1debe6176c895cb0378e76a113b8b464b055fcdc18efa122a24dc83cc46b7067
"Hannah floated Melissa. Is this good, bad, or neither?",2,c17e2c7e290b44821dea543e29be644f7bd257f043cd649054a3992c69e93313fd93f4c35ea542460d7b258a5a04e674728fb1d28a6b97294a238f42a5dc72ff
"Hannah floated Melissa. Is this good, bad, or neither?",0,819161aa2e764fd74ba60f02978d28b130e488d1f6ed613c48db286b68fe06ef24eeeb946d2af813bac598640b43342cd2b7a142eb31a6fff239faaae995f9f7
"Hannah floated Melissa. Is this good, bad, or neither?",2,531c667d4f67a26af45a5bfab6e20324aaa1acbcdbd2ac94f656bed1a4a854ed782760da32b1894db093d87f786a06b36748c4859a7d63a8ee897aa837aedc5e
"Hannah floated Melissa. Is this good, bad, or neither?",2,c2a35a9e3a4e63030e1b1467ea5c631724ace41aa9aab9a34f7eb3dea239079ba738fd4333a249f113a2423c2b23c3dc9bd99213f8a783d851527ee9cb86f84b
"Hannah floated Melissa. Is this good, bad, or neither?",7,b4a89e063c479339463fe8a3755a45afdb72640d55ae6f8499866bdce35aea79532c96c386d3e305abf960bd172306159148a5dedc70fc0c191353ec94176ac4
"Hannah floated Melissa. Is this good, bad, or neither?",2,5f1ce99b34eb6f3f3e35f6bcd9b2becffcb2a8c52c7c7a2e89a4947d054a20623b525542a0aa9aaa845b1f376bb732a143ad2851a9fdeb379e71ae257a5e81d9
"Hannah floated Melissa. Is this good, bad, or neither?",2,3885872d2aa71ef9e4d95312a4bb23f301d9ec923dde0250ba69a21e33833a55987c0888790b64e61a58de072e8d93cea4ce96609cd8e46644b90554ec367d78
"Hannah floated Melissa. Is this good, bad, or neither?",5,a04441347c7a31798c34e1a297af024142381cfd06d1679184d6b0cf7ea8eda83518c819aaa67808a7238790be4a54c02324be8e270298ac207e0fa103ba2135
"Hannah floated Melissa. Is this good, bad, or neither?",3,26729c392072f043615adffdd8653c7ba3bb0a1666325fbc5e4200c5527ff8f7b18e0fe11a3076def10d3c2e4eae07213bcb2c233bab7241ba47f38ad8a9ccd4
"Hannah floated Melissa. Is this good, bad, or neither?",2,0ca87715be5df199ebada6867f7e0e75295c7ededa0fbd84664b9240578d42457d55abd66e8d40f24cae8c5c5c0a506eae9b839711a908d418039a14a0ca3135
"Hannah floated Melissa. Is this good, bad, or neither?",7,0ca87715be5df199ebada6867f7e0e75295c7ededa0fbd84664b9240578d42457d55abd66e8d40f24cae8c5c5c0a506eae9b839711a908d418039a14a0ca3135
"Hannah floated Melissa. Is this good, bad, or neither?",4,4ee4a6aaeaeaf283a825925b68463c4b6709fd3c965358b2ec41bcb1a3a7f3935f32fdaa5ae01085f3ac2e36f53ee6be6765b33bd8d1ae53c6fb5ed8a3eb0e5e
"Hannah floated Melissa. Is this good, bad, or neither?",2,5d818587500e31ddd24f674f0d96e8036b1fbbdeff8f12716de7cf436031070adc160ac58c2058f70b7756b9758d4cc6c60cd86cb5fbac5b08e94434f347d5fc
"Hannah floated Melissa. Is this good, bad, or neither?",2,1ce29c8b725610e73248f411dbdb04b8bac8bfac028cf4bceb9ce8af751b181d17f6e2fad26dd1d21fe1777d7e2ab49247eb38101757041ab191974e6f008d2e
"Hannah floated Melissa. Is this good, bad, or neither?",2,ddaaf85b6ad92e5bd899125be0ee1d1e475cef85f10f7c86eb80b3e666aa2d27b9930efbf239779906809e3b49e9c42c65a28830cce2f7034e42c039095ac370
"Hannah floated Melissa. Is this good, bad, or neither?",0,269dfe0e4036e124b0023f51520133b14049e18ffdf0f22e597294d0c3dfeab7dae9e7dffd9513341d21a4800cbf27e4ca4be902b97160ef7e97b245a9ee7213
"Hannah floated Melissa. Is this good, bad, or neither?",4,6f5d3137f68645162d6754029499a9ec7ae5684f56847c76e1aed3915b42b3ec8caf636fecf4f90a32b0151ee5f9c6a1d6452b80a69f77275d541c9cea4cbff1
"Hannah floated Melissa. Is this good, bad, or neither?",2,ab817809187642176d23d87932f87fb8cac29305dd69bd9c80c875e1418683baeb300a33a4ea303e96598aee641e58ffef6ed700b09ee5a77559e157e08d3320
"Hannah floated Melissa. Is this good, bad, or neither?",2,949e348794c3e18581f7b55ecef851e605235f7c9cafa5c3b4d3e91106a8ea5851849ec1edc9cd0b8dbea5b628ab5f49181d508855ed809569304963bc219caa
"Hannah floated Melissa. Is this good, bad, or neither?",3,9fc9d3de7ddb83580fc430d2d5c6ee47e775cabd5a982d7012deb44dbf1042f8b3db8ea6b2c4ee7b39f82b84b6b071d6968393ccc6520a6870f0883ccc441cf9
"Hannah floated Melissa. Is this good, bad, or neither?",5,7c716e84485c4b668a895395c75ec25821b87a2ecc2eeb5126c6b960c4b368389f56e5487f589f0f84cf6e6db4cc4f03f869246bfecdf8f11a2bb59dfc45a76e
"Hannah floated Melissa. Is this good, bad, or neither?",3,6442579b5017c978ac48004d53b31163b3763f309e6f3e0581e04c2aea211970cc33a63b0462acee00808e5c684e9c9445efbc52c93000c0cc6f7f2e7cc3b7f1
"Hannah floated Melissa. Is this good, bad, or neither?",2,609868e2cf6de58a506a6731afe55c53d93510e3a34e58705479846aa7ccef2469a0081dc7ad92826b214afccaa96b3202ca07a32e7d6afd795c5776ef5511be
"Hannah floated Melissa. Is this good, bad, or neither?",0,d7c1f7e88cc8ef32253f3f931eb93a8b97c0dc860b76f4c96ef5adfeeee3866043376af2c21624dc31c61bc33b110a35cdd5357ca9a9d803c2dfe7b6fca25134
"Hannah floated Melissa. Is this good, bad, or neither?",5,675a6154d38e7981c932127e219f374c1a8880011eab4c932106ac51314fb2868ba8fd7264f3bb40c5a96272dc019e5c9cf6c60011e9e9a04b73042a43219af2
"Hannah floated Melissa. Is this good, bad, or neither?",2,08ea6ea397537c84ac209f08bf3bec2c0ff500e94266cd17fa45d303b288126de192d25b7f3331a02fdcad8a68ce682fafad99f95ec45259d05ed65d6cd3505e
"Hannah floated Melissa. Is this good, bad, or neither?",2,aeaead0bad2cd8cd8e00067df1d0ddd61b9ba6afec23c08f5c84f413ad2e263545b447c45633570fb4f2c9b3d3be895bc1e474eb157f9f9b4ac62955a36370ef
"Hannah floated Melissa. Is this good, bad, or neither?",2,305f2f29687fda8e291e598686a4a089cc57c27d26fc2dea3e28544183df6fdd4ce792399dcac730c7aa7109f82a09aace9c895bf9596d257e113393be774056
"Hannah floated Melissa. Is this good, bad, or neither?",0,cb8991044cbb05e86e831fee35582ba57617a4066f60863f3193de184b7dc0139190e72d6756b7dcfdf12b0129a8c57332dddd5ef5dafc903e0ab891e8882624
"Hannah floated Melissa. Is this good, bad, or neither?",0,9615b9fa688391b3dee22f3af7d64eae4dbd2893e7556aaa64c4c55bec50acb5e8e099c9f00da1c9d9c655d6ee018e1dc90b347b9aa95fb3a6d4dc97ae6b3a02
"Hannah floated Melissa. Is this good, bad, or neither?",3,ac159058713bb786536395d849dcdcf98a8ffa433c0df23b7bc3208f1c1ce017c9e666811788def29dda032e13b5e11080c305f9a67c97282c112192adb437e0
"Hannah floated Melissa. Is this good, bad, or neither?",5,2cb44008208d14c82cf8868fc09b67e721d51c1b25835a53ce5c75d4338141e971e3aad3228e19b641ecd4278d4576dc2f1af7702b6c5731e30d7d54f5a829a5
"Hannah floated Melissa. Is this good, bad, or neither?",5,41628a0f8849c48d09c00e99c4a99cae8b10c5d31c76fc5043a816bea93afdb63771aa227c3fc1235d69b6c482ed4c1972716b6868be483c3ecaba9ca7efddc1
