"Corey murdered Daniel with the harrent. Is this good, bad, or neither?",1,ac159058713bb786536395d849dcdcf98a8ffa433c0df23b7bc3208f1c1ce017c9e666811788def29dda032e13b5e11080c305f9a67c97282c112192adb437e0
"Corey murdered Daniel with the harrent. Is this good, bad, or neither?",1,5b56973b88ed7b736ff3966dd5900790af0d217684769981e05a869fd0482e4eb627fbc83ef164acdcc19dfee68958f3688d63269cfdc0cd3c3ec35969e3c934
"Corey murdered Daniel with the harrent. Is this good, bad, or neither?",1,b9823f44a96a09bb0a39b059bc590571f243e6b4cae8f72f462a679bd66dd4a5df1300c501ee1ee59d2ef0b3924ec82649208ef3855c81f609b9a3b93dc2e442
"Corey murdered Daniel with the harrent. Is this good, bad, or neither?",1,87ef026014587c59d56fa4c2071e6bb9d3bed56b2c3afb54b24d4cc832295bd62bbfb4a581d1881c6fcb84d2fb80ee66fccefc5a7457a6dc6289793ff7e7d0dc
"Corey murdered Daniel with the harrent. Is this good, bad, or neither?",1,374634f202202263ffdd8668a1488ecd7d08e9ad30a552d742cc8d6a4a6336712da7922b4a1a4dd141940d6c0fc175765c5a7bb0ae45350384eb54f9f136d3e3
"Corey murdered Daniel with the harrent. Is this good, bad, or neither?",1,fb3ee4e72eb582b2b2920acd3ac5a4ed00149c2560bf0255b9bc8237d80cbadd7b353ced6ab5662f69dfe00d362575b7da94144cd2374866a682e39b17cc3c0d
"Corey murdered Daniel with the harrent. Is this good, bad, or neither?",1,2cb44008208d14c82cf8868fc09b67e721d51c1b25835a53ce5c75d4338141e971e3aad3228e19b641ecd4278d4576dc2f1af7702b6c5731e30d7d54f5a829a5
"Corey murdered Daniel with the harrent. Is this good, bad, or neither?",1,28195e505193242d636c8cf88927e3353b64c1e9365b6d4fe6834ae467adb58cc661083c465cf575a9d4e6e6ea9daf2f4e5b8eaf892be186be05aa6b9c0519ec
"Corey murdered Daniel with the harrent. Is this good, bad, or neither?",1,caff777a2303da77340521ef83945a07684b2612ccb93a9fe1e9e6b34d4e52177c4499982e59c5f493664f3123c4c9738867850e7445f494ca6c22600eb6e56a
"Corey murdered Daniel with the harrent. Is this good, bad, or neither?",1,832b19ea4eb64ad4f6298c0933ec2f6ba994974bcbbda62a7a0088a00f6cd96bd27aca96187875bf07fe2c868f7cd9e74b39598b91c261fd45079e5150637de4
"Corey murdered Daniel with the harrent. Is this good, bad, or neither?",1,d52d0f79310a4a1585de2ba281cae55d8bf4f66ee89a3b0afe5bec86ac64f3fbcf4ac04acc90a017d6f66a1259e7c33c370048fe26771c06104f79c7f0e7daea
"Corey murdered Daniel with the harrent. Is this good, bad, or neither?",1,d79e7515461bb1786cfade2fd1b566088466eb1af1860429e53f7824487f48c6430b7adafdb3398234e0c986489fd6d24eab828da7779aaeebbb45b45da90de1
"Corey murdered Daniel with the harrent. Is this good, bad, or neither?",1,69bf71a23950a19d51588205bb33b43a6c847df0a5e564427b2d61a5489a3d037dcf472674ab77e4abb6133e088ce98f278ad721e939562236b4f32ab79e07e7
"Corey murdered Daniel with the harrent. Is this good, bad, or neither?",1,0a29094c0ee2cbf8778426f29aa0c1ed2bc866fde6709114f50e0da9d12b39f1c7b9749dd19d5d81062bd3360005fc698a094673ae33241c22b80019e9e4a0f8
"Corey murdered Daniel with the harrent. Is this good, bad, or neither?",1,df37a2577f3058592b920856bee5b670045ef62e39b7843d6bac1f4d2225b4d4f0c7cc54bb315cd89b3bc2450284e177fb64f97524a960c0159c5719781755f7
"Corey murdered Daniel with the harrent. Is this good, bad, or neither?",1,41628a0f8849c48d09c00e99c4a99cae8b10c5d31c76fc5043a816bea93afdb63771aa227c3fc1235d69b6c482ed4c1972716b6868be483c3ecaba9ca7efddc1
"Corey murdered Daniel with the harrent. Is this good, bad, or neither?",1,4c936421d33f89a86a2126ef307e8438506ebd5fdf60a8a9a4de33d6e8ee15731a498fbcf8097e81fca2f73298a79f0a7be7dc9143c2f513dcb1ae256be13c62
"Corey murdered Daniel with the harrent. Is this good, bad, or neither?",1,42635ff316bdbbb083e1ed8b1f2909857d8762f05e66e315131df058586d5534aef64d0bb308236129546f009afa68ba8f2e2082e542e911f19c1d107e440f6b
"Corey murdered Daniel with the harrent. Is this good, bad, or neither?",1,8cb3711296d5f468aa0575747e649c39032b9926b6aeee771a45ea7a328bb4710ba5bf88689a9cb923c32d808a5b86a31515227d30aa5112c5262f727e9187c0
"Corey murdered Daniel with the harrent. Is this good, bad, or neither?",1,2affe66e78ed0fdb8662d48e9de768393c88ec5e667c71326bc9ac141e2742f64028489e0a9dbbd820ca7d777483a05f81c195e5a46d9c595e8003584f94b06f
"Corey murdered Daniel with the harrent. Is this good, bad, or neither?",1,ecd12f5c7840150b6bf31f41cfe805fbb7f1e24d87bc7f9a7e4a26034d172ee611537c7e49e1951d513a1b63598bec45f4cf8d3fd4936ebe2747d7e8018937e5
"Corey murdered Daniel with the harrent. Is this good, bad, or neither?",1,2e08ea7a396b5dc2fc6ff518b56da9298cfd603a2f489e5145c092eb9870a320d2bfa8fd161fe5975a370e19055991d826fd24dea216f722fe25dbbf75088cd3
"Corey murdered Daniel with the harrent. Is this good, bad, or neither?",1,b0d9c2d8691f4316e1b262befbbf21875e54953ac94d958088ee327ec7e4b9a519987db3fe0c492b3c1bee962b256ef852d45c6ea7760841c756f9361c5f1c88
"Corey murdered Daniel with the harrent. Is this good, bad, or neither?",1,71f6bb945167afb7789d00f15c7685f0300b6c353c6e12454dcc97e50dc177366da0fea1f8cf956f418deb794af51f1809d0ab15aa49d29a04f787e484dc9559
"Corey murdered Daniel with the harrent. Is this good, bad, or neither?",4,b4bea39e615427f6ffb5bd4eeca2c508ad5c055efa53ec6afe4acbb1761f64d6d6375b9eb8aec70ef70cb09828897acb798384314cd09ca484cb4efb89db4ace
"Corey murdered Daniel with the harrent. Is this good, bad, or neither?",1,96dea4e5743281aa1580f8cf3fbc6710d1f83a23fc447ccace949566cef59028dea39caf57f010d357d8cdc5220da05772b904bd57bfb287b6212c765959f65d
"Corey murdered Daniel with the harrent. Is this good, bad, or neither?",1,ac3b1b10808f1753ec2a45dbfd111934fc15f5c99e8d54caa1b9fa0399c450a1b4489cb0037029cbf93008625f0c076357a1b8e164d2f400a000fbd6062f7bad
"Corey murdered Daniel with the harrent. Is this good, bad, or neither?",1,58d21333fabff922d46df0c898c21f914f63033e21c078454fd057723a4362ff5e714be632468569187f5304a1e5bc13ab0f894291a6bf075ca570441f1f6d15
"Corey murdered Daniel with the harrent. Is this good, bad, or neither?",1,f4d0a0e5543106139b65bc0db5d40eb416833c4fb456fd2272ffde8e7e162ac059f090e12c01686b7dd181834a59b46c179bb133739847ad085aeae5db86e3e7
"Corey murdered Daniel with the harrent. Is this good, bad, or neither?",1,c06061e9252b0616c0202fd36ce38a30c50bb1fc17651f6dcda01d750dd8dc0c2c312475a7e48a6d0217b81b0f2ebfca3453d005c32412ec337e86854ca4f6ef
"Corey murdered Daniel with the harrent. Is this good, bad, or neither?",1,e95f446425dc42eb211e11541ce5fbfd041135820bf9834509c58dbec74481ab62d2266bee6d35de61b5cca610ccefe60ecee2b2cdc51f9e2eb1ffa40cdfb591
"Corey murdered Daniel with the harrent. Is this good, bad, or neither?",1,f935cd86cd40733f10e8b019cab00565e691cd528ea983d9d4b804869419b115bae4ba3ba55604ba762aa263851888c7c1c2b6e517d81e2ed3c724a92e1e5f00
"Corey murdered Daniel with the harrent. Is this good, bad, or neither?",1,788586ec500f36a90e8e9cd2929df992dcef928d4a899a97f3ee045cae7941804fbd867cc1bd8322157279243f823395f4acb456de65b81bfb1653cd212debeb
"Corey murdered Daniel with the harrent. Is this good, bad, or neither?",4,edd0d4cd3603aa695bb1b829119a5a8b7acfce453ee7501f7aabd1ee25739128adbaad3053fe7e3f93511c947ae7fb9284910dcb2f8f9e24b6cc93c31775bf40
"Corey murdered Daniel with the harrent. Is this good, bad, or neither?",1,f152fccfa1b4275911c3d51209757f8f47524d9e0dac927fa3cf085a412f2995c54db4378764d73c2aeccf796c683eda37b79db7a22b6c9fb80818fa2a0358f7
"Corey murdered Daniel with the harrent. Is this good, bad, or neither?",1,567fcc08f4a54552060d7d816058a9668d94e008d7b344f3c8d607504924788bef84864d9a832a45cf56a55a5ffdefc0f7c68f1688e66f9f1c4b82ac7f5491a4
"Corey murdered Daniel with the harrent. Is this good, bad, or neither?",1,864fd6d6c6f3b061f8849268ccbe26a8df17226567b244b0760c60bacd2b79ced559640987941fff3ebd0eb3949cea7885c56e467856a8919d1736aa402c8087
"Corey murdered Daniel with the harrent. Is this good, bad, or neither?",1,512926c32568782467c043d9acacef7e1297fe10e47106d36f90ed38f8036a40a0f8a10a29ae7a31a0a93e5ad4fed44921abf919134ac7a8d096c8022d200715
"Corey murdered Daniel with the harrent. Is this good, bad, or neither?",1,0a10cfbe96898e179a6989823d1b388e63fd11f48fd9bb0f118bf62cd7dfea5dd88a7b1d57cbd9606e10dc7e76ef4a52208822cd8d1992d9cbf67431ac76dda0
"Corey murdered Daniel with the harrent. Is this good, bad, or neither?",1,f946c006ad5869b90d7fc1ecca75e0b05fa9f34608971547a80aeac422400f4fe353955cd8fe382a8f37e56b6b43e9075c5daeb8e3e0e8dd5661af5de6e10539
"Corey murdered Daniel with the harrent. Is this good, bad, or neither?",1,b9a4f02c7efc90d3d81ce3c3a24ed6211862c500cd72c328edabb4a1aafac18c5e1e3187af1abec974c5d43df73f79454f0ba529ad554fcb5d22779bc35745ca
"Corey murdered Daniel with the harrent. Is this good, bad, or neither?",1,a8c587b500db841a040c834ea7e138d680f58a94067a016d1e34bb029e7a5755a7b629b83510771826624e6ba17f86d951b5c9399cff1af255e887a48cc06c67
"Corey murdered Daniel with the harrent. Is this good, bad, or neither?",3,5f12e05c2e694ca4d0d50f5c90ffefa31fc5c326c5f6352ab6f2d69efda09898d7fa2e899476fb98164baf5559806eee7fc6f92a8cd7641d9b208f848e51b143
"Corey murdered Daniel with the harrent. Is this good, bad, or neither?",3,5f12e05c2e694ca4d0d50f5c90ffefa31fc5c326c5f6352ab6f2d69efda09898d7fa2e899476fb98164baf5559806eee7fc6f92a8cd7641d9b208f848e51b143
"Corey murdered Daniel with the harrent. Is this good, bad, or neither?",3,5f12e05c2e694ca4d0d50f5c90ffefa31fc5c326c5f6352ab6f2d69efda09898d7fa2e899476fb98164baf5559806eee7fc6f92a8cd7641d9b208f848e51b143
"Corey murdered Daniel with the harrent. Is this good, bad, or neither?",3,5f12e05c2e694ca4d0d50f5c90ffefa31fc5c326c5f6352ab6f2d69efda09898d7fa2e899476fb98164baf5559806eee7fc6f92a8cd7641d9b208f848e51b143
"Corey murdered Daniel with the harrent. Is this good, bad, or neither?",3,5f12e05c2e694ca4d0d50f5c90ffefa31fc5c326c5f6352ab6f2d69efda09898d7fa2e899476fb98164baf5559806eee7fc6f92a8cd7641d9b208f848e51b143
"Corey murdered Daniel with the harrent. Is this good, bad, or neither?",3,5f12e05c2e694ca4d0d50f5c90ffefa31fc5c326c5f6352ab6f2d69efda09898d7fa2e899476fb98164baf5559806eee7fc6f92a8cd7641d9b208f848e51b143
"Corey murdered Daniel with the harrent. Is this good, bad, or neither?",3,5f12e05c2e694ca4d0d50f5c90ffefa31fc5c326c5f6352ab6f2d69efda09898d7fa2e899476fb98164baf5559806eee7fc6f92a8cd7641d9b208f848e51b143
"Corey murdered Daniel with the harrent. Is this good, bad, or neither?",3,5f12e05c2e694ca4d0d50f5c90ffefa31fc5c326c5f6352ab6f2d69efda09898d7fa2e899476fb98164baf5559806eee7fc6f92a8cd7641d9b208f848e51b143
"Corey murdered Daniel with the harrent. Is this good, bad, or neither?",3,c89754b99807251a49c11ddf6f29de872a05baa5126d5737c11d38dc32ca7269a8320288bec3b97723633698f26ac2f193aae82688ca53ef17a221e4339a459f
"Corey murdered Daniel with the harrent. Is this good, bad, or neither?",3,c89754b99807251a49c11ddf6f29de872a05baa5126d5737c11d38dc32ca7269a8320288bec3b97723633698f26ac2f193aae82688ca53ef17a221e4339a459f
"Corey murdered Daniel with the harrent. Is this good, bad, or neither?",1,138a9e562648c08d9c6ac98bd7942309c86588c91b78686f82eddb4832388a43fb44b7f280b9e3eb49cbeec29242f2f10d71b467c9475a5b05c0bf3a4a00185a
"Corey murdered Daniel with the harrent. Is this good, bad, or neither?",1,04e4a70db48d0ad6825469974dbd2d49b05cfecc626140edb6ccfee2622fee550d59743f0cee3fcd73faa74650344e992844d89c148d74b9224eaf39cd4b06b2
"Corey murdered Daniel with the harrent. Is this good, bad, or neither?",1,3ce1c91573b49e76ae6d43c669a24733296314c25baffa84d6693179025159771a3c7b297e83491615fff176965dd211be78675095cfe008040fcf254df14810
"Corey murdered Daniel with the harrent. Is this good, bad, or neither?",1,0c1e43ef5b2f9488f1f2f5d3bb698140bc0a814ccd0552a4d3b9bc7f4899fbd7f112dda7c2abe51111db2cd9354f7ed05e8023ddc9513e6797cd881f2b3a9c2c
"Corey murdered Daniel with the harrent. Is this good, bad, or neither?",1,819161aa2e764fd74ba60f02978d28b130e488d1f6ed613c48db286b68fe06ef24eeeb946d2af813bac598640b43342cd2b7a142eb31a6fff239faaae995f9f7
"Corey murdered Daniel with the harrent. Is this good, bad, or neither?",1,83e68bdb3c8d06734b9c63de2e996ad5203cfadd686bffeb5371242a53bd2562e4ee27b56455e36057ad2b7ff679b1bc0942e1b5e336f4762c4ed9cc49cb339a
"Corey murdered Daniel with the harrent. Is this good, bad, or neither?",1,b4a89e063c479339463fe8a3755a45afdb72640d55ae6f8499866bdce35aea79532c96c386d3e305abf960bd172306159148a5dedc70fc0c191353ec94176ac4
"Corey murdered Daniel with the harrent. Is this good, bad, or neither?",1,c2a35a9e3a4e63030e1b1467ea5c631724ace41aa9aab9a34f7eb3dea239079ba738fd4333a249f113a2423c2b23c3dc9bd99213f8a783d851527ee9cb86f84b
"Corey murdered Daniel with the harrent. Is this good, bad, or neither?",1,a04441347c7a31798c34e1a297af024142381cfd06d1679184d6b0cf7ea8eda83518c819aaa67808a7238790be4a54c02324be8e270298ac207e0fa103ba2135
"Corey murdered Daniel with the harrent. Is this good, bad, or neither?",1,3d88ec3b58ddd558798a23c084e41df36514cc401936e357cb475d1b9772bfa023ccf16a2bec961c21127d2c3eb6c4df5521dbfa823e8fea087ee3aa2ff6936f
"Corey murdered Daniel with the harrent. Is this good, bad, or neither?",1,db5894e7704bd3e18456183db64f0bf6282068716ecee460b6eda88c8e306dd754810796ca807ac7eb2eac0c97e611c05ab6908ff5a7e26c64e444edcc05a200
"Corey murdered Daniel with the harrent. Is this good, bad, or neither?",1,e144c3aae932ef874624a8c02856bd414068417234e5b80137e61dd663266d84bc23fa36329997345a42240c440c07c8e4419207b38bbe2b9d99063b876d4ff8
"Corey murdered Daniel with the harrent. Is this good, bad, or neither?",1,715e6782bd10c8cdbd09c56fad1e56f04a37acb97206653f021f93485d506e5ddadac9897f08af7d5f8aa233677b3f839d54fde805044cbe703dea3acf6840c5
"Corey murdered Daniel with the harrent. Is this good, bad, or neither?",1,4c98db9968edffffeaebad289235acc7fdd8ad3f65d639bc7aa14a8643e95fb65bb2cc57682abcf8e6ae5795c7a51a74da8bf9045ec06d2f4b8309d59d9251e9
"Corey murdered Daniel with the harrent. Is this good, bad, or neither?",1,f2d6b51dfd20eed1bd0330fdb2930840694538c9582d2b3d8d8d239cc9a74436f22cc405cafa0585ee0ba12957a0a33ac29e60434f30ce312df3202bb9c7906d
"Corey murdered Daniel with the harrent. Is this good, bad, or neither?",7,0ca87715be5df199ebada6867f7e0e75295c7ededa0fbd84664b9240578d42457d55abd66e8d40f24cae8c5c5c0a506eae9b839711a908d418039a14a0ca3135
