"Tyler murdered Brian. Is this good, bad, or neither?",1,ac159058713bb786536395d849dcdcf98a8ffa433c0df23b7bc3208f1c1ce017c9e666811788def29dda032e13b5e11080c305f9a67c97282c112192adb437e0
"Tyler murdered Brian. Is this good, bad, or neither?",1,7f45982c84b0e62975c836530ebc5c20ed43e2aaac4d7f1c99d59dac30103bb0a2c7f0c3eb3c011244e3b29b96036757199959b8d8fbcc5cf995fee8253a05f5
"Tyler murdered Brian. Is this good, bad, or neither?",1,defe04032400b3e58a1e950f996402eff5033458b8e59026984e16c0520947c99f52f09cbc895349400c57b5f46ed7069c8bfbb6b3b47cf0ab1cd490f77b00f1
"Tyler murdered Brian. Is this good, bad, or neither?",1,fb3ee4e72eb582b2b2920acd3ac5a4ed00149c2560bf0255b9bc8237d80cbadd7b353ced6ab5662f69dfe00d362575b7da94144cd2374866a682e39b17cc3c0d
"Tyler murdered Brian. Is this good, bad, or neither?",1,59b08a645fc422cb906b374cc090da670df1abebf75166991a77077ed223dd4c51870e8cde0bf0e157eb15f92e1904e7be1238a91c5a1d6cc4e58493f33ab7fe
"Tyler murdered Brian. Is this good, bad, or neither?",1,2cb44008208d14c82cf8868fc09b67e721d51c1b25835a53ce5c75d4338141e971e3aad3228e19b641ecd4278d4576dc2f1af7702b6c5731e30d7d54f5a829a5
"Tyler murdered Brian. Is this good, bad, or neither?",1,04b16173a78c23dc429414571f21d5fa6f3075df295a8d319758e7a744a76da3988c2738be7d898ce0f3b1797b42ccafb873e91368217d042d09cdd01b185736
"Tyler murdered Brian. Is this good, bad, or neither?",1,28195e505193242d636c8cf88927e3353b64c1e9365b6d4fe6834ae467adb58cc661083c465cf575a9d4e6e6ea9daf2f4e5b8eaf892be186be05aa6b9c0519ec
"Tyler murdered Brian. Is this good, bad, or neither?",1,d52d0f79310a4a1585de2ba281cae55d8bf4f66ee89a3b0afe5bec86ac64f3fbcf4ac04acc90a017d6f66a1259e7c33c370048fe26771c06104f79c7f0e7daea
"Tyler murdered Brian. Is this good, bad, or neither?",1,caff777a2303da77340521ef83945a07684b2612ccb93a9fe1e9e6b34d4e52177c4499982e59c5f493664f3123c4c9738867850e7445f494ca6c22600eb6e56a
"Tyler murdered Brian. Is this good, bad, or neither?",1,ecd12f5c7840150b6bf31f41cfe805fbb7f1e24d87bc7f9a7e4a26034d172ee611537c7e49e1951d513a1b63598bec45f4cf8d3fd4936ebe2747d7e8018937e5
"Tyler murdered Brian. Is this good, bad, or neither?",1,eae6224b4dca7bc4038fc67b6549c7d9b76201fbb34a7c6ce7af81347574dd9c866374b51d8323f61ad65198600945fdaa46b149af231d8715f7de911c7d83f4
"Tyler murdered Brian. Is this good, bad, or neither?",1,4d6a3cd1823966fb98e5583a97754f2b5f8e3a76075525bbb69128bca7e43e9a680a6c30b86993dad31108598fa013a277162ade1f433a7a643000ca0966b83d
"Tyler murdered Brian. Is this good, bad, or neither?",3,2affe66e78ed0fdb8662d48e9de768393c88ec5e667c71326bc9ac141e2742f64028489e0a9dbbd820ca7d777483a05f81c195e5a46d9c595e8003584f94b06f
"Tyler murdered Brian. Is this good, bad, or neither?",1,d2b9e91e8054737fd447086e0905adc0117f107aee01345def5dca20817273015062c084e4fbb7486194ebb4ff2afaad17508a3d44b13fa7b1489079628116d7
"Tyler murdered Brian. Is this good, bad, or neither?",1,14f23fcc167988dce6e55bce50b355428b82f247209c572f82715aac881afcb8162ebc7b557e1438dd2f69b3e915e6bcd037041df1904f0c6fe886c4637565f6
"Tyler murdered Brian. Is this good, bad, or neither?",1,9d8ddb67f662349a7f7a7c5a32fee73c457fd70d135ae4be6f17a68418102d35693b26415c8fd8c7bd26a5b5032587ac08aefd055994f62fcb3e9a44d5cb51b0
"Tyler murdered Brian. Is this good, bad, or neither?",0,2aeee1aefd489e56a95716e0f098f0abf59fcd746de8bf5aa62b6c7cb76fdc1d573313a7df8e3c850dfe2f27a52d6659d519d7cbf043182cd56cee8563a98c05
"Tyler murdered Brian. Is this good, bad, or neither?",1,2e08ea7a396b5dc2fc6ff518b56da9298cfd603a2f489e5145c092eb9870a320d2bfa8fd161fe5975a370e19055991d826fd24dea216f722fe25dbbf75088cd3
"Tyler murdered Brian. Is this good, bad, or neither?",1,57a947b4726b316ef3de8125c96372e75e16dce1aa9280a41fe713e4af5e81c427ef0c9f7309dd4e6521a571c229df06f801b07f3d6052cc26e4692df5f2e0b4
"Tyler murdered Brian. Is this good, bad, or neither?",1,912ea83cdfc5cf06bd44077cb51de35e88b6654f5af0eb7f6f78d434377245fc012b228a5334411a8d988514eee1d5ac22fb8453f995095120ccaea0e01fac17
"Tyler murdered Brian. Is this good, bad, or neither?",1,b225ff01a0ea805d2973e8acbf932a9b06bcc8054331cbac05709691c1dd734cd9baacaf21983cad186aea7f1ee1dde52dd7c5b4ccd736d26593bfc52b955934
"Tyler murdered Brian. Is this good, bad, or neither?",1,67347e4085b2c57c256c09513803ca8822e41032a91af1de6d9e4944bfd0356b5d2c35cd383bebcd963d3b0433856d2fc1f47ec673e6866fccb80dcd7e4261b5
"Tyler murdered Brian. Is this good, bad, or neither?",1,9cf8e8e6615ae2fe3e5aa3c1e47ccb1d10a536f77a6a854e4fcb940bd99ad008c6f1e6da515208802c533542294e8c102eb7f1aff6177f7a260903064f739dc0
"Tyler murdered Brian. Is this good, bad, or neither?",1,eec525f1035a5c85b8d462f34e4c99f764b7dbc99376903601e5fa2b3d449454e36df5be5d85a417c31944a91af6b025740d86da429870c2c20b3a8e15a848e6
"Tyler murdered Brian. Is this good, bad, or neither?",1,88c1afa05f945c74e9ad9057dc7821c776be632f8d5625afe16f6ca957ca87355e4b858ce41f8943799dc98308fbd873aff10fe13198501acfd469af0955495a
"Tyler murdered Brian. Is this good, bad, or neither?",1,44cb69d363b6d99287402410490198709810d13e74a75276dbb979e5f5387c1256447125e35607b5fb4bd589b7d3c4067f5e02ae5e26e50c3be55284e647c71d
"Tyler murdered Brian. Is this good, bad, or neither?",1,5ea4da95fac7b4e59b806f441e004a47b31ce14e16e59801f4678c6967988772f412700b363b6c19278ecfa5f03760efd8b480bd35cb2557e60eeda69517003c
"Tyler murdered Brian. Is this good, bad, or neither?",1,a3fe48d172465fbb24a650eeb520bd4c4631496b6d9d7a38bf192e1566aa97e662f2b2e76290bf0e0a6c2a90ffb291b31ff1e75bb29714c834646a850ace5bf6
"Tyler murdered Brian. Is this good, bad, or neither?",1,2d60b1f3ab5201cad9a0353ed97dab24b7acd315bfb280fffb4f492b3c791e02f205b024d6ac7cf6d7cbe3b6f6b2f8fe50f154635c03a07be86909539525a6cf
"Tyler murdered Brian. Is this good, bad, or neither?",1,fd1957fc4ac94c9d517d3a1ebd22f70bd60231bd9afdf765049797f4d73442fadeba7eefb97518ec49c2375e20d096ac8dc87cc4b1f160eee060f18f36a38e7b
"Tyler murdered Brian. Is this good, bad, or neither?",1,fc276da07f1bcaad013b658bfbd8218c71b31f63527beff26bd8172f1008b89238ebac7dab084468bf193237ac70dce969185e9fe99387bbeebe0533ff9342ec
"Tyler murdered Brian. Is this good, bad, or neither?",1,d992cdce84b785894239f72ea52f528b0fc5c266d67d80bfe3641db604683879c9df1ec1cb2bff07cf37e9491d1764bfbf80f50a9be753c74847f8b4dedf8ef0
"Tyler murdered Brian. Is this good, bad, or neither?",1,7c71a1ed631d499225eca45c7b4c4af55634115f0fce98e3b7405a4c6fce2aabb8f5d115484d50c3b6ec6db6ef6f5ae783acb7fff4b332d4488235cb123ed585
"Tyler murdered Brian. Is this good, bad, or neither?",1,4b7aa2ac29873b136889672fbba234406ea7ad911ab1951b9e452ed881bb852ff9af5f5843f38dc143ca3bef72c08fe862237e058ec0f62b8b6fdfeea92c4438
"Tyler murdered Brian. Is this good, bad, or neither?",1,f152fccfa1b4275911c3d51209757f8f47524d9e0dac927fa3cf085a412f2995c54db4378764d73c2aeccf796c683eda37b79db7a22b6c9fb80818fa2a0358f7
"Tyler murdered Brian. Is this good, bad, or neither?",1,cdc82decc385f7e309df95e76665c1a374f59a26484512f2db2ccd400075c0e7168901954aff2916ae1ce00679770656b6a59e655a4e26263c3a91889d44fc1a
"Tyler murdered Brian. Is this good, bad, or neither?",1,d6679d00499ecff8e7ada6b1ab2e1f6909a9c75867c5294e42eb86f0bce5a2ef7e661aeff27dcb214eb2fc88ab64ff9300c3b90f170c3786b050193b63061dc3
"Tyler murdered Brian. Is this good, bad, or neither?",1,6ee197de16309b9254750a19b4b12ed5b76c3787ba459c30a62c167786454719c11c8e18ebbc1becc2ba3248a22503eb119f691cb04305c2c02bff8a750cc9b3
"Tyler murdered Brian. Is this good, bad, or neither?",1,512926c32568782467c043d9acacef7e1297fe10e47106d36f90ed38f8036a40a0f8a10a29ae7a31a0a93e5ad4fed44921abf919134ac7a8d096c8022d200715
"Tyler murdered Brian. Is this good, bad, or neither?",1,0b758c080becd2e51fb547953fb231adf7c6d1daaf4927c18f89a1b7e048d64c06db646ae0dc8d3626ea83e69d29dfcf12f4ba613469fba4ce33c5955b0f75fb
"Tyler murdered Brian. Is this good, bad, or neither?",4,6d8c4b3b6e1c8c7dab229a98668991c681877d7d0ead33be85cb43931f850db2b111283ffbb5bfc385160906c6ec91f300f40b9882400309f1fdeb9ea22f7fc3
"Tyler murdered Brian. Is this good, bad, or neither?",6,6d8c4b3b6e1c8c7dab229a98668991c681877d7d0ead33be85cb43931f850db2b111283ffbb5bfc385160906c6ec91f300f40b9882400309f1fdeb9ea22f7fc3
"Tyler murdered Brian. Is this good, bad, or neither?",1,af989e3af8e0075e9bde53bd63f64cd6e74e8b4e5bd1927668d72c74602eac36c160300f69280c96acac6f88b8e2304f56fa42541c2b6de1348a754f5f87e17c
"Tyler murdered Brian. Is this good, bad, or neither?",1,37805ee1b41c781e6b817afc72031a1f1835c0a0d72be46238fe34898913ac47a840d4c391f835e42277def943f95cb3ffc89b1bc79669615995d531f0a9cc63
"Tyler murdered Brian. Is this good, bad, or neither?",1,25e046295c3c4df65fec1f338915593023cbc8595b49545a780cbbd2d319b40def7a7b4161fe635075a0f88b18b672376308156d0633b22bb7b144697da4bf5e
"Tyler murdered Brian. Is this good, bad, or neither?",1,654abee2a34ea238dd9860279c2e4f4ca17d0745f80e3a567f1be1f8bc80565588c6bc0d387e4705bac6ad4b8113565bc4647802a60f9ec02d1e658cb7bd2331
"Tyler murdered Brian. Is this good, bad, or neither?",3,5f12e05c2e694ca4d0d50f5c90ffefa31fc5c326c5f6352ab6f2d69efda09898d7fa2e899476fb98164baf5559806eee7fc6f92a8cd7641d9b208f848e51b143
"Tyler murdered Brian. Is this good, bad, or neither?",3,5f12e05c2e694ca4d0d50f5c90ffefa31fc5c326c5f6352ab6f2d69efda09898d7fa2e899476fb98164baf5559806eee7fc6f92a8cd7641d9b208f848e51b143
"Tyler murdered Brian. Is this good, bad, or neither?",3,5f12e05c2e694ca4d0d50f5c90ffefa31fc5c326c5f6352ab6f2d69efda09898d7fa2e899476fb98164baf5559806eee7fc6f92a8cd7641d9b208f848e51b143
"Tyler murdered Brian. Is this good, bad, or neither?",3,5f12e05c2e694ca4d0d50f5c90ffefa31fc5c326c5f6352ab6f2d69efda09898d7fa2e899476fb98164baf5559806eee7fc6f92a8cd7641d9b208f848e51b143
"Tyler murdered Brian. Is this good, bad, or neither?",3,5f12e05c2e694ca4d0d50f5c90ffefa31fc5c326c5f6352ab6f2d69efda09898d7fa2e899476fb98164baf5559806eee7fc6f92a8cd7641d9b208f848e51b143
"Tyler murdered Brian. Is this good, bad, or neither?",3,5f12e05c2e694ca4d0d50f5c90ffefa31fc5c326c5f6352ab6f2d69efda09898d7fa2e899476fb98164baf5559806eee7fc6f92a8cd7641d9b208f848e51b143
"Tyler murdered Brian. Is this good, bad, or neither?",3,5f12e05c2e694ca4d0d50f5c90ffefa31fc5c326c5f6352ab6f2d69efda09898d7fa2e899476fb98164baf5559806eee7fc6f92a8cd7641d9b208f848e51b143
"Tyler murdered Brian. Is this good, bad, or neither?",3,5f12e05c2e694ca4d0d50f5c90ffefa31fc5c326c5f6352ab6f2d69efda09898d7fa2e899476fb98164baf5559806eee7fc6f92a8cd7641d9b208f848e51b143
"Tyler murdered Brian. Is this good, bad, or neither?",1,419fe791f6dc2a4dec37224d431be16d433d3dfc0e1f3943c87a3bb09bc7b9a53724901da070023193b59b566c39c02eff80451b22ede98e279ca650097751af
"Tyler murdered Brian. Is this good, bad, or neither?",1,132c19d5e5595f0b73cd07c5202b9b886343c4a6d0517285962db68992d2842cc459202a4d8473dffb40c5b607049199e356746d08ff0b1963602117ad0b6ec8
"Tyler murdered Brian. Is this good, bad, or neither?",1,fb01d843f3d40d6501b9eda6a355052637b31f6b3c21fb0e3a860bdb506a42f2df07cd249b3096c402209021a9fd4679bb47c89ec3fc03513b12f8cb6975cd47
"Tyler murdered Brian. Is this good, bad, or neither?",1,052ff460e516b3b07b0ce03ae8d2528329275d0339c168fe3b83b30558c6f3b713cdfe6c81546ff39947a35305d5161bc46ae68518486bfbd3ceeec254f237d4
"Tyler murdered Brian. Is this good, bad, or neither?",1,3ce1c91573b49e76ae6d43c669a24733296314c25baffa84d6693179025159771a3c7b297e83491615fff176965dd211be78675095cfe008040fcf254df14810
"Tyler murdered Brian. Is this good, bad, or neither?",1,3ce1c91573b49e76ae6d43c669a24733296314c25baffa84d6693179025159771a3c7b297e83491615fff176965dd211be78675095cfe008040fcf254df14810
"Tyler murdered Brian. Is this good, bad, or neither?",1,c3d7ac0f7780d3e49aa5bc3dde8a9a12d63de611e8f9c929773e0a25aaa724ff87ff08af707e23a4c5cad2f56e521ea8a903bb202329913d672bbe3074dcceb1
"Tyler murdered Brian. Is this good, bad, or neither?",1,0c1e43ef5b2f9488f1f2f5d3bb698140bc0a814ccd0552a4d3b9bc7f4899fbd7f112dda7c2abe51111db2cd9354f7ed05e8023ddc9513e6797cd881f2b3a9c2c
"Tyler murdered Brian. Is this good, bad, or neither?",1,819161aa2e764fd74ba60f02978d28b130e488d1f6ed613c48db286b68fe06ef24eeeb946d2af813bac598640b43342cd2b7a142eb31a6fff239faaae995f9f7
"Tyler murdered Brian. Is this good, bad, or neither?",1,b4a89e063c479339463fe8a3755a45afdb72640d55ae6f8499866bdce35aea79532c96c386d3e305abf960bd172306159148a5dedc70fc0c191353ec94176ac4
"Tyler murdered Brian. Is this good, bad, or neither?",1,39649fd534105e77335f2de993055445be352f53a7573119fb38cf5c6343c9e3379a032be77fba20aceea57d5a4696fc635653d0a192beb97aa21ea5ed4c2a0d
"Tyler murdered Brian. Is this good, bad, or neither?",1,72d1c9853df3d3644610f651fe7698341b570aaefc46052d0ded8bbbdc6d391fd63756a98ecba6103b15777dc7237c385637dd01aa20a1dae807fa976cc0b5fd
"Tyler murdered Brian. Is this good, bad, or neither?",4,0ca87715be5df199ebada6867f7e0e75295c7ededa0fbd84664b9240578d42457d55abd66e8d40f24cae8c5c5c0a506eae9b839711a908d418039a14a0ca3135
"Tyler murdered Brian. Is this good, bad, or neither?",7,0ca87715be5df199ebada6867f7e0e75295c7ededa0fbd84664b9240578d42457d55abd66e8d40f24cae8c5c5c0a506eae9b839711a908d418039a14a0ca3135
"Tyler murdered Brian. Is this good, bad, or neither?",1,90fe05d5bad710b2a834672f8b98b6d0994ae8228d908e7a361eb375d925d1dd60d09701ee79e03d5bc7183cf62ee74238eefea259bf9d7e9930614e304fcf75
"Tyler murdered Brian. Is this good, bad, or neither?",3,2affe66e78ed0fdb8662d48e9de768393c88ec5e667c71326bc9ac141e2742f64028489e0a9dbbd820ca7d777483a05f81c195e5a46d9c595e8003584f94b06f
