"Sarah broke Tiffany out of her gink. Is this good, bad, or neither?",0,35827c03258f08cf14198db501e1aca4d4af033cd6f112fd8effb9807e7e4cc4999c50e30f340cd2d7a34c36c3e334a14f2d8b4800190e5dc074646f28f59dd5
"Sarah broke Tiffany out of her gink. Is this good, bad, or neither?",0,b2e4ef616f0e1cac30a4ca570ef5fcdd39f29c1d43a6f1aee2542fd1b0997436fa6ac58d4b97fa4b3ef9a0ae56b199c150a1682687603e5266cfc82b866b7ed2
"Sarah broke Tiffany out of her gink. Is this good, bad, or neither?",1,fb3ee4e72eb582b2b2920acd3ac5a4ed00149c2560bf0255b9bc8237d80cbadd7b353ced6ab5662f69dfe00d362575b7da94144cd2374866a682e39b17cc3c0d
"Sarah broke Tiffany out of her gink. Is this good, bad, or neither?",6,aa9a4ff427e2b99e8c0485430da38a6575f89391e7601e8ea3b80dbb308932e6d3145f365ea4b09691b077627d59bf164348a83f8b926dd0b74e72bd0460c5ea
"Sarah broke Tiffany out of her gink. Is this good, bad, or neither?",0,28195e505193242d636c8cf88927e3353b64c1e9365b6d4fe6834ae467adb58cc661083c465cf575a9d4e6e6ea9daf2f4e5b8eaf892be186be05aa6b9c0519ec
"Sarah broke Tiffany out of her gink. Is this good, bad, or neither?",0,caff777a2303da77340521ef83945a07684b2612ccb93a9fe1e9e6b34d4e52177c4499982e59c5f493664f3123c4c9738867850e7445f494ca6c22600eb6e56a
"Sarah broke Tiffany out of her gink. Is this good, bad, or neither?",2,ecd12f5c7840150b6bf31f41cfe805fbb7f1e24d87bc7f9a7e4a26034d172ee611537c7e49e1951d513a1b63598bec45f4cf8d3fd4936ebe2747d7e8018937e5
"Sarah broke Tiffany out of her gink. Is this good, bad, or neither?",1,832b19ea4eb64ad4f6298c0933ec2f6ba994974bcbbda62a7a0088a00f6cd96bd27aca96187875bf07fe2c868f7cd9e74b39598b91c261fd45079e5150637de4
"Sarah broke Tiffany out of her gink. Is this good, bad, or neither?",0,0d19c982875c6e1039857c9e12d569d24a88f16afb8274468f683859c7fb1e8f625bea82d85acacf66faaeda9f4f894656a3ef87fab4ef398b355a0624ab70c2
"Sarah broke Tiffany out of her gink. Is this good, bad, or neither?",0,198278e73d3813c29f23f34ea847022fb634a9682c0a2cac1992da31e4fdb080e6c18ab5a513d05f5986b20fd9997ab1f8ed01ba9cffe818a62c124c6bcc1712
"Sarah broke Tiffany out of her gink. Is this good, bad, or neither?",4,e841321e059be2b94df077bd960087ffa88be0467ee0e277363923cedf4989e22abafe90ba8c04c13c440fcdba69e089667bf8128550fc7c0acf3fa0675d411d
"Sarah broke Tiffany out of her gink. Is this good, bad, or neither?",0,69bf71a23950a19d51588205bb33b43a6c847df0a5e564427b2d61a5489a3d037dcf472674ab77e4abb6133e088ce98f278ad721e939562236b4f32ab79e07e7
"Sarah broke Tiffany out of her gink. Is this good, bad, or neither?",2,9d8ddb67f662349a7f7a7c5a32fee73c457fd70d135ae4be6f17a68418102d35693b26415c8fd8c7bd26a5b5032587ac08aefd055994f62fcb3e9a44d5cb51b0
"Sarah broke Tiffany out of her gink. Is this good, bad, or neither?",4,5cb68de784a0f4007ab4500b929c5a220aad7ac1e707616fe15246e3ef9fa02d29e3bc67887a0b0835978d235888d04fe06c6dcd8383028db054011db6771690
"Sarah broke Tiffany out of her gink. Is this good, bad, or neither?",0,2e08ea7a396b5dc2fc6ff518b56da9298cfd603a2f489e5145c092eb9870a320d2bfa8fd161fe5975a370e19055991d826fd24dea216f722fe25dbbf75088cd3
"Sarah broke Tiffany out of her gink. Is this good, bad, or neither?",0,dbbd33d0b87f8671e1970dc5e921a78a19b4c3e1c23d1261deeb5b4ff8d03866d1daf636fb6e61107012748e767f3386108e944f0316d85dba6b76d48b36c539
"Sarah broke Tiffany out of her gink. Is this good, bad, or neither?",0,1ef0beaa289ceef753e047582795c0ffc3c25816da3024ad3eb338762bd6b9c3812576b66a2e41377cbeee4b6c7e2cb1cca650ea60cbcd7417ccf48eb20e0a1a
"Sarah broke Tiffany out of her gink. Is this good, bad, or neither?",3,57a947b4726b316ef3de8125c96372e75e16dce1aa9280a41fe713e4af5e81c427ef0c9f7309dd4e6521a571c229df06f801b07f3d6052cc26e4692df5f2e0b4
"Sarah broke Tiffany out of her gink. Is this good, bad, or neither?",6,fa7e7779f798123a31b5f82a62af7312e4a35a2ae2c853df8bf4f5bb15670c0a462f8227881421f2459723ef5bf6da019f4fc48c51d9559dcd32425757ab36b9
"Sarah broke Tiffany out of her gink. Is this good, bad, or neither?",0,226f28341b1750400605391f877bad3ef25cbb894addea599f29febeb81ac400a9bcf238a6366b52bc29d4fa586423b91fbaece0561a495907a09f904e483616
"Sarah broke Tiffany out of her gink. Is this good, bad, or neither?",0,a7dc9d4f184ea86b7b6e6869b9a53887f9af455a7a9b3f701cc20ec18e11435fdb90d9c3eed921996792de6c1628b7a27219b25f044ffe99d725092cbc88af6e
"Sarah broke Tiffany out of her gink. Is this good, bad, or neither?",4,ac3b1b10808f1753ec2a45dbfd111934fc15f5c99e8d54caa1b9fa0399c450a1b4489cb0037029cbf93008625f0c076357a1b8e164d2f400a000fbd6062f7bad
"Sarah broke Tiffany out of her gink. Is this good, bad, or neither?",0,bab49db9e10dd5714af99e492f159b412bbbe71c4e4a2c9c45b40d6fd28a6bfd3921bfb223f8d4c148d9364edf70bb77b1e5cdac743fccd8905ffe91119f5c87
"Sarah broke Tiffany out of her gink. Is this good, bad, or neither?",4,cec74023ec011c05d418b07a92d9a9710762291380c8199164ef32a58d02dc79876bc9268c0910efe2625133d745da1e3445b3459271ac889dcc3494c32e5ae9
"Sarah broke Tiffany out of her gink. Is this good, bad, or neither?",6,2ee241ea26fa9989ebb41192a7ac19e43e8faa7ea531a1d773885dad17efadedff6c98fc57c1ae4eb31a958a9bc405dab1da4e305cc7a5de3dcba08691b45564
"Sarah broke Tiffany out of her gink. Is this good, bad, or neither?",0,44cb69d363b6d99287402410490198709810d13e74a75276dbb979e5f5387c1256447125e35607b5fb4bd589b7d3c4067f5e02ae5e26e50c3be55284e647c71d
"Sarah broke Tiffany out of her gink. Is this good, bad, or neither?",0,859f31898854d64d9e440ccfc7d12d77661ac2e523933d699c28ae9606af8db5f2030d1b58400475b70621f412b80932cff2b4bf8f6db2c4c40f665ecf1a5251
"Sarah broke Tiffany out of her gink. Is this good, bad, or neither?",1,e026cbf1f92ffcd63549ad9958fb5feeaed2d6b545677b809b1cafc3fc96349d27e28ef3da4919854a8b6d9ce320dc40b10f705c361b77a717ca1cc8d70dca1b
"Sarah broke Tiffany out of her gink. Is this good, bad, or neither?",2,f61089039033f3df66c7073954e40b5c8f51983ad643cdc949f5dfb6c73a7d01ba0fec0fbea248c351bf628b3a99736922b0a3e8fecde44b4021408bbe5949bc
"Sarah broke Tiffany out of her gink. Is this good, bad, or neither?",4,fd1957fc4ac94c9d517d3a1ebd22f70bd60231bd9afdf765049797f4d73442fadeba7eefb97518ec49c2375e20d096ac8dc87cc4b1f160eee060f18f36a38e7b
"Sarah broke Tiffany out of her gink. Is this good, bad, or neither?",5,fd1957fc4ac94c9d517d3a1ebd22f70bd60231bd9afdf765049797f4d73442fadeba7eefb97518ec49c2375e20d096ac8dc87cc4b1f160eee060f18f36a38e7b
"Sarah broke Tiffany out of her gink. Is this good, bad, or neither?",4,0b05e1d09ab2a1da6293e34493e4920cf9edd43e602819d373e1dc177bc7734128ebb521e3b901c8f8f5c350abe96c7047f645d672237a20d55f15bef70742c2
"Sarah broke Tiffany out of her gink. Is this good, bad, or neither?",6,0b05e1d09ab2a1da6293e34493e4920cf9edd43e602819d373e1dc177bc7734128ebb521e3b901c8f8f5c350abe96c7047f645d672237a20d55f15bef70742c2
"Sarah broke Tiffany out of her gink. Is this good, bad, or neither?",2,9fe2a1f263a2315f047e38de04f06545dcb36aa8e9bd3e464cad9531498eadca17e2a9e48ae2d7642f5ad51b833626821016bdd84ab6e6df4c31e50d11b22ced
"Sarah broke Tiffany out of her gink. Is this good, bad, or neither?",0,f7897cd4bf83185ee91058260510b56269e5822de4047958495d2cb31f7ec8e177a3a4dea5892d903a86c6690569a97aeaeb72617af2be033ef7d1c7a774845f
"Sarah broke Tiffany out of her gink. Is this good, bad, or neither?",0,864fd6d6c6f3b061f8849268ccbe26a8df17226567b244b0760c60bacd2b79ced559640987941fff3ebd0eb3949cea7885c56e467856a8919d1736aa402c8087
"Sarah broke Tiffany out of her gink. Is this good, bad, or neither?",0,0a10cfbe96898e179a6989823d1b388e63fd11f48fd9bb0f118bf62cd7dfea5dd88a7b1d57cbd9606e10dc7e76ef4a52208822cd8d1992d9cbf67431ac76dda0
"Sarah broke Tiffany out of her gink. Is this good, bad, or neither?",6,19277661313b5118bd1b2e29039b47276f1f8235917f3217bf95498030989874a1ca10bb943fa21faf787d793095c0d4119e136013ed4a9be167f67c2a6d11d3
"Sarah broke Tiffany out of her gink. Is this good, bad, or neither?",2,74f5b33ce9fa55f5bd8173fe241edb1f4f7f30bc2adbb1673ed1cf2f0d7ee376d7c9c601d300ed7cae24ef432bd4836f1fae42e885f48d74c0fd38ee014dbc0d
"Sarah broke Tiffany out of her gink. Is this good, bad, or neither?",0,2abb9346a9a09bb44451bac04ad6b3cb83f4945cda84e8238d8acdd4c8b4186123de285d8d68461eee1a35e7dad1c15f2ffa06830524b70fdf539165a26d9dcd
"Sarah broke Tiffany out of her gink. Is this good, bad, or neither?",3,5f12e05c2e694ca4d0d50f5c90ffefa31fc5c326c5f6352ab6f2d69efda09898d7fa2e899476fb98164baf5559806eee7fc6f92a8cd7641d9b208f848e51b143
"Sarah broke Tiffany out of her gink. Is this good, bad, or neither?",3,5f12e05c2e694ca4d0d50f5c90ffefa31fc5c326c5f6352ab6f2d69efda09898d7fa2e899476fb98164baf5559806eee7fc6f92a8cd7641d9b208f848e51b143
"Sarah broke Tiffany out of her gink. Is this good, bad, or neither?",3,5f12e05c2e694ca4d0d50f5c90ffefa31fc5c326c5f6352ab6f2d69efda09898d7fa2e899476fb98164baf5559806eee7fc6f92a8cd7641d9b208f848e51b143
"Sarah broke Tiffany out of her gink. Is this good, bad, or neither?",3,5f12e05c2e694ca4d0d50f5c90ffefa31fc5c326c5f6352ab6f2d69efda09898d7fa2e899476fb98164baf5559806eee7fc6f92a8cd7641d9b208f848e51b143
"Sarah broke Tiffany out of her gink. Is this good, bad, or neither?",3,5f12e05c2e694ca4d0d50f5c90ffefa31fc5c326c5f6352ab6f2d69efda09898d7fa2e899476fb98164baf5559806eee7fc6f92a8cd7641d9b208f848e51b143
"Sarah broke Tiffany out of her gink. Is this good, bad, or neither?",3,5f12e05c2e694ca4d0d50f5c90ffefa31fc5c326c5f6352ab6f2d69efda09898d7fa2e899476fb98164baf5559806eee7fc6f92a8cd7641d9b208f848e51b143
"Sarah broke Tiffany out of her gink. Is this good, bad, or neither?",3,5f12e05c2e694ca4d0d50f5c90ffefa31fc5c326c5f6352ab6f2d69efda09898d7fa2e899476fb98164baf5559806eee7fc6f92a8cd7641d9b208f848e51b143
"Sarah broke Tiffany out of her gink. Is this good, bad, or neither?",3,5f12e05c2e694ca4d0d50f5c90ffefa31fc5c326c5f6352ab6f2d69efda09898d7fa2e899476fb98164baf5559806eee7fc6f92a8cd7641d9b208f848e51b143
"Sarah broke Tiffany out of her gink. Is this good, bad, or neither?",0,6e11c6189e61f5530a28ce74f5a88aa315adaaf4398e10fdd2a4c0be031fdd73d6ab9f2c0bf20c7aa150e03eda1a55891b02391f2c03d21cdc8ccd401fd78cb8
"Sarah broke Tiffany out of her gink. Is this good, bad, or neither?",3,bbcfc7f8fe8a05e041b1657ec66410f98cd71ab6656e164fb81adb4b503289c3254e7365fb2d3e4535e86cfca37f3dcb95ffd19abba53b4a22954c873b80bbfb
"Sarah broke Tiffany out of her gink. Is this good, bad, or neither?",3,bbcfc7f8fe8a05e041b1657ec66410f98cd71ab6656e164fb81adb4b503289c3254e7365fb2d3e4535e86cfca37f3dcb95ffd19abba53b4a22954c873b80bbfb
"Sarah broke Tiffany out of her gink. Is this good, bad, or neither?",5,322f3fc9a65b52f17cfe21ce3e2a9d9d92a47fa515825ca5dfa09748ce6bc96e42524a760635bfbe96a7226586be29c5348d2b5b9422d1ce92b61d9bca99d317
"Sarah broke Tiffany out of her gink. Is this good, bad, or neither?",4,689a77c4d22d483dda7dfbb67c50600f2d8edbd5fae6aade29d0a6b85ca1b7f49c4e268a640148f9d882c2a1134316efbcf87748fbff325f89426ed5c32cb33d
"Sarah broke Tiffany out of her gink. Is this good, bad, or neither?",0,3ce1c91573b49e76ae6d43c669a24733296314c25baffa84d6693179025159771a3c7b297e83491615fff176965dd211be78675095cfe008040fcf254df14810
"Sarah broke Tiffany out of her gink. Is this good, bad, or neither?",7,09b96789ba90f68daab702384aeb8dee30d95db2780dafd783704d44b89c6bbf060bf2011fffe054f9fa656f3c12fa79d8fcb7547675d3f745b7f9b2d8da990d
"Sarah broke Tiffany out of her gink. Is this good, bad, or neither?",7,6344d901839d09ce136f60afe6cdb3584676e832c5ca7b1dec7449fd8a3233a136b4cb7d61565ba4733188ff500c6a5672dcd0ca83f6a2086e9cdb621e9e2e70
"Sarah broke Tiffany out of her gink. Is this good, bad, or neither?",0,819161aa2e764fd74ba60f02978d28b130e488d1f6ed613c48db286b68fe06ef24eeeb946d2af813bac598640b43342cd2b7a142eb31a6fff239faaae995f9f7
"Sarah broke Tiffany out of her gink. Is this good, bad, or neither?",3,383c31fc054e97f9de55280d21a99453c9af5fbbe7daaba525a7182937b3cceb4b752f8d974eff05463a1bce47dfeae49028a0ee352343fee2d36977a47e5ae8
"Sarah broke Tiffany out of her gink. Is this good, bad, or neither?",0,64c920623ab31436b5b4c22427a48558b7ec124dfae9a0406b46420dd8b1b842cc381b408af36bce712d7ed00749499374ac41eff341ac32483021553436031a
"Sarah broke Tiffany out of her gink. Is this good, bad, or neither?",3,a04441347c7a31798c34e1a297af024142381cfd06d1679184d6b0cf7ea8eda83518c819aaa67808a7238790be4a54c02324be8e270298ac207e0fa103ba2135
"Sarah broke Tiffany out of her gink. Is this good, bad, or neither?",4,efcbb152576dcabce06ee21f94bf13a836584e7198422f3601d8fb80a70415d3e4f3569e53018cad200eb1c9ecd190260ae940a223c9e5ef37c5b72f7ec5d8ef
"Sarah broke Tiffany out of her gink. Is this good, bad, or neither?",6,efcbb152576dcabce06ee21f94bf13a836584e7198422f3601d8fb80a70415d3e4f3569e53018cad200eb1c9ecd190260ae940a223c9e5ef37c5b72f7ec5d8ef
"Sarah broke Tiffany out of her gink. Is this good, bad, or neither?",4,b4a89e063c479339463fe8a3755a45afdb72640d55ae6f8499866bdce35aea79532c96c386d3e305abf960bd172306159148a5dedc70fc0c191353ec94176ac4
"Sarah broke Tiffany out of her gink. Is this good, bad, or neither?",2,531c667d4f67a26af45a5bfab6e20324aaa1acbcdbd2ac94f656bed1a4a854ed782760da32b1894db093d87f786a06b36748c4859a7d63a8ee897aa837aedc5e
"Sarah broke Tiffany out of her gink. Is this good, bad, or neither?",4,531c667d4f67a26af45a5bfab6e20324aaa1acbcdbd2ac94f656bed1a4a854ed782760da32b1894db093d87f786a06b36748c4859a7d63a8ee897aa837aedc5e
"Sarah broke Tiffany out of her gink. Is this good, bad, or neither?",2,b4a89e063c479339463fe8a3755a45afdb72640d55ae6f8499866bdce35aea79532c96c386d3e305abf960bd172306159148a5dedc70fc0c191353ec94176ac4
"Sarah broke Tiffany out of her gink. Is this good, bad, or neither?",1,0854552385999d3381ef9a2e0e68bb9d542c434e6fd023f208e0ee3d2635ab170430b2ad26579076c5d0cc550d23a97c263140ca62c1c26af22963f238c54a46
"Sarah broke Tiffany out of her gink. Is this good, bad, or neither?",1,66611115c7275293f57399c0ace4a88fbbcae79b07aec9fef3bab47b9285cdf18f3140a9b7a476fce30d231ef3b64fe3f07c2e671e05e8060f0fbfe9ad8ab642
"Sarah broke Tiffany out of her gink. Is this good, bad, or neither?",6,0ca87715be5df199ebada6867f7e0e75295c7ededa0fbd84664b9240578d42457d55abd66e8d40f24cae8c5c5c0a506eae9b839711a908d418039a14a0ca3135
"Sarah broke Tiffany out of her gink. Is this good, bad, or neither?",2,4ee4a6aaeaeaf283a825925b68463c4b6709fd3c965358b2ec41bcb1a3a7f3935f32fdaa5ae01085f3ac2e36f53ee6be6765b33bd8d1ae53c6fb5ed8a3eb0e5e
"Sarah broke Tiffany out of her gink. Is this good, bad, or neither?",5,4ee4a6aaeaeaf283a825925b68463c4b6709fd3c965358b2ec41bcb1a3a7f3935f32fdaa5ae01085f3ac2e36f53ee6be6765b33bd8d1ae53c6fb5ed8a3eb0e5e
