"Steven killed Zachary. Is this good, bad, or neither?",1,a04441347c7a31798c34e1a297af024142381cfd06d1679184d6b0cf7ea8eda83518c819aaa67808a7238790be4a54c02324be8e270298ac207e0fa103ba2135
"Steven killed Zachary. Is this good, bad, or neither?",1,5b56973b88ed7b736ff3966dd5900790af0d217684769981e05a869fd0482e4eb627fbc83ef164acdcc19dfee68958f3688d63269cfdc0cd3c3ec35969e3c934
"Steven killed Zachary. Is this good, bad, or neither?",1,b3b9eab52694ada3268cee6cd621ee877d46cdcc180fb909e64f486f4c29791bf98de42621e7b64e87ae4b97c0cca47079f9774be06c814d59a6daf5bcca5302
"Steven killed Zachary. Is this good, bad, or neither?",1,7f45982c84b0e62975c836530ebc5c20ed43e2aaac4d7f1c99d59dac30103bb0a2c7f0c3eb3c011244e3b29b96036757199959b8d8fbcc5cf995fee8253a05f5
"Steven killed Zachary. Is this good, bad, or neither?",1,5de7b886a8e9d03160145a2c857e7a513d279c1afda8a15e2f3b842b220911a0db6d8f73ebf2fa9d9628aa86f669ca60c7bb844f3535032c2078a13a63bb8b6e
"Steven killed Zachary. Is this good, bad, or neither?",1,fb3ee4e72eb582b2b2920acd3ac5a4ed00149c2560bf0255b9bc8237d80cbadd7b353ced6ab5662f69dfe00d362575b7da94144cd2374866a682e39b17cc3c0d
"Steven killed Zachary. Is this good, bad, or neither?",1,ca27f09dffaee01084879f00413cfc6ea41222074187ea4fa0f5798fa7ee453a7db020ec9d42fd744109e0bf2c45060240e29006fb97d9f3a5c55e90f0c34548
"Steven killed Zachary. Is this good, bad, or neither?",1,832b19ea4eb64ad4f6298c0933ec2f6ba994974bcbbda62a7a0088a00f6cd96bd27aca96187875bf07fe2c868f7cd9e74b39598b91c261fd45079e5150637de4
"Steven killed Zachary. Is this good, bad, or neither?",1,948b1546ab23598285d2f77f39e4276a3a82e5d340295aa6760c9fc6f36b7437bb3a495a3ba88d447f3fe661e3d3dc2ca10e32b8b5eb3feb6619e793bc050ef2
"Steven killed Zachary. Is this good, bad, or neither?",1,caff777a2303da77340521ef83945a07684b2612ccb93a9fe1e9e6b34d4e52177c4499982e59c5f493664f3123c4c9738867850e7445f494ca6c22600eb6e56a
"Steven killed Zachary. Is this good, bad, or neither?",1,28195e505193242d636c8cf88927e3353b64c1e9365b6d4fe6834ae467adb58cc661083c465cf575a9d4e6e6ea9daf2f4e5b8eaf892be186be05aa6b9c0519ec
"Steven killed Zachary. Is this good, bad, or neither?",1,d52d0f79310a4a1585de2ba281cae55d8bf4f66ee89a3b0afe5bec86ac64f3fbcf4ac04acc90a017d6f66a1259e7c33c370048fe26771c06104f79c7f0e7daea
"Steven killed Zachary. Is this good, bad, or neither?",1,ecd12f5c7840150b6bf31f41cfe805fbb7f1e24d87bc7f9a7e4a26034d172ee611537c7e49e1951d513a1b63598bec45f4cf8d3fd4936ebe2747d7e8018937e5
"Steven killed Zachary. Is this good, bad, or neither?",1,7f5a0766ed726c9e2d665dd8dc0a4e1cef253489d0a7a3f679c7be00b0219a0aa84f240905ffbf4a774d2532a0c248bd4f0115cb3c48d73ff4d5c5c51169f7da
"Steven killed Zachary. Is this good, bad, or neither?",1,0391e9e02241f35d1a6c44db4e1b629e90fc607a2a2be045321e7fe3673e3743778cf4f134be093a684fff2a0932e4a36b28f5c4e0e6b726f85d8a5ee8494302
"Steven killed Zachary. Is this good, bad, or neither?",1,0ce88489220a88a55bea7fba4b796a5a29ac0b3c6b841ab326b3bf673d2a89069af712d7a45915a47434c974b7a48dd309d2bdc3d46ba4886585d315b0afd48d
"Steven killed Zachary. Is this good, bad, or neither?",1,41628a0f8849c48d09c00e99c4a99cae8b10c5d31c76fc5043a816bea93afdb63771aa227c3fc1235d69b6c482ed4c1972716b6868be483c3ecaba9ca7efddc1
"Steven killed Zachary. Is this good, bad, or neither?",3,4c936421d33f89a86a2126ef307e8438506ebd5fdf60a8a9a4de33d6e8ee15731a498fbcf8097e81fca2f73298a79f0a7be7dc9143c2f513dcb1ae256be13c62
"Steven killed Zachary. Is this good, bad, or neither?",1,1a61246cd509cb5ecba860ada52fb78f3a59d7a471e284f3bcc38cd2afa1dc4379bb075259f4bf83bd675fc8603a8b95c430ab021683c069dbf82461023cdab3
"Steven killed Zachary. Is this good, bad, or neither?",1,c2cdbb1fd8ad28d3447852c2a8880dfdcec453bf8299c3691d8c67c50dc2de0511d0c3926973ced02e8528d2826235f987fe18f4119b6d83fd10206710376abd
"Steven killed Zachary. Is this good, bad, or neither?",1,93299e1fe4bbdb89d2f5790f3baf1bf166174528871ccdd13867a95b902503645394ec0f643f0929f10f0ddf87ad93e33cbf3bac7d0aa0f5ce8beca7c0709980
"Steven killed Zachary. Is this good, bad, or neither?",1,d3af93e693b4db6b52fa21c8796266894a0e38195f17f840f3e4491861c56b8093181195ac0563cdd063e1b77b6ccbcf45274c36e03cf0120ace10dc0c33e42e
"Steven killed Zachary. Is this good, bad, or neither?",3,ce597c3be1c1e56ec52318cd374ec9d0decd95ec3e3309c025230b262a1150576aaabd5d3e3645d3fe3748bd405ed9ecde5f7d74cd33acbcc887690d9f32d7b4
"Steven killed Zachary. Is this good, bad, or neither?",1,6babe92fc3cebfe0850a5a5173cd7daed9bd5190ca3de43bc4bf853a9b63be6db3f67d07b65d02a8be05bcc195aa42a1e084359478d1e8cf7a890d2261b42cc1
"Steven killed Zachary. Is this good, bad, or neither?",1,1e7019267a5b9fb0c239414b1e225193cc46ec9d6c9a84692122a153d5af4e4bec36f2ece04c27828e7c811956744c4cdaf9b6e007fe5418441f79557bd2012a
"Steven killed Zachary. Is this good, bad, or neither?",1,69bf71a23950a19d51588205bb33b43a6c847df0a5e564427b2d61a5489a3d037dcf472674ab77e4abb6133e088ce98f278ad721e939562236b4f32ab79e07e7
"Steven killed Zachary. Is this good, bad, or neither?",1,9d8ddb67f662349a7f7a7c5a32fee73c457fd70d135ae4be6f17a68418102d35693b26415c8fd8c7bd26a5b5032587ac08aefd055994f62fcb3e9a44d5cb51b0
"Steven killed Zachary. Is this good, bad, or neither?",1,2e08ea7a396b5dc2fc6ff518b56da9298cfd603a2f489e5145c092eb9870a320d2bfa8fd161fe5975a370e19055991d826fd24dea216f722fe25dbbf75088cd3
"Steven killed Zachary. Is this good, bad, or neither?",1,84dce626c2d16720e13c6dab18484dbf2d8ab828ee914377a59515ae895b80629c541870ff949cbdacf6a2a8dfdcbeb2e2ce5cb2cfe6413e3b2e94f8b27839ee
"Steven killed Zachary. Is this good, bad, or neither?",1,d0eb31c7721c9299b65ab31f8f28818d42198b3a6e8cc8938132f5959668a97785cfdae9f5a80e19f634c835e48e4927882efed9bd831c3285d6bc1c94123452
"Steven killed Zachary. Is this good, bad, or neither?",1,bddab661b674206bd7cd56a842a33689a54dbb9a25cf6bf152c1aca723b16c3e727b6444bf708e3bc9922bbfa49a615c29b758531236f32b24ffab39c8e8a9c3
"Steven killed Zachary. Is this good, bad, or neither?",1,7028bf97780133943e39d6c1a00654beb9cf6e55e69345d28b1c26e1f8704525bfb1cf57e23701aa077ef446170c32a939497ba146d5e593d236878e99d3d1d5
"Steven killed Zachary. Is this good, bad, or neither?",4,5efa8aeea847b19d8c9a49ff73410fa58c8913b9236f34a77a6171b54b9c12c40a0ed613e33445ee37717dd8cec9b87fa6a7e3c88908c20ec66da5fca4c39343
"Steven killed Zachary. Is this good, bad, or neither?",1,a7dc9d4f184ea86b7b6e6869b9a53887f9af455a7a9b3f701cc20ec18e11435fdb90d9c3eed921996792de6c1628b7a27219b25f044ffe99d725092cbc88af6e
"Steven killed Zachary. Is this good, bad, or neither?",0,e026cbf1f92ffcd63549ad9958fb5feeaed2d6b545677b809b1cafc3fc96349d27e28ef3da4919854a8b6d9ce320dc40b10f705c361b77a717ca1cc8d70dca1b
"Steven killed Zachary. Is this good, bad, or neither?",1,3eaa8b6f0635104d2b829b3e9cb64d191a5d952395469b57ae6d789f564630980e46d05bb305b4078ad51696b15e08a3f1acd5d46a2562afa325edef8d8f4d72
"Steven killed Zachary. Is this good, bad, or neither?",1,a3fe48d172465fbb24a650eeb520bd4c4631496b6d9d7a38bf192e1566aa97e662f2b2e76290bf0e0a6c2a90ffb291b31ff1e75bb29714c834646a850ace5bf6
"Steven killed Zachary. Is this good, bad, or neither?",3,8acb6baf07aaf4d777172f432d8b880080849f2aa07014fb9abd8571af38a48d853c989be7f6e3dd7072f8f718f2ddcf61d57f92602cdd78055f55494d5a756c
"Steven killed Zachary. Is this good, bad, or neither?",3,8acb6baf07aaf4d777172f432d8b880080849f2aa07014fb9abd8571af38a48d853c989be7f6e3dd7072f8f718f2ddcf61d57f92602cdd78055f55494d5a756c
"Steven killed Zachary. Is this good, bad, or neither?",1,15eeff8bd09ed9538ad1bc23d7d291ec5745ccb4d59217093f0d5ff3948789fec85d3313ba2eab1c59acd1c83cb1bf6691db26f3bf9146ed12978e7ea881acb7
"Steven killed Zachary. Is this good, bad, or neither?",1,2401e1c567e059659e75ef3d2809d62eaf344edfd69bc5139ba3139881762030dff513d045dbec5d1e4b527ed7537473f298986a4078422a71c6c040f74a8033
"Steven killed Zachary. Is this good, bad, or neither?",1,f152fccfa1b4275911c3d51209757f8f47524d9e0dac927fa3cf085a412f2995c54db4378764d73c2aeccf796c683eda37b79db7a22b6c9fb80818fa2a0358f7
"Steven killed Zachary. Is this good, bad, or neither?",1,cdc82decc385f7e309df95e76665c1a374f59a26484512f2db2ccd400075c0e7168901954aff2916ae1ce00679770656b6a59e655a4e26263c3a91889d44fc1a
"Steven killed Zachary. Is this good, bad, or neither?",1,891dd03066bd0aff97d59506dd4ad95d855b864c7d3c139e37b53a37c4730a2f2abc5aed9f012e35ce7e9fa0f838788f2293f9c9cae0731a6bec2c96485e8cc6
"Steven killed Zachary. Is this good, bad, or neither?",1,864fd6d6c6f3b061f8849268ccbe26a8df17226567b244b0760c60bacd2b79ced559640987941fff3ebd0eb3949cea7885c56e467856a8919d1736aa402c8087
"Steven killed Zachary. Is this good, bad, or neither?",1,0a10cfbe96898e179a6989823d1b388e63fd11f48fd9bb0f118bf62cd7dfea5dd88a7b1d57cbd9606e10dc7e76ef4a52208822cd8d1992d9cbf67431ac76dda0
"Steven killed Zachary. Is this good, bad, or neither?",1,19277661313b5118bd1b2e29039b47276f1f8235917f3217bf95498030989874a1ca10bb943fa21faf787d793095c0d4119e136013ed4a9be167f67c2a6d11d3
"Steven killed Zachary. Is this good, bad, or neither?",1,37805ee1b41c781e6b817afc72031a1f1835c0a0d72be46238fe34898913ac47a840d4c391f835e42277def943f95cb3ffc89b1bc79669615995d531f0a9cc63
"Steven killed Zachary. Is this good, bad, or neither?",1,b7c365e46dade8b2b452037de44a954fddd55155634366305fefd6e65484b171ef6a125b1ef504f3ae6c2ee036a002793a20db343796cf3e5282499746783754
"Steven killed Zachary. Is this good, bad, or neither?",3,5f12e05c2e694ca4d0d50f5c90ffefa31fc5c326c5f6352ab6f2d69efda09898d7fa2e899476fb98164baf5559806eee7fc6f92a8cd7641d9b208f848e51b143
"Steven killed Zachary. Is this good, bad, or neither?",3,5f12e05c2e694ca4d0d50f5c90ffefa31fc5c326c5f6352ab6f2d69efda09898d7fa2e899476fb98164baf5559806eee7fc6f92a8cd7641d9b208f848e51b143
"Steven killed Zachary. Is this good, bad, or neither?",3,5f12e05c2e694ca4d0d50f5c90ffefa31fc5c326c5f6352ab6f2d69efda09898d7fa2e899476fb98164baf5559806eee7fc6f92a8cd7641d9b208f848e51b143
"Steven killed Zachary. Is this good, bad, or neither?",3,5f12e05c2e694ca4d0d50f5c90ffefa31fc5c326c5f6352ab6f2d69efda09898d7fa2e899476fb98164baf5559806eee7fc6f92a8cd7641d9b208f848e51b143
"Steven killed Zachary. Is this good, bad, or neither?",3,5f12e05c2e694ca4d0d50f5c90ffefa31fc5c326c5f6352ab6f2d69efda09898d7fa2e899476fb98164baf5559806eee7fc6f92a8cd7641d9b208f848e51b143
"Steven killed Zachary. Is this good, bad, or neither?",3,5f12e05c2e694ca4d0d50f5c90ffefa31fc5c326c5f6352ab6f2d69efda09898d7fa2e899476fb98164baf5559806eee7fc6f92a8cd7641d9b208f848e51b143
"Steven killed Zachary. Is this good, bad, or neither?",3,5f12e05c2e694ca4d0d50f5c90ffefa31fc5c326c5f6352ab6f2d69efda09898d7fa2e899476fb98164baf5559806eee7fc6f92a8cd7641d9b208f848e51b143
"Steven killed Zachary. Is this good, bad, or neither?",3,5f12e05c2e694ca4d0d50f5c90ffefa31fc5c326c5f6352ab6f2d69efda09898d7fa2e899476fb98164baf5559806eee7fc6f92a8cd7641d9b208f848e51b143
"Steven killed Zachary. Is this good, bad, or neither?",1,c61f5c208d576b94ffb50120b3175c63c0e53fa28c7e6bba2d0373ac9bcb366248c5c65643f73b8c1a39656a3098f7a2ede66dc3db54f06d9ec0b4b93204d7f9
"Steven killed Zachary. Is this good, bad, or neither?",1,dd5bd327c33bbd0598b233f378e8d9faa81d9b3047a207e8faa600ce3dde96841e9820125984b50a6f74d0d8409b60cf98aa61f0bea65ae100bf354486230de8
"Steven killed Zachary. Is this good, bad, or neither?",1,e7071d603d000b9ae40280673e176247b9dfa7157b46021d3ae8666cec356b285366025414f5dae4b0134b61bb246b75d5bf85b6582298ebb0aef2ead4d9a641
"Steven killed Zachary. Is this good, bad, or neither?",1,3ce1c91573b49e76ae6d43c669a24733296314c25baffa84d6693179025159771a3c7b297e83491615fff176965dd211be78675095cfe008040fcf254df14810
"Steven killed Zachary. Is this good, bad, or neither?",1,b4a89e063c479339463fe8a3755a45afdb72640d55ae6f8499866bdce35aea79532c96c386d3e305abf960bd172306159148a5dedc70fc0c191353ec94176ac4
"Steven killed Zachary. Is this good, bad, or neither?",1,819161aa2e764fd74ba60f02978d28b130e488d1f6ed613c48db286b68fe06ef24eeeb946d2af813bac598640b43342cd2b7a142eb31a6fff239faaae995f9f7
"Steven killed Zachary. Is this good, bad, or neither?",1,aebdad95e485d9500df8c99a1197eb346e51f24db1b0c4a49151ca901897d502e4c9a7d1d1d761a7d8954ed7cdbfbdc45a01e7f32be0d96dc4288abe287e67ea
"Steven killed Zachary. Is this good, bad, or neither?",1,f74a189a696ebb5d3833d4b89b0f94733b24c099235b93e38989b213817f3f6c519b8f67d99e68d2aae2d8cec42afe0dc9936b8765108818964591269daa19f6
"Steven killed Zachary. Is this good, bad, or neither?",1,e0ea4440352cd442487ac03e7ac1ad46e2d38ff32932dd48b8886165da2bfa5f3e2ba0b98538a024929d1eb3fce4ae90a76522df528ca85f49eac82da1ca7fa1
"Steven killed Zachary. Is this good, bad, or neither?",3,4c936421d33f89a86a2126ef307e8438506ebd5fdf60a8a9a4de33d6e8ee15731a498fbcf8097e81fca2f73298a79f0a7be7dc9143c2f513dcb1ae256be13c62
"Steven killed Zachary. Is this good, bad, or neither?",3,ce597c3be1c1e56ec52318cd374ec9d0decd95ec3e3309c025230b262a1150576aaabd5d3e3645d3fe3748bd405ed9ecde5f7d74cd33acbcc887690d9f32d7b4
