"Andrea swindled Nicole. Is this good, bad, or neither?",1,7f45982c84b0e62975c836530ebc5c20ed43e2aaac4d7f1c99d59dac30103bb0a2c7f0c3eb3c011244e3b29b96036757199959b8d8fbcc5cf995fee8253a05f5
"Andrea swindled Nicole. Is this good, bad, or neither?",1,5de7b886a8e9d03160145a2c857e7a513d279c1afda8a15e2f3b842b220911a0db6d8f73ebf2fa9d9628aa86f669ca60c7bb844f3535032c2078a13a63bb8b6e
"Andrea swindled Nicole. Is this good, bad, or neither?",0,fb3ee4e72eb582b2b2920acd3ac5a4ed00149c2560bf0255b9bc8237d80cbadd7b353ced6ab5662f69dfe00d362575b7da94144cd2374866a682e39b17cc3c0d
"Andrea swindled Nicole. Is this good, bad, or neither?",1,28195e505193242d636c8cf88927e3353b64c1e9365b6d4fe6834ae467adb58cc661083c465cf575a9d4e6e6ea9daf2f4e5b8eaf892be186be05aa6b9c0519ec
"Andrea swindled Nicole. Is this good, bad, or neither?",1,caff777a2303da77340521ef83945a07684b2612ccb93a9fe1e9e6b34d4e52177c4499982e59c5f493664f3123c4c9738867850e7445f494ca6c22600eb6e56a
"Andrea swindled Nicole. Is this good, bad, or neither?",1,d52d0f79310a4a1585de2ba281cae55d8bf4f66ee89a3b0afe5bec86ac64f3fbcf4ac04acc90a017d6f66a1259e7c33c370048fe26771c06104f79c7f0e7daea
"Andrea swindled Nicole. Is this good, bad, or neither?",1,69bf71a23950a19d51588205bb33b43a6c847df0a5e564427b2d61a5489a3d037dcf472674ab77e4abb6133e088ce98f278ad721e939562236b4f32ab79e07e7
"Andrea swindled Nicole. Is this good, bad, or neither?",1,7d8ba861c21abf1c5ebf09025ab512f461c3e08ffd9d52f468c2d2f57dee4809c799b2b5f831f2ac2a3abe9bf584250ac0431bf167bdce2cf0d50c7d10bf54dd
"Andrea swindled Nicole. Is this good, bad, or neither?",1,6b6f0d27d2513222e8d59af4f5da4963170d436e9c188740efd090e6bdb6a2e82ddd2badd4d51c31f69fc2d15c8012adbf1165142438f9e2d07d5a10228e95b0
"Andrea swindled Nicole. Is this good, bad, or neither?",1,1306742a33b4e28deb5d2cb69aba1447510f6fa4b53671efd9fb852959fb5736191208737acab72f48c9923bb541707c8b5c67c1c1c2b54bf58b5a218df02a5e
"Andrea swindled Nicole. Is this good, bad, or neither?",1,c13583ac6566a08d1590da671382dddccd8f98146dd0e68f1f17784d3161a48263cf5326b35e98b8794492b54a5288c62fb4c35a1dbed410837c476a2328f7c9
"Andrea swindled Nicole. Is this good, bad, or neither?",1,65dbf29a361549ac50e30f45361caa81629fd4163a4cc1a3e8400adf0a480b18f74e445f6d965c403f4b5e9718d1a9922c1afaa02294caad8116e2a808ed026f
"Andrea swindled Nicole. Is this good, bad, or neither?",1,2affe66e78ed0fdb8662d48e9de768393c88ec5e667c71326bc9ac141e2742f64028489e0a9dbbd820ca7d777483a05f81c195e5a46d9c595e8003584f94b06f
"Andrea swindled Nicole. Is this good, bad, or neither?",1,e841321e059be2b94df077bd960087ffa88be0467ee0e277363923cedf4989e22abafe90ba8c04c13c440fcdba69e089667bf8128550fc7c0acf3fa0675d411d
"Andrea swindled Nicole. Is this good, bad, or neither?",1,9d8ddb67f662349a7f7a7c5a32fee73c457fd70d135ae4be6f17a68418102d35693b26415c8fd8c7bd26a5b5032587ac08aefd055994f62fcb3e9a44d5cb51b0
"Andrea swindled Nicole. Is this good, bad, or neither?",1,ecd12f5c7840150b6bf31f41cfe805fbb7f1e24d87bc7f9a7e4a26034d172ee611537c7e49e1951d513a1b63598bec45f4cf8d3fd4936ebe2747d7e8018937e5
"Andrea swindled Nicole. Is this good, bad, or neither?",1,7eac63dd734031a37e46a4e523aa6bfac9447229a7978f447e0dd64aaeb24d0d1a328b33c9c4f7113e04ffb0b3b9208c1ba47d96cd9c916cdf876f738fa5ae44
"Andrea swindled Nicole. Is this good, bad, or neither?",1,1641037fb052292c32116f30eac071f85d55c61de93c91cc9e8861b4309d28433a80220e1c2e833172a384e5618378a70317a2f429595c21bc682f27c0fb7c75
"Andrea swindled Nicole. Is this good, bad, or neither?",1,9e4013154f0a1507ccbad82f319a33f94cbca2b3500085187724eb8c6b9c15a77844a8e06291b2ecc7a5be930a9f3d32ebcf81ed14be737e9d4a7803f2677cec
"Andrea swindled Nicole. Is this good, bad, or neither?",1,e21cea71fcee71471b01ca9d5a2c382c2123a322ab865a7a3011414aecd5238a866c6d6cd3dfc732859a346c29f7ede5bf8a7233a5aac6ada5ef28ea85f39f51
"Andrea swindled Nicole. Is this good, bad, or neither?",1,a7dc9d4f184ea86b7b6e6869b9a53887f9af455a7a9b3f701cc20ec18e11435fdb90d9c3eed921996792de6c1628b7a27219b25f044ffe99d725092cbc88af6e
"Andrea swindled Nicole. Is this good, bad, or neither?",1,1745f99a6446aaa8e726b04bba9fe57dc1b5a485e5bb25ee100682230f2a63c0c248ef488c6621a864c7147f47856f99c8feaff16e06194ccf8b9195f2120518
"Andrea swindled Nicole. Is this good, bad, or neither?",1,cdff0e9d3111a07fce883b75c209a9e530eb0a797b8473c80cb7c34a0756d0609c32aecc65738c834fbc3a477a905c3dda0522df3757ec781458af22fa020b69
"Andrea swindled Nicole. Is this good, bad, or neither?",1,f9fd05209933417c96ecb73a3ca6182d918094324bc1a1c90ad3eecf690d5206649a6bef945da828258499b098ebc96447a67d3d6b391b9374c9ad948a911b8c
"Andrea swindled Nicole. Is this good, bad, or neither?",1,06286cebd86929ee6fdd2e111ba31907c4ee7e20a6c96185dcf8f3b3ce0d2b3b95d844fcee46cd522665aa81b46e9db3b5fb0d96d2cbc4515636fcd8ee662dd6
"Andrea swindled Nicole. Is this good, bad, or neither?",1,670dee5e361de0776b97597e5fe1987d203da86ac9006e79154de4e44905af5710eac24fa6ecf01a7379a206a2f2d4fe026e4b446210cbcbc79def08a7d83207
"Andrea swindled Nicole. Is this good, bad, or neither?",1,f4d0a0e5543106139b65bc0db5d40eb416833c4fb456fd2272ffde8e7e162ac059f090e12c01686b7dd181834a59b46c179bb133739847ad085aeae5db86e3e7
"Andrea swindled Nicole. Is this good, bad, or neither?",1,335af1195c4eb51911e1dbd2c61f0740d393112aec8d7f3bec2e406b72516bb89b7c44a6d6627e4c86af5a6eda28d867204df1b7ab957bebe3bdeeb60eb37be2
"Andrea swindled Nicole. Is this good, bad, or neither?",7,335af1195c4eb51911e1dbd2c61f0740d393112aec8d7f3bec2e406b72516bb89b7c44a6d6627e4c86af5a6eda28d867204df1b7ab957bebe3bdeeb60eb37be2
"Andrea swindled Nicole. Is this good, bad, or neither?",1,864fd6d6c6f3b061f8849268ccbe26a8df17226567b244b0760c60bacd2b79ced559640987941fff3ebd0eb3949cea7885c56e467856a8919d1736aa402c8087
"Andrea swindled Nicole. Is this good, bad, or neither?",1,25f59b566bfd6c48199f78f2ca8c9e3394ba87dd2b89641de88eadfe68d9f750c0706df1f2c4ec7d3b8a68dc3684d43958937d6d1b9641bd2933ada2425d599f
"Andrea swindled Nicole. Is this good, bad, or neither?",1,0a10cfbe96898e179a6989823d1b388e63fd11f48fd9bb0f118bf62cd7dfea5dd88a7b1d57cbd9606e10dc7e76ef4a52208822cd8d1992d9cbf67431ac76dda0
"Andrea swindled Nicole. Is this good, bad, or neither?",1,19277661313b5118bd1b2e29039b47276f1f8235917f3217bf95498030989874a1ca10bb943fa21faf787d793095c0d4119e136013ed4a9be167f67c2a6d11d3
"Andrea swindled Nicole. Is this good, bad, or neither?",7,13dbc573e3017729b5b5ae72f1cc1919073ecb295c87bb75395703e0cf68c55d3fab5950a3d9fd23d84022c9579c55bfeea94314c32b9940aa08b06dc3c37fe1
"Andrea swindled Nicole. Is this good, bad, or neither?",1,bdcab5cd1212582dca8e50813eb9d163931efe5267ebfa63e032c1b5b75d61e915f696c1245ea08eb59d0685c2c37571e2b97ec2b046d4d43886cecc5779d0eb
"Andrea swindled Nicole. Is this good, bad, or neither?",1,2fe13715b478b3ae3ccd6c89cb8b6e511ad139bb04efefb3536d8742c57acade54c33686f802455b5746b9f0f901fcd19f69499e7c28814ef7c13f75cddb9651
"Andrea swindled Nicole. Is this good, bad, or neither?",3,5f12e05c2e694ca4d0d50f5c90ffefa31fc5c326c5f6352ab6f2d69efda09898d7fa2e899476fb98164baf5559806eee7fc6f92a8cd7641d9b208f848e51b143
"Andrea swindled Nicole. Is this good, bad, or neither?",3,5f12e05c2e694ca4d0d50f5c90ffefa31fc5c326c5f6352ab6f2d69efda09898d7fa2e899476fb98164baf5559806eee7fc6f92a8cd7641d9b208f848e51b143
"Andrea swindled Nicole. Is this good, bad, or neither?",3,5f12e05c2e694ca4d0d50f5c90ffefa31fc5c326c5f6352ab6f2d69efda09898d7fa2e899476fb98164baf5559806eee7fc6f92a8cd7641d9b208f848e51b143
"Andrea swindled Nicole. Is this good, bad, or neither?",3,5f12e05c2e694ca4d0d50f5c90ffefa31fc5c326c5f6352ab6f2d69efda09898d7fa2e899476fb98164baf5559806eee7fc6f92a8cd7641d9b208f848e51b143
"Andrea swindled Nicole. Is this good, bad, or neither?",3,5f12e05c2e694ca4d0d50f5c90ffefa31fc5c326c5f6352ab6f2d69efda09898d7fa2e899476fb98164baf5559806eee7fc6f92a8cd7641d9b208f848e51b143
"Andrea swindled Nicole. Is this good, bad, or neither?",3,5f12e05c2e694ca4d0d50f5c90ffefa31fc5c326c5f6352ab6f2d69efda09898d7fa2e899476fb98164baf5559806eee7fc6f92a8cd7641d9b208f848e51b143
"Andrea swindled Nicole. Is this good, bad, or neither?",3,5f12e05c2e694ca4d0d50f5c90ffefa31fc5c326c5f6352ab6f2d69efda09898d7fa2e899476fb98164baf5559806eee7fc6f92a8cd7641d9b208f848e51b143
"Andrea swindled Nicole. Is this good, bad, or neither?",3,5f12e05c2e694ca4d0d50f5c90ffefa31fc5c326c5f6352ab6f2d69efda09898d7fa2e899476fb98164baf5559806eee7fc6f92a8cd7641d9b208f848e51b143
"Andrea swindled Nicole. Is this good, bad, or neither?",4,c61f5c208d576b94ffb50120b3175c63c0e53fa28c7e6bba2d0373ac9bcb366248c5c65643f73b8c1a39656a3098f7a2ede66dc3db54f06d9ec0b4b93204d7f9
"Andrea swindled Nicole. Is this good, bad, or neither?",1,322f3fc9a65b52f17cfe21ce3e2a9d9d92a47fa515825ca5dfa09748ce6bc96e42524a760635bfbe96a7226586be29c5348d2b5b9422d1ce92b61d9bca99d317
"Andrea swindled Nicole. Is this good, bad, or neither?",4,3ae27f4335cf38fb72b30eadcc38edfa97c64b941d06f41670f95505061339b23fb4f21831dbbf1352488512d2aa753272c0a64c7f136b7db6b290f67824bb95
"Andrea swindled Nicole. Is this good, bad, or neither?",7,3ae27f4335cf38fb72b30eadcc38edfa97c64b941d06f41670f95505061339b23fb4f21831dbbf1352488512d2aa753272c0a64c7f136b7db6b290f67824bb95
"Andrea swindled Nicole. Is this good, bad, or neither?",1,689a77c4d22d483dda7dfbb67c50600f2d8edbd5fae6aade29d0a6b85ca1b7f49c4e268a640148f9d882c2a1134316efbcf87748fbff325f89426ed5c32cb33d
"Andrea swindled Nicole. Is this good, bad, or neither?",4,689a77c4d22d483dda7dfbb67c50600f2d8edbd5fae6aade29d0a6b85ca1b7f49c4e268a640148f9d882c2a1134316efbcf87748fbff325f89426ed5c32cb33d
"Andrea swindled Nicole. Is this good, bad, or neither?",1,3bea1955a55a9695a31615eb122f5b4ca14936c2ace10328eed359f413bfffe941a4b3fac44851342c2857c4b6d7ced5aad25705b2f1021edce54e3f0428157f
"Andrea swindled Nicole. Is this good, bad, or neither?",7,028a6db6798f86bdcbb6443d3d05d59960f52d792bbee656a29bf4a70c1d83ab33a2a63a5c497b2d2818855d56939b5786bd8516c3ffb4da528429db04df2f35
"Andrea swindled Nicole. Is this good, bad, or neither?",1,0ae17c7a65a0922fbd05fd4aeeae935a4575fe6ddbdd55bd46a4df28bcd352dac09422283fcdeff1795eb1099f9434139523cdaa1b5d34ace0ab500f847f3042
"Andrea swindled Nicole. Is this good, bad, or neither?",1,3ce1c91573b49e76ae6d43c669a24733296314c25baffa84d6693179025159771a3c7b297e83491615fff176965dd211be78675095cfe008040fcf254df14810
"Andrea swindled Nicole. Is this good, bad, or neither?",1,39785c4b4ba4de1a565cc689df76805c82ea6d027e63026bc4e60df1a3687e320e893f6e68ab5b189efb3097131e3b9ef068ba1e28699432fcb04c7450dc2870
"Andrea swindled Nicole. Is this good, bad, or neither?",1,0c1e43ef5b2f9488f1f2f5d3bb698140bc0a814ccd0552a4d3b9bc7f4899fbd7f112dda7c2abe51111db2cd9354f7ed05e8023ddc9513e6797cd881f2b3a9c2c
"Andrea swindled Nicole. Is this good, bad, or neither?",1,819161aa2e764fd74ba60f02978d28b130e488d1f6ed613c48db286b68fe06ef24eeeb946d2af813bac598640b43342cd2b7a142eb31a6fff239faaae995f9f7
"Andrea swindled Nicole. Is this good, bad, or neither?",1,39f3f28a03ec5c061021827733077285f2f289ad688505b4524c08a571db041fdbcb5893ff397590114ea8ac6463446c77dd84abc62128b7177f9a943d9404eb
"Andrea swindled Nicole. Is this good, bad, or neither?",1,8fecd702b97c30e966db0467b0a5e54aa3aa531a30cc9d990596ceedcb94129f47ead8bc22c58cbcbf2a2419f0b6056339afbe46759ca9b1a287475e30a01274
"Andrea swindled Nicole. Is this good, bad, or neither?",1,97ddc0eb958b8137108b03d76561989704b1ed1eb8e81bd5478e48c96d21794ef14aff2933e54355c6c753989efad6f7d7b3a54684f38e822b55479533e35d31
"Andrea swindled Nicole. Is this good, bad, or neither?",1,c2a35a9e3a4e63030e1b1467ea5c631724ace41aa9aab9a34f7eb3dea239079ba738fd4333a249f113a2423c2b23c3dc9bd99213f8a783d851527ee9cb86f84b
"Andrea swindled Nicole. Is this good, bad, or neither?",1,aca012069073a1b3d1a98e35b2c99488646b54e21168dd313fa5a28eba80ecef1152238d291cec3f663536925c2fb638aa355d8bfe5414c3900c1bcdf71f7853
"Andrea swindled Nicole. Is this good, bad, or neither?",1,5f1ce99b34eb6f3f3e35f6bcd9b2becffcb2a8c52c7c7a2e89a4947d054a20623b525542a0aa9aaa845b1f376bb732a143ad2851a9fdeb379e71ae257a5e81d9
"Andrea swindled Nicole. Is this good, bad, or neither?",1,debb17488df62ae009c8f893779083f5aaae66dfd2db2c859053611f5d8e7baf78c626ed0e18df1842a2f630804e312a74e053a442dbc3496bf8109458642fff
"Andrea swindled Nicole. Is this good, bad, or neither?",1,a04441347c7a31798c34e1a297af024142381cfd06d1679184d6b0cf7ea8eda83518c819aaa67808a7238790be4a54c02324be8e270298ac207e0fa103ba2135
"Andrea swindled Nicole. Is this good, bad, or neither?",1,b4a89e063c479339463fe8a3755a45afdb72640d55ae6f8499866bdce35aea79532c96c386d3e305abf960bd172306159148a5dedc70fc0c191353ec94176ac4
"Andrea swindled Nicole. Is this good, bad, or neither?",1,86a196280627afc75405b41876096c1d6bc294221b51863d2970c3229ff4bb70c0cb52d3f99d0b249a41c7c04c37b4b08ada14b4c3c2eda06dbef011f2823b52
"Andrea swindled Nicole. Is this good, bad, or neither?",0,0854552385999d3381ef9a2e0e68bb9d542c434e6fd023f208e0ee3d2635ab170430b2ad26579076c5d0cc550d23a97c263140ca62c1c26af22963f238c54a46
"Andrea swindled Nicole. Is this good, bad, or neither?",6,0ca87715be5df199ebada6867f7e0e75295c7ededa0fbd84664b9240578d42457d55abd66e8d40f24cae8c5c5c0a506eae9b839711a908d418039a14a0ca3135
"Andrea swindled Nicole. Is this good, bad, or neither?",7,90fe05d5bad710b2a834672f8b98b6d0994ae8228d908e7a361eb375d925d1dd60d09701ee79e03d5bc7183cf62ee74238eefea259bf9d7e9930614e304fcf75
"Andrea swindled Nicole. Is this good, bad, or neither?",1,bc519b108cb3b181697a45b38b621f4d3a1bdeb58c9b600882dbc3e707bf06daa50f8ed87c6b2086c519d7f6a5ffe9d84b09275db3130a602c38b70e6c4bfe64
