"The verp moved Lisa. Is this good, bad, or neither?",2,ddaaf85b6ad92e5bd899125be0ee1d1e475cef85f10f7c86eb80b3e666aa2d27b9930efbf239779906809e3b49e9c42c65a28830cce2f7034e42c039095ac370
"The verp moved Lisa. Is this good, bad, or neither?",3,5d818587500e31ddd24f674f0d96e8036b1fbbdeff8f12716de7cf436031070adc160ac58c2058f70b7756b9758d4cc6c60cd86cb5fbac5b08e94434f347d5fc
"The verp moved Lisa. Is this good, bad, or neither?",3,720bea532db6ed90a7bd855c056e2ccc32b0f2fe90eb490aa4d644afcc89620fb5f7c3bf4971d931a8aef22130fb8976bd9e83f534038e3c4e8421311520cb5d
"The verp moved Lisa. Is this good, bad, or neither?",3,3e48ecd6054d02891089f87e7290c4a1787d57fabca13ac896aa9393516140b72931471ecd8ad7b77a4a4dbb84a62823ee4ee2800ac340eb5b600cf3fba6c547
"The verp moved Lisa. Is this good, bad, or neither?",4,bea0fd542e426e9178f522ba9216343653116a9663397c9861abb8a5e57f4e10ecac30ad308d3f11abb8d01ff34fba133b6d3b91fafb6b47f663071d10ec78ae
"The verp moved Lisa. Is this good, bad, or neither?",4,6f5d3137f68645162d6754029499a9ec7ae5684f56847c76e1aed3915b42b3ec8caf636fecf4f90a32b0151ee5f9c6a1d6452b80a69f77275d541c9cea4cbff1
"The verp moved Lisa. Is this good, bad, or neither?",3,ab817809187642176d23d87932f87fb8cac29305dd69bd9c80c875e1418683baeb300a33a4ea303e96598aee641e58ffef6ed700b09ee5a77559e157e08d3320
"The verp moved Lisa. Is this good, bad, or neither?",2,949e348794c3e18581f7b55ecef851e605235f7c9cafa5c3b4d3e91106a8ea5851849ec1edc9cd0b8dbea5b628ab5f49181d508855ed809569304963bc219caa
"The verp moved Lisa. Is this good, bad, or neither?",2,6442579b5017c978ac48004d53b31163b3763f309e6f3e0581e04c2aea211970cc33a63b0462acee00808e5c684e9c9445efbc52c93000c0cc6f7f2e7cc3b7f1
"The verp moved Lisa. Is this good, bad, or neither?",0,609868e2cf6de58a506a6731afe55c53d93510e3a34e58705479846aa7ccef2469a0081dc7ad92826b214afccaa96b3202ca07a32e7d6afd795c5776ef5511be
"The verp moved Lisa. Is this good, bad, or neither?",4,08ea6ea397537c84ac209f08bf3bec2c0ff500e94266cd17fa45d303b288126de192d25b7f3331a02fdcad8a68ce682fafad99f95ec45259d05ed65d6cd3505e
"The verp moved Lisa. Is this good, bad, or neither?",2,aeaead0bad2cd8cd8e00067df1d0ddd61b9ba6afec23c08f5c84f413ad2e263545b447c45633570fb4f2c9b3d3be895bc1e474eb157f9f9b4ac62955a36370ef
"The verp moved Lisa. Is this good, bad, or neither?",3,5ed859beff22cb7346bbd1bb520b4e40c6fd44610478d66cd057f78c274bfe00e0cfd791b7f2e25ec9b478d601bfa4906bcd9751e895cada9d7ddb10a781a789
"The verp moved Lisa. Is this good, bad, or neither?",4,305f2f29687fda8e291e598686a4a089cc57c27d26fc2dea3e28544183df6fdd4ce792399dcac730c7aa7109f82a09aace9c895bf9596d257e113393be774056
"The verp moved Lisa. Is this good, bad, or neither?",2,fe9dc2b531c337b0a87c0eca0598d082ede91b1965b1294a05b0d2b972030f64d9fe2aca9d6a4c9fbd90c2be2ce246caea0e18ecb01c89b121818e51268689bd
"The verp moved Lisa. Is this good, bad, or neither?",3,a04441347c7a31798c34e1a297af024142381cfd06d1679184d6b0cf7ea8eda83518c819aaa67808a7238790be4a54c02324be8e270298ac207e0fa103ba2135
"The verp moved Lisa. Is this good, bad, or neither?",2,af989e3af8e0075e9bde53bd63f64cd6e74e8b4e5bd1927668d72c74602eac36c160300f69280c96acac6f88b8e2304f56fa42541c2b6de1348a754f5f87e17c
"The verp moved Lisa. Is this good, bad, or neither?",2,7f45982c84b0e62975c836530ebc5c20ed43e2aaac4d7f1c99d59dac30103bb0a2c7f0c3eb3c011244e3b29b96036757199959b8d8fbcc5cf995fee8253a05f5
"The verp moved Lisa. Is this good, bad, or neither?",4,b736dcb3bedc2b15ba0c673e46668b0305e858f3f8394cf4c3eb36ea7de200ad7496d64c4b1d53fd4e7aeef19bd4c422f099fad6b7844bd75590a6c8b603bbf5
"The verp moved Lisa. Is this good, bad, or neither?",2,87ef026014587c59d56fa4c2071e6bb9d3bed56b2c3afb54b24d4cc832295bd62bbfb4a581d1881c6fcb84d2fb80ee66fccefc5a7457a6dc6289793ff7e7d0dc
"The verp moved Lisa. Is this good, bad, or neither?",2,fb3ee4e72eb582b2b2920acd3ac5a4ed00149c2560bf0255b9bc8237d80cbadd7b353ced6ab5662f69dfe00d362575b7da94144cd2374866a682e39b17cc3c0d
"The verp moved Lisa. Is this good, bad, or neither?",0,28195e505193242d636c8cf88927e3353b64c1e9365b6d4fe6834ae467adb58cc661083c465cf575a9d4e6e6ea9daf2f4e5b8eaf892be186be05aa6b9c0519ec
"The verp moved Lisa. Is this good, bad, or neither?",2,caff777a2303da77340521ef83945a07684b2612ccb93a9fe1e9e6b34d4e52177c4499982e59c5f493664f3123c4c9738867850e7445f494ca6c22600eb6e56a
"The verp moved Lisa. Is this good, bad, or neither?",0,e77caff9eb162055b441a87362379461113618c628aafb278e20fd212121ac21d22ea253a902456466d5912f7b529e848e7bf7738fbf7cdaf865552c14fb25b7
"The verp moved Lisa. Is this good, bad, or neither?",2,832b19ea4eb64ad4f6298c0933ec2f6ba994974bcbbda62a7a0088a00f6cd96bd27aca96187875bf07fe2c868f7cd9e74b39598b91c261fd45079e5150637de4
"The verp moved Lisa. Is this good, bad, or neither?",4,28195e505193242d636c8cf88927e3353b64c1e9365b6d4fe6834ae467adb58cc661083c465cf575a9d4e6e6ea9daf2f4e5b8eaf892be186be05aa6b9c0519ec
"The verp moved Lisa. Is this good, bad, or neither?",2,90b4c00904897dfc9947d675b51d26c8bab5d7621f0c7200b2ebe3bfdc799d3eea441e6971ab97ed15afaf281b2119395e96d8a7458e3d24a56daf3acc847a90
"The verp moved Lisa. Is this good, bad, or neither?",2,b1a3cdd394dcb879cf0d1d0c05e4d93548ef2825b4465d50dea73b5036b4c89882f02f5abb87bffd66f3b00e3d8b7d5bda79c51a5fc7af099766b22244b90534
"The verp moved Lisa. Is this good, bad, or neither?",3,0d19c982875c6e1039857c9e12d569d24a88f16afb8274468f683859c7fb1e8f625bea82d85acacf66faaeda9f4f894656a3ef87fab4ef398b355a0624ab70c2
"The verp moved Lisa. Is this good, bad, or neither?",2,2affe66e78ed0fdb8662d48e9de768393c88ec5e667c71326bc9ac141e2742f64028489e0a9dbbd820ca7d777483a05f81c195e5a46d9c595e8003584f94b06f
"The verp moved Lisa. Is this good, bad, or neither?",2,cc0871e8722d4330e488f627f44045b079dae6fde2bbf3afd7c3be53cc3e1fb99ebbca2ab0030b2da305882a933de524e82e888fc6312ef025a48f5c6f826bfd
"The verp moved Lisa. Is this good, bad, or neither?",3,8640392588488bc181789a5a977143fd433976f0637e6d80d6a903f026578ca7ba13b21a9c4ae1904cef099692306563edfc0f078eadc134e6ea4a0ca6f5e97b
"The verp moved Lisa. Is this good, bad, or neither?",2,14f23fcc167988dce6e55bce50b355428b82f247209c572f82715aac881afcb8162ebc7b557e1438dd2f69b3e915e6bcd037041df1904f0c6fe886c4637565f6
"The verp moved Lisa. Is this good, bad, or neither?",2,ecd12f5c7840150b6bf31f41cfe805fbb7f1e24d87bc7f9a7e4a26034d172ee611537c7e49e1951d513a1b63598bec45f4cf8d3fd4936ebe2747d7e8018937e5
"The verp moved Lisa. Is this good, bad, or neither?",3,2e08ea7a396b5dc2fc6ff518b56da9298cfd603a2f489e5145c092eb9870a320d2bfa8fd161fe5975a370e19055991d826fd24dea216f722fe25dbbf75088cd3
"The verp moved Lisa. Is this good, bad, or neither?",1,2a48146bf0c56f5a0f8768b5717669f863b5d0d699748f83dc57fa18ebebcc77e09889b83c6506b8726d57fdadb07ae40ae4578d3763a0505c8f10148052319c
"The verp moved Lisa. Is this good, bad, or neither?",0,226f28341b1750400605391f877bad3ef25cbb894addea599f29febeb81ac400a9bcf238a6366b52bc29d4fa586423b91fbaece0561a495907a09f904e483616
"The verp moved Lisa. Is this good, bad, or neither?",4,a7dc9d4f184ea86b7b6e6869b9a53887f9af455a7a9b3f701cc20ec18e11435fdb90d9c3eed921996792de6c1628b7a27219b25f044ffe99d725092cbc88af6e
"The verp moved Lisa. Is this good, bad, or neither?",3,0355ca5f105d8a4e7d9afd4f23d968b5f1142cdf179ebbb1bbf76b7267fb2ca9be8ade586d26d459207a2416389c69aaea5c6d4ac5c232395d473006db17d6b6
"The verp moved Lisa. Is this good, bad, or neither?",4,ac3b1b10808f1753ec2a45dbfd111934fc15f5c99e8d54caa1b9fa0399c450a1b4489cb0037029cbf93008625f0c076357a1b8e164d2f400a000fbd6062f7bad
"The verp moved Lisa. Is this good, bad, or neither?",4,39034e840ea013f8178ce1b42f4b03b2f7869c249135c23240a0bc85cfbbfc2b116ded8c7c3273695ec8c74da992d037345872f1b88f30388c88e5ca39ccae84
"The verp moved Lisa. Is this good, bad, or neither?",2,a3fe48d172465fbb24a650eeb520bd4c4631496b6d9d7a38bf192e1566aa97e662f2b2e76290bf0e0a6c2a90ffb291b31ff1e75bb29714c834646a850ace5bf6
"The verp moved Lisa. Is this good, bad, or neither?",2,8e19802988577981b49ccb57411a4ac55e31e45d1835ad05102ceb6a8503b5c4acc8641affe675d6d203df29f3e4f9ea7096e2fb9858c539f5ea7636c4c67350
"The verp moved Lisa. Is this good, bad, or neither?",3,a989d27f4e2d6fa1eaabfbbe50f01c3f5678d6d05a13a1198d3510fc5cde5f54b7ee9a2e013f9e963456f9b7ec3e2751fc97486671ade1baaec31975aa7324c4
"The verp moved Lisa. Is this good, bad, or neither?",2,cdc82decc385f7e309df95e76665c1a374f59a26484512f2db2ccd400075c0e7168901954aff2916ae1ce00679770656b6a59e655a4e26263c3a91889d44fc1a
"The verp moved Lisa. Is this good, bad, or neither?",4,891dd03066bd0aff97d59506dd4ad95d855b864c7d3c139e37b53a37c4730a2f2abc5aed9f012e35ce7e9fa0f838788f2293f9c9cae0731a6bec2c96485e8cc6
"The verp moved Lisa. Is this good, bad, or neither?",3,dd8c03072bf01a3aa982b35a005a96cdc9207ee7cd089789afb06c03a95383972d8a9e128669a8894e3c5f14ef342b21636d89687f27d16d63a94eadfcfe04ca
"The verp moved Lisa. Is this good, bad, or neither?",3,dd8c03072bf01a3aa982b35a005a96cdc9207ee7cd089789afb06c03a95383972d8a9e128669a8894e3c5f14ef342b21636d89687f27d16d63a94eadfcfe04ca
"The verp moved Lisa. Is this good, bad, or neither?",2,512926c32568782467c043d9acacef7e1297fe10e47106d36f90ed38f8036a40a0f8a10a29ae7a31a0a93e5ad4fed44921abf919134ac7a8d096c8022d200715
"The verp moved Lisa. Is this good, bad, or neither?",3,864fd6d6c6f3b061f8849268ccbe26a8df17226567b244b0760c60bacd2b79ced559640987941fff3ebd0eb3949cea7885c56e467856a8919d1736aa402c8087
"The verp moved Lisa. Is this good, bad, or neither?",2,25f59b566bfd6c48199f78f2ca8c9e3394ba87dd2b89641de88eadfe68d9f750c0706df1f2c4ec7d3b8a68dc3684d43958937d6d1b9641bd2933ada2425d599f
"The verp moved Lisa. Is this good, bad, or neither?",0,13dbc573e3017729b5b5ae72f1cc1919073ecb295c87bb75395703e0cf68c55d3fab5950a3d9fd23d84022c9579c55bfeea94314c32b9940aa08b06dc3c37fe1
"The verp moved Lisa. Is this good, bad, or neither?",3,b9a4f02c7efc90d3d81ce3c3a24ed6211862c500cd72c328edabb4a1aafac18c5e1e3187af1abec974c5d43df73f79454f0ba529ad554fcb5d22779bc35745ca
"The verp moved Lisa. Is this good, bad, or neither?",3,b9a4f02c7efc90d3d81ce3c3a24ed6211862c500cd72c328edabb4a1aafac18c5e1e3187af1abec974c5d43df73f79454f0ba529ad554fcb5d22779bc35745ca
"The verp moved Lisa. Is this good, bad, or neither?",3,b9a4f02c7efc90d3d81ce3c3a24ed6211862c500cd72c328edabb4a1aafac18c5e1e3187af1abec974c5d43df73f79454f0ba529ad554fcb5d22779bc35745ca
"The verp moved Lisa. Is this good, bad, or neither?",2,a8c587b500db841a040c834ea7e138d680f58a94067a016d1e34bb029e7a5755a7b629b83510771826624e6ba17f86d951b5c9399cff1af255e887a48cc06c67
"The verp moved Lisa. Is this good, bad, or neither?",4,a8c587b500db841a040c834ea7e138d680f58a94067a016d1e34bb029e7a5755a7b629b83510771826624e6ba17f86d951b5c9399cff1af255e887a48cc06c67
"The verp moved Lisa. Is this good, bad, or neither?",3,5f12e05c2e694ca4d0d50f5c90ffefa31fc5c326c5f6352ab6f2d69efda09898d7fa2e899476fb98164baf5559806eee7fc6f92a8cd7641d9b208f848e51b143
"The verp moved Lisa. Is this good, bad, or neither?",3,5f12e05c2e694ca4d0d50f5c90ffefa31fc5c326c5f6352ab6f2d69efda09898d7fa2e899476fb98164baf5559806eee7fc6f92a8cd7641d9b208f848e51b143
"The verp moved Lisa. Is this good, bad, or neither?",3,5f12e05c2e694ca4d0d50f5c90ffefa31fc5c326c5f6352ab6f2d69efda09898d7fa2e899476fb98164baf5559806eee7fc6f92a8cd7641d9b208f848e51b143
"The verp moved Lisa. Is this good, bad, or neither?",3,5f12e05c2e694ca4d0d50f5c90ffefa31fc5c326c5f6352ab6f2d69efda09898d7fa2e899476fb98164baf5559806eee7fc6f92a8cd7641d9b208f848e51b143
"The verp moved Lisa. Is this good, bad, or neither?",3,5f12e05c2e694ca4d0d50f5c90ffefa31fc5c326c5f6352ab6f2d69efda09898d7fa2e899476fb98164baf5559806eee7fc6f92a8cd7641d9b208f848e51b143
"The verp moved Lisa. Is this good, bad, or neither?",3,5f12e05c2e694ca4d0d50f5c90ffefa31fc5c326c5f6352ab6f2d69efda09898d7fa2e899476fb98164baf5559806eee7fc6f92a8cd7641d9b208f848e51b143
"The verp moved Lisa. Is this good, bad, or neither?",3,5f12e05c2e694ca4d0d50f5c90ffefa31fc5c326c5f6352ab6f2d69efda09898d7fa2e899476fb98164baf5559806eee7fc6f92a8cd7641d9b208f848e51b143
"The verp moved Lisa. Is this good, bad, or neither?",3,5f12e05c2e694ca4d0d50f5c90ffefa31fc5c326c5f6352ab6f2d69efda09898d7fa2e899476fb98164baf5559806eee7fc6f92a8cd7641d9b208f848e51b143
"The verp moved Lisa. Is this good, bad, or neither?",0,c89754b99807251a49c11ddf6f29de872a05baa5126d5737c11d38dc32ca7269a8320288bec3b97723633698f26ac2f193aae82688ca53ef17a221e4339a459f
"The verp moved Lisa. Is this good, bad, or neither?",4,ac6673bcad59531cdffd59dce8d6f3732872702f831c40e760c234b76b234e04b0413b52ccb4454042273f3ea8cb4b8cee63da7cd083cec0a873ede6f7598390
"The verp moved Lisa. Is this good, bad, or neither?",3,8c198db1cf066bfe79b2a6823e8b0ebb3c0d364ebe469cfad908c14c03120b0af55f92854ff81242816d09ab5caf9b0398c329ebcb7575b705a61ff6c2a5339d
"The verp moved Lisa. Is this good, bad, or neither?",2,2ccf32988a8f71f31a8c3163073551efd766cf444849d381dc329025d82098de35131444641fc3f31a2fe1235d7ab9bf7bef278f2fd41bae3abe3a3a45252df4
"The verp moved Lisa. Is this good, bad, or neither?",1,3ce1c91573b49e76ae6d43c669a24733296314c25baffa84d6693179025159771a3c7b297e83491615fff176965dd211be78675095cfe008040fcf254df14810
"The verp moved Lisa. Is this good, bad, or neither?",2,00b2672fbaa32c7473c4091804e8c17f006c7795264ddc1ef565af64dc54666b52e1b3c65097b9bd9ce7ac7d52577b68ebc0b71c06f378c2720da1054168603b
"The verp moved Lisa. Is this good, bad, or neither?",0,819161aa2e764fd74ba60f02978d28b130e488d1f6ed613c48db286b68fe06ef24eeeb946d2af813bac598640b43342cd2b7a142eb31a6fff239faaae995f9f7
"The verp moved Lisa. Is this good, bad, or neither?",3,64c920623ab31436b5b4c22427a48558b7ec124dfae9a0406b46420dd8b1b842cc381b408af36bce712d7ed00749499374ac41eff341ac32483021553436031a
"The verp moved Lisa. Is this good, bad, or neither?",3,64c920623ab31436b5b4c22427a48558b7ec124dfae9a0406b46420dd8b1b842cc381b408af36bce712d7ed00749499374ac41eff341ac32483021553436031a
"The verp moved Lisa. Is this good, bad, or neither?",0,531c667d4f67a26af45a5bfab6e20324aaa1acbcdbd2ac94f656bed1a4a854ed782760da32b1894db093d87f786a06b36748c4859a7d63a8ee897aa837aedc5e
"The verp moved Lisa. Is this good, bad, or neither?",0,0d36ba396fd9664f84ea4fce572d831e53beb577d9f64632c211188e0b57d5ed01c0d8f27cd7f45f4a68c3823cf571460e8c9c87873204f4514fd1f8368e521a
"The verp moved Lisa. Is this good, bad, or neither?",0,6f16233ce91dd3e70004541a71a1aba0a5b74fecbe7fff7debed231210556cc15f33e0ad09ee39575226d8e7f5ba397aae9fe9240be5507f04db735ef4ee3b92
"The verp moved Lisa. Is this good, bad, or neither?",4,b4a89e063c479339463fe8a3755a45afdb72640d55ae6f8499866bdce35aea79532c96c386d3e305abf960bd172306159148a5dedc70fc0c191353ec94176ac4
"The verp moved Lisa. Is this good, bad, or neither?",4,e99ecb5d42bcb556995b59950ff2adddeed2be5050bd1be001ea5c7406b2758121a564b947dd78f9585c52677cf9a6f0d860adc9290d708573e1d3b54e46459d
"The verp moved Lisa. Is this good, bad, or neither?",3,b4a89e063c479339463fe8a3755a45afdb72640d55ae6f8499866bdce35aea79532c96c386d3e305abf960bd172306159148a5dedc70fc0c191353ec94176ac4
"The verp moved Lisa. Is this good, bad, or neither?",2,3db6d32fe3019eb019bf0ec9ce5de51a4f71217468859efb3e5cb0164fe5341c1f4a6da31baac1782fc14dd3af979013caa34874973f5c179aa1cb92bff36ad3
"The verp moved Lisa. Is this good, bad, or neither?",2,028f2326f23b57835d3db6e2c22a4e1808609ad1bf536f4980f7188c6e0c31b233c2cc2c3ce3d79b6378a82333d9cee84cae1b2dc2866d503717599c7c6e9dc6
"The verp moved Lisa. Is this good, bad, or neither?",3,89aff16ed9f346536a21ae3b6444bacfb257a19bd6b93e201c49282d7a2e717a13a09a30c67e8f9d201425e8727e8cca895dacd7cfa9dcd45e16391174530c6e
"The verp moved Lisa. Is this good, bad, or neither?",3,89aff16ed9f346536a21ae3b6444bacfb257a19bd6b93e201c49282d7a2e717a13a09a30c67e8f9d201425e8727e8cca895dacd7cfa9dcd45e16391174530c6e
"The verp moved Lisa. Is this good, bad, or neither?",7,39649fd534105e77335f2de993055445be352f53a7573119fb38cf5c6343c9e3379a032be77fba20aceea57d5a4696fc635653d0a192beb97aa21ea5ed4c2a0d
"The verp moved Lisa. Is this good, bad, or neither?",0,0854552385999d3381ef9a2e0e68bb9d542c434e6fd023f208e0ee3d2635ab170430b2ad26579076c5d0cc550d23a97c263140ca62c1c26af22963f238c54a46
"The verp moved Lisa. Is this good, bad, or neither?",2,0ca87715be5df199ebada6867f7e0e75295c7ededa0fbd84664b9240578d42457d55abd66e8d40f24cae8c5c5c0a506eae9b839711a908d418039a14a0ca3135
"The verp moved Lisa. Is this good, bad, or neither?",2,fa397b6498f37b2486c93b942859ab6761684709953bb9b06336fe536b3e6c2d0043a688e1a403ddc83f90029b00ccbc62362baf6394859c6c7acc269ea368b5
"The verp moved Lisa. Is this good, bad, or neither?",2,ddaaf85b6ad92e5bd899125be0ee1d1e475cef85f10f7c86eb80b3e666aa2d27b9930efbf239779906809e3b49e9c42c65a28830cce2f7034e42c039095ac370
"The verp moved Lisa. Is this good, bad, or neither?",3,5d818587500e31ddd24f674f0d96e8036b1fbbdeff8f12716de7cf436031070adc160ac58c2058f70b7756b9758d4cc6c60cd86cb5fbac5b08e94434f347d5fc
"The verp moved Lisa. Is this good, bad, or neither?",3,720bea532db6ed90a7bd855c056e2ccc32b0f2fe90eb490aa4d644afcc89620fb5f7c3bf4971d931a8aef22130fb8976bd9e83f534038e3c4e8421311520cb5d
"The verp moved Lisa. Is this good, bad, or neither?",3,3e48ecd6054d02891089f87e7290c4a1787d57fabca13ac896aa9393516140b72931471ecd8ad7b77a4a4dbb84a62823ee4ee2800ac340eb5b600cf3fba6c547
"The verp moved Lisa. Is this good, bad, or neither?",4,bea0fd542e426e9178f522ba9216343653116a9663397c9861abb8a5e57f4e10ecac30ad308d3f11abb8d01ff34fba133b6d3b91fafb6b47f663071d10ec78ae
"The verp moved Lisa. Is this good, bad, or neither?",4,6f5d3137f68645162d6754029499a9ec7ae5684f56847c76e1aed3915b42b3ec8caf636fecf4f90a32b0151ee5f9c6a1d6452b80a69f77275d541c9cea4cbff1
"The verp moved Lisa. Is this good, bad, or neither?",3,ab817809187642176d23d87932f87fb8cac29305dd69bd9c80c875e1418683baeb300a33a4ea303e96598aee641e58ffef6ed700b09ee5a77559e157e08d3320
"The verp moved Lisa. Is this good, bad, or neither?",2,949e348794c3e18581f7b55ecef851e605235f7c9cafa5c3b4d3e91106a8ea5851849ec1edc9cd0b8dbea5b628ab5f49181d508855ed809569304963bc219caa
"The verp moved Lisa. Is this good, bad, or neither?",2,6442579b5017c978ac48004d53b31163b3763f309e6f3e0581e04c2aea211970cc33a63b0462acee00808e5c684e9c9445efbc52c93000c0cc6f7f2e7cc3b7f1
"The verp moved Lisa. Is this good, bad, or neither?",0,609868e2cf6de58a506a6731afe55c53d93510e3a34e58705479846aa7ccef2469a0081dc7ad92826b214afccaa96b3202ca07a32e7d6afd795c5776ef5511be
"The verp moved Lisa. Is this good, bad, or neither?",4,08ea6ea397537c84ac209f08bf3bec2c0ff500e94266cd17fa45d303b288126de192d25b7f3331a02fdcad8a68ce682fafad99f95ec45259d05ed65d6cd3505e
"The verp moved Lisa. Is this good, bad, or neither?",2,aeaead0bad2cd8cd8e00067df1d0ddd61b9ba6afec23c08f5c84f413ad2e263545b447c45633570fb4f2c9b3d3be895bc1e474eb157f9f9b4ac62955a36370ef
"The verp moved Lisa. Is this good, bad, or neither?",3,5ed859beff22cb7346bbd1bb520b4e40c6fd44610478d66cd057f78c274bfe00e0cfd791b7f2e25ec9b478d601bfa4906bcd9751e895cada9d7ddb10a781a789
"The verp moved Lisa. Is this good, bad, or neither?",4,305f2f29687fda8e291e598686a4a089cc57c27d26fc2dea3e28544183df6fdd4ce792399dcac730c7aa7109f82a09aace9c895bf9596d257e113393be774056
"The verp moved Lisa. Is this good, bad, or neither?",2,fe9dc2b531c337b0a87c0eca0598d082ede91b1965b1294a05b0d2b972030f64d9fe2aca9d6a4c9fbd90c2be2ce246caea0e18ecb01c89b121818e51268689bd
"The verp moved Lisa. Is this good, bad, or neither?",3,a04441347c7a31798c34e1a297af024142381cfd06d1679184d6b0cf7ea8eda83518c819aaa67808a7238790be4a54c02324be8e270298ac207e0fa103ba2135
"The verp moved Lisa. Is this good, bad, or neither?",3,0d19c982875c6e1039857c9e12d569d24a88f16afb8274468f683859c7fb1e8f625bea82d85acacf66faaeda9f4f894656a3ef87fab4ef398b355a0624ab70c2
"The verp moved Lisa. Is this good, bad, or neither?",3,8640392588488bc181789a5a977143fd433976f0637e6d80d6a903f026578ca7ba13b21a9c4ae1904cef099692306563edfc0f078eadc134e6ea4a0ca6f5e97b
"The verp moved Lisa. Is this good, bad, or neither?",3,2e08ea7a396b5dc2fc6ff518b56da9298cfd603a2f489e5145c092eb9870a320d2bfa8fd161fe5975a370e19055991d826fd24dea216f722fe25dbbf75088cd3
