"Steven bounced to a frimpy position. Is this good, bad, or neither?",2,ddaaf85b6ad92e5bd899125be0ee1d1e475cef85f10f7c86eb80b3e666aa2d27b9930efbf239779906809e3b49e9c42c65a28830cce2f7034e42c039095ac370
"Steven bounced to a frimpy position. Is this good, bad, or neither?",4,5d818587500e31ddd24f674f0d96e8036b1fbbdeff8f12716de7cf436031070adc160ac58c2058f70b7756b9758d4cc6c60cd86cb5fbac5b08e94434f347d5fc
"Steven bounced to a frimpy position. Is this good, bad, or neither?",0,0f39c6fe943705d2e1bcb2673a046c49cdb2fc032aa484b09b2aa61b1bb36eac2e663baaece1b9f7b16093e5230b27d4e9ede00dc43b0becd0df05dd91f74684
"Steven bounced to a frimpy position. Is this good, bad, or neither?",0,720bea532db6ed90a7bd855c056e2ccc32b0f2fe90eb490aa4d644afcc89620fb5f7c3bf4971d931a8aef22130fb8976bd9e83f534038e3c4e8421311520cb5d
"Steven bounced to a frimpy position. Is this good, bad, or neither?",4,0f8b0a6747c2c67c47eabd0e7ef8f16f8ded2c61207aad26a80a05076caf477a98492e88c1493d8d0c97008428802daf57b604ad8ec3417e999bf1eb41c94031
"Steven bounced to a frimpy position. Is this good, bad, or neither?",2,ac724fc5fb40437657716148e67ce96d7833e23cb99ba2729a7b08527de53c0ff20fb2f1642005cea59e47b70d45720137e984675680b17c656205a979bd9ddd
"Steven bounced to a frimpy position. Is this good, bad, or neither?",2,bea0fd542e426e9178f522ba9216343653116a9663397c9861abb8a5e57f4e10ecac30ad308d3f11abb8d01ff34fba133b6d3b91fafb6b47f663071d10ec78ae
"Steven bounced to a frimpy position. Is this good, bad, or neither?",0,6f5d3137f68645162d6754029499a9ec7ae5684f56847c76e1aed3915b42b3ec8caf636fecf4f90a32b0151ee5f9c6a1d6452b80a69f77275d541c9cea4cbff1
"Steven bounced to a frimpy position. Is this good, bad, or neither?",1,949e348794c3e18581f7b55ecef851e605235f7c9cafa5c3b4d3e91106a8ea5851849ec1edc9cd0b8dbea5b628ab5f49181d508855ed809569304963bc219caa
"Steven bounced to a frimpy position. Is this good, bad, or neither?",2,609868e2cf6de58a506a6731afe55c53d93510e3a34e58705479846aa7ccef2469a0081dc7ad92826b214afccaa96b3202ca07a32e7d6afd795c5776ef5511be
"Steven bounced to a frimpy position. Is this good, bad, or neither?",2,675a6154d38e7981c932127e219f374c1a8880011eab4c932106ac51314fb2868ba8fd7264f3bb40c5a96272dc019e5c9cf6c60011e9e9a04b73042a43219af2
"Steven bounced to a frimpy position. Is this good, bad, or neither?",2,546fd48ad2cb01f0aa074f8b4533a16a0b2c91b342a0a2fc54d0b2df928176e60aff214dd2f8fd44455120fa909841604fff017b08aa9df15b6e5b63e8f8a592
"Steven bounced to a frimpy position. Is this good, bad, or neither?",0,08ea6ea397537c84ac209f08bf3bec2c0ff500e94266cd17fa45d303b288126de192d25b7f3331a02fdcad8a68ce682fafad99f95ec45259d05ed65d6cd3505e
"Steven bounced to a frimpy position. Is this good, bad, or neither?",2,aeaead0bad2cd8cd8e00067df1d0ddd61b9ba6afec23c08f5c84f413ad2e263545b447c45633570fb4f2c9b3d3be895bc1e474eb157f9f9b4ac62955a36370ef
"Steven bounced to a frimpy position. Is this good, bad, or neither?",2,305f2f29687fda8e291e598686a4a089cc57c27d26fc2dea3e28544183df6fdd4ce792399dcac730c7aa7109f82a09aace9c895bf9596d257e113393be774056
"Steven bounced to a frimpy position. Is this good, bad, or neither?",2,54f6b3e513c13bfcdbe1fe36eb012ee13d6a602793f7b0d77a58e9677d4df23396135d1671a38883db4788ebb0ed5a75fe3538b70666e0d9f1400e9f96cb120b
"Steven bounced to a frimpy position. Is this good, bad, or neither?",6,ac159058713bb786536395d849dcdcf98a8ffa433c0df23b7bc3208f1c1ce017c9e666811788def29dda032e13b5e11080c305f9a67c97282c112192adb437e0
"Steven bounced to a frimpy position. Is this good, bad, or neither?",2,a04441347c7a31798c34e1a297af024142381cfd06d1679184d6b0cf7ea8eda83518c819aaa67808a7238790be4a54c02324be8e270298ac207e0fa103ba2135
"Steven bounced to a frimpy position. Is this good, bad, or neither?",0,6c6c49ee869b4ca1ba79f9e7161de8bf469354e88f91864b66c80b413102959cddfeccd497a130d4d9dccb97f91a2d4061527fd34a6a5660aa9c5ec30fa2c11f
"Steven bounced to a frimpy position. Is this good, bad, or neither?",4,b842921b72de52f8a133a6e3e7dba5c9b826e818a240917bcd1460be154725c1bf3e61829383a5f36d6212bb3b09806d108579faebca1147451159918b352073
"Steven bounced to a frimpy position. Is this good, bad, or neither?",2,5b56973b88ed7b736ff3966dd5900790af0d217684769981e05a869fd0482e4eb627fbc83ef164acdcc19dfee68958f3688d63269cfdc0cd3c3ec35969e3c934
"Steven bounced to a frimpy position. Is this good, bad, or neither?",2,e54ad29a9f68ae9c74dc5e9abb66c78b733890c4ef372fa8bd1d2e6afae1ecbc89d14a67f04a7f84a234ebb95c6ba9ca0f6bd7adefde709159de2c4e7b247878
"Steven bounced to a frimpy position. Is this good, bad, or neither?",2,af989e3af8e0075e9bde53bd63f64cd6e74e8b4e5bd1927668d72c74602eac36c160300f69280c96acac6f88b8e2304f56fa42541c2b6de1348a754f5f87e17c
"Steven bounced to a frimpy position. Is this good, bad, or neither?",2,d52d0f79310a4a1585de2ba281cae55d8bf4f66ee89a3b0afe5bec86ac64f3fbcf4ac04acc90a017d6f66a1259e7c33c370048fe26771c06104f79c7f0e7daea
"Steven bounced to a frimpy position. Is this good, bad, or neither?",2,2cb44008208d14c82cf8868fc09b67e721d51c1b25835a53ce5c75d4338141e971e3aad3228e19b641ecd4278d4576dc2f1af7702b6c5731e30d7d54f5a829a5
"Steven bounced to a frimpy position. Is this good, bad, or neither?",2,fb3ee4e72eb582b2b2920acd3ac5a4ed00149c2560bf0255b9bc8237d80cbadd7b353ced6ab5662f69dfe00d362575b7da94144cd2374866a682e39b17cc3c0d
"Steven bounced to a frimpy position. Is this good, bad, or neither?",2,28195e505193242d636c8cf88927e3353b64c1e9365b6d4fe6834ae467adb58cc661083c465cf575a9d4e6e6ea9daf2f4e5b8eaf892be186be05aa6b9c0519ec
"Steven bounced to a frimpy position. Is this good, bad, or neither?",2,caff777a2303da77340521ef83945a07684b2612ccb93a9fe1e9e6b34d4e52177c4499982e59c5f493664f3123c4c9738867850e7445f494ca6c22600eb6e56a
"Steven bounced to a frimpy position. Is this good, bad, or neither?",2,832b19ea4eb64ad4f6298c0933ec2f6ba994974bcbbda62a7a0088a00f6cd96bd27aca96187875bf07fe2c868f7cd9e74b39598b91c261fd45079e5150637de4
"Steven bounced to a frimpy position. Is this good, bad, or neither?",2,ecd12f5c7840150b6bf31f41cfe805fbb7f1e24d87bc7f9a7e4a26034d172ee611537c7e49e1951d513a1b63598bec45f4cf8d3fd4936ebe2747d7e8018937e5
"Steven bounced to a frimpy position. Is this good, bad, or neither?",2,e1bff99d6284028edc97f1a2bc9bec1d0dd6911b7020ff5b8dbe0baf83d07ab5ff0ae50db063a21a9bba96cc2a5886dd103a97dfa3a28c0ba423ef1822edea30
"Steven bounced to a frimpy position. Is this good, bad, or neither?",6,e747fc38dc162c17397ff21dd4b09f4c1ae73639a16e961d5d5c4a2980b497622720194696c3501cb2c98fc253b755e54f0f500974f447eb63930f786f61d660
"Steven bounced to a frimpy position. Is this good, bad, or neither?",0,310ecd1f768bb6b808211c2ba69dd45f30d0a6cf6102cfedebb1e43e2b8e0b815c2a16b92fadd9556f3a20e29e8ea30c2c5e378e47b0705dd034ca4ee338ce60
"Steven bounced to a frimpy position. Is this good, bad, or neither?",2,47f539658aca08ae6297054feaa8c7454f91a7e943b0c19345588bf3528faaa8cca1a27fa189d7796ebd7977ba11d49a2acc41e963f796e35f4f11b76cdf9f37
"Steven bounced to a frimpy position. Is this good, bad, or neither?",0,2e08ea7a396b5dc2fc6ff518b56da9298cfd603a2f489e5145c092eb9870a320d2bfa8fd161fe5975a370e19055991d826fd24dea216f722fe25dbbf75088cd3
"Steven bounced to a frimpy position. Is this good, bad, or neither?",0,a7dc9d4f184ea86b7b6e6869b9a53887f9af455a7a9b3f701cc20ec18e11435fdb90d9c3eed921996792de6c1628b7a27219b25f044ffe99d725092cbc88af6e
"Steven bounced to a frimpy position. Is this good, bad, or neither?",4,ac3b1b10808f1753ec2a45dbfd111934fc15f5c99e8d54caa1b9fa0399c450a1b4489cb0037029cbf93008625f0c076357a1b8e164d2f400a000fbd6062f7bad
"Steven bounced to a frimpy position. Is this good, bad, or neither?",2,cdff0e9d3111a07fce883b75c209a9e530eb0a797b8473c80cb7c34a0756d0609c32aecc65738c834fbc3a477a905c3dda0522df3757ec781458af22fa020b69
"Steven bounced to a frimpy position. Is this good, bad, or neither?",2,684b69ce31f18101aaaffcfb19e8a87726464e1d860437225d6fe15c4e9a884905fdefe1d429c48831ffbdb243078207b957510fce16bea63bbc50e49cd2f9da
"Steven bounced to a frimpy position. Is this good, bad, or neither?",2,44cb69d363b6d99287402410490198709810d13e74a75276dbb979e5f5387c1256447125e35607b5fb4bd589b7d3c4067f5e02ae5e26e50c3be55284e647c71d
"Steven bounced to a frimpy position. Is this good, bad, or neither?",2,432e022d70279ade11f7ad8d4d28802e40cc70f4fce90942fa41ece53dc18bac5a2450df2933fb7b5d853a2b031598cf2a9eedfc5fca596949fb0165bb8d7838
"Steven bounced to a frimpy position. Is this good, bad, or neither?",2,6690daf896d43323032c3a7c475be537a7d7eb4ffa8f752d475ae4334686f21834fbd437769eecc1a4e625f5e7b3a2240ad5a813ada666cf35be5999c9a5e9b4
"Steven bounced to a frimpy position. Is this good, bad, or neither?",6,6690daf896d43323032c3a7c475be537a7d7eb4ffa8f752d475ae4334686f21834fbd437769eecc1a4e625f5e7b3a2240ad5a813ada666cf35be5999c9a5e9b4
"Steven bounced to a frimpy position. Is this good, bad, or neither?",2,7c71a1ed631d499225eca45c7b4c4af55634115f0fce98e3b7405a4c6fce2aabb8f5d115484d50c3b6ec6db6ef6f5ae783acb7fff4b332d4488235cb123ed585
"Steven bounced to a frimpy position. Is this good, bad, or neither?",2,5a361d37f0ddcb870a3bb18636f228842947aca029bb92e64f64ba3609b884adfdb3462045f2cd95fede633527ba36fea2b9de677ec13d468fcd2b9bc8e020d8
"Steven bounced to a frimpy position. Is this good, bad, or neither?",4,0a83bc18c91ff46d358116e7508c78daedf2134364b928983559ea8eff9be4aba626af67013d84ab22e0e3ce64579421fbff737906fcfa6b555ea1c3978a64cb
"Steven bounced to a frimpy position. Is this good, bad, or neither?",6,0a83bc18c91ff46d358116e7508c78daedf2134364b928983559ea8eff9be4aba626af67013d84ab22e0e3ce64579421fbff737906fcfa6b555ea1c3978a64cb
"Steven bounced to a frimpy position. Is this good, bad, or neither?",0,567fcc08f4a54552060d7d816058a9668d94e008d7b344f3c8d607504924788bef84864d9a832a45cf56a55a5ffdefc0f7c68f1688e66f9f1c4b82ac7f5491a4
"Steven bounced to a frimpy position. Is this good, bad, or neither?",2,864fd6d6c6f3b061f8849268ccbe26a8df17226567b244b0760c60bacd2b79ced559640987941fff3ebd0eb3949cea7885c56e467856a8919d1736aa402c8087
"Steven bounced to a frimpy position. Is this good, bad, or neither?",2,a8c587b500db841a040c834ea7e138d680f58a94067a016d1e34bb029e7a5755a7b629b83510771826624e6ba17f86d951b5c9399cff1af255e887a48cc06c67
"Steven bounced to a frimpy position. Is this good, bad, or neither?",4,a8c587b500db841a040c834ea7e138d680f58a94067a016d1e34bb029e7a5755a7b629b83510771826624e6ba17f86d951b5c9399cff1af255e887a48cc06c67
"Steven bounced to a frimpy position. Is this good, bad, or neither?",3,5f12e05c2e694ca4d0d50f5c90ffefa31fc5c326c5f6352ab6f2d69efda09898d7fa2e899476fb98164baf5559806eee7fc6f92a8cd7641d9b208f848e51b143
"Steven bounced to a frimpy position. Is this good, bad, or neither?",3,5f12e05c2e694ca4d0d50f5c90ffefa31fc5c326c5f6352ab6f2d69efda09898d7fa2e899476fb98164baf5559806eee7fc6f92a8cd7641d9b208f848e51b143
"Steven bounced to a frimpy position. Is this good, bad, or neither?",3,5f12e05c2e694ca4d0d50f5c90ffefa31fc5c326c5f6352ab6f2d69efda09898d7fa2e899476fb98164baf5559806eee7fc6f92a8cd7641d9b208f848e51b143
"Steven bounced to a frimpy position. Is this good, bad, or neither?",3,5f12e05c2e694ca4d0d50f5c90ffefa31fc5c326c5f6352ab6f2d69efda09898d7fa2e899476fb98164baf5559806eee7fc6f92a8cd7641d9b208f848e51b143
"Steven bounced to a frimpy position. Is this good, bad, or neither?",3,5f12e05c2e694ca4d0d50f5c90ffefa31fc5c326c5f6352ab6f2d69efda09898d7fa2e899476fb98164baf5559806eee7fc6f92a8cd7641d9b208f848e51b143
"Steven bounced to a frimpy position. Is this good, bad, or neither?",3,5f12e05c2e694ca4d0d50f5c90ffefa31fc5c326c5f6352ab6f2d69efda09898d7fa2e899476fb98164baf5559806eee7fc6f92a8cd7641d9b208f848e51b143
"Steven bounced to a frimpy position. Is this good, bad, or neither?",3,5f12e05c2e694ca4d0d50f5c90ffefa31fc5c326c5f6352ab6f2d69efda09898d7fa2e899476fb98164baf5559806eee7fc6f92a8cd7641d9b208f848e51b143
"Steven bounced to a frimpy position. Is this good, bad, or neither?",3,5f12e05c2e694ca4d0d50f5c90ffefa31fc5c326c5f6352ab6f2d69efda09898d7fa2e899476fb98164baf5559806eee7fc6f92a8cd7641d9b208f848e51b143
"Steven bounced to a frimpy position. Is this good, bad, or neither?",2,8be48f271ae3101ac31346a408dc79be556faeb3f152510e28a7304edc13bde7ce9f7fd78f702cff5f3cb7dbcca05ef7ab24af8cc2253069e5716778280a4697
"Steven bounced to a frimpy position. Is this good, bad, or neither?",3,2ccf32988a8f71f31a8c3163073551efd766cf444849d381dc329025d82098de35131444641fc3f31a2fe1235d7ab9bf7bef278f2fd41bae3abe3a3a45252df4
"Steven bounced to a frimpy position. Is this good, bad, or neither?",0,3ce1c91573b49e76ae6d43c669a24733296314c25baffa84d6693179025159771a3c7b297e83491615fff176965dd211be78675095cfe008040fcf254df14810
"Steven bounced to a frimpy position. Is this good, bad, or neither?",4,3ce1c91573b49e76ae6d43c669a24733296314c25baffa84d6693179025159771a3c7b297e83491615fff176965dd211be78675095cfe008040fcf254df14810
"Steven bounced to a frimpy position. Is this good, bad, or neither?",1,819161aa2e764fd74ba60f02978d28b130e488d1f6ed613c48db286b68fe06ef24eeeb946d2af813bac598640b43342cd2b7a142eb31a6fff239faaae995f9f7
"Steven bounced to a frimpy position. Is this good, bad, or neither?",0,83e68bdb3c8d06734b9c63de2e996ad5203cfadd686bffeb5371242a53bd2562e4ee27b56455e36057ad2b7ff679b1bc0942e1b5e336f4762c4ed9cc49cb339a
"Steven bounced to a frimpy position. Is this good, bad, or neither?",4,64c920623ab31436b5b4c22427a48558b7ec124dfae9a0406b46420dd8b1b842cc381b408af36bce712d7ed00749499374ac41eff341ac32483021553436031a
"Steven bounced to a frimpy position. Is this good, bad, or neither?",2,f74a189a696ebb5d3833d4b89b0f94733b24c099235b93e38989b213817f3f6c519b8f67d99e68d2aae2d8cec42afe0dc9936b8765108818964591269daa19f6
"Steven bounced to a frimpy position. Is this good, bad, or neither?",2,0ca87715be5df199ebada6867f7e0e75295c7ededa0fbd84664b9240578d42457d55abd66e8d40f24cae8c5c5c0a506eae9b839711a908d418039a14a0ca3135
"Steven bounced to a frimpy position. Is this good, bad, or neither?",5,0ca87715be5df199ebada6867f7e0e75295c7ededa0fbd84664b9240578d42457d55abd66e8d40f24cae8c5c5c0a506eae9b839711a908d418039a14a0ca3135
"Steven bounced to a frimpy position. Is this good, bad, or neither?",2,4ee4a6aaeaeaf283a825925b68463c4b6709fd3c965358b2ec41bcb1a3a7f3935f32fdaa5ae01085f3ac2e36f53ee6be6765b33bd8d1ae53c6fb5ed8a3eb0e5e
"Steven bounced to a frimpy position. Is this good, bad, or neither?",0,fa397b6498f37b2486c93b942859ab6761684709953bb9b06336fe536b3e6c2d0043a688e1a403ddc83f90029b00ccbc62362baf6394859c6c7acc269ea368b5
"Steven bounced to a frimpy position. Is this good, bad, or neither?",4,f2ff644166bdfc62cdd9d9a94d6ff0f25dc281b19db7785e128b10020bcf19c55e0b62f09a237e59d6fcf521784509e0211f4ac66a2111cc6532aff9c608466f
"Steven bounced to a frimpy position. Is this good, bad, or neither?",2,2f9462113b5e9601214e682c9cca4bae20f7a2bd9f6b7580e21b2ed74c953986cd53cac441413ec6c175876577943995429763c2ac64cd4327329f8013b68332
"Steven bounced to a frimpy position. Is this good, bad, or neither?",2,ddaaf85b6ad92e5bd899125be0ee1d1e475cef85f10f7c86eb80b3e666aa2d27b9930efbf239779906809e3b49e9c42c65a28830cce2f7034e42c039095ac370
"Steven bounced to a frimpy position. Is this good, bad, or neither?",4,5d818587500e31ddd24f674f0d96e8036b1fbbdeff8f12716de7cf436031070adc160ac58c2058f70b7756b9758d4cc6c60cd86cb5fbac5b08e94434f347d5fc
"Steven bounced to a frimpy position. Is this good, bad, or neither?",0,0f39c6fe943705d2e1bcb2673a046c49cdb2fc032aa484b09b2aa61b1bb36eac2e663baaece1b9f7b16093e5230b27d4e9ede00dc43b0becd0df05dd91f74684
"Steven bounced to a frimpy position. Is this good, bad, or neither?",0,720bea532db6ed90a7bd855c056e2ccc32b0f2fe90eb490aa4d644afcc89620fb5f7c3bf4971d931a8aef22130fb8976bd9e83f534038e3c4e8421311520cb5d
"Steven bounced to a frimpy position. Is this good, bad, or neither?",4,0f8b0a6747c2c67c47eabd0e7ef8f16f8ded2c61207aad26a80a05076caf477a98492e88c1493d8d0c97008428802daf57b604ad8ec3417e999bf1eb41c94031
"Steven bounced to a frimpy position. Is this good, bad, or neither?",2,ac724fc5fb40437657716148e67ce96d7833e23cb99ba2729a7b08527de53c0ff20fb2f1642005cea59e47b70d45720137e984675680b17c656205a979bd9ddd
"Steven bounced to a frimpy position. Is this good, bad, or neither?",2,bea0fd542e426e9178f522ba9216343653116a9663397c9861abb8a5e57f4e10ecac30ad308d3f11abb8d01ff34fba133b6d3b91fafb6b47f663071d10ec78ae
"Steven bounced to a frimpy position. Is this good, bad, or neither?",0,6f5d3137f68645162d6754029499a9ec7ae5684f56847c76e1aed3915b42b3ec8caf636fecf4f90a32b0151ee5f9c6a1d6452b80a69f77275d541c9cea4cbff1
"Steven bounced to a frimpy position. Is this good, bad, or neither?",1,949e348794c3e18581f7b55ecef851e605235f7c9cafa5c3b4d3e91106a8ea5851849ec1edc9cd0b8dbea5b628ab5f49181d508855ed809569304963bc219caa
"Steven bounced to a frimpy position. Is this good, bad, or neither?",2,609868e2cf6de58a506a6731afe55c53d93510e3a34e58705479846aa7ccef2469a0081dc7ad92826b214afccaa96b3202ca07a32e7d6afd795c5776ef5511be
"Steven bounced to a frimpy position. Is this good, bad, or neither?",2,675a6154d38e7981c932127e219f374c1a8880011eab4c932106ac51314fb2868ba8fd7264f3bb40c5a96272dc019e5c9cf6c60011e9e9a04b73042a43219af2
"Steven bounced to a frimpy position. Is this good, bad, or neither?",2,546fd48ad2cb01f0aa074f8b4533a16a0b2c91b342a0a2fc54d0b2df928176e60aff214dd2f8fd44455120fa909841604fff017b08aa9df15b6e5b63e8f8a592
"Steven bounced to a frimpy position. Is this good, bad, or neither?",0,08ea6ea397537c84ac209f08bf3bec2c0ff500e94266cd17fa45d303b288126de192d25b7f3331a02fdcad8a68ce682fafad99f95ec45259d05ed65d6cd3505e
"Steven bounced to a frimpy position. Is this good, bad, or neither?",2,aeaead0bad2cd8cd8e00067df1d0ddd61b9ba6afec23c08f5c84f413ad2e263545b447c45633570fb4f2c9b3d3be895bc1e474eb157f9f9b4ac62955a36370ef
"Steven bounced to a frimpy position. Is this good, bad, or neither?",2,305f2f29687fda8e291e598686a4a089cc57c27d26fc2dea3e28544183df6fdd4ce792399dcac730c7aa7109f82a09aace9c895bf9596d257e113393be774056
"Steven bounced to a frimpy position. Is this good, bad, or neither?",6,e747fc38dc162c17397ff21dd4b09f4c1ae73639a16e961d5d5c4a2980b497622720194696c3501cb2c98fc253b755e54f0f500974f447eb63930f786f61d660
"Steven bounced to a frimpy position. Is this good, bad, or neither?",2,e4a35b3d05b723c3d88a606d2b658f2a2dd77734587306bf4fbc2e25b93e5b6428f80f6b8974f954fd99017486bfe34862fd647e74a9a26fd81057b2971caf86
