"There bounced Christina out of the kach. Is this good, bad, or neither?",2,ddaaf85b6ad92e5bd899125be0ee1d1e475cef85f10f7c86eb80b3e666aa2d27b9930efbf239779906809e3b49e9c42c65a28830cce2f7034e42c039095ac370
"There bounced Christina out of the kach. Is this good, bad, or neither?",2,5d818587500e31ddd24f674f0d96e8036b1fbbdeff8f12716de7cf436031070adc160ac58c2058f70b7756b9758d4cc6c60cd86cb5fbac5b08e94434f347d5fc
"There bounced Christina out of the kach. Is this good, bad, or neither?",5,1ce29c8b725610e73248f411dbdb04b8bac8bfac028cf4bceb9ce8af751b181d17f6e2fad26dd1d21fe1777d7e2ab49247eb38101757041ab191974e6f008d2e
"There bounced Christina out of the kach. Is this good, bad, or neither?",2,e6dc417fdca8c95315a2063663a6db5cca7269dde328b6ff98351a0041b5b6b420b725b8b6c050b263e1004b2b98fd3de96fced81409a8aba33a67964949d80e
"There bounced Christina out of the kach. Is this good, bad, or neither?",2,aaa95c0664846be1d183b973a91ed74b1685e5e25ec9e68c82d19b353a324b47a68c74351d84d21e911a7cc42db0bd220fc29db5c10db1fce24a60559e550ef1
"There bounced Christina out of the kach. Is this good, bad, or neither?",2,a04441347c7a31798c34e1a297af024142381cfd06d1679184d6b0cf7ea8eda83518c819aaa67808a7238790be4a54c02324be8e270298ac207e0fa103ba2135
"There bounced Christina out of the kach. Is this good, bad, or neither?",2,eb4b6b706a0f89e14a2d8d16dfc7aa9c87a7d0595820e60b0d5dec6c005f0197619f954c3c62e433d7c45a2749d03a361351da7118319f5edfc5ea8c0c918e14
"There bounced Christina out of the kach. Is this good, bad, or neither?",0,507fbf108c19687929964ab788fa690db4877c023179f9943d2b948a419d8e897d45f8df207c4e4d091ad6747fc392342801732c353c083581ecec486dec6e15
"There bounced Christina out of the kach. Is this good, bad, or neither?",2,0db8cf7e09c8c4bf847dce0d7d70b43296585c7af212ad3b1792bdf73a4140632d04f6dec96f11bc9a165864eb25c6f56a3e666c1f0325bd30364e2fc4289f23
"There bounced Christina out of the kach. Is this good, bad, or neither?",2,609868e2cf6de58a506a6731afe55c53d93510e3a34e58705479846aa7ccef2469a0081dc7ad92826b214afccaa96b3202ca07a32e7d6afd795c5776ef5511be
"There bounced Christina out of the kach. Is this good, bad, or neither?",5,fdcb2b05d3a3aa943a3b3391fa64407435c94b0436e74263463c67e17e9953705d3526147878dc1d17eeb8a37311cc71097d78d69109654a83ffff02ede3aedb
"There bounced Christina out of the kach. Is this good, bad, or neither?",2,08ea6ea397537c84ac209f08bf3bec2c0ff500e94266cd17fa45d303b288126de192d25b7f3331a02fdcad8a68ce682fafad99f95ec45259d05ed65d6cd3505e
"There bounced Christina out of the kach. Is this good, bad, or neither?",2,aeaead0bad2cd8cd8e00067df1d0ddd61b9ba6afec23c08f5c84f413ad2e263545b447c45633570fb4f2c9b3d3be895bc1e474eb157f9f9b4ac62955a36370ef
"There bounced Christina out of the kach. Is this good, bad, or neither?",5,49dcb1441d32656cba9d11b70043b0c4d17712f6a50e97b4a50054f5ed2de2456bfaa95cc13099b9c4e56b3877f0d046a24ebafe7ba804cb86d78cf96ab92a6b
"There bounced Christina out of the kach. Is this good, bad, or neither?",2,5ed859beff22cb7346bbd1bb520b4e40c6fd44610478d66cd057f78c274bfe00e0cfd791b7f2e25ec9b478d601bfa4906bcd9751e895cada9d7ddb10a781a789
"There bounced Christina out of the kach. Is this good, bad, or neither?",2,305f2f29687fda8e291e598686a4a089cc57c27d26fc2dea3e28544183df6fdd4ce792399dcac730c7aa7109f82a09aace9c895bf9596d257e113393be774056
"There bounced Christina out of the kach. Is this good, bad, or neither?",5,1dd2b7decf71cf3c3953ceaa2dfeecb166ad37d2d2add9d55f91b6d8947afdffa3432b081f346e81dfbf6b6c345f4856dd5b2a8d9b581b8ea541f21dd562a687
"There bounced Christina out of the kach. Is this good, bad, or neither?",4,ffb32cd6f281594bb5e52afbe8130a55c1a6bdf0dbea41b09ddc1dd9258b36318ac8fc506e6267f7e8fc4e1a2b635354d9eddd69b2c62d39497b842269e45c3e
"There bounced Christina out of the kach. Is this good, bad, or neither?",2,146ddd00d74bad540111bc0427f872cee82f3ccab1176591d438ba9aa820825afed1feebab2c07246395c35cc7c23f6f1be5275890ddcf38612a2583bdfe337e
"There bounced Christina out of the kach. Is this good, bad, or neither?",2,fb3ee4e72eb582b2b2920acd3ac5a4ed00149c2560bf0255b9bc8237d80cbadd7b353ced6ab5662f69dfe00d362575b7da94144cd2374866a682e39b17cc3c0d
"There bounced Christina out of the kach. Is this good, bad, or neither?",2,948b1546ab23598285d2f77f39e4276a3a82e5d340295aa6760c9fc6f36b7437bb3a495a3ba88d447f3fe661e3d3dc2ca10e32b8b5eb3feb6619e793bc050ef2
"There bounced Christina out of the kach. Is this good, bad, or neither?",2,caff777a2303da77340521ef83945a07684b2612ccb93a9fe1e9e6b34d4e52177c4499982e59c5f493664f3123c4c9738867850e7445f494ca6c22600eb6e56a
"There bounced Christina out of the kach. Is this good, bad, or neither?",1,7fceb8a12aa3b5b3ed067349cb17bdd09c9c4ee8bdd2e96f49996dc04cb2540af11717232b81cb0637b852041b9d62276e876a8dc9f45e9575a47f02d46955e8
"There bounced Christina out of the kach. Is this good, bad, or neither?",2,28195e505193242d636c8cf88927e3353b64c1e9365b6d4fe6834ae467adb58cc661083c465cf575a9d4e6e6ea9daf2f4e5b8eaf892be186be05aa6b9c0519ec
"There bounced Christina out of the kach. Is this good, bad, or neither?",1,4fc0018974e48c2a689f8f1adf0eddb7b9b2b618943904eebf76868f893e99c087a24304db0c91a10a1a8fc74ccf5891c047f0c2636db1ee14842df50a3f1228
"There bounced Christina out of the kach. Is this good, bad, or neither?",2,d52d0f79310a4a1585de2ba281cae55d8bf4f66ee89a3b0afe5bec86ac64f3fbcf4ac04acc90a017d6f66a1259e7c33c370048fe26771c06104f79c7f0e7daea
"There bounced Christina out of the kach. Is this good, bad, or neither?",1,ecd12f5c7840150b6bf31f41cfe805fbb7f1e24d87bc7f9a7e4a26034d172ee611537c7e49e1951d513a1b63598bec45f4cf8d3fd4936ebe2747d7e8018937e5
"There bounced Christina out of the kach. Is this good, bad, or neither?",0,41628a0f8849c48d09c00e99c4a99cae8b10c5d31c76fc5043a816bea93afdb63771aa227c3fc1235d69b6c482ed4c1972716b6868be483c3ecaba9ca7efddc1
"There bounced Christina out of the kach. Is this good, bad, or neither?",1,1c5085a9aa92902111716bc36653840cee5e2bfde879f7dba2166bb7f9913be8c773118205c94456fbed33364c243b1ab4e3664bb7c1911bdf8f43d1e9f57b94
"There bounced Christina out of the kach. Is this good, bad, or neither?",2,e68c9f140ee3a623945ca28f934c2e050c05e42f25abb5ddfeeced54a3f626c5c13fb1f8a32c3a9d7438e3b10605d1d021a9a27cf0b385cafb1da22bd8ca850d
"There bounced Christina out of the kach. Is this good, bad, or neither?",2,fce00a4ae7d3a432de329b9a6565c363a592130bba149228a5d18d7e141f01725003046cc2f477fe8494d10692aa0f1e793f7e61f54fe897de3f1ac1d78d0a20
"There bounced Christina out of the kach. Is this good, bad, or neither?",0,fbc0e1c572df203dd612af32844ec5aa3fff919db9fef738c3276b9e44939ee74976d13ace46afcff7b98c8c0c567ba4aaeb9900c209a133aa7f57984188b75f
"There bounced Christina out of the kach. Is this good, bad, or neither?",2,9d8ddb67f662349a7f7a7c5a32fee73c457fd70d135ae4be6f17a68418102d35693b26415c8fd8c7bd26a5b5032587ac08aefd055994f62fcb3e9a44d5cb51b0
"There bounced Christina out of the kach. Is this good, bad, or neither?",2,7eac63dd734031a37e46a4e523aa6bfac9447229a7978f447e0dd64aaeb24d0d1a328b33c9c4f7113e04ffb0b3b9208c1ba47d96cd9c916cdf876f738fa5ae44
"There bounced Christina out of the kach. Is this good, bad, or neither?",2,5a23402dc15233be68d0f6f87dcdce887a714a5507871ff7b39191fbd84ad58479f2c95fb420e292d80b74051e38f9f54e2670ad4b963f05e83c6224babbf504
"There bounced Christina out of the kach. Is this good, bad, or neither?",0,a7dc9d4f184ea86b7b6e6869b9a53887f9af455a7a9b3f701cc20ec18e11435fdb90d9c3eed921996792de6c1628b7a27219b25f044ffe99d725092cbc88af6e
"There bounced Christina out of the kach. Is this good, bad, or neither?",2,90c8c114b2ac4d6f1e62e52bc301dd65a525f994d43a9296dc09c93befbef5e24c5ce552fac13db1b1a127b83446b3a4893a06c8ab19e050405b8c2c0cc89fab
"There bounced Christina out of the kach. Is this good, bad, or neither?",2,3d4fc7b2dadb2b182d403a89b5b1771f45fe25dc6bc63f09adc7633a8a11cca9c91b4455faf8b8a973a33d286a5a58caf726f100a06cb3a9dcbbc6cb0bfb78a3
"There bounced Christina out of the kach. Is this good, bad, or neither?",4,22dce858adf9ef87776bfc92e24f7d25c49b856340a680b5f07a769f570609ce6d187b2fe117fb52513d81bd5318108ba3a7922d5e6d529ecec6f6fc8f14f49a
"There bounced Christina out of the kach. Is this good, bad, or neither?",5,22dce858adf9ef87776bfc92e24f7d25c49b856340a680b5f07a769f570609ce6d187b2fe117fb52513d81bd5318108ba3a7922d5e6d529ecec6f6fc8f14f49a
"There bounced Christina out of the kach. Is this good, bad, or neither?",6,22dce858adf9ef87776bfc92e24f7d25c49b856340a680b5f07a769f570609ce6d187b2fe117fb52513d81bd5318108ba3a7922d5e6d529ecec6f6fc8f14f49a
"There bounced Christina out of the kach. Is this good, bad, or neither?",0,ae026911afb2d0a375ce8ce0fdd862beb8a0d14c774730024b73d9c79ab3d59978d11e060fd3adbc448cbc151df6e97911c60943626d2e24d0a227d1bebc348e
"There bounced Christina out of the kach. Is this good, bad, or neither?",1,d6679d00499ecff8e7ada6b1ab2e1f6909a9c75867c5294e42eb86f0bce5a2ef7e661aeff27dcb214eb2fc88ab64ff9300c3b90f170c3786b050193b63061dc3
"There bounced Christina out of the kach. Is this good, bad, or neither?",2,864fd6d6c6f3b061f8849268ccbe26a8df17226567b244b0760c60bacd2b79ced559640987941fff3ebd0eb3949cea7885c56e467856a8919d1736aa402c8087
"There bounced Christina out of the kach. Is this good, bad, or neither?",2,512926c32568782467c043d9acacef7e1297fe10e47106d36f90ed38f8036a40a0f8a10a29ae7a31a0a93e5ad4fed44921abf919134ac7a8d096c8022d200715
"There bounced Christina out of the kach. Is this good, bad, or neither?",4,0a10cfbe96898e179a6989823d1b388e63fd11f48fd9bb0f118bf62cd7dfea5dd88a7b1d57cbd9606e10dc7e76ef4a52208822cd8d1992d9cbf67431ac76dda0
"There bounced Christina out of the kach. Is this good, bad, or neither?",5,0ef960d6d853ec615d67ffde3515107defa311e837571d6204b6bec828f4921b1d5eb9eaa05cc0576f1ede6d94934ca78dc6544d3eb51b738a3a901b2eda0a02
"There bounced Christina out of the kach. Is this good, bad, or neither?",4,19277661313b5118bd1b2e29039b47276f1f8235917f3217bf95498030989874a1ca10bb943fa21faf787d793095c0d4119e136013ed4a9be167f67c2a6d11d3
"There bounced Christina out of the kach. Is this good, bad, or neither?",2,dc1573fdf940f9fb09d57b0011d03c1c44d31b200b999056f3ba7a66f968fff14e39bb77a6b95cde426287b90f173b03c2bb7c514497e44276b0f589563d5728
"There bounced Christina out of the kach. Is this good, bad, or neither?",2,a8c587b500db841a040c834ea7e138d680f58a94067a016d1e34bb029e7a5755a7b629b83510771826624e6ba17f86d951b5c9399cff1af255e887a48cc06c67
"There bounced Christina out of the kach. Is this good, bad, or neither?",4,a8c587b500db841a040c834ea7e138d680f58a94067a016d1e34bb029e7a5755a7b629b83510771826624e6ba17f86d951b5c9399cff1af255e887a48cc06c67
"There bounced Christina out of the kach. Is this good, bad, or neither?",5,654abee2a34ea238dd9860279c2e4f4ca17d0745f80e3a567f1be1f8bc80565588c6bc0d387e4705bac6ad4b8113565bc4647802a60f9ec02d1e658cb7bd2331
"There bounced Christina out of the kach. Is this good, bad, or neither?",4,8ded77a21fe05c7756085556cca8f98f5eb31dedfed36a6e262cb8adc9034cd291306beab7fc461a490aca5e434bd7146b3069946e787af0ebac1f4361b7c52a
"There bounced Christina out of the kach. Is this good, bad, or neither?",3,5f12e05c2e694ca4d0d50f5c90ffefa31fc5c326c5f6352ab6f2d69efda09898d7fa2e899476fb98164baf5559806eee7fc6f92a8cd7641d9b208f848e51b143
"There bounced Christina out of the kach. Is this good, bad, or neither?",3,5f12e05c2e694ca4d0d50f5c90ffefa31fc5c326c5f6352ab6f2d69efda09898d7fa2e899476fb98164baf5559806eee7fc6f92a8cd7641d9b208f848e51b143
"There bounced Christina out of the kach. Is this good, bad, or neither?",3,5f12e05c2e694ca4d0d50f5c90ffefa31fc5c326c5f6352ab6f2d69efda09898d7fa2e899476fb98164baf5559806eee7fc6f92a8cd7641d9b208f848e51b143
"There bounced Christina out of the kach. Is this good, bad, or neither?",3,5f12e05c2e694ca4d0d50f5c90ffefa31fc5c326c5f6352ab6f2d69efda09898d7fa2e899476fb98164baf5559806eee7fc6f92a8cd7641d9b208f848e51b143
"There bounced Christina out of the kach. Is this good, bad, or neither?",3,5f12e05c2e694ca4d0d50f5c90ffefa31fc5c326c5f6352ab6f2d69efda09898d7fa2e899476fb98164baf5559806eee7fc6f92a8cd7641d9b208f848e51b143
"There bounced Christina out of the kach. Is this good, bad, or neither?",3,5f12e05c2e694ca4d0d50f5c90ffefa31fc5c326c5f6352ab6f2d69efda09898d7fa2e899476fb98164baf5559806eee7fc6f92a8cd7641d9b208f848e51b143
"There bounced Christina out of the kach. Is this good, bad, or neither?",3,5f12e05c2e694ca4d0d50f5c90ffefa31fc5c326c5f6352ab6f2d69efda09898d7fa2e899476fb98164baf5559806eee7fc6f92a8cd7641d9b208f848e51b143
"There bounced Christina out of the kach. Is this good, bad, or neither?",3,5f12e05c2e694ca4d0d50f5c90ffefa31fc5c326c5f6352ab6f2d69efda09898d7fa2e899476fb98164baf5559806eee7fc6f92a8cd7641d9b208f848e51b143
"There bounced Christina out of the kach. Is this good, bad, or neither?",2,15b1ed3fc755d2d5c3d8097f2f3cd9959224d9e69ced28762a951478a5a881578849bf26ed03df4c74b64bd143e27150cf4ea71bc39f4297b08d34c0723f1038
"There bounced Christina out of the kach. Is this good, bad, or neither?",6,15b1ed3fc755d2d5c3d8097f2f3cd9959224d9e69ced28762a951478a5a881578849bf26ed03df4c74b64bd143e27150cf4ea71bc39f4297b08d34c0723f1038
"There bounced Christina out of the kach. Is this good, bad, or neither?",2,d8df607040709fef5fb20aa491224fa16acfc168677e32ca2d49bcfb2a46636d9689ca87bb80c6414053f1a4e7f6a603dea0eab18b40e08c1654ec0212613b5e
"There bounced Christina out of the kach. Is this good, bad, or neither?",2,3ce1c91573b49e76ae6d43c669a24733296314c25baffa84d6693179025159771a3c7b297e83491615fff176965dd211be78675095cfe008040fcf254df14810
"There bounced Christina out of the kach. Is this good, bad, or neither?",1,b4a89e063c479339463fe8a3755a45afdb72640d55ae6f8499866bdce35aea79532c96c386d3e305abf960bd172306159148a5dedc70fc0c191353ec94176ac4
"There bounced Christina out of the kach. Is this good, bad, or neither?",2,b4a89e063c479339463fe8a3755a45afdb72640d55ae6f8499866bdce35aea79532c96c386d3e305abf960bd172306159148a5dedc70fc0c191353ec94176ac4
"There bounced Christina out of the kach. Is this good, bad, or neither?",0,39785c4b4ba4de1a565cc689df76805c82ea6d027e63026bc4e60df1a3687e320e893f6e68ab5b189efb3097131e3b9ef068ba1e28699432fcb04c7450dc2870
"There bounced Christina out of the kach. Is this good, bad, or neither?",2,39785c4b4ba4de1a565cc689df76805c82ea6d027e63026bc4e60df1a3687e320e893f6e68ab5b189efb3097131e3b9ef068ba1e28699432fcb04c7450dc2870
"There bounced Christina out of the kach. Is this good, bad, or neither?",3,0c1e43ef5b2f9488f1f2f5d3bb698140bc0a814ccd0552a4d3b9bc7f4899fbd7f112dda7c2abe51111db2cd9354f7ed05e8023ddc9513e6797cd881f2b3a9c2c
"There bounced Christina out of the kach. Is this good, bad, or neither?",3,0c1e43ef5b2f9488f1f2f5d3bb698140bc0a814ccd0552a4d3b9bc7f4899fbd7f112dda7c2abe51111db2cd9354f7ed05e8023ddc9513e6797cd881f2b3a9c2c
"There bounced Christina out of the kach. Is this good, bad, or neither?",6,d01c84b768b43dbdae563b83fc2a8a02bf64e06f4a295a3ec8c8caac1f697da75af3f0e030615356a3f0547912fc9777a5ff7739980edcc7a694330f5d248381
"There bounced Christina out of the kach. Is this good, bad, or neither?",1,819161aa2e764fd74ba60f02978d28b130e488d1f6ed613c48db286b68fe06ef24eeeb946d2af813bac598640b43342cd2b7a142eb31a6fff239faaae995f9f7
"There bounced Christina out of the kach. Is this good, bad, or neither?",2,6ceee2f71efcf20e84bbd06a14b4db7e96fa397d5608a8089a019f6a0d0c87607b63f5a1d3da3239a3195f67cb70811756fab2c6788bd186d72da854a5a6e20b
"There bounced Christina out of the kach. Is this good, bad, or neither?",1,f162a9eace4545ab3748bcc1b5e87034f6d0dd27a713d1727b110d181abbcb306512c9c17c589c05c14876a905d370d73270a2603b249a0a1b523a5fc5d176dc
"There bounced Christina out of the kach. Is this good, bad, or neither?",2,d7891981bd23572d2feb633fd1a58b9ed6dc3e4ac7d092aeb23e6717992663d0b9a8191beebd812db6ce7ef616929ee1dde8c2e0da3183f1a5bbd318ce71daae
"There bounced Christina out of the kach. Is this good, bad, or neither?",2,52dc573941d86cbab410b0f7df584d930efd8a2f93bdc4534e5594481d1b5592947f231cdd5580a9f326cbcffcd24895c2a95d9d7abd797ad5c3a22c1e668f5e
"There bounced Christina out of the kach. Is this good, bad, or neither?",5,ac164e898c11af4b621b362865c1e3e8f8b86298f2bdcf67ecd12c13bbab40174274f1767c1f4f2a454bfb723286ee197b123610d1f16b855f67d08e29745c34
"There bounced Christina out of the kach. Is this good, bad, or neither?",1,f2d6b51dfd20eed1bd0330fdb2930840694538c9582d2b3d8d8d239cc9a74436f22cc405cafa0585ee0ba12957a0a33ac29e60434f30ce312df3202bb9c7906d
"There bounced Christina out of the kach. Is this good, bad, or neither?",2,ddaaf85b6ad92e5bd899125be0ee1d1e475cef85f10f7c86eb80b3e666aa2d27b9930efbf239779906809e3b49e9c42c65a28830cce2f7034e42c039095ac370
"There bounced Christina out of the kach. Is this good, bad, or neither?",2,5d818587500e31ddd24f674f0d96e8036b1fbbdeff8f12716de7cf436031070adc160ac58c2058f70b7756b9758d4cc6c60cd86cb5fbac5b08e94434f347d5fc
"There bounced Christina out of the kach. Is this good, bad, or neither?",5,1ce29c8b725610e73248f411dbdb04b8bac8bfac028cf4bceb9ce8af751b181d17f6e2fad26dd1d21fe1777d7e2ab49247eb38101757041ab191974e6f008d2e
"There bounced Christina out of the kach. Is this good, bad, or neither?",2,e6dc417fdca8c95315a2063663a6db5cca7269dde328b6ff98351a0041b5b6b420b725b8b6c050b263e1004b2b98fd3de96fced81409a8aba33a67964949d80e
"There bounced Christina out of the kach. Is this good, bad, or neither?",2,aaa95c0664846be1d183b973a91ed74b1685e5e25ec9e68c82d19b353a324b47a68c74351d84d21e911a7cc42db0bd220fc29db5c10db1fce24a60559e550ef1
"There bounced Christina out of the kach. Is this good, bad, or neither?",2,a04441347c7a31798c34e1a297af024142381cfd06d1679184d6b0cf7ea8eda83518c819aaa67808a7238790be4a54c02324be8e270298ac207e0fa103ba2135
"There bounced Christina out of the kach. Is this good, bad, or neither?",2,eb4b6b706a0f89e14a2d8d16dfc7aa9c87a7d0595820e60b0d5dec6c005f0197619f954c3c62e433d7c45a2749d03a361351da7118319f5edfc5ea8c0c918e14
"There bounced Christina out of the kach. Is this good, bad, or neither?",0,507fbf108c19687929964ab788fa690db4877c023179f9943d2b948a419d8e897d45f8df207c4e4d091ad6747fc392342801732c353c083581ecec486dec6e15
"There bounced Christina out of the kach. Is this good, bad, or neither?",2,0db8cf7e09c8c4bf847dce0d7d70b43296585c7af212ad3b1792bdf73a4140632d04f6dec96f11bc9a165864eb25c6f56a3e666c1f0325bd30364e2fc4289f23
"There bounced Christina out of the kach. Is this good, bad, or neither?",2,609868e2cf6de58a506a6731afe55c53d93510e3a34e58705479846aa7ccef2469a0081dc7ad92826b214afccaa96b3202ca07a32e7d6afd795c5776ef5511be
"There bounced Christina out of the kach. Is this good, bad, or neither?",5,fdcb2b05d3a3aa943a3b3391fa64407435c94b0436e74263463c67e17e9953705d3526147878dc1d17eeb8a37311cc71097d78d69109654a83ffff02ede3aedb
"There bounced Christina out of the kach. Is this good, bad, or neither?",2,08ea6ea397537c84ac209f08bf3bec2c0ff500e94266cd17fa45d303b288126de192d25b7f3331a02fdcad8a68ce682fafad99f95ec45259d05ed65d6cd3505e
"There bounced Christina out of the kach. Is this good, bad, or neither?",2,aeaead0bad2cd8cd8e00067df1d0ddd61b9ba6afec23c08f5c84f413ad2e263545b447c45633570fb4f2c9b3d3be895bc1e474eb157f9f9b4ac62955a36370ef
"There bounced Christina out of the kach. Is this good, bad, or neither?",5,49dcb1441d32656cba9d11b70043b0c4d17712f6a50e97b4a50054f5ed2de2456bfaa95cc13099b9c4e56b3877f0d046a24ebafe7ba804cb86d78cf96ab92a6b
"There bounced Christina out of the kach. Is this good, bad, or neither?",2,5ed859beff22cb7346bbd1bb520b4e40c6fd44610478d66cd057f78c274bfe00e0cfd791b7f2e25ec9b478d601bfa4906bcd9751e895cada9d7ddb10a781a789
"There bounced Christina out of the kach. Is this good, bad, or neither?",2,305f2f29687fda8e291e598686a4a089cc57c27d26fc2dea3e28544183df6fdd4ce792399dcac730c7aa7109f82a09aace9c895bf9596d257e113393be774056
"There bounced Christina out of the kach. Is this good, bad, or neither?",5,1dd2b7decf71cf3c3953ceaa2dfeecb166ad37d2d2add9d55f91b6d8947afdffa3432b081f346e81dfbf6b6c345f4856dd5b2a8d9b581b8ea541f21dd562a687
