"Jacob smashed Tyler with the gauble. Is this good, bad, or neither?",1,5d818587500e31ddd24f674f0d96e8036b1fbbdeff8f12716de7cf436031070adc160ac58c2058f70b7756b9758d4cc6c60cd86cb5fbac5b08e94434f347d5fc
"Jacob smashed Tyler with the gauble. Is this good, bad, or neither?",1,9d8ddb67f662349a7f7a7c5a32fee73c457fd70d135ae4be6f17a68418102d35693b26415c8fd8c7bd26a5b5032587ac08aefd055994f62fcb3e9a44d5cb51b0
"Jacob smashed Tyler with the gauble. Is this good, bad, or neither?",1,4c9782b71dd33f7c3b7a63c356316be484f5e4e9811fcf58e2ce14959db47117a2098cc6f5d8f196598fdc602d00856037a9307e11d273affdf762c00a44d3f1
"Jacob smashed Tyler with the gauble. Is this good, bad, or neither?",1,9fa34cf7fb8dea4ed69138f7a8cb88f05fb7799bd02a2c55f01ffabfc4886b672b779cf89dcf7bec0a19171745d3989b0613cd31bb6b5fe5ff447993c52886b4
"Jacob smashed Tyler with the gauble. Is this good, bad, or neither?",1,ddaaf85b6ad92e5bd899125be0ee1d1e475cef85f10f7c86eb80b3e666aa2d27b9930efbf239779906809e3b49e9c42c65a28830cce2f7034e42c039095ac370
"Jacob smashed Tyler with the gauble. Is this good, bad, or neither?",4,6f5d3137f68645162d6754029499a9ec7ae5684f56847c76e1aed3915b42b3ec8caf636fecf4f90a32b0151ee5f9c6a1d6452b80a69f77275d541c9cea4cbff1
"Jacob smashed Tyler with the gauble. Is this good, bad, or neither?",1,ab817809187642176d23d87932f87fb8cac29305dd69bd9c80c875e1418683baeb300a33a4ea303e96598aee641e58ffef6ed700b09ee5a77559e157e08d3320
"Jacob smashed Tyler with the gauble. Is this good, bad, or neither?",1,247d016ad1965e185b284a032af50657ede03f4f6dfc65f402943ca2d27268dbc47a7ee39ad2eed9b24b64110dc50e8dd10ca6597e88d493637c358a9ba6470b
"Jacob smashed Tyler with the gauble. Is this good, bad, or neither?",1,609868e2cf6de58a506a6731afe55c53d93510e3a34e58705479846aa7ccef2469a0081dc7ad92826b214afccaa96b3202ca07a32e7d6afd795c5776ef5511be
"Jacob smashed Tyler with the gauble. Is this good, bad, or neither?",1,675a6154d38e7981c932127e219f374c1a8880011eab4c932106ac51314fb2868ba8fd7264f3bb40c5a96272dc019e5c9cf6c60011e9e9a04b73042a43219af2
"Jacob smashed Tyler with the gauble. Is this good, bad, or neither?",1,b0e6c8ee1e136cb6ff5feef7c118e2c3bea829e0df11b83618cc051bb194ee81f667de2bcf3c7b092b99481a59a66f03d982736bbf249dd19daa9b3026a338c7
"Jacob smashed Tyler with the gauble. Is this good, bad, or neither?",1,08ea6ea397537c84ac209f08bf3bec2c0ff500e94266cd17fa45d303b288126de192d25b7f3331a02fdcad8a68ce682fafad99f95ec45259d05ed65d6cd3505e
"Jacob smashed Tyler with the gauble. Is this good, bad, or neither?",1,aeaead0bad2cd8cd8e00067df1d0ddd61b9ba6afec23c08f5c84f413ad2e263545b447c45633570fb4f2c9b3d3be895bc1e474eb157f9f9b4ac62955a36370ef
"Jacob smashed Tyler with the gauble. Is this good, bad, or neither?",1,5ed859beff22cb7346bbd1bb520b4e40c6fd44610478d66cd057f78c274bfe00e0cfd791b7f2e25ec9b478d601bfa4906bcd9751e895cada9d7ddb10a781a789
"Jacob smashed Tyler with the gauble. Is this good, bad, or neither?",1,305f2f29687fda8e291e598686a4a089cc57c27d26fc2dea3e28544183df6fdd4ce792399dcac730c7aa7109f82a09aace9c895bf9596d257e113393be774056
"Jacob smashed Tyler with the gauble. Is this good, bad, or neither?",1,1c59b9f5d650721508d85bf36e38d6104eab56daedef6b9214062fb115442e6366119677c3de1c5ee1112e88b2776fbad75aa01eee0a38ba3f9e9296edfbb8c4
"Jacob smashed Tyler with the gauble. Is this good, bad, or neither?",1,7f45982c84b0e62975c836530ebc5c20ed43e2aaac4d7f1c99d59dac30103bb0a2c7f0c3eb3c011244e3b29b96036757199959b8d8fbcc5cf995fee8253a05f5
"Jacob smashed Tyler with the gauble. Is this good, bad, or neither?",1,fb3ee4e72eb582b2b2920acd3ac5a4ed00149c2560bf0255b9bc8237d80cbadd7b353ced6ab5662f69dfe00d362575b7da94144cd2374866a682e39b17cc3c0d
"Jacob smashed Tyler with the gauble. Is this good, bad, or neither?",1,2cb44008208d14c82cf8868fc09b67e721d51c1b25835a53ce5c75d4338141e971e3aad3228e19b641ecd4278d4576dc2f1af7702b6c5731e30d7d54f5a829a5
"Jacob smashed Tyler with the gauble. Is this good, bad, or neither?",1,28195e505193242d636c8cf88927e3353b64c1e9365b6d4fe6834ae467adb58cc661083c465cf575a9d4e6e6ea9daf2f4e5b8eaf892be186be05aa6b9c0519ec
"Jacob smashed Tyler with the gauble. Is this good, bad, or neither?",1,caff777a2303da77340521ef83945a07684b2612ccb93a9fe1e9e6b34d4e52177c4499982e59c5f493664f3123c4c9738867850e7445f494ca6c22600eb6e56a
"Jacob smashed Tyler with the gauble. Is this good, bad, or neither?",1,ecd12f5c7840150b6bf31f41cfe805fbb7f1e24d87bc7f9a7e4a26034d172ee611537c7e49e1951d513a1b63598bec45f4cf8d3fd4936ebe2747d7e8018937e5
"Jacob smashed Tyler with the gauble. Is this good, bad, or neither?",1,c84e749a7cef7cce34bfddb7d3d8954d5a964b4dda3306e6514f98d50c3f2ef7dfc345e229bd8acb8b64369b679768741976de5551cd081d4df1f8a09b0b89fb
"Jacob smashed Tyler with the gauble. Is this good, bad, or neither?",1,8104307bc4ebc3070d994c1846c423ccef53b8e663deba8805103da843013a27f7d118e81ff145c6e9a435e48701b38d7e5960bae3355d5b12a69ed329c6b819
"Jacob smashed Tyler with the gauble. Is this good, bad, or neither?",1,1d6e25166a8b6d9220341b9777943f8f9207f6570ab6c8945b52785b99a53dd40db80a3523ca48d4ad74c2c963ef178eac19a5fa416cfaad04b8d26c00a35ca2
"Jacob smashed Tyler with the gauble. Is this good, bad, or neither?",1,ecd6d46f017aad5e91768684441ddf03749be676c11a743c422d7c5e9cacf3807b4b70c0d2f90511c805e029dd0741e2dca9b6bce539b4aab910af63afa89136
"Jacob smashed Tyler with the gauble. Is this good, bad, or neither?",1,5c9707d668abe476aa8cff38a84f79aedb2b38765c46cc528db13f7cf96bed4fdb4f6bb27fbd184e13b8e09799f2038781f0e872752d1f8e7ad95b415a816ff1
"Jacob smashed Tyler with the gauble. Is this good, bad, or neither?",1,1e7019267a5b9fb0c239414b1e225193cc46ec9d6c9a84692122a153d5af4e4bec36f2ece04c27828e7c811956744c4cdaf9b6e007fe5418441f79557bd2012a
"Jacob smashed Tyler with the gauble. Is this good, bad, or neither?",1,2e08ea7a396b5dc2fc6ff518b56da9298cfd603a2f489e5145c092eb9870a320d2bfa8fd161fe5975a370e19055991d826fd24dea216f722fe25dbbf75088cd3
"Jacob smashed Tyler with the gauble. Is this good, bad, or neither?",1,7eac63dd734031a37e46a4e523aa6bfac9447229a7978f447e0dd64aaeb24d0d1a328b33c9c4f7113e04ffb0b3b9208c1ba47d96cd9c916cdf876f738fa5ae44
"Jacob smashed Tyler with the gauble. Is this good, bad, or neither?",1,9b2c7999e14c3454c4040c57630dd6dd9ee2554ec359ef309fbdfbc93ef663c89d8a48198c56c7bd2523781745f3782b5a9a2f990acbac42622758d8f239c95c
"Jacob smashed Tyler with the gauble. Is this good, bad, or neither?",1,70a12c68fda2a57a630c467c367b98589d9d70fb6bb4bfa227430a0641255aa1ca8b882aa532e33abe8d4487eb94b46415825bbe804296f96f55581fe1e50e29
"Jacob smashed Tyler with the gauble. Is this good, bad, or neither?",1,a7dc9d4f184ea86b7b6e6869b9a53887f9af455a7a9b3f701cc20ec18e11435fdb90d9c3eed921996792de6c1628b7a27219b25f044ffe99d725092cbc88af6e
"Jacob smashed Tyler with the gauble. Is this good, bad, or neither?",1,ad1326d97150be39c54e291e77d0742b8574db603daa5fed675d73efd780c3e2927bcda79127c867f203c13a3c429cfb8275f4624c00623e9396682bf3b88d60
"Jacob smashed Tyler with the gauble. Is this good, bad, or neither?",1,e026cbf1f92ffcd63549ad9958fb5feeaed2d6b545677b809b1cafc3fc96349d27e28ef3da4919854a8b6d9ce320dc40b10f705c361b77a717ca1cc8d70dca1b
"Jacob smashed Tyler with the gauble. Is this good, bad, or neither?",1,59c6e6ecca7aed6faf69351ead07ea14299ef4a8d166147d454e28e696ea27faa1e70307fba3612ef991263b5b092d93a2c2f0df25220aa29c69a40fdc93db08
"Jacob smashed Tyler with the gauble. Is this good, bad, or neither?",1,dee9285ea94626f6f8173365251604841c2997d9574d668badf218b1ee8799653aa99ba7f70fc3e1695c98804545ee425898ecc2107d95f74404eb3f9f6af236
"Jacob smashed Tyler with the gauble. Is this good, bad, or neither?",2,2ce37789f23315a4e73e0bb1c35fbd5d5b29af1e8d92ef30a2005b68d77e7f1ca5bf8c8ef92a231db4badef724e553cdeb04e4bdbea3d17b0330e305a72b0776
"Jacob smashed Tyler with the gauble. Is this good, bad, or neither?",1,864fd6d6c6f3b061f8849268ccbe26a8df17226567b244b0760c60bacd2b79ced559640987941fff3ebd0eb3949cea7885c56e467856a8919d1736aa402c8087
"Jacob smashed Tyler with the gauble. Is this good, bad, or neither?",1,0a10cfbe96898e179a6989823d1b388e63fd11f48fd9bb0f118bf62cd7dfea5dd88a7b1d57cbd9606e10dc7e76ef4a52208822cd8d1992d9cbf67431ac76dda0
"Jacob smashed Tyler with the gauble. Is this good, bad, or neither?",1,654abee2a34ea238dd9860279c2e4f4ca17d0745f80e3a567f1be1f8bc80565588c6bc0d387e4705bac6ad4b8113565bc4647802a60f9ec02d1e658cb7bd2331
"Jacob smashed Tyler with the gauble. Is this good, bad, or neither?",1,eb9b8af381f6e54298a374aa315ffad31021b7388da4dc3e18fd8d7cc95ad0f4862c0f985cca106b8b2078ddac9f56dc91083a7add8780ed2881357b31284245
"Jacob smashed Tyler with the gauble. Is this good, bad, or neither?",1,8ded77a21fe05c7756085556cca8f98f5eb31dedfed36a6e262cb8adc9034cd291306beab7fc461a490aca5e434bd7146b3069946e787af0ebac1f4361b7c52a
"Jacob smashed Tyler with the gauble. Is this good, bad, or neither?",3,5f12e05c2e694ca4d0d50f5c90ffefa31fc5c326c5f6352ab6f2d69efda09898d7fa2e899476fb98164baf5559806eee7fc6f92a8cd7641d9b208f848e51b143
"Jacob smashed Tyler with the gauble. Is this good, bad, or neither?",3,5f12e05c2e694ca4d0d50f5c90ffefa31fc5c326c5f6352ab6f2d69efda09898d7fa2e899476fb98164baf5559806eee7fc6f92a8cd7641d9b208f848e51b143
"Jacob smashed Tyler with the gauble. Is this good, bad, or neither?",3,5f12e05c2e694ca4d0d50f5c90ffefa31fc5c326c5f6352ab6f2d69efda09898d7fa2e899476fb98164baf5559806eee7fc6f92a8cd7641d9b208f848e51b143
"Jacob smashed Tyler with the gauble. Is this good, bad, or neither?",3,5f12e05c2e694ca4d0d50f5c90ffefa31fc5c326c5f6352ab6f2d69efda09898d7fa2e899476fb98164baf5559806eee7fc6f92a8cd7641d9b208f848e51b143
"Jacob smashed Tyler with the gauble. Is this good, bad, or neither?",3,5f12e05c2e694ca4d0d50f5c90ffefa31fc5c326c5f6352ab6f2d69efda09898d7fa2e899476fb98164baf5559806eee7fc6f92a8cd7641d9b208f848e51b143
"Jacob smashed Tyler with the gauble. Is this good, bad, or neither?",3,5f12e05c2e694ca4d0d50f5c90ffefa31fc5c326c5f6352ab6f2d69efda09898d7fa2e899476fb98164baf5559806eee7fc6f92a8cd7641d9b208f848e51b143
"Jacob smashed Tyler with the gauble. Is this good, bad, or neither?",3,5f12e05c2e694ca4d0d50f5c90ffefa31fc5c326c5f6352ab6f2d69efda09898d7fa2e899476fb98164baf5559806eee7fc6f92a8cd7641d9b208f848e51b143
"Jacob smashed Tyler with the gauble. Is this good, bad, or neither?",3,5f12e05c2e694ca4d0d50f5c90ffefa31fc5c326c5f6352ab6f2d69efda09898d7fa2e899476fb98164baf5559806eee7fc6f92a8cd7641d9b208f848e51b143
"Jacob smashed Tyler with the gauble. Is this good, bad, or neither?",4,5eb5dc5e581df7452b378e581f09cfaa8507f47c3f5651278af8acce121b2f58448880159b8758758c7453bbe04375bd086e6270c7cb933eb6a5828dff2176f5
"Jacob smashed Tyler with the gauble. Is this good, bad, or neither?",1,b9f2ddcfd03ec3dd68fa8f6810b699634a0b01ef82da8bd7eb6cea142432fb78564d11076776966fc4657288ffc88d3303c04c0eed53dccd724f2682a349f17f
"Jacob smashed Tyler with the gauble. Is this good, bad, or neither?",1,936d0ed6b945163efa98a12f9ada206cf38e906fb0e64d7b871384882890f5300a21af0feaa11ef5e210e1be97add27020da2cfbdfd03955f7991a131402dcea
"Jacob smashed Tyler with the gauble. Is this good, bad, or neither?",1,c80ad8315d80c84999757da1c65a4d0080a8ef397234538c9046ec61606aaec64da1fff300b5cfd84df0338bece5ecd07bec05d51269b03da6fc176f51b04b47
"Jacob smashed Tyler with the gauble. Is this good, bad, or neither?",1,e7071d603d000b9ae40280673e176247b9dfa7157b46021d3ae8666cec356b285366025414f5dae4b0134b61bb246b75d5bf85b6582298ebb0aef2ead4d9a641
"Jacob smashed Tyler with the gauble. Is this good, bad, or neither?",1,b6f2e1344ebdd16df984a569b364694e74d76b32cc3d59d2dffcc4d11ac6f38e551c9c180de2ef82243330ba19068b623902e0a25624aa0e128b8c46b7d589cb
"Jacob smashed Tyler with the gauble. Is this good, bad, or neither?",1,3ce1c91573b49e76ae6d43c669a24733296314c25baffa84d6693179025159771a3c7b297e83491615fff176965dd211be78675095cfe008040fcf254df14810
"Jacob smashed Tyler with the gauble. Is this good, bad, or neither?",1,75ff23aa22e7daff4c4b75ea02fd99b2c3e7cc8c1319d4339e07ca1a112768fd66e46b1de0d814e5e45e04a8866f53c85018b9c307a6265bcd026993a3eb897c
"Jacob smashed Tyler with the gauble. Is this good, bad, or neither?",1,83e68bdb3c8d06734b9c63de2e996ad5203cfadd686bffeb5371242a53bd2562e4ee27b56455e36057ad2b7ff679b1bc0942e1b5e336f4762c4ed9cc49cb339a
"Jacob smashed Tyler with the gauble. Is this good, bad, or neither?",1,f3285e952e201a33639358abf4b7414c261329a8aa8fd45df169b9e5d6998f8970331580e6d22fa82a21183312f6e0a66855c2abab9526f6c7e0eca79cc45a35
"Jacob smashed Tyler with the gauble. Is this good, bad, or neither?",1,819161aa2e764fd74ba60f02978d28b130e488d1f6ed613c48db286b68fe06ef24eeeb946d2af813bac598640b43342cd2b7a142eb31a6fff239faaae995f9f7
"Jacob smashed Tyler with the gauble. Is this good, bad, or neither?",4,984cc001791eb290cac26927d245149672759e3a231677904f10ab52c70cf0588e810f7e2054f5cbaf0b81f3a8eb81cf5bcfeb438927303d17a7f31525681981
"Jacob smashed Tyler with the gauble. Is this good, bad, or neither?",1,a04441347c7a31798c34e1a297af024142381cfd06d1679184d6b0cf7ea8eda83518c819aaa67808a7238790be4a54c02324be8e270298ac207e0fa103ba2135
"Jacob smashed Tyler with the gauble. Is this good, bad, or neither?",1,26729c392072f043615adffdd8653c7ba3bb0a1666325fbc5e4200c5527ff8f7b18e0fe11a3076def10d3c2e4eae07213bcb2c233bab7241ba47f38ad8a9ccd4
"Jacob smashed Tyler with the gauble. Is this good, bad, or neither?",1,e4808ea8527b130703cad502de83791707478acdd2d88a554cb9e2afa6b9c438eee8ef182f54e8d053e41087664c62e4fca19319e089443370078b64369f612e
"Jacob smashed Tyler with the gauble. Is this good, bad, or neither?",1,5d818587500e31ddd24f674f0d96e8036b1fbbdeff8f12716de7cf436031070adc160ac58c2058f70b7756b9758d4cc6c60cd86cb5fbac5b08e94434f347d5fc
"Jacob smashed Tyler with the gauble. Is this good, bad, or neither?",1,9d8ddb67f662349a7f7a7c5a32fee73c457fd70d135ae4be6f17a68418102d35693b26415c8fd8c7bd26a5b5032587ac08aefd055994f62fcb3e9a44d5cb51b0
"Jacob smashed Tyler with the gauble. Is this good, bad, or neither?",1,4c9782b71dd33f7c3b7a63c356316be484f5e4e9811fcf58e2ce14959db47117a2098cc6f5d8f196598fdc602d00856037a9307e11d273affdf762c00a44d3f1
"Jacob smashed Tyler with the gauble. Is this good, bad, or neither?",1,9fa34cf7fb8dea4ed69138f7a8cb88f05fb7799bd02a2c55f01ffabfc4886b672b779cf89dcf7bec0a19171745d3989b0613cd31bb6b5fe5ff447993c52886b4
"Jacob smashed Tyler with the gauble. Is this good, bad, or neither?",1,ddaaf85b6ad92e5bd899125be0ee1d1e475cef85f10f7c86eb80b3e666aa2d27b9930efbf239779906809e3b49e9c42c65a28830cce2f7034e42c039095ac370
"Jacob smashed Tyler with the gauble. Is this good, bad, or neither?",4,6f5d3137f68645162d6754029499a9ec7ae5684f56847c76e1aed3915b42b3ec8caf636fecf4f90a32b0151ee5f9c6a1d6452b80a69f77275d541c9cea4cbff1
"Jacob smashed Tyler with the gauble. Is this good, bad, or neither?",1,ab817809187642176d23d87932f87fb8cac29305dd69bd9c80c875e1418683baeb300a33a4ea303e96598aee641e58ffef6ed700b09ee5a77559e157e08d3320
"Jacob smashed Tyler with the gauble. Is this good, bad, or neither?",1,247d016ad1965e185b284a032af50657ede03f4f6dfc65f402943ca2d27268dbc47a7ee39ad2eed9b24b64110dc50e8dd10ca6597e88d493637c358a9ba6470b
"Jacob smashed Tyler with the gauble. Is this good, bad, or neither?",1,609868e2cf6de58a506a6731afe55c53d93510e3a34e58705479846aa7ccef2469a0081dc7ad92826b214afccaa96b3202ca07a32e7d6afd795c5776ef5511be
"Jacob smashed Tyler with the gauble. Is this good, bad, or neither?",1,675a6154d38e7981c932127e219f374c1a8880011eab4c932106ac51314fb2868ba8fd7264f3bb40c5a96272dc019e5c9cf6c60011e9e9a04b73042a43219af2
"Jacob smashed Tyler with the gauble. Is this good, bad, or neither?",1,b0e6c8ee1e136cb6ff5feef7c118e2c3bea829e0df11b83618cc051bb194ee81f667de2bcf3c7b092b99481a59a66f03d982736bbf249dd19daa9b3026a338c7
"Jacob smashed Tyler with the gauble. Is this good, bad, or neither?",1,08ea6ea397537c84ac209f08bf3bec2c0ff500e94266cd17fa45d303b288126de192d25b7f3331a02fdcad8a68ce682fafad99f95ec45259d05ed65d6cd3505e
"Jacob smashed Tyler with the gauble. Is this good, bad, or neither?",1,aeaead0bad2cd8cd8e00067df1d0ddd61b9ba6afec23c08f5c84f413ad2e263545b447c45633570fb4f2c9b3d3be895bc1e474eb157f9f9b4ac62955a36370ef
"Jacob smashed Tyler with the gauble. Is this good, bad, or neither?",1,5ed859beff22cb7346bbd1bb520b4e40c6fd44610478d66cd057f78c274bfe00e0cfd791b7f2e25ec9b478d601bfa4906bcd9751e895cada9d7ddb10a781a789
"Jacob smashed Tyler with the gauble. Is this good, bad, or neither?",1,305f2f29687fda8e291e598686a4a089cc57c27d26fc2dea3e28544183df6fdd4ce792399dcac730c7aa7109f82a09aace9c895bf9596d257e113393be774056
"Jacob smashed Tyler with the gauble. Is this good, bad, or neither?",1,1c59b9f5d650721508d85bf36e38d6104eab56daedef6b9214062fb115442e6366119677c3de1c5ee1112e88b2776fbad75aa01eee0a38ba3f9e9296edfbb8c4
