"The sevel moved Sarah fracky. Is this good, bad, or neither?",3,5d818587500e31ddd24f674f0d96e8036b1fbbdeff8f12716de7cf436031070adc160ac58c2058f70b7756b9758d4cc6c60cd86cb5fbac5b08e94434f347d5fc
"The sevel moved Sarah fracky. Is this good, bad, or neither?",2,5cd49a816d389109ba1de471234af76714b514d25e6deb8ee8312e6ccc4ad6f8fb1090ea989df4adcd6fcdf54fd1b3b5001f883eaf1aa0d3324fcb4ec691aa30
"The sevel moved Sarah fracky. Is this good, bad, or neither?",2,ddaaf85b6ad92e5bd899125be0ee1d1e475cef85f10f7c86eb80b3e666aa2d27b9930efbf239779906809e3b49e9c42c65a28830cce2f7034e42c039095ac370
"The sevel moved Sarah fracky. Is this good, bad, or neither?",3,720bea532db6ed90a7bd855c056e2ccc32b0f2fe90eb490aa4d644afcc89620fb5f7c3bf4971d931a8aef22130fb8976bd9e83f534038e3c4e8421311520cb5d
"The sevel moved Sarah fracky. Is this good, bad, or neither?",3,5c78cfa674079a75abe5de42bc40db1d623bb65711855f031b55e35a1e02479a62ac33c54b81118bdf6f0674c61d58d2a9fedfd3b3f03f612b3761b4e2076c64
"The sevel moved Sarah fracky. Is this good, bad, or neither?",2,0c722c136e468896becb05136899b1cdefed4cbdf4d69fb30cf881aee9a6edbb940d1fa3eb056b1a7833746d18b72dc94dc05c48d1e303e365d93c4ccb192e9a
"The sevel moved Sarah fracky. Is this good, bad, or neither?",4,875020ab790a2a14de66f1031c9dbe948349d58ca878a7ebdf2af07b04dd9e5ab4a699ced7cd5f0dd4086c9d36d349e952b257a9921f440dc5f764a7d05e7b7f
"The sevel moved Sarah fracky. Is this good, bad, or neither?",4,6f5d3137f68645162d6754029499a9ec7ae5684f56847c76e1aed3915b42b3ec8caf636fecf4f90a32b0151ee5f9c6a1d6452b80a69f77275d541c9cea4cbff1
"The sevel moved Sarah fracky. Is this good, bad, or neither?",4,247d016ad1965e185b284a032af50657ede03f4f6dfc65f402943ca2d27268dbc47a7ee39ad2eed9b24b64110dc50e8dd10ca6597e88d493637c358a9ba6470b
"The sevel moved Sarah fracky. Is this good, bad, or neither?",0,949e348794c3e18581f7b55ecef851e605235f7c9cafa5c3b4d3e91106a8ea5851849ec1edc9cd0b8dbea5b628ab5f49181d508855ed809569304963bc219caa
"The sevel moved Sarah fracky. Is this good, bad, or neither?",4,9fc9d3de7ddb83580fc430d2d5c6ee47e775cabd5a982d7012deb44dbf1042f8b3db8ea6b2c4ee7b39f82b84b6b071d6968393ccc6520a6870f0883ccc441cf9
"The sevel moved Sarah fracky. Is this good, bad, or neither?",2,6442579b5017c978ac48004d53b31163b3763f309e6f3e0581e04c2aea211970cc33a63b0462acee00808e5c684e9c9445efbc52c93000c0cc6f7f2e7cc3b7f1
"The sevel moved Sarah fracky. Is this good, bad, or neither?",2,609868e2cf6de58a506a6731afe55c53d93510e3a34e58705479846aa7ccef2469a0081dc7ad92826b214afccaa96b3202ca07a32e7d6afd795c5776ef5511be
"The sevel moved Sarah fracky. Is this good, bad, or neither?",4,08ea6ea397537c84ac209f08bf3bec2c0ff500e94266cd17fa45d303b288126de192d25b7f3331a02fdcad8a68ce682fafad99f95ec45259d05ed65d6cd3505e
"The sevel moved Sarah fracky. Is this good, bad, or neither?",2,aeaead0bad2cd8cd8e00067df1d0ddd61b9ba6afec23c08f5c84f413ad2e263545b447c45633570fb4f2c9b3d3be895bc1e474eb157f9f9b4ac62955a36370ef
"The sevel moved Sarah fracky. Is this good, bad, or neither?",2,49dcb1441d32656cba9d11b70043b0c4d17712f6a50e97b4a50054f5ed2de2456bfaa95cc13099b9c4e56b3877f0d046a24ebafe7ba804cb86d78cf96ab92a6b
"The sevel moved Sarah fracky. Is this good, bad, or neither?",2,5ed859beff22cb7346bbd1bb520b4e40c6fd44610478d66cd057f78c274bfe00e0cfd791b7f2e25ec9b478d601bfa4906bcd9751e895cada9d7ddb10a781a789
"The sevel moved Sarah fracky. Is this good, bad, or neither?",4,305f2f29687fda8e291e598686a4a089cc57c27d26fc2dea3e28544183df6fdd4ce792399dcac730c7aa7109f82a09aace9c895bf9596d257e113393be774056
"The sevel moved Sarah fracky. Is this good, bad, or neither?",3,44ff1cf089bbf7211828a3fdb20b42438871616ec1673ead8a12f71d33cd02a9c9b6277f081d013d9f2ec7440ed01aff2b636ec53a25db5c848ae2217fd50870
"The sevel moved Sarah fracky. Is this good, bad, or neither?",5,9d8ddb67f662349a7f7a7c5a32fee73c457fd70d135ae4be6f17a68418102d35693b26415c8fd8c7bd26a5b5032587ac08aefd055994f62fcb3e9a44d5cb51b0
"The sevel moved Sarah fracky. Is this good, bad, or neither?",2,54f6b3e513c13bfcdbe1fe36eb012ee13d6a602793f7b0d77a58e9677d4df23396135d1671a38883db4788ebb0ed5a75fe3538b70666e0d9f1400e9f96cb120b
"The sevel moved Sarah fracky. Is this good, bad, or neither?",6,ac159058713bb786536395d849dcdcf98a8ffa433c0df23b7bc3208f1c1ce017c9e666811788def29dda032e13b5e11080c305f9a67c97282c112192adb437e0
"The sevel moved Sarah fracky. Is this good, bad, or neither?",4,5b56973b88ed7b736ff3966dd5900790af0d217684769981e05a869fd0482e4eb627fbc83ef164acdcc19dfee68958f3688d63269cfdc0cd3c3ec35969e3c934
"The sevel moved Sarah fracky. Is this good, bad, or neither?",2,af989e3af8e0075e9bde53bd63f64cd6e74e8b4e5bd1927668d72c74602eac36c160300f69280c96acac6f88b8e2304f56fa42541c2b6de1348a754f5f87e17c
"The sevel moved Sarah fracky. Is this good, bad, or neither?",2,3885872d2aa71ef9e4d95312a4bb23f301d9ec923dde0250ba69a21e33833a55987c0888790b64e61a58de072e8d93cea4ce96609cd8e46644b90554ec367d78
"The sevel moved Sarah fracky. Is this good, bad, or neither?",2,374634f202202263ffdd8668a1488ecd7d08e9ad30a552d742cc8d6a4a6336712da7922b4a1a4dd141940d6c0fc175765c5a7bb0ae45350384eb54f9f136d3e3
"The sevel moved Sarah fracky. Is this good, bad, or neither?",2,fb3ee4e72eb582b2b2920acd3ac5a4ed00149c2560bf0255b9bc8237d80cbadd7b353ced6ab5662f69dfe00d362575b7da94144cd2374866a682e39b17cc3c0d
"The sevel moved Sarah fracky. Is this good, bad, or neither?",5,2cb44008208d14c82cf8868fc09b67e721d51c1b25835a53ce5c75d4338141e971e3aad3228e19b641ecd4278d4576dc2f1af7702b6c5731e30d7d54f5a829a5
"The sevel moved Sarah fracky. Is this good, bad, or neither?",2,caff777a2303da77340521ef83945a07684b2612ccb93a9fe1e9e6b34d4e52177c4499982e59c5f493664f3123c4c9738867850e7445f494ca6c22600eb6e56a
"The sevel moved Sarah fracky. Is this good, bad, or neither?",4,28195e505193242d636c8cf88927e3353b64c1e9365b6d4fe6834ae467adb58cc661083c465cf575a9d4e6e6ea9daf2f4e5b8eaf892be186be05aa6b9c0519ec
"The sevel moved Sarah fracky. Is this good, bad, or neither?",4,d52d0f79310a4a1585de2ba281cae55d8bf4f66ee89a3b0afe5bec86ac64f3fbcf4ac04acc90a017d6f66a1259e7c33c370048fe26771c06104f79c7f0e7daea
"The sevel moved Sarah fracky. Is this good, bad, or neither?",2,ecd12f5c7840150b6bf31f41cfe805fbb7f1e24d87bc7f9a7e4a26034d172ee611537c7e49e1951d513a1b63598bec45f4cf8d3fd4936ebe2747d7e8018937e5
"The sevel moved Sarah fracky. Is this good, bad, or neither?",2,fb3a7ec160cab143dc007d01ba7360ae4fe10432a3f02cd9f109c44097d5769652194fc12a8841e31ec68e63b08b47507dd4793e804abbb6d789d1c14c953240
"The sevel moved Sarah fracky. Is this good, bad, or neither?",4,90b4c00904897dfc9947d675b51d26c8bab5d7621f0c7200b2ebe3bfdc799d3eea441e6971ab97ed15afaf281b2119395e96d8a7458e3d24a56daf3acc847a90
"The sevel moved Sarah fracky. Is this good, bad, or neither?",2,401591f278e1aaec5101f645338fca5fbbdec09332561ec98cafc52acdfccf065d04e4648dd1bf79814b86322d53768e40cef7ca3015a513d4528319988a1d5c
"The sevel moved Sarah fracky. Is this good, bad, or neither?",3,402d862a885a433bd20e5d09a950198923f5023ab6826adbae6c2477489f3f28ee35c4542d94699dd301e367398eec45ed437024aa84ae54f884b4a8d624003c
"The sevel moved Sarah fracky. Is this good, bad, or neither?",0,2e522521b21a1d41db023ae4136de708be41301c58d69e04637ddec14a114c7c1f10e4555ae1ec9a19db821aefe44567cf8091fcb0b60094d09e877612635b17
"The sevel moved Sarah fracky. Is this good, bad, or neither?",4,e56af4edb43eb082300ea0e2ed3a960edd1de31c19caa7b68eef7bcb9a37c1635ab3acda4ebc1e026c52d3ecfa975f3445ed5c545d48b014afe4bafcee989b25
"The sevel moved Sarah fracky. Is this good, bad, or neither?",3,25d027c6da98192540706e12bc8e68d5acd5ec91bd28c8850b54cb7d3026d1a117c7e52ccb55baabb2e8f42a63503aae470c61334e886f29ca86ac1384cbe399
"The sevel moved Sarah fracky. Is this good, bad, or neither?",3,41628a0f8849c48d09c00e99c4a99cae8b10c5d31c76fc5043a816bea93afdb63771aa227c3fc1235d69b6c482ed4c1972716b6868be483c3ecaba9ca7efddc1
"The sevel moved Sarah fracky. Is this good, bad, or neither?",4,65dbf29a361549ac50e30f45361caa81629fd4163a4cc1a3e8400adf0a480b18f74e445f6d965c403f4b5e9718d1a9922c1afaa02294caad8116e2a808ed026f
"The sevel moved Sarah fracky. Is this good, bad, or neither?",3,296665a761f0910d5583cb37a47f75e3057a956803857373c746e55048f80f2afa721365bdc1cc44acf4d6bf6a0e5095d577dbc8aee574489e043878143151fe
"The sevel moved Sarah fracky. Is this good, bad, or neither?",4,2affe66e78ed0fdb8662d48e9de768393c88ec5e667c71326bc9ac141e2742f64028489e0a9dbbd820ca7d777483a05f81c195e5a46d9c595e8003584f94b06f
"The sevel moved Sarah fracky. Is this good, bad, or neither?",2,8661a1f72da01f886cdb07b998b384386c846263042b029aa46c4553eb06f5b066ae9a6391dbb394d9b16ee49f910852795789e4985880d4f6e275c041802bf8
"The sevel moved Sarah fracky. Is this good, bad, or neither?",7,2c3843f7a0154be7e8854bc5507caae1691d5f1515e6821c7e59f36c11493ec2deff2cb113f9903e2ee649a03691c528f540d96e4a5d4ffdaa4c9f8b4aec01ae
"The sevel moved Sarah fracky. Is this good, bad, or neither?",4,2e08ea7a396b5dc2fc6ff518b56da9298cfd603a2f489e5145c092eb9870a320d2bfa8fd161fe5975a370e19055991d826fd24dea216f722fe25dbbf75088cd3
"The sevel moved Sarah fracky. Is this good, bad, or neither?",4,9b2c7999e14c3454c4040c57630dd6dd9ee2554ec359ef309fbdfbc93ef663c89d8a48198c56c7bd2523781745f3782b5a9a2f990acbac42622758d8f239c95c
"The sevel moved Sarah fracky. Is this good, bad, or neither?",2,ae35259fff5b718927785c56709880504e120ce94efa3434dd415e4c70baed9c160441aa62353feb3f16707b128745d2be5ce5553419c3089697ac91e3e85a29
"The sevel moved Sarah fracky. Is this good, bad, or neither?",5,71f6bb945167afb7789d00f15c7685f0300b6c353c6e12454dcc97e50dc177366da0fea1f8cf956f418deb794af51f1809d0ab15aa49d29a04f787e484dc9559
"The sevel moved Sarah fracky. Is this good, bad, or neither?",3,a7dc9d4f184ea86b7b6e6869b9a53887f9af455a7a9b3f701cc20ec18e11435fdb90d9c3eed921996792de6c1628b7a27219b25f044ffe99d725092cbc88af6e
"The sevel moved Sarah fracky. Is this good, bad, or neither?",3,f9fd05209933417c96ecb73a3ca6182d918094324bc1a1c90ad3eecf690d5206649a6bef945da828258499b098ebc96447a67d3d6b391b9374c9ad948a911b8c
"The sevel moved Sarah fracky. Is this good, bad, or neither?",2,0e94d256aa830f3911eb7045d4273aeecf5c0cf5f7d3390828bc406b709b5e3c33ae58dd680cd1eb5640eed2bd85361e2ddf53c5d5eb0fb35082e028e45772be
"The sevel moved Sarah fracky. Is this good, bad, or neither?",7,7c71a1ed631d499225eca45c7b4c4af55634115f0fce98e3b7405a4c6fce2aabb8f5d115484d50c3b6ec6db6ef6f5ae783acb7fff4b332d4488235cb123ed585
"The sevel moved Sarah fracky. Is this good, bad, or neither?",5,c6fc455f753ec688ce2d96a94bc21b612249e8a455788415ffafebe54be1343560acd119fc34d88888a584726cd43abf6322d33330565bad314eb4ede6e53d50
"The sevel moved Sarah fracky. Is this good, bad, or neither?",2,864fd6d6c6f3b061f8849268ccbe26a8df17226567b244b0760c60bacd2b79ced559640987941fff3ebd0eb3949cea7885c56e467856a8919d1736aa402c8087
"The sevel moved Sarah fracky. Is this good, bad, or neither?",6,0a10cfbe96898e179a6989823d1b388e63fd11f48fd9bb0f118bf62cd7dfea5dd88a7b1d57cbd9606e10dc7e76ef4a52208822cd8d1992d9cbf67431ac76dda0
"The sevel moved Sarah fracky. Is this good, bad, or neither?",2,0ef960d6d853ec615d67ffde3515107defa311e837571d6204b6bec828f4921b1d5eb9eaa05cc0576f1ede6d94934ca78dc6544d3eb51b738a3a901b2eda0a02
"The sevel moved Sarah fracky. Is this good, bad, or neither?",3,868fd3ba2ef67db192746e40d1c8eb19999054d23346415bc18c6b6ed9351a171915fffbfebee929b615f8feb6ef228e3db55737500fb292d0f36852fd4b4d61
"The sevel moved Sarah fracky. Is this good, bad, or neither?",3,5f12e05c2e694ca4d0d50f5c90ffefa31fc5c326c5f6352ab6f2d69efda09898d7fa2e899476fb98164baf5559806eee7fc6f92a8cd7641d9b208f848e51b143
"The sevel moved Sarah fracky. Is this good, bad, or neither?",3,5f12e05c2e694ca4d0d50f5c90ffefa31fc5c326c5f6352ab6f2d69efda09898d7fa2e899476fb98164baf5559806eee7fc6f92a8cd7641d9b208f848e51b143
"The sevel moved Sarah fracky. Is this good, bad, or neither?",3,5f12e05c2e694ca4d0d50f5c90ffefa31fc5c326c5f6352ab6f2d69efda09898d7fa2e899476fb98164baf5559806eee7fc6f92a8cd7641d9b208f848e51b143
"The sevel moved Sarah fracky. Is this good, bad, or neither?",3,5f12e05c2e694ca4d0d50f5c90ffefa31fc5c326c5f6352ab6f2d69efda09898d7fa2e899476fb98164baf5559806eee7fc6f92a8cd7641d9b208f848e51b143
"The sevel moved Sarah fracky. Is this good, bad, or neither?",3,5f12e05c2e694ca4d0d50f5c90ffefa31fc5c326c5f6352ab6f2d69efda09898d7fa2e899476fb98164baf5559806eee7fc6f92a8cd7641d9b208f848e51b143
"The sevel moved Sarah fracky. Is this good, bad, or neither?",3,5f12e05c2e694ca4d0d50f5c90ffefa31fc5c326c5f6352ab6f2d69efda09898d7fa2e899476fb98164baf5559806eee7fc6f92a8cd7641d9b208f848e51b143
"The sevel moved Sarah fracky. Is this good, bad, or neither?",3,5f12e05c2e694ca4d0d50f5c90ffefa31fc5c326c5f6352ab6f2d69efda09898d7fa2e899476fb98164baf5559806eee7fc6f92a8cd7641d9b208f848e51b143
"The sevel moved Sarah fracky. Is this good, bad, or neither?",3,5f12e05c2e694ca4d0d50f5c90ffefa31fc5c326c5f6352ab6f2d69efda09898d7fa2e899476fb98164baf5559806eee7fc6f92a8cd7641d9b208f848e51b143
"The sevel moved Sarah fracky. Is this good, bad, or neither?",1,c89754b99807251a49c11ddf6f29de872a05baa5126d5737c11d38dc32ca7269a8320288bec3b97723633698f26ac2f193aae82688ca53ef17a221e4339a459f
"The sevel moved Sarah fracky. Is this good, bad, or neither?",0,8e176a02087f9e24f28cecc547e6af9ccde15fac091e68abb588add3fb554a717c252a2aaac52e4064dbce28f7e6171562dc7f7153512c5f0ca1ab24d41fc019
"The sevel moved Sarah fracky. Is this good, bad, or neither?",1,8e176a02087f9e24f28cecc547e6af9ccde15fac091e68abb588add3fb554a717c252a2aaac52e4064dbce28f7e6171562dc7f7153512c5f0ca1ab24d41fc019
"The sevel moved Sarah fracky. Is this good, bad, or neither?",2,8e176a02087f9e24f28cecc547e6af9ccde15fac091e68abb588add3fb554a717c252a2aaac52e4064dbce28f7e6171562dc7f7153512c5f0ca1ab24d41fc019
"The sevel moved Sarah fracky. Is this good, bad, or neither?",6,8e176a02087f9e24f28cecc547e6af9ccde15fac091e68abb588add3fb554a717c252a2aaac52e4064dbce28f7e6171562dc7f7153512c5f0ca1ab24d41fc019
"The sevel moved Sarah fracky. Is this good, bad, or neither?",4,52dc0154d7cd13187ef0154d2c1af590e2269f7e2779bcd20e3f4da4d1f79220db62fe12840cd03266ac0ff0bf9be55fe151c3f703df19fe948eb079469c8bff
"The sevel moved Sarah fracky. Is this good, bad, or neither?",1,5a33178e53c5b3d1fe0d8c28ac04b98db91a53f23f61187e5d6ce0a558d17196e239d9b88560c9f02dedd4fe3646086c050b4a7fc6cefaf31eacf907e541c1e7
"The sevel moved Sarah fracky. Is this good, bad, or neither?",2,b6f2e1344ebdd16df984a569b364694e74d76b32cc3d59d2dffcc4d11ac6f38e551c9c180de2ef82243330ba19068b623902e0a25624aa0e128b8c46b7d589cb
"The sevel moved Sarah fracky. Is this good, bad, or neither?",3,8c198db1cf066bfe79b2a6823e8b0ebb3c0d364ebe469cfad908c14c03120b0af55f92854ff81242816d09ab5caf9b0398c329ebcb7575b705a61ff6c2a5339d
"The sevel moved Sarah fracky. Is this good, bad, or neither?",0,3ce1c91573b49e76ae6d43c669a24733296314c25baffa84d6693179025159771a3c7b297e83491615fff176965dd211be78675095cfe008040fcf254df14810
"The sevel moved Sarah fracky. Is this good, bad, or neither?",3,0c1e43ef5b2f9488f1f2f5d3bb698140bc0a814ccd0552a4d3b9bc7f4899fbd7f112dda7c2abe51111db2cd9354f7ed05e8023ddc9513e6797cd881f2b3a9c2c
"The sevel moved Sarah fracky. Is this good, bad, or neither?",3,0c1e43ef5b2f9488f1f2f5d3bb698140bc0a814ccd0552a4d3b9bc7f4899fbd7f112dda7c2abe51111db2cd9354f7ed05e8023ddc9513e6797cd881f2b3a9c2c
"The sevel moved Sarah fracky. Is this good, bad, or neither?",2,b4a89e063c479339463fe8a3755a45afdb72640d55ae6f8499866bdce35aea79532c96c386d3e305abf960bd172306159148a5dedc70fc0c191353ec94176ac4
"The sevel moved Sarah fracky. Is this good, bad, or neither?",4,df608c0da2c489c9ce479d132508088b5163d6ed49ba6396f1375ccf37e7e6da380073f70f913044cf76ac9c414784f8809b2b08de1f9315e7783caff680270a
"The sevel moved Sarah fracky. Is this good, bad, or neither?",7,df608c0da2c489c9ce479d132508088b5163d6ed49ba6396f1375ccf37e7e6da380073f70f913044cf76ac9c414784f8809b2b08de1f9315e7783caff680270a
"The sevel moved Sarah fracky. Is this good, bad, or neither?",0,819161aa2e764fd74ba60f02978d28b130e488d1f6ed613c48db286b68fe06ef24eeeb946d2af813bac598640b43342cd2b7a142eb31a6fff239faaae995f9f7
"The sevel moved Sarah fracky. Is this good, bad, or neither?",2,531c667d4f67a26af45a5bfab6e20324aaa1acbcdbd2ac94f656bed1a4a854ed782760da32b1894db093d87f786a06b36748c4859a7d63a8ee897aa837aedc5e
"The sevel moved Sarah fracky. Is this good, bad, or neither?",4,e99ecb5d42bcb556995b59950ff2adddeed2be5050bd1be001ea5c7406b2758121a564b947dd78f9585c52677cf9a6f0d860adc9290d708573e1d3b54e46459d
"The sevel moved Sarah fracky. Is this good, bad, or neither?",2,c2a35a9e3a4e63030e1b1467ea5c631724ace41aa9aab9a34f7eb3dea239079ba738fd4333a249f113a2423c2b23c3dc9bd99213f8a783d851527ee9cb86f84b
"The sevel moved Sarah fracky. Is this good, bad, or neither?",2,a04441347c7a31798c34e1a297af024142381cfd06d1679184d6b0cf7ea8eda83518c819aaa67808a7238790be4a54c02324be8e270298ac207e0fa103ba2135
"The sevel moved Sarah fracky. Is this good, bad, or neither?",4,b4a89e063c479339463fe8a3755a45afdb72640d55ae6f8499866bdce35aea79532c96c386d3e305abf960bd172306159148a5dedc70fc0c191353ec94176ac4
"The sevel moved Sarah fracky. Is this good, bad, or neither?",0,bacafe2011f70b6dec7d7bb4d21f45b190174a23e7bd20c1c541961cbaccd15e745d72288a9ff24174f4ae90a310a7560c716409e0abf220a40ccb073191016b
"The sevel moved Sarah fracky. Is this good, bad, or neither?",3,5d818587500e31ddd24f674f0d96e8036b1fbbdeff8f12716de7cf436031070adc160ac58c2058f70b7756b9758d4cc6c60cd86cb5fbac5b08e94434f347d5fc
"The sevel moved Sarah fracky. Is this good, bad, or neither?",2,5cd49a816d389109ba1de471234af76714b514d25e6deb8ee8312e6ccc4ad6f8fb1090ea989df4adcd6fcdf54fd1b3b5001f883eaf1aa0d3324fcb4ec691aa30
"The sevel moved Sarah fracky. Is this good, bad, or neither?",2,ddaaf85b6ad92e5bd899125be0ee1d1e475cef85f10f7c86eb80b3e666aa2d27b9930efbf239779906809e3b49e9c42c65a28830cce2f7034e42c039095ac370
"The sevel moved Sarah fracky. Is this good, bad, or neither?",3,720bea532db6ed90a7bd855c056e2ccc32b0f2fe90eb490aa4d644afcc89620fb5f7c3bf4971d931a8aef22130fb8976bd9e83f534038e3c4e8421311520cb5d
"The sevel moved Sarah fracky. Is this good, bad, or neither?",3,5c78cfa674079a75abe5de42bc40db1d623bb65711855f031b55e35a1e02479a62ac33c54b81118bdf6f0674c61d58d2a9fedfd3b3f03f612b3761b4e2076c64
"The sevel moved Sarah fracky. Is this good, bad, or neither?",2,0c722c136e468896becb05136899b1cdefed4cbdf4d69fb30cf881aee9a6edbb940d1fa3eb056b1a7833746d18b72dc94dc05c48d1e303e365d93c4ccb192e9a
"The sevel moved Sarah fracky. Is this good, bad, or neither?",4,875020ab790a2a14de66f1031c9dbe948349d58ca878a7ebdf2af07b04dd9e5ab4a699ced7cd5f0dd4086c9d36d349e952b257a9921f440dc5f764a7d05e7b7f
"The sevel moved Sarah fracky. Is this good, bad, or neither?",4,6f5d3137f68645162d6754029499a9ec7ae5684f56847c76e1aed3915b42b3ec8caf636fecf4f90a32b0151ee5f9c6a1d6452b80a69f77275d541c9cea4cbff1
"The sevel moved Sarah fracky. Is this good, bad, or neither?",4,247d016ad1965e185b284a032af50657ede03f4f6dfc65f402943ca2d27268dbc47a7ee39ad2eed9b24b64110dc50e8dd10ca6597e88d493637c358a9ba6470b
"The sevel moved Sarah fracky. Is this good, bad, or neither?",0,949e348794c3e18581f7b55ecef851e605235f7c9cafa5c3b4d3e91106a8ea5851849ec1edc9cd0b8dbea5b628ab5f49181d508855ed809569304963bc219caa
"The sevel moved Sarah fracky. Is this good, bad, or neither?",4,9fc9d3de7ddb83580fc430d2d5c6ee47e775cabd5a982d7012deb44dbf1042f8b3db8ea6b2c4ee7b39f82b84b6b071d6968393ccc6520a6870f0883ccc441cf9
"The sevel moved Sarah fracky. Is this good, bad, or neither?",2,6442579b5017c978ac48004d53b31163b3763f309e6f3e0581e04c2aea211970cc33a63b0462acee00808e5c684e9c9445efbc52c93000c0cc6f7f2e7cc3b7f1
"The sevel moved Sarah fracky. Is this good, bad, or neither?",2,609868e2cf6de58a506a6731afe55c53d93510e3a34e58705479846aa7ccef2469a0081dc7ad92826b214afccaa96b3202ca07a32e7d6afd795c5776ef5511be
"The sevel moved Sarah fracky. Is this good, bad, or neither?",4,08ea6ea397537c84ac209f08bf3bec2c0ff500e94266cd17fa45d303b288126de192d25b7f3331a02fdcad8a68ce682fafad99f95ec45259d05ed65d6cd3505e
"The sevel moved Sarah fracky. Is this good, bad, or neither?",2,aeaead0bad2cd8cd8e00067df1d0ddd61b9ba6afec23c08f5c84f413ad2e263545b447c45633570fb4f2c9b3d3be895bc1e474eb157f9f9b4ac62955a36370ef
"The sevel moved Sarah fracky. Is this good, bad, or neither?",2,49dcb1441d32656cba9d11b70043b0c4d17712f6a50e97b4a50054f5ed2de2456bfaa95cc13099b9c4e56b3877f0d046a24ebafe7ba804cb86d78cf96ab92a6b
"The sevel moved Sarah fracky. Is this good, bad, or neither?",2,5ed859beff22cb7346bbd1bb520b4e40c6fd44610478d66cd057f78c274bfe00e0cfd791b7f2e25ec9b478d601bfa4906bcd9751e895cada9d7ddb10a781a789
"The sevel moved Sarah fracky. Is this good, bad, or neither?",4,305f2f29687fda8e291e598686a4a089cc57c27d26fc2dea3e28544183df6fdd4ce792399dcac730c7aa7109f82a09aace9c895bf9596d257e113393be774056
"The sevel moved Sarah fracky. Is this good, bad, or neither?",3,44ff1cf089bbf7211828a3fdb20b42438871616ec1673ead8a12f71d33cd02a9c9b6277f081d013d9f2ec7440ed01aff2b636ec53a25db5c848ae2217fd50870
"The sevel moved Sarah fracky. Is this good, bad, or neither?",5,9d8ddb67f662349a7f7a7c5a32fee73c457fd70d135ae4be6f17a68418102d35693b26415c8fd8c7bd26a5b5032587ac08aefd055994f62fcb3e9a44d5cb51b0
"The sevel moved Sarah fracky. Is this good, bad, or neither?",5,2cb44008208d14c82cf8868fc09b67e721d51c1b25835a53ce5c75d4338141e971e3aad3228e19b641ecd4278d4576dc2f1af7702b6c5731e30d7d54f5a829a5
"The sevel moved Sarah fracky. Is this good, bad, or neither?",3,402d862a885a433bd20e5d09a950198923f5023ab6826adbae6c2477489f3f28ee35c4542d94699dd301e367398eec45ed437024aa84ae54f884b4a8d624003c
"The sevel moved Sarah fracky. Is this good, bad, or neither?",3,25d027c6da98192540706e12bc8e68d5acd5ec91bd28c8850b54cb7d3026d1a117c7e52ccb55baabb2e8f42a63503aae470c61334e886f29ca86ac1384cbe399
"The sevel moved Sarah fracky. Is this good, bad, or neither?",3,41628a0f8849c48d09c00e99c4a99cae8b10c5d31c76fc5043a816bea93afdb63771aa227c3fc1235d69b6c482ed4c1972716b6868be483c3ecaba9ca7efddc1
"The sevel moved Sarah fracky. Is this good, bad, or neither?",3,296665a761f0910d5583cb37a47f75e3057a956803857373c746e55048f80f2afa721365bdc1cc44acf4d6bf6a0e5095d577dbc8aee574489e043878143151fe
"The sevel moved Sarah fracky. Is this good, bad, or neither?",7,2c3843f7a0154be7e8854bc5507caae1691d5f1515e6821c7e59f36c11493ec2deff2cb113f9903e2ee649a03691c528f540d96e4a5d4ffdaa4c9f8b4aec01ae
