"The gamp smashed Angela. Is this good, bad, or neither?",1,5d818587500e31ddd24f674f0d96e8036b1fbbdeff8f12716de7cf436031070adc160ac58c2058f70b7756b9758d4cc6c60cd86cb5fbac5b08e94434f347d5fc
"The gamp smashed Angela. Is this good, bad, or neither?",1,5cd49a816d389109ba1de471234af76714b514d25e6deb8ee8312e6ccc4ad6f8fb1090ea989df4adcd6fcdf54fd1b3b5001f883eaf1aa0d3324fcb4ec691aa30
"The gamp smashed Angela. Is this good, bad, or neither?",1,ddaaf85b6ad92e5bd899125be0ee1d1e475cef85f10f7c86eb80b3e666aa2d27b9930efbf239779906809e3b49e9c42c65a28830cce2f7034e42c039095ac370
"The gamp smashed Angela. Is this good, bad, or neither?",1,e6dc417fdca8c95315a2063663a6db5cca7269dde328b6ff98351a0041b5b6b420b725b8b6c050b263e1004b2b98fd3de96fced81409a8aba33a67964949d80e
"The gamp smashed Angela. Is this good, bad, or neither?",1,3e48ecd6054d02891089f87e7290c4a1787d57fabca13ac896aa9393516140b72931471ecd8ad7b77a4a4dbb84a62823ee4ee2800ac340eb5b600cf3fba6c547
"The gamp smashed Angela. Is this good, bad, or neither?",1,ab817809187642176d23d87932f87fb8cac29305dd69bd9c80c875e1418683baeb300a33a4ea303e96598aee641e58ffef6ed700b09ee5a77559e157e08d3320
"The gamp smashed Angela. Is this good, bad, or neither?",1,6442579b5017c978ac48004d53b31163b3763f309e6f3e0581e04c2aea211970cc33a63b0462acee00808e5c684e9c9445efbc52c93000c0cc6f7f2e7cc3b7f1
"The gamp smashed Angela. Is this good, bad, or neither?",1,609868e2cf6de58a506a6731afe55c53d93510e3a34e58705479846aa7ccef2469a0081dc7ad92826b214afccaa96b3202ca07a32e7d6afd795c5776ef5511be
"The gamp smashed Angela. Is this good, bad, or neither?",1,2531206edef94c461161d27b4fbc0c202c370b9d300bccd02239c652d3a45689081304d986f9604d6bfc06f4bba449dba5891d94061d04cc9f8f152b24e6ff67
"The gamp smashed Angela. Is this good, bad, or neither?",1,3b824e27a37757b734ebdcf0410f404e1ec814e83c36573d6d889b5c279a02f82de58201b4d1d3129ec3bb46dc8ee1b978b4c78919cd63e3b018278c3c18fde0
"The gamp smashed Angela. Is this good, bad, or neither?",1,a36b43bd789ef341914e784ff830963bac3b6bad0211de9ca706eb1013daab7c00b75359bb7c07515d48907ceecd41f54b7469a8c480913ff97cf3b110e345b8
"The gamp smashed Angela. Is this good, bad, or neither?",1,08ea6ea397537c84ac209f08bf3bec2c0ff500e94266cd17fa45d303b288126de192d25b7f3331a02fdcad8a68ce682fafad99f95ec45259d05ed65d6cd3505e
"The gamp smashed Angela. Is this good, bad, or neither?",1,aeaead0bad2cd8cd8e00067df1d0ddd61b9ba6afec23c08f5c84f413ad2e263545b447c45633570fb4f2c9b3d3be895bc1e474eb157f9f9b4ac62955a36370ef
"The gamp smashed Angela. Is this good, bad, or neither?",1,305f2f29687fda8e291e598686a4a089cc57c27d26fc2dea3e28544183df6fdd4ce792399dcac730c7aa7109f82a09aace9c895bf9596d257e113393be774056
"The gamp smashed Angela. Is this good, bad, or neither?",1,d2e6a6d57cee882ed16cbca1deba3136243493bacf9e4e499c38cc8a2b5fcdcbcd2adb8da2e6729ba9d022cc76627215947a55dbf461d7f613a6d612d1e95600
"The gamp smashed Angela. Is this good, bad, or neither?",1,9d8ddb67f662349a7f7a7c5a32fee73c457fd70d135ae4be6f17a68418102d35693b26415c8fd8c7bd26a5b5032587ac08aefd055994f62fcb3e9a44d5cb51b0
"The gamp smashed Angela. Is this good, bad, or neither?",3,ac159058713bb786536395d849dcdcf98a8ffa433c0df23b7bc3208f1c1ce017c9e666811788def29dda032e13b5e11080c305f9a67c97282c112192adb437e0
"The gamp smashed Angela. Is this good, bad, or neither?",1,b2e4ef616f0e1cac30a4ca570ef5fcdd39f29c1d43a6f1aee2542fd1b0997436fa6ac58d4b97fa4b3ef9a0ae56b199c150a1682687603e5266cfc82b866b7ed2
"The gamp smashed Angela. Is this good, bad, or neither?",1,a04441347c7a31798c34e1a297af024142381cfd06d1679184d6b0cf7ea8eda83518c819aaa67808a7238790be4a54c02324be8e270298ac207e0fa103ba2135
"The gamp smashed Angela. Is this good, bad, or neither?",4,3b7064740fd25a1c30137c14e9393566d47c2d8520ce890bfce68fba72af810730ba4065c7a4b097259036bf4fb2977376c266b469a1c7cc015777fa5f4b4533
"The gamp smashed Angela. Is this good, bad, or neither?",1,7f45982c84b0e62975c836530ebc5c20ed43e2aaac4d7f1c99d59dac30103bb0a2c7f0c3eb3c011244e3b29b96036757199959b8d8fbcc5cf995fee8253a05f5
"The gamp smashed Angela. Is this good, bad, or neither?",3,5bb1e90963d5b5e1d3c14eae80405393c0c20871e69dc15ea72df169e1937612fd2b96cb2c8ea32e9f258fb32c5ccfb72b94385ec5d6ae6f13d064b2de80e462
"The gamp smashed Angela. Is this good, bad, or neither?",1,af989e3af8e0075e9bde53bd63f64cd6e74e8b4e5bd1927668d72c74602eac36c160300f69280c96acac6f88b8e2304f56fa42541c2b6de1348a754f5f87e17c
"The gamp smashed Angela. Is this good, bad, or neither?",1,b58444df1aa20c5005f739d40601072c266d6fa43a16db0587813e3af15927101be624064ed344fe02d37256fea6921972c3b63cf04ab6073e02d07099a85c67
"The gamp smashed Angela. Is this good, bad, or neither?",1,fb3ee4e72eb582b2b2920acd3ac5a4ed00149c2560bf0255b9bc8237d80cbadd7b353ced6ab5662f69dfe00d362575b7da94144cd2374866a682e39b17cc3c0d
"The gamp smashed Angela. Is this good, bad, or neither?",1,832b19ea4eb64ad4f6298c0933ec2f6ba994974bcbbda62a7a0088a00f6cd96bd27aca96187875bf07fe2c868f7cd9e74b39598b91c261fd45079e5150637de4
"The gamp smashed Angela. Is this good, bad, or neither?",1,948b1546ab23598285d2f77f39e4276a3a82e5d340295aa6760c9fc6f36b7437bb3a495a3ba88d447f3fe661e3d3dc2ca10e32b8b5eb3feb6619e793bc050ef2
"The gamp smashed Angela. Is this good, bad, or neither?",1,caff777a2303da77340521ef83945a07684b2612ccb93a9fe1e9e6b34d4e52177c4499982e59c5f493664f3123c4c9738867850e7445f494ca6c22600eb6e56a
"The gamp smashed Angela. Is this good, bad, or neither?",1,ecd12f5c7840150b6bf31f41cfe805fbb7f1e24d87bc7f9a7e4a26034d172ee611537c7e49e1951d513a1b63598bec45f4cf8d3fd4936ebe2747d7e8018937e5
"The gamp smashed Angela. Is this good, bad, or neither?",1,28195e505193242d636c8cf88927e3353b64c1e9365b6d4fe6834ae467adb58cc661083c465cf575a9d4e6e6ea9daf2f4e5b8eaf892be186be05aa6b9c0519ec
"The gamp smashed Angela. Is this good, bad, or neither?",1,afc467a2a260521f669c0728bcf5c5371a1d242b0caa81f378df380811bc38b01c00f29cd95374bd8e7e2b4d44a8dec79e102c89542c4e99e38fa0d0174b14c0
"The gamp smashed Angela. Is this good, bad, or neither?",1,2c619ad875bd461c26444020db5353f4ecb5ed762c069786fcb94ab28979161f01d6954aa56757fc0edc7485f679814d3d6eac087e7315b78483b70885b60130
"The gamp smashed Angela. Is this good, bad, or neither?",1,819308386a595fdf2e7fee072f96383a8b6401282510662eaf379f6a21537740d7d77947a0135b2801650ee337e4bb810bbf97978fafe8ee6a8adfdd187cb77b
"The gamp smashed Angela. Is this good, bad, or neither?",1,d8d36b556cb88089c396a1aa18d3b2fcc76975bf65b7c36c6bfdde6fb04622148a36cd6ddaf29b2df5b5d98328fadebc0d4a61203ea283c2a49ea9dc69cc2a86
"The gamp smashed Angela. Is this good, bad, or neither?",1,dc9bd73e96e88ec668d6da16e12455274f6d3bbe0087961b186f1ed84a41b0b9af2754539a4703d21d8aa191c761dd651845b63ff5514500a5a9407b1f36e1a1
"The gamp smashed Angela. Is this good, bad, or neither?",1,7e9f4fddfb5cf86b911fe467f827fb830d4f239b2c191fb4082e0008793e3c8b31f1e0e5c148e1ade6a875bb0f51a6f88e46939ee99c47c9a5d74b0ad34736b4
"The gamp smashed Angela. Is this good, bad, or neither?",1,5c9707d668abe476aa8cff38a84f79aedb2b38765c46cc528db13f7cf96bed4fdb4f6bb27fbd184e13b8e09799f2038781f0e872752d1f8e7ad95b415a816ff1
"The gamp smashed Angela. Is this good, bad, or neither?",1,1e7019267a5b9fb0c239414b1e225193cc46ec9d6c9a84692122a153d5af4e4bec36f2ece04c27828e7c811956744c4cdaf9b6e007fe5418441f79557bd2012a
"The gamp smashed Angela. Is this good, bad, or neither?",1,2e08ea7a396b5dc2fc6ff518b56da9298cfd603a2f489e5145c092eb9870a320d2bfa8fd161fe5975a370e19055991d826fd24dea216f722fe25dbbf75088cd3
"The gamp smashed Angela. Is this good, bad, or neither?",1,fe62b62fa77327aa44f8a4cb629224c867a55aa98fa766c602c8105fb25c031d5a5292782d0adc5e403a18b92485e8782032e826f7fb61b4e55e498116019e6d
"The gamp smashed Angela. Is this good, bad, or neither?",1,7eac63dd734031a37e46a4e523aa6bfac9447229a7978f447e0dd64aaeb24d0d1a328b33c9c4f7113e04ffb0b3b9208c1ba47d96cd9c916cdf876f738fa5ae44
"The gamp smashed Angela. Is this good, bad, or neither?",3,132fc89ac72aa46fb61303d5d9628af9a22c6f1c82ea9b569e623c008e5595c3368b64f243b6d4b833c46db40a8217368e0ed1f00e8ba401de6e1d5ad83a159e
"The gamp smashed Angela. Is this good, bad, or neither?",1,3d4fc7b2dadb2b182d403a89b5b1771f45fe25dc6bc63f09adc7633a8a11cca9c91b4455faf8b8a973a33d286a5a58caf726f100a06cb3a9dcbbc6cb0bfb78a3
"The gamp smashed Angela. Is this good, bad, or neither?",1,f9fd05209933417c96ecb73a3ca6182d918094324bc1a1c90ad3eecf690d5206649a6bef945da828258499b098ebc96447a67d3d6b391b9374c9ad948a911b8c
"The gamp smashed Angela. Is this good, bad, or neither?",1,10b8dd0a33c9f9a0916324eafdcca631e13b6ff8f7f5f56c7e4dfe89868cc357f1a929eafe4002a5070d99628417526ad4495e6b9b0bbf3a900600936d60229f
"The gamp smashed Angela. Is this good, bad, or neither?",1,a3fe48d172465fbb24a650eeb520bd4c4631496b6d9d7a38bf192e1566aa97e662f2b2e76290bf0e0a6c2a90ffb291b31ff1e75bb29714c834646a850ace5bf6
"The gamp smashed Angela. Is this good, bad, or neither?",1,4e28db9d365fcc07dbb695528074eb9dab8ba22eb7152b5d0fb148d0a1ebf9ea695e7aaf99d3e2d829ebc8492fa0891c5f5ea3ba2a4fb40f22fdefdc688d4733
"The gamp smashed Angela. Is this good, bad, or neither?",1,ae71f9bdc55da0b8c3750381f7b461c628621bb341f0e02b43848a20de5aa785e174d7beb999f170b8bb7faab1935b89b977d5792d527da83e05755bab3f1c1f
"The gamp smashed Angela. Is this good, bad, or neither?",7,a20851ab70c5559c6cc274cb14671174cfd85ddb62f2a558a3d5916d6bcfc9fa1d619a612c3677a723f0c3ae6169e486979c328d07c663a982cf998378ddec9c
"The gamp smashed Angela. Is this good, bad, or neither?",1,125017ea88a73867d2f3578e2d30f78f1f43723210196b0afee241186d2ecdd2f2326e5636974efddba6582dbfd0f361280ca5c6372845adf36c0068f664d7d4
"The gamp smashed Angela. Is this good, bad, or neither?",1,1b40c074bc8927f5ceb8412a93fe0d55120df20512aeaa4ca04ea0532af43222fd451ad25c84131d025386dd46836ceba6dad2915191f430bc225da3add712b9
"The gamp smashed Angela. Is this good, bad, or neither?",1,1831481d8d3eec3a2fb2eab505a1b3de37697dbd0fcd9eac9ec06146ca2f124f7ecd5dcaee89b5a0287ae89cdd959821afdbe8bf3dd36d8674059f59fc7f1061
"The gamp smashed Angela. Is this good, bad, or neither?",1,617bfe9106bd7b2498111ed4737ce610c34d7602a26313bf79204130d99776bdcb8e8c54c7d84c4d543b0da9ebffda21c8a5ecb9367f9faa26fc4335b51324be
"The gamp smashed Angela. Is this good, bad, or neither?",1,512926c32568782467c043d9acacef7e1297fe10e47106d36f90ed38f8036a40a0f8a10a29ae7a31a0a93e5ad4fed44921abf919134ac7a8d096c8022d200715
"The gamp smashed Angela. Is this good, bad, or neither?",1,864fd6d6c6f3b061f8849268ccbe26a8df17226567b244b0760c60bacd2b79ced559640987941fff3ebd0eb3949cea7885c56e467856a8919d1736aa402c8087
"The gamp smashed Angela. Is this good, bad, or neither?",3,ea309da247ab11c0be1d03c16ca50fbffd880099235f2b1efd4699aa0f567d64c87b7f255e108d76382231f73f82881eca59d0b374ae2179dd47941c85333da1
"The gamp smashed Angela. Is this good, bad, or neither?",1,ec18bddd10dde1fa9b0678a5f93f51d3c8c6a04cdeda30d0952a5227e53fd39e4f9cdf4da1ff9f2bcc804d1b8b1a83bbf20990182cc71659e50760daecee94ec
"The gamp smashed Angela. Is this good, bad, or neither?",1,99ff96e6b36e51ea6555845f79e5795199be310340093e4fef1ef6fa898ed97acfaa5950db6f7d594711cbd46f3e7b3bd8923e18ebca45a28d3e72de6dd5d9c6
"The gamp smashed Angela. Is this good, bad, or neither?",1,abb7b52d6cd506530513dcebbc4f3f8907b20833cf98b9796b3c04aaedf4041c1a1c7c1bc81c59906578fd317ecef010e757b86d26a905ea96db5023e4d358f1
"The gamp smashed Angela. Is this good, bad, or neither?",3,5f12e05c2e694ca4d0d50f5c90ffefa31fc5c326c5f6352ab6f2d69efda09898d7fa2e899476fb98164baf5559806eee7fc6f92a8cd7641d9b208f848e51b143
"The gamp smashed Angela. Is this good, bad, or neither?",3,5f12e05c2e694ca4d0d50f5c90ffefa31fc5c326c5f6352ab6f2d69efda09898d7fa2e899476fb98164baf5559806eee7fc6f92a8cd7641d9b208f848e51b143
"The gamp smashed Angela. Is this good, bad, or neither?",3,5f12e05c2e694ca4d0d50f5c90ffefa31fc5c326c5f6352ab6f2d69efda09898d7fa2e899476fb98164baf5559806eee7fc6f92a8cd7641d9b208f848e51b143
"The gamp smashed Angela. Is this good, bad, or neither?",3,5f12e05c2e694ca4d0d50f5c90ffefa31fc5c326c5f6352ab6f2d69efda09898d7fa2e899476fb98164baf5559806eee7fc6f92a8cd7641d9b208f848e51b143
"The gamp smashed Angela. Is this good, bad, or neither?",3,5f12e05c2e694ca4d0d50f5c90ffefa31fc5c326c5f6352ab6f2d69efda09898d7fa2e899476fb98164baf5559806eee7fc6f92a8cd7641d9b208f848e51b143
"The gamp smashed Angela. Is this good, bad, or neither?",3,5f12e05c2e694ca4d0d50f5c90ffefa31fc5c326c5f6352ab6f2d69efda09898d7fa2e899476fb98164baf5559806eee7fc6f92a8cd7641d9b208f848e51b143
"The gamp smashed Angela. Is this good, bad, or neither?",3,5f12e05c2e694ca4d0d50f5c90ffefa31fc5c326c5f6352ab6f2d69efda09898d7fa2e899476fb98164baf5559806eee7fc6f92a8cd7641d9b208f848e51b143
"The gamp smashed Angela. Is this good, bad, or neither?",3,5f12e05c2e694ca4d0d50f5c90ffefa31fc5c326c5f6352ab6f2d69efda09898d7fa2e899476fb98164baf5559806eee7fc6f92a8cd7641d9b208f848e51b143
"The gamp smashed Angela. Is this good, bad, or neither?",1,91be47e88366fa6f2020ea1859a22dee90a3e58efa3fbfb7df3addc9bdd40231a9a9f82b6bf99f373e969b1d8c011a637bb8240371353c2e6f6f194739cf2b3c
"The gamp smashed Angela. Is this good, bad, or neither?",1,3ae5fad6261d17c076acb9e8412228dcb8dbd43eaa49ecd0470fe4d9aa46bbda325e7914ddcd9c492e96b78b4efa97e2feda4df45bd56b906257c2aabfa8cba1
"The gamp smashed Angela. Is this good, bad, or neither?",7,0206ff2e1d28198df8ee7a46873c90bb6dba70800b7b07969aedc6a4c2931a4dd0f60af34ebe1b8c7d5ea05ccb82215769bfd53b6384f304c81778ca0992816b
"The gamp smashed Angela. Is this good, bad, or neither?",1,3ce1c91573b49e76ae6d43c669a24733296314c25baffa84d6693179025159771a3c7b297e83491615fff176965dd211be78675095cfe008040fcf254df14810
"The gamp smashed Angela. Is this good, bad, or neither?",4,3ce1c91573b49e76ae6d43c669a24733296314c25baffa84d6693179025159771a3c7b297e83491615fff176965dd211be78675095cfe008040fcf254df14810
"The gamp smashed Angela. Is this good, bad, or neither?",1,819161aa2e764fd74ba60f02978d28b130e488d1f6ed613c48db286b68fe06ef24eeeb946d2af813bac598640b43342cd2b7a142eb31a6fff239faaae995f9f7
"The gamp smashed Angela. Is this good, bad, or neither?",1,383c31fc054e97f9de55280d21a99453c9af5fbbe7daaba525a7182937b3cceb4b752f8d974eff05463a1bce47dfeae49028a0ee352343fee2d36977a47e5ae8
"The gamp smashed Angela. Is this good, bad, or neither?",1,8eb8eb9ee8a5dc5a76832099bd61e3988c8e01c2c58daae7a5a78563d2f5449d2ac146d6d35c79e2f33b7fe14c8d00f78deea59045dcb4570a6484c7fe7175f4
"The gamp smashed Angela. Is this good, bad, or neither?",1,6f16233ce91dd3e70004541a71a1aba0a5b74fecbe7fff7debed231210556cc15f33e0ad09ee39575226d8e7f5ba397aae9fe9240be5507f04db735ef4ee3b92
"The gamp smashed Angela. Is this good, bad, or neither?",1,f74a189a696ebb5d3833d4b89b0f94733b24c099235b93e38989b213817f3f6c519b8f67d99e68d2aae2d8cec42afe0dc9936b8765108818964591269daa19f6
"The gamp smashed Angela. Is this good, bad, or neither?",7,5a586abfb0b187a0f1f9b5485bd78a39509a7ccce19c73e01ce2789939e34bd90489f02639b521fcb9ed5c4156c08c2aff3004fa38cd00c674977ea923fbbf88
"The gamp smashed Angela. Is this good, bad, or neither?",1,9ef2786603ef58e4ee86df8bee97a8153d9ed584a3d0292051061067611c8b1699ae99972987eb5b190926755ecca0dd56936587c6fea5ea18a37691840bbb0b
"The gamp smashed Angela. Is this good, bad, or neither?",1,b4a89e063c479339463fe8a3755a45afdb72640d55ae6f8499866bdce35aea79532c96c386d3e305abf960bd172306159148a5dedc70fc0c191353ec94176ac4
"The gamp smashed Angela. Is this good, bad, or neither?",3,d418bd2d9a781e5f35d113bcc21f89302cf9cfc9bbfe6443ce46fece4a2c347a9b51e2819e2ad91139cc270d7d1933d34984b75b366929e651634848a4ceb239
"The gamp smashed Angela. Is this good, bad, or neither?",3,d418bd2d9a781e5f35d113bcc21f89302cf9cfc9bbfe6443ce46fece4a2c347a9b51e2819e2ad91139cc270d7d1933d34984b75b366929e651634848a4ceb239
"The gamp smashed Angela. Is this good, bad, or neither?",1,5f1ce99b34eb6f3f3e35f6bcd9b2becffcb2a8c52c7c7a2e89a4947d054a20623b525542a0aa9aaa845b1f376bb732a143ad2851a9fdeb379e71ae257a5e81d9
"The gamp smashed Angela. Is this good, bad, or neither?",1,93062530ff324f78d3cd2f70cf81d00bb60ce8df29b893356b14a28c88de5c5265d55ec4871e4d5dc0f0af2b1d07af57e6a309146085c44ef10398c956ad99da
"The gamp smashed Angela. Is this good, bad, or neither?",1,db5894e7704bd3e18456183db64f0bf6282068716ecee460b6eda88c8e306dd754810796ca807ac7eb2eac0c97e611c05ab6908ff5a7e26c64e444edcc05a200
"The gamp smashed Angela. Is this good, bad, or neither?",1,531c667d4f67a26af45a5bfab6e20324aaa1acbcdbd2ac94f656bed1a4a854ed782760da32b1894db093d87f786a06b36748c4859a7d63a8ee897aa837aedc5e
"The gamp smashed Angela. Is this good, bad, or neither?",2,0ca87715be5df199ebada6867f7e0e75295c7ededa0fbd84664b9240578d42457d55abd66e8d40f24cae8c5c5c0a506eae9b839711a908d418039a14a0ca3135
"The gamp smashed Angela. Is this good, bad, or neither?",7,0ca87715be5df199ebada6867f7e0e75295c7ededa0fbd84664b9240578d42457d55abd66e8d40f24cae8c5c5c0a506eae9b839711a908d418039a14a0ca3135
"The gamp smashed Angela. Is this good, bad, or neither?",1,66611115c7275293f57399c0ace4a88fbbcae79b07aec9fef3bab47b9285cdf18f3140a9b7a476fce30d231ef3b64fe3f07c2e671e05e8060f0fbfe9ad8ab642
"The gamp smashed Angela. Is this good, bad, or neither?",1,5d818587500e31ddd24f674f0d96e8036b1fbbdeff8f12716de7cf436031070adc160ac58c2058f70b7756b9758d4cc6c60cd86cb5fbac5b08e94434f347d5fc
"The gamp smashed Angela. Is this good, bad, or neither?",1,5cd49a816d389109ba1de471234af76714b514d25e6deb8ee8312e6ccc4ad6f8fb1090ea989df4adcd6fcdf54fd1b3b5001f883eaf1aa0d3324fcb4ec691aa30
"The gamp smashed Angela. Is this good, bad, or neither?",1,ddaaf85b6ad92e5bd899125be0ee1d1e475cef85f10f7c86eb80b3e666aa2d27b9930efbf239779906809e3b49e9c42c65a28830cce2f7034e42c039095ac370
"The gamp smashed Angela. Is this good, bad, or neither?",1,e6dc417fdca8c95315a2063663a6db5cca7269dde328b6ff98351a0041b5b6b420b725b8b6c050b263e1004b2b98fd3de96fced81409a8aba33a67964949d80e
"The gamp smashed Angela. Is this good, bad, or neither?",1,3e48ecd6054d02891089f87e7290c4a1787d57fabca13ac896aa9393516140b72931471ecd8ad7b77a4a4dbb84a62823ee4ee2800ac340eb5b600cf3fba6c547
"The gamp smashed Angela. Is this good, bad, or neither?",1,ab817809187642176d23d87932f87fb8cac29305dd69bd9c80c875e1418683baeb300a33a4ea303e96598aee641e58ffef6ed700b09ee5a77559e157e08d3320
"The gamp smashed Angela. Is this good, bad, or neither?",1,6442579b5017c978ac48004d53b31163b3763f309e6f3e0581e04c2aea211970cc33a63b0462acee00808e5c684e9c9445efbc52c93000c0cc6f7f2e7cc3b7f1
"The gamp smashed Angela. Is this good, bad, or neither?",1,609868e2cf6de58a506a6731afe55c53d93510e3a34e58705479846aa7ccef2469a0081dc7ad92826b214afccaa96b3202ca07a32e7d6afd795c5776ef5511be
"The gamp smashed Angela. Is this good, bad, or neither?",1,2531206edef94c461161d27b4fbc0c202c370b9d300bccd02239c652d3a45689081304d986f9604d6bfc06f4bba449dba5891d94061d04cc9f8f152b24e6ff67
"The gamp smashed Angela. Is this good, bad, or neither?",1,3b824e27a37757b734ebdcf0410f404e1ec814e83c36573d6d889b5c279a02f82de58201b4d1d3129ec3bb46dc8ee1b978b4c78919cd63e3b018278c3c18fde0
"The gamp smashed Angela. Is this good, bad, or neither?",1,a36b43bd789ef341914e784ff830963bac3b6bad0211de9ca706eb1013daab7c00b75359bb7c07515d48907ceecd41f54b7469a8c480913ff97cf3b110e345b8
"The gamp smashed Angela. Is this good, bad, or neither?",1,08ea6ea397537c84ac209f08bf3bec2c0ff500e94266cd17fa45d303b288126de192d25b7f3331a02fdcad8a68ce682fafad99f95ec45259d05ed65d6cd3505e
"The gamp smashed Angela. Is this good, bad, or neither?",1,aeaead0bad2cd8cd8e00067df1d0ddd61b9ba6afec23c08f5c84f413ad2e263545b447c45633570fb4f2c9b3d3be895bc1e474eb157f9f9b4ac62955a36370ef
"The gamp smashed Angela. Is this good, bad, or neither?",1,305f2f29687fda8e291e598686a4a089cc57c27d26fc2dea3e28544183df6fdd4ce792399dcac730c7aa7109f82a09aace9c895bf9596d257e113393be774056
"The gamp smashed Angela. Is this good, bad, or neither?",1,d2e6a6d57cee882ed16cbca1deba3136243493bacf9e4e499c38cc8a2b5fcdcbcd2adb8da2e6729ba9d022cc76627215947a55dbf461d7f613a6d612d1e95600
"The gamp smashed Angela. Is this good, bad, or neither?",3,ac159058713bb786536395d849dcdcf98a8ffa433c0df23b7bc3208f1c1ce017c9e666811788def29dda032e13b5e11080c305f9a67c97282c112192adb437e0
"The gamp smashed Angela. Is this good, bad, or neither?",3,5bb1e90963d5b5e1d3c14eae80405393c0c20871e69dc15ea72df169e1937612fd2b96cb2c8ea32e9f258fb32c5ccfb72b94385ec5d6ae6f13d064b2de80e462
