"Andrew expected that Corey rished. Is this good, bad, or neither?",2,5d818587500e31ddd24f674f0d96e8036b1fbbdeff8f12716de7cf436031070adc160ac58c2058f70b7756b9758d4cc6c60cd86cb5fbac5b08e94434f347d5fc
"Andrew expected that Corey rished. Is this good, bad, or neither?",2,9d8ddb67f662349a7f7a7c5a32fee73c457fd70d135ae4be6f17a68418102d35693b26415c8fd8c7bd26a5b5032587ac08aefd055994f62fcb3e9a44d5cb51b0
"Andrew expected that Corey rished. Is this good, bad, or neither?",2,a86ed65d61974d7dea82060be097f86c660af18270b8a54ee25f3a061989f9d295222b9d4acf42f927c58a5b72418c1f574ba07654f4e4dd0639ecc38dab1058
"Andrew expected that Corey rished. Is this good, bad, or neither?",5,4292f44ba7394af902f891612fdd2f9ab15872174c8216e99754300fb8cd0aa4c1f5a1f6e7f9895e10c02f11166ef7441a82313531524b17ffc572968b1cf961
"Andrew expected that Corey rished. Is this good, bad, or neither?",2,ddaaf85b6ad92e5bd899125be0ee1d1e475cef85f10f7c86eb80b3e666aa2d27b9930efbf239779906809e3b49e9c42c65a28830cce2f7034e42c039095ac370
"Andrew expected that Corey rished. Is this good, bad, or neither?",4,6f5d3137f68645162d6754029499a9ec7ae5684f56847c76e1aed3915b42b3ec8caf636fecf4f90a32b0151ee5f9c6a1d6452b80a69f77275d541c9cea4cbff1
"Andrew expected that Corey rished. Is this good, bad, or neither?",2,dfe836f0d8ab62de55eb3e54ad1c3e0e32ad6f38b80b9adf3ea39aeac10ef8c53157196f05fae80fd753b1c8d5b7e4507094829b4342cf1e466f4188ea877ce8
"Andrew expected that Corey rished. Is this good, bad, or neither?",0,65746cc9b5d124cd0c8912e8404568e181bb7f047ee2e30ba13e513d13c16914a6941e60166d98e1fde3dfdc2ff7ad123e94554ca2f65d6661436db99bb614fe
"Andrew expected that Corey rished. Is this good, bad, or neither?",2,a2d9d2b53a64cc210c5d5ae513697dde98962d35ab23b7f1d01f7dbee0ab2bd758c58bb31ad6a0ab40ecb1fa916498f9711de450706865a35f42029ae3c0a523
"Andrew expected that Corey rished. Is this good, bad, or neither?",2,609868e2cf6de58a506a6731afe55c53d93510e3a34e58705479846aa7ccef2469a0081dc7ad92826b214afccaa96b3202ca07a32e7d6afd795c5776ef5511be
"Andrew expected that Corey rished. Is this good, bad, or neither?",2,305f2f29687fda8e291e598686a4a089cc57c27d26fc2dea3e28544183df6fdd4ce792399dcac730c7aa7109f82a09aace9c895bf9596d257e113393be774056
"Andrew expected that Corey rished. Is this good, bad, or neither?",2,aeaead0bad2cd8cd8e00067df1d0ddd61b9ba6afec23c08f5c84f413ad2e263545b447c45633570fb4f2c9b3d3be895bc1e474eb157f9f9b4ac62955a36370ef
"Andrew expected that Corey rished. Is this good, bad, or neither?",1,08ea6ea397537c84ac209f08bf3bec2c0ff500e94266cd17fa45d303b288126de192d25b7f3331a02fdcad8a68ce682fafad99f95ec45259d05ed65d6cd3505e
"Andrew expected that Corey rished. Is this good, bad, or neither?",2,8ed1c8f40c64641aab4b75b3f26aee402d0fd16aac9db1ab25945fd92e2a539dae46c1d8dced97fb256ad9ec28b211521dc8fde5b7433cf9ae526a8090f63834
"Andrew expected that Corey rished. Is this good, bad, or neither?",7,7656662dc2ba8af7cb61f8b47e6226f4cd12f70a01198bae8d235855b69798d4340c77ed8f162b77d2248d86d3f36127e732ccde0458c3d4143d12fb1b5acb14
"Andrew expected that Corey rished. Is this good, bad, or neither?",4,5ed859beff22cb7346bbd1bb520b4e40c6fd44610478d66cd057f78c274bfe00e0cfd791b7f2e25ec9b478d601bfa4906bcd9751e895cada9d7ddb10a781a789
"Andrew expected that Corey rished. Is this good, bad, or neither?",4,cef7336121523a67fe919341e93c0ff3a140d264288fe1b07aaee11aa7ff7b92efc1f18fe4cebf64f07d452cfd6040f9aa213b34fd0bed1fbf3548d5fcbe89c9
"Andrew expected that Corey rished. Is this good, bad, or neither?",2,4f1eb1039a45417b74d679abbdfcfaeab4494eff254f3b30465ef93ca66d21c563273f51be5f3d9abfb468e6063b9bbbcc05a3ea43529f7a79c25a14ac53b959
"Andrew expected that Corey rished. Is this good, bad, or neither?",2,5b56973b88ed7b736ff3966dd5900790af0d217684769981e05a869fd0482e4eb627fbc83ef164acdcc19dfee68958f3688d63269cfdc0cd3c3ec35969e3c934
"Andrew expected that Corey rished. Is this good, bad, or neither?",3,3b7064740fd25a1c30137c14e9393566d47c2d8520ce890bfce68fba72af810730ba4065c7a4b097259036bf4fb2977376c266b469a1c7cc015777fa5f4b4533
"Andrew expected that Corey rished. Is this good, bad, or neither?",2,af989e3af8e0075e9bde53bd63f64cd6e74e8b4e5bd1927668d72c74602eac36c160300f69280c96acac6f88b8e2304f56fa42541c2b6de1348a754f5f87e17c
"Andrew expected that Corey rished. Is this good, bad, or neither?",2,fb3ee4e72eb582b2b2920acd3ac5a4ed00149c2560bf0255b9bc8237d80cbadd7b353ced6ab5662f69dfe00d362575b7da94144cd2374866a682e39b17cc3c0d
"Andrew expected that Corey rished. Is this good, bad, or neither?",2,2cb44008208d14c82cf8868fc09b67e721d51c1b25835a53ce5c75d4338141e971e3aad3228e19b641ecd4278d4576dc2f1af7702b6c5731e30d7d54f5a829a5
"Andrew expected that Corey rished. Is this good, bad, or neither?",2,caff777a2303da77340521ef83945a07684b2612ccb93a9fe1e9e6b34d4e52177c4499982e59c5f493664f3123c4c9738867850e7445f494ca6c22600eb6e56a
"Andrew expected that Corey rished. Is this good, bad, or neither?",2,28195e505193242d636c8cf88927e3353b64c1e9365b6d4fe6834ae467adb58cc661083c465cf575a9d4e6e6ea9daf2f4e5b8eaf892be186be05aa6b9c0519ec
"Andrew expected that Corey rished. Is this good, bad, or neither?",2,832b19ea4eb64ad4f6298c0933ec2f6ba994974bcbbda62a7a0088a00f6cd96bd27aca96187875bf07fe2c868f7cd9e74b39598b91c261fd45079e5150637de4
"Andrew expected that Corey rished. Is this good, bad, or neither?",2,d52d0f79310a4a1585de2ba281cae55d8bf4f66ee89a3b0afe5bec86ac64f3fbcf4ac04acc90a017d6f66a1259e7c33c370048fe26771c06104f79c7f0e7daea
"Andrew expected that Corey rished. Is this good, bad, or neither?",2,69bf71a23950a19d51588205bb33b43a6c847df0a5e564427b2d61a5489a3d037dcf472674ab77e4abb6133e088ce98f278ad721e939562236b4f32ab79e07e7
"Andrew expected that Corey rished. Is this good, bad, or neither?",4,41628a0f8849c48d09c00e99c4a99cae8b10c5d31c76fc5043a816bea93afdb63771aa227c3fc1235d69b6c482ed4c1972716b6868be483c3ecaba9ca7efddc1
"Andrew expected that Corey rished. Is this good, bad, or neither?",2,b065737800f478ab6df60bd9e5762ec6104935d1f2ed6fa11fd8b0b7d192fc24fecf749845b8fabc1e6467dff3d79c068c251b76049579913d5ec688243a2700
"Andrew expected that Corey rished. Is this good, bad, or neither?",1,ba28996bbe1cd9b4e75499acf693e83a7ad7e2b18117c2fd645a8ca50bb7e1493cd089f87cc8f48bff82e202ddfee7db9bc3230bdc5bce2446f0639ec4c007e6
"Andrew expected that Corey rished. Is this good, bad, or neither?",7,d8d36b556cb88089c396a1aa18d3b2fcc76975bf65b7c36c6bfdde6fb04622148a36cd6ddaf29b2df5b5d98328fadebc0d4a61203ea283c2a49ea9dc69cc2a86
"Andrew expected that Corey rished. Is this good, bad, or neither?",7,5baa7d46ce987ef43ed4383d0b1a35d69dc63b0d6f14dce604037b55a8f09a07f2a1d542f39376a814f3fef3a63101b4fdbaf6bd3d94fdd034e0940263a70205
"Andrew expected that Corey rished. Is this good, bad, or neither?",5,a1b8f559a99b04d559dfb9c5b3e357a487f200336059b0d6524e9fa602f9b568cebcdce39c3e0d2e4b6941fa85395e824e2c38acd8d5c0d558d8f88e5400f060
"Andrew expected that Corey rished. Is this good, bad, or neither?",1,a613c9cd549108541405b08d4f6cc6c36896fb3b86524ba21afbba223d886e286ff70613f14f3fd0be2db4e5a277df9c5035d31a8d4b9d05015df47e5414f3f5
"Andrew expected that Corey rished. Is this good, bad, or neither?",4,e841321e059be2b94df077bd960087ffa88be0467ee0e277363923cedf4989e22abafe90ba8c04c13c440fcdba69e089667bf8128550fc7c0acf3fa0675d411d
"Andrew expected that Corey rished. Is this good, bad, or neither?",2,98e628c2acdc69177ce0b150a8ef19071561c021effa85c075f423223d23380e17b9fa2922f2f7c0766b190ecfd706a57f9f88f757b0e475db35bb68dd53c498
"Andrew expected that Corey rished. Is this good, bad, or neither?",4,05a6b177c92562f489dc0bb52c359451294706b649a6dc2317be20f4d47a36c0afd07176d104c2a1b5f5158f1b36ef385b60a82a5746de2f5eb199f4eae805d7
"Andrew expected that Corey rished. Is this good, bad, or neither?",2,ecd12f5c7840150b6bf31f41cfe805fbb7f1e24d87bc7f9a7e4a26034d172ee611537c7e49e1951d513a1b63598bec45f4cf8d3fd4936ebe2747d7e8018937e5
"Andrew expected that Corey rished. Is this good, bad, or neither?",2,2e08ea7a396b5dc2fc6ff518b56da9298cfd603a2f489e5145c092eb9870a320d2bfa8fd161fe5975a370e19055991d826fd24dea216f722fe25dbbf75088cd3
"Andrew expected that Corey rished. Is this good, bad, or neither?",0,9f59fd58dd08a38f6a4ebb8cb8544f9bd574c270aa89752e620be48b298304ba30d11d3689834a2937939471e8020569363ff20d544648643cdb2237be51f371
"Andrew expected that Corey rished. Is this good, bad, or neither?",5,bddab661b674206bd7cd56a842a33689a54dbb9a25cf6bf152c1aca723b16c3e727b6444bf708e3bc9922bbfa49a615c29b758531236f32b24ffab39c8e8a9c3
"Andrew expected that Corey rished. Is this good, bad, or neither?",7,e8feb2b485735e04810a204005fd037ce836715ddcc9e6436c2ea95780fdaba2842ec42cd843ba6fb0d3c6e39492164ecb7d0b33924b194908a09c65ac83c93b
"Andrew expected that Corey rished. Is this good, bad, or neither?",7,a9a07aa99ecdd704a69c15d753a55edd4a189554f140f956d9c416ab3d1f70e7e4fcd80a4ac3f9d2a9a9ea64c2933974301bb008ea4b6b8023bc3f59789f3317
"Andrew expected that Corey rished. Is this good, bad, or neither?",2,5a23402dc15233be68d0f6f87dcdce887a714a5507871ff7b39191fbd84ad58479f2c95fb420e292d80b74051e38f9f54e2670ad4b963f05e83c6224babbf504
"Andrew expected that Corey rished. Is this good, bad, or neither?",4,a7dc9d4f184ea86b7b6e6869b9a53887f9af455a7a9b3f701cc20ec18e11435fdb90d9c3eed921996792de6c1628b7a27219b25f044ffe99d725092cbc88af6e
"Andrew expected that Corey rished. Is this good, bad, or neither?",2,d2e3673bc7780c259a972a85d3fdefb8898ea010935a1d6be7f3e10e320b69de9a6e36299cca12094f5cf754d758903cd6e4e3a67f279c51ca65983da9b10883
"Andrew expected that Corey rished. Is this good, bad, or neither?",7,096cebf09ed14c8ca20cc18f574d891bb934e07515e92d5c7165f4ffd0130717f6b6d8ca8a748c60bb319f9f8cb14bf2246c0188a18242803dfbbe5684d027eb
"Andrew expected that Corey rished. Is this good, bad, or neither?",4,3dd7ff53be07f8d72042472584bf379bcd78eb96940dcc6e0f4bcf0b8f7d5c5f679eaa10b4cc83a57202ef875263c59b04ef8d7d54e320694bea43a5a4c2bc99
"Andrew expected that Corey rished. Is this good, bad, or neither?",6,3dd7ff53be07f8d72042472584bf379bcd78eb96940dcc6e0f4bcf0b8f7d5c5f679eaa10b4cc83a57202ef875263c59b04ef8d7d54e320694bea43a5a4c2bc99
"Andrew expected that Corey rished. Is this good, bad, or neither?",2,acd8febf40d6112e2e3c5cc387fd5e3a47d5544abb49c4d3f1e18a79b6e9c879af617f7067b1c5c6b80b05094286fc527bfd9f2d984b6523c8ff1f5ecd1ea8ae
"Andrew expected that Corey rished. Is this good, bad, or neither?",4,a3fe48d172465fbb24a650eeb520bd4c4631496b6d9d7a38bf192e1566aa97e662f2b2e76290bf0e0a6c2a90ffb291b31ff1e75bb29714c834646a850ace5bf6
"Andrew expected that Corey rished. Is this good, bad, or neither?",4,ced8c35759e99d3f316b0746f4f5d7b64fc3dbdcb23cb9194383309bdff5b9658ea4b7e3885f6ac42858389d5c474db3e583ad9a1cdf383d6ec23766211518d8
"Andrew expected that Corey rished. Is this good, bad, or neither?",7,ced8c35759e99d3f316b0746f4f5d7b64fc3dbdcb23cb9194383309bdff5b9658ea4b7e3885f6ac42858389d5c474db3e583ad9a1cdf383d6ec23766211518d8
"Andrew expected that Corey rished. Is this good, bad, or neither?",7,dcc1d475086d2219028d7300ae1890d71f1ded8b52d41fdcf6dda1be0c5f750941478f4b0054f670fd0920c366ba1f1938528e93ee7ae6d56dfa38c93f832d33
"Andrew expected that Corey rished. Is this good, bad, or neither?",7,25d8886b89fe5831f9168f8cf9a61c8badee1a67b3fdf5a97a2659d7118c64fe2ab94e65d35069773acffa93dea13785b5e03603ba17c2144e5b5e0e63d67625
"Andrew expected that Corey rished. Is this good, bad, or neither?",2,f152fccfa1b4275911c3d51209757f8f47524d9e0dac927fa3cf085a412f2995c54db4378764d73c2aeccf796c683eda37b79db7a22b6c9fb80818fa2a0358f7
"Andrew expected that Corey rished. Is this good, bad, or neither?",2,512926c32568782467c043d9acacef7e1297fe10e47106d36f90ed38f8036a40a0f8a10a29ae7a31a0a93e5ad4fed44921abf919134ac7a8d096c8022d200715
"Andrew expected that Corey rished. Is this good, bad, or neither?",2,864fd6d6c6f3b061f8849268ccbe26a8df17226567b244b0760c60bacd2b79ced559640987941fff3ebd0eb3949cea7885c56e467856a8919d1736aa402c8087
"Andrew expected that Corey rished. Is this good, bad, or neither?",0,75f56a22b75a2e272c9bb1d454a4c6bf4050e72cec8914734e0dd5960aa863b252f8bddd390402b56428c914b9093eda5b357706d984f49f5f2a649347532d79
"Andrew expected that Corey rished. Is this good, bad, or neither?",4,a8c587b500db841a040c834ea7e138d680f58a94067a016d1e34bb029e7a5755a7b629b83510771826624e6ba17f86d951b5c9399cff1af255e887a48cc06c67
"Andrew expected that Corey rished. Is this good, bad, or neither?",2,654abee2a34ea238dd9860279c2e4f4ca17d0745f80e3a567f1be1f8bc80565588c6bc0d387e4705bac6ad4b8113565bc4647802a60f9ec02d1e658cb7bd2331
"Andrew expected that Corey rished. Is this good, bad, or neither?",3,5f12e05c2e694ca4d0d50f5c90ffefa31fc5c326c5f6352ab6f2d69efda09898d7fa2e899476fb98164baf5559806eee7fc6f92a8cd7641d9b208f848e51b143
"Andrew expected that Corey rished. Is this good, bad, or neither?",3,5f12e05c2e694ca4d0d50f5c90ffefa31fc5c326c5f6352ab6f2d69efda09898d7fa2e899476fb98164baf5559806eee7fc6f92a8cd7641d9b208f848e51b143
"Andrew expected that Corey rished. Is this good, bad, or neither?",3,5f12e05c2e694ca4d0d50f5c90ffefa31fc5c326c5f6352ab6f2d69efda09898d7fa2e899476fb98164baf5559806eee7fc6f92a8cd7641d9b208f848e51b143
"Andrew expected that Corey rished. Is this good, bad, or neither?",3,5f12e05c2e694ca4d0d50f5c90ffefa31fc5c326c5f6352ab6f2d69efda09898d7fa2e899476fb98164baf5559806eee7fc6f92a8cd7641d9b208f848e51b143
"Andrew expected that Corey rished. Is this good, bad, or neither?",3,5f12e05c2e694ca4d0d50f5c90ffefa31fc5c326c5f6352ab6f2d69efda09898d7fa2e899476fb98164baf5559806eee7fc6f92a8cd7641d9b208f848e51b143
"Andrew expected that Corey rished. Is this good, bad, or neither?",3,5f12e05c2e694ca4d0d50f5c90ffefa31fc5c326c5f6352ab6f2d69efda09898d7fa2e899476fb98164baf5559806eee7fc6f92a8cd7641d9b208f848e51b143
"Andrew expected that Corey rished. Is this good, bad, or neither?",3,5f12e05c2e694ca4d0d50f5c90ffefa31fc5c326c5f6352ab6f2d69efda09898d7fa2e899476fb98164baf5559806eee7fc6f92a8cd7641d9b208f848e51b143
"Andrew expected that Corey rished. Is this good, bad, or neither?",3,5f12e05c2e694ca4d0d50f5c90ffefa31fc5c326c5f6352ab6f2d69efda09898d7fa2e899476fb98164baf5559806eee7fc6f92a8cd7641d9b208f848e51b143
"Andrew expected that Corey rished. Is this good, bad, or neither?",4,1084eaa8019d8a8f9d2f43de11fd3d94572a0b1580e0ebbf1d2c072681f1e192034dda97387e65339098f3991a8bc6a1d07367e015a60d9cc7e7f8e9ad70c5bc
"Andrew expected that Corey rished. Is this good, bad, or neither?",6,1084eaa8019d8a8f9d2f43de11fd3d94572a0b1580e0ebbf1d2c072681f1e192034dda97387e65339098f3991a8bc6a1d07367e015a60d9cc7e7f8e9ad70c5bc
"Andrew expected that Corey rished. Is this good, bad, or neither?",7,8be48f271ae3101ac31346a408dc79be556faeb3f152510e28a7304edc13bde7ce9f7fd78f702cff5f3cb7dbcca05ef7ab24af8cc2253069e5716778280a4697
"Andrew expected that Corey rished. Is this good, bad, or neither?",2,e06daefd4a6a8fc364f56da4d6c42c5ff5ddc3059a744d3ccd5f5cbc356439491841377fbac4951e7cb9474880f8549941758509ac0ac4010a4403e12d414038
"Andrew expected that Corey rished. Is this good, bad, or neither?",2,3ce1c91573b49e76ae6d43c669a24733296314c25baffa84d6693179025159771a3c7b297e83491615fff176965dd211be78675095cfe008040fcf254df14810
"Andrew expected that Corey rished. Is this good, bad, or neither?",2,0c1e43ef5b2f9488f1f2f5d3bb698140bc0a814ccd0552a4d3b9bc7f4899fbd7f112dda7c2abe51111db2cd9354f7ed05e8023ddc9513e6797cd881f2b3a9c2c
"Andrew expected that Corey rished. Is this good, bad, or neither?",3,83e68bdb3c8d06734b9c63de2e996ad5203cfadd686bffeb5371242a53bd2562e4ee27b56455e36057ad2b7ff679b1bc0942e1b5e336f4762c4ed9cc49cb339a
"Andrew expected that Corey rished. Is this good, bad, or neither?",3,83e68bdb3c8d06734b9c63de2e996ad5203cfadd686bffeb5371242a53bd2562e4ee27b56455e36057ad2b7ff679b1bc0942e1b5e336f4762c4ed9cc49cb339a
"Andrew expected that Corey rished. Is this good, bad, or neither?",2,819161aa2e764fd74ba60f02978d28b130e488d1f6ed613c48db286b68fe06ef24eeeb946d2af813bac598640b43342cd2b7a142eb31a6fff239faaae995f9f7
"Andrew expected that Corey rished. Is this good, bad, or neither?",5,6f16233ce91dd3e70004541a71a1aba0a5b74fecbe7fff7debed231210556cc15f33e0ad09ee39575226d8e7f5ba397aae9fe9240be5507f04db735ef4ee3b92
"Andrew expected that Corey rished. Is this good, bad, or neither?",2,b4a89e063c479339463fe8a3755a45afdb72640d55ae6f8499866bdce35aea79532c96c386d3e305abf960bd172306159148a5dedc70fc0c191353ec94176ac4
"Andrew expected that Corey rished. Is this good, bad, or neither?",2,531c667d4f67a26af45a5bfab6e20324aaa1acbcdbd2ac94f656bed1a4a854ed782760da32b1894db093d87f786a06b36748c4859a7d63a8ee897aa837aedc5e
"Andrew expected that Corey rished. Is this good, bad, or neither?",4,4c98db9968edffffeaebad289235acc7fdd8ad3f65d639bc7aa14a8643e95fb65bb2cc57682abcf8e6ae5795c7a51a74da8bf9045ec06d2f4b8309d59d9251e9
"Andrew expected that Corey rished. Is this good, bad, or neither?",7,4c98db9968edffffeaebad289235acc7fdd8ad3f65d639bc7aa14a8643e95fb65bb2cc57682abcf8e6ae5795c7a51a74da8bf9045ec06d2f4b8309d59d9251e9
"Andrew expected that Corey rished. Is this good, bad, or neither?",2,f2d6b51dfd20eed1bd0330fdb2930840694538c9582d2b3d8d8d239cc9a74436f22cc405cafa0585ee0ba12957a0a33ac29e60434f30ce312df3202bb9c7906d
"Andrew expected that Corey rished. Is this good, bad, or neither?",2,5d818587500e31ddd24f674f0d96e8036b1fbbdeff8f12716de7cf436031070adc160ac58c2058f70b7756b9758d4cc6c60cd86cb5fbac5b08e94434f347d5fc
"Andrew expected that Corey rished. Is this good, bad, or neither?",2,9d8ddb67f662349a7f7a7c5a32fee73c457fd70d135ae4be6f17a68418102d35693b26415c8fd8c7bd26a5b5032587ac08aefd055994f62fcb3e9a44d5cb51b0
"Andrew expected that Corey rished. Is this good, bad, or neither?",2,a86ed65d61974d7dea82060be097f86c660af18270b8a54ee25f3a061989f9d295222b9d4acf42f927c58a5b72418c1f574ba07654f4e4dd0639ecc38dab1058
"Andrew expected that Corey rished. Is this good, bad, or neither?",5,4292f44ba7394af902f891612fdd2f9ab15872174c8216e99754300fb8cd0aa4c1f5a1f6e7f9895e10c02f11166ef7441a82313531524b17ffc572968b1cf961
"Andrew expected that Corey rished. Is this good, bad, or neither?",2,ddaaf85b6ad92e5bd899125be0ee1d1e475cef85f10f7c86eb80b3e666aa2d27b9930efbf239779906809e3b49e9c42c65a28830cce2f7034e42c039095ac370
"Andrew expected that Corey rished. Is this good, bad, or neither?",4,6f5d3137f68645162d6754029499a9ec7ae5684f56847c76e1aed3915b42b3ec8caf636fecf4f90a32b0151ee5f9c6a1d6452b80a69f77275d541c9cea4cbff1
"Andrew expected that Corey rished. Is this good, bad, or neither?",2,dfe836f0d8ab62de55eb3e54ad1c3e0e32ad6f38b80b9adf3ea39aeac10ef8c53157196f05fae80fd753b1c8d5b7e4507094829b4342cf1e466f4188ea877ce8
"Andrew expected that Corey rished. Is this good, bad, or neither?",0,65746cc9b5d124cd0c8912e8404568e181bb7f047ee2e30ba13e513d13c16914a6941e60166d98e1fde3dfdc2ff7ad123e94554ca2f65d6661436db99bb614fe
"Andrew expected that Corey rished. Is this good, bad, or neither?",2,a2d9d2b53a64cc210c5d5ae513697dde98962d35ab23b7f1d01f7dbee0ab2bd758c58bb31ad6a0ab40ecb1fa916498f9711de450706865a35f42029ae3c0a523
"Andrew expected that Corey rished. Is this good, bad, or neither?",2,609868e2cf6de58a506a6731afe55c53d93510e3a34e58705479846aa7ccef2469a0081dc7ad92826b214afccaa96b3202ca07a32e7d6afd795c5776ef5511be
"Andrew expected that Corey rished. Is this good, bad, or neither?",2,305f2f29687fda8e291e598686a4a089cc57c27d26fc2dea3e28544183df6fdd4ce792399dcac730c7aa7109f82a09aace9c895bf9596d257e113393be774056
"Andrew expected that Corey rished. Is this good, bad, or neither?",2,aeaead0bad2cd8cd8e00067df1d0ddd61b9ba6afec23c08f5c84f413ad2e263545b447c45633570fb4f2c9b3d3be895bc1e474eb157f9f9b4ac62955a36370ef
"Andrew expected that Corey rished. Is this good, bad, or neither?",1,08ea6ea397537c84ac209f08bf3bec2c0ff500e94266cd17fa45d303b288126de192d25b7f3331a02fdcad8a68ce682fafad99f95ec45259d05ed65d6cd3505e
"Andrew expected that Corey rished. Is this good, bad, or neither?",2,8ed1c8f40c64641aab4b75b3f26aee402d0fd16aac9db1ab25945fd92e2a539dae46c1d8dced97fb256ad9ec28b211521dc8fde5b7433cf9ae526a8090f63834
"Andrew expected that Corey rished. Is this good, bad, or neither?",7,7656662dc2ba8af7cb61f8b47e6226f4cd12f70a01198bae8d235855b69798d4340c77ed8f162b77d2248d86d3f36127e732ccde0458c3d4143d12fb1b5acb14
"Andrew expected that Corey rished. Is this good, bad, or neither?",4,5ed859beff22cb7346bbd1bb520b4e40c6fd44610478d66cd057f78c274bfe00e0cfd791b7f2e25ec9b478d601bfa4906bcd9751e895cada9d7ddb10a781a789
"Andrew expected that Corey rished. Is this good, bad, or neither?",4,cef7336121523a67fe919341e93c0ff3a140d264288fe1b07aaee11aa7ff7b92efc1f18fe4cebf64f07d452cfd6040f9aa213b34fd0bed1fbf3548d5fcbe89c9
"Andrew expected that Corey rished. Is this good, bad, or neither?",3,3b7064740fd25a1c30137c14e9393566d47c2d8520ce890bfce68fba72af810730ba4065c7a4b097259036bf4fb2977376c266b469a1c7cc015777fa5f4b4533
"Andrew expected that Corey rished. Is this good, bad, or neither?",7,d8d36b556cb88089c396a1aa18d3b2fcc76975bf65b7c36c6bfdde6fb04622148a36cd6ddaf29b2df5b5d98328fadebc0d4a61203ea283c2a49ea9dc69cc2a86
"Andrew expected that Corey rished. Is this good, bad, or neither?",7,5baa7d46ce987ef43ed4383d0b1a35d69dc63b0d6f14dce604037b55a8f09a07f2a1d542f39376a814f3fef3a63101b4fdbaf6bd3d94fdd034e0940263a70205
"Andrew expected that Corey rished. Is this good, bad, or neither?",5,a1b8f559a99b04d559dfb9c5b3e357a487f200336059b0d6524e9fa602f9b568cebcdce39c3e0d2e4b6941fa85395e824e2c38acd8d5c0d558d8f88e5400f060
