"The kach floated across the zurk. Is this good, bad, or neither?",2,5d818587500e31ddd24f674f0d96e8036b1fbbdeff8f12716de7cf436031070adc160ac58c2058f70b7756b9758d4cc6c60cd86cb5fbac5b08e94434f347d5fc
"The kach floated across the zurk. Is this good, bad, or neither?",2,9fa34cf7fb8dea4ed69138f7a8cb88f05fb7799bd02a2c55f01ffabfc4886b672b779cf89dcf7bec0a19171745d3989b0613cd31bb6b5fe5ff447993c52886b4
"The kach floated across the zurk. Is this good, bad, or neither?",2,d53a3853a701c0b2c6f59ecd154f16c81f913ab177c92d983b7f485f248ad8e3d2c917c73c67b45bfb8b646f5401330409d7a70104a1e853cdb47c89d1ab7624
"The kach floated across the zurk. Is this good, bad, or neither?",2,720bea532db6ed90a7bd855c056e2ccc32b0f2fe90eb490aa4d644afcc89620fb5f7c3bf4971d931a8aef22130fb8976bd9e83f534038e3c4e8421311520cb5d
"The kach floated across the zurk. Is this good, bad, or neither?",2,ddaaf85b6ad92e5bd899125be0ee1d1e475cef85f10f7c86eb80b3e666aa2d27b9930efbf239779906809e3b49e9c42c65a28830cce2f7034e42c039095ac370
"The kach floated across the zurk. Is this good, bad, or neither?",2,ab817809187642176d23d87932f87fb8cac29305dd69bd9c80c875e1418683baeb300a33a4ea303e96598aee641e58ffef6ed700b09ee5a77559e157e08d3320
"The kach floated across the zurk. Is this good, bad, or neither?",1,949e348794c3e18581f7b55ecef851e605235f7c9cafa5c3b4d3e91106a8ea5851849ec1edc9cd0b8dbea5b628ab5f49181d508855ed809569304963bc219caa
"The kach floated across the zurk. Is this good, bad, or neither?",2,6442579b5017c978ac48004d53b31163b3763f309e6f3e0581e04c2aea211970cc33a63b0462acee00808e5c684e9c9445efbc52c93000c0cc6f7f2e7cc3b7f1
"The kach floated across the zurk. Is this good, bad, or neither?",2,609868e2cf6de58a506a6731afe55c53d93510e3a34e58705479846aa7ccef2469a0081dc7ad92826b214afccaa96b3202ca07a32e7d6afd795c5776ef5511be
"The kach floated across the zurk. Is this good, bad, or neither?",4,08ea6ea397537c84ac209f08bf3bec2c0ff500e94266cd17fa45d303b288126de192d25b7f3331a02fdcad8a68ce682fafad99f95ec45259d05ed65d6cd3505e
"The kach floated across the zurk. Is this good, bad, or neither?",2,aeaead0bad2cd8cd8e00067df1d0ddd61b9ba6afec23c08f5c84f413ad2e263545b447c45633570fb4f2c9b3d3be895bc1e474eb157f9f9b4ac62955a36370ef
"The kach floated across the zurk. Is this good, bad, or neither?",2,97d5e2bcd2d3eb87a65c6730ec7df167145f2177c85116c6f53b71d5e991000e8908e4e837ae70a165200438865a4a7935d618d6a044af8be68d419edd32db14
"The kach floated across the zurk. Is this good, bad, or neither?",2,5ed859beff22cb7346bbd1bb520b4e40c6fd44610478d66cd057f78c274bfe00e0cfd791b7f2e25ec9b478d601bfa4906bcd9751e895cada9d7ddb10a781a789
"The kach floated across the zurk. Is this good, bad, or neither?",2,305f2f29687fda8e291e598686a4a089cc57c27d26fc2dea3e28544183df6fdd4ce792399dcac730c7aa7109f82a09aace9c895bf9596d257e113393be774056
"The kach floated across the zurk. Is this good, bad, or neither?",2,44ff1cf089bbf7211828a3fdb20b42438871616ec1673ead8a12f71d33cd02a9c9b6277f081d013d9f2ec7440ed01aff2b636ec53a25db5c848ae2217fd50870
"The kach floated across the zurk. Is this good, bad, or neither?",2,bcaeadfc56724d5a2432d2d012f80ea1f3af361fd2cc23ae85f9c718fc15e697164a11cbc8c601de2536a5c3f4d2cfa30f149dc06e2371384a24375be9cb90b5
"The kach floated across the zurk. Is this good, bad, or neither?",2,35827c03258f08cf14198db501e1aca4d4af033cd6f112fd8effb9807e7e4cc4999c50e30f340cd2d7a34c36c3e334a14f2d8b4800190e5dc074646f28f59dd5
"The kach floated across the zurk. Is this good, bad, or neither?",2,af989e3af8e0075e9bde53bd63f64cd6e74e8b4e5bd1927668d72c74602eac36c160300f69280c96acac6f88b8e2304f56fa42541c2b6de1348a754f5f87e17c
"The kach floated across the zurk. Is this good, bad, or neither?",2,7f45982c84b0e62975c836530ebc5c20ed43e2aaac4d7f1c99d59dac30103bb0a2c7f0c3eb3c011244e3b29b96036757199959b8d8fbcc5cf995fee8253a05f5
"The kach floated across the zurk. Is this good, bad, or neither?",2,7c757dd44e1c39759de297216eb7bcf5be28aa1d4ae18f57c2971d7f75d2e9f2abddb04ac7a141d255365619cdee7d44085f8d1460bb84ba57f1884f05e976cf
"The kach floated across the zurk. Is this good, bad, or neither?",2,5bae64f7def002a461f2add97810b730af2f7c6ba0e1207f338656583c4bd4949ba779afd8cb16d3807192ae5c2b39c669822b0ffda8ba799435261f2cc9d4b2
"The kach floated across the zurk. Is this good, bad, or neither?",2,2b14d9bafc9cd57c484ffab20d14554c4c89812aaaadff1871b6050dc27875a934624cd860db6378e167edc2e395b032d3a396b27980615b72e4aad2509fcd30
"The kach floated across the zurk. Is this good, bad, or neither?",2,fb3ee4e72eb582b2b2920acd3ac5a4ed00149c2560bf0255b9bc8237d80cbadd7b353ced6ab5662f69dfe00d362575b7da94144cd2374866a682e39b17cc3c0d
"The kach floated across the zurk. Is this good, bad, or neither?",0,caff777a2303da77340521ef83945a07684b2612ccb93a9fe1e9e6b34d4e52177c4499982e59c5f493664f3123c4c9738867850e7445f494ca6c22600eb6e56a
"The kach floated across the zurk. Is this good, bad, or neither?",2,28195e505193242d636c8cf88927e3353b64c1e9365b6d4fe6834ae467adb58cc661083c465cf575a9d4e6e6ea9daf2f4e5b8eaf892be186be05aa6b9c0519ec
"The kach floated across the zurk. Is this good, bad, or neither?",2,832b19ea4eb64ad4f6298c0933ec2f6ba994974bcbbda62a7a0088a00f6cd96bd27aca96187875bf07fe2c868f7cd9e74b39598b91c261fd45079e5150637de4
"The kach floated across the zurk. Is this good, bad, or neither?",2,69bf71a23950a19d51588205bb33b43a6c847df0a5e564427b2d61a5489a3d037dcf472674ab77e4abb6133e088ce98f278ad721e939562236b4f32ab79e07e7
"The kach floated across the zurk. Is this good, bad, or neither?",2,ecd12f5c7840150b6bf31f41cfe805fbb7f1e24d87bc7f9a7e4a26034d172ee611537c7e49e1951d513a1b63598bec45f4cf8d3fd4936ebe2747d7e8018937e5
"The kach floated across the zurk. Is this good, bad, or neither?",2,1ea01966bc2646cf505948430346b109cd68ac4d744c3c0f933d8625d62b05a76deaba4a313e5bdfe75846468bf3bfbf4d9a03ac9fde9f57506d1b99e7f90da7
"The kach floated across the zurk. Is this good, bad, or neither?",2,aad7840fcb5dff54e3eae36cda774cd4ad1caa08acc4c6e55b69d4de5cb05abf67d4dd55cb8d7c319fbf56033a93753e4406cc086ac2b1625057d19815817666
"The kach floated across the zurk. Is this good, bad, or neither?",2,2affe66e78ed0fdb8662d48e9de768393c88ec5e667c71326bc9ac141e2742f64028489e0a9dbbd820ca7d777483a05f81c195e5a46d9c595e8003584f94b06f
"The kach floated across the zurk. Is this good, bad, or neither?",2,1e7019267a5b9fb0c239414b1e225193cc46ec9d6c9a84692122a153d5af4e4bec36f2ece04c27828e7c811956744c4cdaf9b6e007fe5418441f79557bd2012a
"The kach floated across the zurk. Is this good, bad, or neither?",6,2e08ea7a396b5dc2fc6ff518b56da9298cfd603a2f489e5145c092eb9870a320d2bfa8fd161fe5975a370e19055991d826fd24dea216f722fe25dbbf75088cd3
"The kach floated across the zurk. Is this good, bad, or neither?",6,13039c52a3d8dd8516ca72593bcbb321c13ae57e1b0abeec592733ea9edd6de879f5fb01a5cfbfc85e72c9860824a3b7420a974cb8ab61aedb6f62693aab8e8a
"The kach floated across the zurk. Is this good, bad, or neither?",2,5a23402dc15233be68d0f6f87dcdce887a714a5507871ff7b39191fbd84ad58479f2c95fb420e292d80b74051e38f9f54e2670ad4b963f05e83c6224babbf504
"The kach floated across the zurk. Is this good, bad, or neither?",2,a7dc9d4f184ea86b7b6e6869b9a53887f9af455a7a9b3f701cc20ec18e11435fdb90d9c3eed921996792de6c1628b7a27219b25f044ffe99d725092cbc88af6e
"The kach floated across the zurk. Is this good, bad, or neither?",2,ac3b1b10808f1753ec2a45dbfd111934fc15f5c99e8d54caa1b9fa0399c450a1b4489cb0037029cbf93008625f0c076357a1b8e164d2f400a000fbd6062f7bad
"The kach floated across the zurk. Is this good, bad, or neither?",2,042d3f56684376eb005ee963303544309ebaf683b97349f7761425b0bd149fe28385c3cb26e125d81311f53714bf18ac28a385de017ff2c5d46fd3f59be280a6
"The kach floated across the zurk. Is this good, bad, or neither?",2,4449535230bbb095089c3986aff6e34d3a92bd758e669e9b923813d8c97c4a9e67e8d78d1c4cd17e4e6a9898e2d78e841a4cd7cabc28e7a3a0fc0592c6c9f387
"The kach floated across the zurk. Is this good, bad, or neither?",4,e1fd7d12317a69d53ed5fb717b5eba43297d06483e468091a17a30765855b8a196943fd325d109d7f48a80cdc970e55037984421c382df8c5a8bfd2b36d3dff7
"The kach floated across the zurk. Is this good, bad, or neither?",2,c5c7a359614b5a4a3081ea3fcad30ceb637d07f997531b3a5d7df5a3b7c21d6c3ea95af67e1163a07272fc0f0f99ad4ec8fa6aee59c5d52b6fc8e01d88cbb67a
"The kach floated across the zurk. Is this good, bad, or neither?",2,512926c32568782467c043d9acacef7e1297fe10e47106d36f90ed38f8036a40a0f8a10a29ae7a31a0a93e5ad4fed44921abf919134ac7a8d096c8022d200715
"The kach floated across the zurk. Is this good, bad, or neither?",2,0a10cfbe96898e179a6989823d1b388e63fd11f48fd9bb0f118bf62cd7dfea5dd88a7b1d57cbd9606e10dc7e76ef4a52208822cd8d1992d9cbf67431ac76dda0
"The kach floated across the zurk. Is this good, bad, or neither?",2,a9b5991eb6a5cf70c19033230524f3315bb071e3fe84c2f52bb35fd4bdda3126b25a0baea58bca9b8786f3fa1775a06f3f134bb3aeb9ad99e9ea376fed45fb7a
"The kach floated across the zurk. Is this good, bad, or neither?",2,654abee2a34ea238dd9860279c2e4f4ca17d0745f80e3a567f1be1f8bc80565588c6bc0d387e4705bac6ad4b8113565bc4647802a60f9ec02d1e658cb7bd2331
"The kach floated across the zurk. Is this good, bad, or neither?",2,8ded77a21fe05c7756085556cca8f98f5eb31dedfed36a6e262cb8adc9034cd291306beab7fc461a490aca5e434bd7146b3069946e787af0ebac1f4361b7c52a
"The kach floated across the zurk. Is this good, bad, or neither?",3,5f12e05c2e694ca4d0d50f5c90ffefa31fc5c326c5f6352ab6f2d69efda09898d7fa2e899476fb98164baf5559806eee7fc6f92a8cd7641d9b208f848e51b143
"The kach floated across the zurk. Is this good, bad, or neither?",3,5f12e05c2e694ca4d0d50f5c90ffefa31fc5c326c5f6352ab6f2d69efda09898d7fa2e899476fb98164baf5559806eee7fc6f92a8cd7641d9b208f848e51b143
"The kach floated across the zurk. Is this good, bad, or neither?",3,5f12e05c2e694ca4d0d50f5c90ffefa31fc5c326c5f6352ab6f2d69efda09898d7fa2e899476fb98164baf5559806eee7fc6f92a8cd7641d9b208f848e51b143
"The kach floated across the zurk. Is this good, bad, or neither?",3,5f12e05c2e694ca4d0d50f5c90ffefa31fc5c326c5f6352ab6f2d69efda09898d7fa2e899476fb98164baf5559806eee7fc6f92a8cd7641d9b208f848e51b143
"The kach floated across the zurk. Is this good, bad, or neither?",3,5f12e05c2e694ca4d0d50f5c90ffefa31fc5c326c5f6352ab6f2d69efda09898d7fa2e899476fb98164baf5559806eee7fc6f92a8cd7641d9b208f848e51b143
"The kach floated across the zurk. Is this good, bad, or neither?",3,5f12e05c2e694ca4d0d50f5c90ffefa31fc5c326c5f6352ab6f2d69efda09898d7fa2e899476fb98164baf5559806eee7fc6f92a8cd7641d9b208f848e51b143
"The kach floated across the zurk. Is this good, bad, or neither?",3,5f12e05c2e694ca4d0d50f5c90ffefa31fc5c326c5f6352ab6f2d69efda09898d7fa2e899476fb98164baf5559806eee7fc6f92a8cd7641d9b208f848e51b143
"The kach floated across the zurk. Is this good, bad, or neither?",3,5f12e05c2e694ca4d0d50f5c90ffefa31fc5c326c5f6352ab6f2d69efda09898d7fa2e899476fb98164baf5559806eee7fc6f92a8cd7641d9b208f848e51b143
"The kach floated across the zurk. Is this good, bad, or neither?",2,ac6673bcad59531cdffd59dce8d6f3732872702f831c40e760c234b76b234e04b0413b52ccb4454042273f3ea8cb4b8cee63da7cd083cec0a873ede6f7598390
"The kach floated across the zurk. Is this good, bad, or neither?",2,b6f2e1344ebdd16df984a569b364694e74d76b32cc3d59d2dffcc4d11ac6f38e551c9c180de2ef82243330ba19068b623902e0a25624aa0e128b8c46b7d589cb
"The kach floated across the zurk. Is this good, bad, or neither?",2,3ce1c91573b49e76ae6d43c669a24733296314c25baffa84d6693179025159771a3c7b297e83491615fff176965dd211be78675095cfe008040fcf254df14810
"The kach floated across the zurk. Is this good, bad, or neither?",2,36c09886bcf34790a3057408ed9a30e450e97a94d845ac9f7082dc883dceb74a7a02965cb0ba3b453593ff2e472e6da031c42ac5ff355cbd4bb4e9670a65a684
"The kach floated across the zurk. Is this good, bad, or neither?",2,0c1e43ef5b2f9488f1f2f5d3bb698140bc0a814ccd0552a4d3b9bc7f4899fbd7f112dda7c2abe51111db2cd9354f7ed05e8023ddc9513e6797cd881f2b3a9c2c
"The kach floated across the zurk. Is this good, bad, or neither?",2,819161aa2e764fd74ba60f02978d28b130e488d1f6ed613c48db286b68fe06ef24eeeb946d2af813bac598640b43342cd2b7a142eb31a6fff239faaae995f9f7
"The kach floated across the zurk. Is this good, bad, or neither?",6,81164d3a7242c1e7b20ff2e19f649c70e0acc9881bee37f0945ff8c9c4805158893941a1bf87667c43e7347960d9f82f6eff258b87989ca58b65fc2c24a8c9b9
"The kach floated across the zurk. Is this good, bad, or neither?",2,f74a189a696ebb5d3833d4b89b0f94733b24c099235b93e38989b213817f3f6c519b8f67d99e68d2aae2d8cec42afe0dc9936b8765108818964591269daa19f6
"The kach floated across the zurk. Is this good, bad, or neither?",2,c2a35a9e3a4e63030e1b1467ea5c631724ace41aa9aab9a34f7eb3dea239079ba738fd4333a249f113a2423c2b23c3dc9bd99213f8a783d851527ee9cb86f84b
"The kach floated across the zurk. Is this good, bad, or neither?",0,9ef2786603ef58e4ee86df8bee97a8153d9ed584a3d0292051061067611c8b1699ae99972987eb5b190926755ecca0dd56936587c6fea5ea18a37691840bbb0b
"The kach floated across the zurk. Is this good, bad, or neither?",2,a04441347c7a31798c34e1a297af024142381cfd06d1679184d6b0cf7ea8eda83518c819aaa67808a7238790be4a54c02324be8e270298ac207e0fa103ba2135
"The kach floated across the zurk. Is this good, bad, or neither?",0,028f2326f23b57835d3db6e2c22a4e1808609ad1bf536f4980f7188c6e0c31b233c2cc2c3ce3d79b6378a82333d9cee84cae1b2dc2866d503717599c7c6e9dc6
"The kach floated across the zurk. Is this good, bad, or neither?",2,0ca87715be5df199ebada6867f7e0e75295c7ededa0fbd84664b9240578d42457d55abd66e8d40f24cae8c5c5c0a506eae9b839711a908d418039a14a0ca3135
"The kach floated across the zurk. Is this good, bad, or neither?",7,0ca87715be5df199ebada6867f7e0e75295c7ededa0fbd84664b9240578d42457d55abd66e8d40f24cae8c5c5c0a506eae9b839711a908d418039a14a0ca3135
"The kach floated across the zurk. Is this good, bad, or neither?",2,5d818587500e31ddd24f674f0d96e8036b1fbbdeff8f12716de7cf436031070adc160ac58c2058f70b7756b9758d4cc6c60cd86cb5fbac5b08e94434f347d5fc
"The kach floated across the zurk. Is this good, bad, or neither?",2,9fa34cf7fb8dea4ed69138f7a8cb88f05fb7799bd02a2c55f01ffabfc4886b672b779cf89dcf7bec0a19171745d3989b0613cd31bb6b5fe5ff447993c52886b4
"The kach floated across the zurk. Is this good, bad, or neither?",2,d53a3853a701c0b2c6f59ecd154f16c81f913ab177c92d983b7f485f248ad8e3d2c917c73c67b45bfb8b646f5401330409d7a70104a1e853cdb47c89d1ab7624
"The kach floated across the zurk. Is this good, bad, or neither?",2,720bea532db6ed90a7bd855c056e2ccc32b0f2fe90eb490aa4d644afcc89620fb5f7c3bf4971d931a8aef22130fb8976bd9e83f534038e3c4e8421311520cb5d
"The kach floated across the zurk. Is this good, bad, or neither?",2,ddaaf85b6ad92e5bd899125be0ee1d1e475cef85f10f7c86eb80b3e666aa2d27b9930efbf239779906809e3b49e9c42c65a28830cce2f7034e42c039095ac370
"The kach floated across the zurk. Is this good, bad, or neither?",2,ab817809187642176d23d87932f87fb8cac29305dd69bd9c80c875e1418683baeb300a33a4ea303e96598aee641e58ffef6ed700b09ee5a77559e157e08d3320
"The kach floated across the zurk. Is this good, bad, or neither?",1,949e348794c3e18581f7b55ecef851e605235f7c9cafa5c3b4d3e91106a8ea5851849ec1edc9cd0b8dbea5b628ab5f49181d508855ed809569304963bc219caa
"The kach floated across the zurk. Is this good, bad, or neither?",2,6442579b5017c978ac48004d53b31163b3763f309e6f3e0581e04c2aea211970cc33a63b0462acee00808e5c684e9c9445efbc52c93000c0cc6f7f2e7cc3b7f1
"The kach floated across the zurk. Is this good, bad, or neither?",2,609868e2cf6de58a506a6731afe55c53d93510e3a34e58705479846aa7ccef2469a0081dc7ad92826b214afccaa96b3202ca07a32e7d6afd795c5776ef5511be
"The kach floated across the zurk. Is this good, bad, or neither?",4,08ea6ea397537c84ac209f08bf3bec2c0ff500e94266cd17fa45d303b288126de192d25b7f3331a02fdcad8a68ce682fafad99f95ec45259d05ed65d6cd3505e
"The kach floated across the zurk. Is this good, bad, or neither?",2,aeaead0bad2cd8cd8e00067df1d0ddd61b9ba6afec23c08f5c84f413ad2e263545b447c45633570fb4f2c9b3d3be895bc1e474eb157f9f9b4ac62955a36370ef
"The kach floated across the zurk. Is this good, bad, or neither?",2,97d5e2bcd2d3eb87a65c6730ec7df167145f2177c85116c6f53b71d5e991000e8908e4e837ae70a165200438865a4a7935d618d6a044af8be68d419edd32db14
"The kach floated across the zurk. Is this good, bad, or neither?",2,5ed859beff22cb7346bbd1bb520b4e40c6fd44610478d66cd057f78c274bfe00e0cfd791b7f2e25ec9b478d601bfa4906bcd9751e895cada9d7ddb10a781a789
"The kach floated across the zurk. Is this good, bad, or neither?",2,305f2f29687fda8e291e598686a4a089cc57c27d26fc2dea3e28544183df6fdd4ce792399dcac730c7aa7109f82a09aace9c895bf9596d257e113393be774056
"The kach floated across the zurk. Is this good, bad, or neither?",2,44ff1cf089bbf7211828a3fdb20b42438871616ec1673ead8a12f71d33cd02a9c9b6277f081d013d9f2ec7440ed01aff2b636ec53a25db5c848ae2217fd50870
