"Kyle broke the gauble into zeens with a gamp. Is this good, bad, or neither?",1,5d818587500e31ddd24f674f0d96e8036b1fbbdeff8f12716de7cf436031070adc160ac58c2058f70b7756b9758d4cc6c60cd86cb5fbac5b08e94434f347d5fc
"Kyle broke the gauble into zeens with a gamp. Is this good, bad, or neither?",2,925cfdc671ae8b2ba8e314c04416b841122b996d089fa67e34a35cf20f5705937c70a1a3f1e5bb91815bc7f25b6ee1dd9dec9a6e5394dc52522de5d9887d53b4
"Kyle broke the gauble into zeens with a gamp. Is this good, bad, or neither?",1,ddaaf85b6ad92e5bd899125be0ee1d1e475cef85f10f7c86eb80b3e666aa2d27b9930efbf239779906809e3b49e9c42c65a28830cce2f7034e42c039095ac370
"Kyle broke the gauble into zeens with a gamp. Is this good, bad, or neither?",2,720bea532db6ed90a7bd855c056e2ccc32b0f2fe90eb490aa4d644afcc89620fb5f7c3bf4971d931a8aef22130fb8976bd9e83f534038e3c4e8421311520cb5d
"Kyle broke the gauble into zeens with a gamp. Is this good, bad, or neither?",1,9d8ddb67f662349a7f7a7c5a32fee73c457fd70d135ae4be6f17a68418102d35693b26415c8fd8c7bd26a5b5032587ac08aefd055994f62fcb3e9a44d5cb51b0
"Kyle broke the gauble into zeens with a gamp. Is this good, bad, or neither?",4,ab817809187642176d23d87932f87fb8cac29305dd69bd9c80c875e1418683baeb300a33a4ea303e96598aee641e58ffef6ed700b09ee5a77559e157e08d3320
"Kyle broke the gauble into zeens with a gamp. Is this good, bad, or neither?",0,949e348794c3e18581f7b55ecef851e605235f7c9cafa5c3b4d3e91106a8ea5851849ec1edc9cd0b8dbea5b628ab5f49181d508855ed809569304963bc219caa
"Kyle broke the gauble into zeens with a gamp. Is this good, bad, or neither?",1,f035b0fa3baac24e1042c7c7a29087f666ad914cd9b8cc0e3ea91131a6e1169e9c37713f044c1b1059b39fdaa722d4bd3e9e436beddf29fa53d1e67b236a635c
"Kyle broke the gauble into zeens with a gamp. Is this good, bad, or neither?",1,6442579b5017c978ac48004d53b31163b3763f309e6f3e0581e04c2aea211970cc33a63b0462acee00808e5c684e9c9445efbc52c93000c0cc6f7f2e7cc3b7f1
"Kyle broke the gauble into zeens with a gamp. Is this good, bad, or neither?",2,609868e2cf6de58a506a6731afe55c53d93510e3a34e58705479846aa7ccef2469a0081dc7ad92826b214afccaa96b3202ca07a32e7d6afd795c5776ef5511be
"Kyle broke the gauble into zeens with a gamp. Is this good, bad, or neither?",4,9f879b4aa73c4b09922e77809f0e5f8c39dc84cfd2f46fa4636d8248aa6285d0bc62fa911e2e9b5271949258231a87eb13ace868986d00ed55a76a648b7f2ad8
"Kyle broke the gauble into zeens with a gamp. Is this good, bad, or neither?",4,08ea6ea397537c84ac209f08bf3bec2c0ff500e94266cd17fa45d303b288126de192d25b7f3331a02fdcad8a68ce682fafad99f95ec45259d05ed65d6cd3505e
"Kyle broke the gauble into zeens with a gamp. Is this good, bad, or neither?",1,aeaead0bad2cd8cd8e00067df1d0ddd61b9ba6afec23c08f5c84f413ad2e263545b447c45633570fb4f2c9b3d3be895bc1e474eb157f9f9b4ac62955a36370ef
"Kyle broke the gauble into zeens with a gamp. Is this good, bad, or neither?",4,0df2aff2691f1526964ed83b6356b1fe449c48214ab66aab6d55e2a7b685dcf1a7ed3027135c5f7f33fa43be8c82288c011959d4ddb4624f0135b621bda9db9f
"Kyle broke the gauble into zeens with a gamp. Is this good, bad, or neither?",1,5ed859beff22cb7346bbd1bb520b4e40c6fd44610478d66cd057f78c274bfe00e0cfd791b7f2e25ec9b478d601bfa4906bcd9751e895cada9d7ddb10a781a789
"Kyle broke the gauble into zeens with a gamp. Is this good, bad, or neither?",2,305f2f29687fda8e291e598686a4a089cc57c27d26fc2dea3e28544183df6fdd4ce792399dcac730c7aa7109f82a09aace9c895bf9596d257e113393be774056
"Kyle broke the gauble into zeens with a gamp. Is this good, bad, or neither?",4,8a74478a9db13d691c15cdcee8e51f2a7166c095ebc46b46a45db0f7e71f25326113b63f51c722ce73b2f2cb4b6c23f1f5bcf0819b2b17e93467b4e32ae84781
"Kyle broke the gauble into zeens with a gamp. Is this good, bad, or neither?",0,9fd9aca8eeb2ba0213e8071cc31b20fc0ef8caeb1cf820eda57c9a420752578e67acb6cc7cd163e81fa295c7a326e890952c839302b62f4700289b1157aa22de
"Kyle broke the gauble into zeens with a gamp. Is this good, bad, or neither?",4,7f45982c84b0e62975c836530ebc5c20ed43e2aaac4d7f1c99d59dac30103bb0a2c7f0c3eb3c011244e3b29b96036757199959b8d8fbcc5cf995fee8253a05f5
"Kyle broke the gauble into zeens with a gamp. Is this good, bad, or neither?",2,b179bf87e97d0aad06140401a354f970d9f9f908a7222e8a20115fd3162f35935143e526aeca64de034f817f716e847c5129f5ea83ccd1c0cc16f8fca2515b7d
"Kyle broke the gauble into zeens with a gamp. Is this good, bad, or neither?",4,43e89fa2b84ebb65f173260c86b6bde3eb7ca194b599227bfef31b47e07f9e0b8d227137948d5966aac499e4af152a6336da099f5812c88c1cbc58572d02b87d
"Kyle broke the gauble into zeens with a gamp. Is this good, bad, or neither?",1,fb3ee4e72eb582b2b2920acd3ac5a4ed00149c2560bf0255b9bc8237d80cbadd7b353ced6ab5662f69dfe00d362575b7da94144cd2374866a682e39b17cc3c0d
"Kyle broke the gauble into zeens with a gamp. Is this good, bad, or neither?",4,050d3354591569cb7c302cb71e354fb23344a0e94f1750835adf74ba4c3a058dfe2731e2dd38d8d2f4cb80955424093ff619aa731c9d051ded0eee37a2630400
"Kyle broke the gauble into zeens with a gamp. Is this good, bad, or neither?",4,28195e505193242d636c8cf88927e3353b64c1e9365b6d4fe6834ae467adb58cc661083c465cf575a9d4e6e6ea9daf2f4e5b8eaf892be186be05aa6b9c0519ec
"Kyle broke the gauble into zeens with a gamp. Is this good, bad, or neither?",1,caff777a2303da77340521ef83945a07684b2612ccb93a9fe1e9e6b34d4e52177c4499982e59c5f493664f3123c4c9738867850e7445f494ca6c22600eb6e56a
"Kyle broke the gauble into zeens with a gamp. Is this good, bad, or neither?",1,d52d0f79310a4a1585de2ba281cae55d8bf4f66ee89a3b0afe5bec86ac64f3fbcf4ac04acc90a017d6f66a1259e7c33c370048fe26771c06104f79c7f0e7daea
"Kyle broke the gauble into zeens with a gamp. Is this good, bad, or neither?",1,ecd12f5c7840150b6bf31f41cfe805fbb7f1e24d87bc7f9a7e4a26034d172ee611537c7e49e1951d513a1b63598bec45f4cf8d3fd4936ebe2747d7e8018937e5
"Kyle broke the gauble into zeens with a gamp. Is this good, bad, or neither?",1,7f5a0766ed726c9e2d665dd8dc0a4e1cef253489d0a7a3f679c7be00b0219a0aa84f240905ffbf4a774d2532a0c248bd4f0115cb3c48d73ff4d5c5c51169f7da
"Kyle broke the gauble into zeens with a gamp. Is this good, bad, or neither?",1,8e39364603baf3edd6ae064e90c9efff318932f32d298796f1a55d1e7044ee54edec04b63f9c2ab1e4598362559b814331ad2258a67f174e42bca3ec9ceb4e06
"Kyle broke the gauble into zeens with a gamp. Is this good, bad, or neither?",2,ebf2267ad4d87728112e94c43f1da3b2d18b9d4e28cfcc6a45db651d5740b9217a83d1c9430a9883455f09b9aee3b481862dc8c14e21dde6770a486c12a0ee8b
"Kyle broke the gauble into zeens with a gamp. Is this good, bad, or neither?",1,1d6e25166a8b6d9220341b9777943f8f9207f6570ab6c8945b52785b99a53dd40db80a3523ca48d4ad74c2c963ef178eac19a5fa416cfaad04b8d26c00a35ca2
"Kyle broke the gauble into zeens with a gamp. Is this good, bad, or neither?",1,41628a0f8849c48d09c00e99c4a99cae8b10c5d31c76fc5043a816bea93afdb63771aa227c3fc1235d69b6c482ed4c1972716b6868be483c3ecaba9ca7efddc1
"Kyle broke the gauble into zeens with a gamp. Is this good, bad, or neither?",4,0186acbb27a10327ea6ddf84ac0152a92a571a1acc56e7a689831c4fbcdef1812f32929e15f2390ff6948ecb2723d0419d966c0187165609b5828f014e7632c4
"Kyle broke the gauble into zeens with a gamp. Is this good, bad, or neither?",6,00dbae1324c9bb51aebe90e62c2f242ebcd258fda3d0c7d936fc65fb123900e5dbd0d244ec200c4b280ef2821392e858929ae776cd22338c6a823d579f6ddf0a
"Kyle broke the gauble into zeens with a gamp. Is this good, bad, or neither?",4,2affe66e78ed0fdb8662d48e9de768393c88ec5e667c71326bc9ac141e2742f64028489e0a9dbbd820ca7d777483a05f81c195e5a46d9c595e8003584f94b06f
"Kyle broke the gauble into zeens with a gamp. Is this good, bad, or neither?",4,f53a0e362de5f87fe2232e4c4958be26c8ba70e7ae5b5c552086c3ab20796ecc8abc20ee1bdc94ea33a936427f91d0eab468e5ed0ae1380a51ca9eed8a826120
"Kyle broke the gauble into zeens with a gamp. Is this good, bad, or neither?",2,d8d36b556cb88089c396a1aa18d3b2fcc76975bf65b7c36c6bfdde6fb04622148a36cd6ddaf29b2df5b5d98328fadebc0d4a61203ea283c2a49ea9dc69cc2a86
"Kyle broke the gauble into zeens with a gamp. Is this good, bad, or neither?",6,62f74d6281214c57131aebfd2fce2e219d050b4dac33a69225839139888b078239b28fda5c2bb6bcf3ce25b14afdd0695a447b727078495a51880fa24c4b5c8f
"Kyle broke the gauble into zeens with a gamp. Is this good, bad, or neither?",4,1e7019267a5b9fb0c239414b1e225193cc46ec9d6c9a84692122a153d5af4e4bec36f2ece04c27828e7c811956744c4cdaf9b6e007fe5418441f79557bd2012a
"Kyle broke the gauble into zeens with a gamp. Is this good, bad, or neither?",4,c13dc04b90df8398830d775edc08cccbc05d6e2f64b3271e6f214cb0abb8cd2660c79e98868882990731bb8b3276d884545e16a5775211e6cfa9e79bf67e588c
"Kyle broke the gauble into zeens with a gamp. Is this good, bad, or neither?",2,ff0d73d536530b4e1043440e27254797f6c633c41c7ba1466f32f87d5c9adcb841601b9ee8d931fbd819d0aa66f6f4db05498579e8f7ae72f5fb1683f3ebe0ac
"Kyle broke the gauble into zeens with a gamp. Is this good, bad, or neither?",1,9920d5577bdae7e4ec1077c204a8e00602b2a83ae5341627d076ceaea6f23503782b19e713a5df3938c0093774b119ac7f191466a0982a5d0502c206e166159b
"Kyle broke the gauble into zeens with a gamp. Is this good, bad, or neither?",2,cd3fbfc68098c494a70c15b08d02abbaeff434f3b34a0d10b8bb7d2bce58b60e15dc4efaa06ad837f4945063111233fb03c3d37d0a9fdaa4fae67d57e17a4fa9
"Kyle broke the gauble into zeens with a gamp. Is this good, bad, or neither?",1,ac3b1b10808f1753ec2a45dbfd111934fc15f5c99e8d54caa1b9fa0399c450a1b4489cb0037029cbf93008625f0c076357a1b8e164d2f400a000fbd6062f7bad
"Kyle broke the gauble into zeens with a gamp. Is this good, bad, or neither?",1,f01784af74a83b8e4c2d61799385b28fd491da04b0e6e8e6bba46ec92dc99861f7b3381f70e7f81b64bb3042424d19c2402c6927b1d90d5fe8747fb1e3424fc5
"Kyle broke the gauble into zeens with a gamp. Is this good, bad, or neither?",3,cec74023ec011c05d418b07a92d9a9710762291380c8199164ef32a58d02dc79876bc9268c0910efe2625133d745da1e3445b3459271ac889dcc3494c32e5ae9
"Kyle broke the gauble into zeens with a gamp. Is this good, bad, or neither?",1,f9fd05209933417c96ecb73a3ca6182d918094324bc1a1c90ad3eecf690d5206649a6bef945da828258499b098ebc96447a67d3d6b391b9374c9ad948a911b8c
"Kyle broke the gauble into zeens with a gamp. Is this good, bad, or neither?",1,88c1afa05f945c74e9ad9057dc7821c776be632f8d5625afe16f6ca957ca87355e4b858ce41f8943799dc98308fbd873aff10fe13198501acfd469af0955495a
"Kyle broke the gauble into zeens with a gamp. Is this good, bad, or neither?",1,e026cbf1f92ffcd63549ad9958fb5feeaed2d6b545677b809b1cafc3fc96349d27e28ef3da4919854a8b6d9ce320dc40b10f705c361b77a717ca1cc8d70dca1b
"Kyle broke the gauble into zeens with a gamp. Is this good, bad, or neither?",4,a3fe48d172465fbb24a650eeb520bd4c4631496b6d9d7a38bf192e1566aa97e662f2b2e76290bf0e0a6c2a90ffb291b31ff1e75bb29714c834646a850ace5bf6
"Kyle broke the gauble into zeens with a gamp. Is this good, bad, or neither?",2,f1216ca2ad898040ea88ddd6a97f17ee263b621a486f0c15ab17ed0be6226453f92df705140ef04f12cd5f6da29258a1799975ab47d3421908df695b7db6fefa
"Kyle broke the gauble into zeens with a gamp. Is this good, bad, or neither?",1,125017ea88a73867d2f3578e2d30f78f1f43723210196b0afee241186d2ecdd2f2326e5636974efddba6582dbfd0f361280ca5c6372845adf36c0068f664d7d4
"Kyle broke the gauble into zeens with a gamp. Is this good, bad, or neither?",1,59c6e6ecca7aed6faf69351ead07ea14299ef4a8d166147d454e28e696ea27faa1e70307fba3612ef991263b5b092d93a2c2f0df25220aa29c69a40fdc93db08
"Kyle broke the gauble into zeens with a gamp. Is this good, bad, or neither?",4,4e2237b3f716e19a7381093a6ff8fe836d92ac074e87c9a02cecbcd27bef3cc08d70a29e51f094d79a83e9267b5902583450685fa0b8256455a2964704ff547a
"Kyle broke the gauble into zeens with a gamp. Is this good, bad, or neither?",1,cdc82decc385f7e309df95e76665c1a374f59a26484512f2db2ccd400075c0e7168901954aff2916ae1ce00679770656b6a59e655a4e26263c3a91889d44fc1a
"Kyle broke the gauble into zeens with a gamp. Is this good, bad, or neither?",4,0a10cfbe96898e179a6989823d1b388e63fd11f48fd9bb0f118bf62cd7dfea5dd88a7b1d57cbd9606e10dc7e76ef4a52208822cd8d1992d9cbf67431ac76dda0
"Kyle broke the gauble into zeens with a gamp. Is this good, bad, or neither?",1,af989e3af8e0075e9bde53bd63f64cd6e74e8b4e5bd1927668d72c74602eac36c160300f69280c96acac6f88b8e2304f56fa42541c2b6de1348a754f5f87e17c
"Kyle broke the gauble into zeens with a gamp. Is this good, bad, or neither?",4,f2460b3cb5b32706dae3d512120b503332e846b182fbe11c34a4448504c9b52c013b8d3ed1c5d42e87bed8c5bdd03d47c1957b15be6c0eb62fe9d8635d97f954
"Kyle broke the gauble into zeens with a gamp. Is this good, bad, or neither?",1,46dad48e18672499c9eaffcfa952dbc553442fb77bff1c2f1408f32a502adb7f4cc7325f92b33fc5ab052335f95abbbb0da706ddc33c1b173d8591c28a1853c6
"Kyle broke the gauble into zeens with a gamp. Is this good, bad, or neither?",4,a8c587b500db841a040c834ea7e138d680f58a94067a016d1e34bb029e7a5755a7b629b83510771826624e6ba17f86d951b5c9399cff1af255e887a48cc06c67
"Kyle broke the gauble into zeens with a gamp. Is this good, bad, or neither?",2,d7de9f39bdc4bf70900610e7be1ea47f061ecb0d80b371386b09254aa80ba0e8c4ba9886ada5b6dbc2655c4b3f5b68364e475a5bbdf7307f32d468747208f167
"Kyle broke the gauble into zeens with a gamp. Is this good, bad, or neither?",4,d7de9f39bdc4bf70900610e7be1ea47f061ecb0d80b371386b09254aa80ba0e8c4ba9886ada5b6dbc2655c4b3f5b68364e475a5bbdf7307f32d468747208f167
"Kyle broke the gauble into zeens with a gamp. Is this good, bad, or neither?",6,d7de9f39bdc4bf70900610e7be1ea47f061ecb0d80b371386b09254aa80ba0e8c4ba9886ada5b6dbc2655c4b3f5b68364e475a5bbdf7307f32d468747208f167
"Kyle broke the gauble into zeens with a gamp. Is this good, bad, or neither?",3,71992b52c2750d17d665624d4d5f6512aa62c2a8c12a8853dea62582d2a0321b87682479b14e6bd72c7a56985e691bbc6da8deb8d3d4b0b0110765c3daa315a4
"Kyle broke the gauble into zeens with a gamp. Is this good, bad, or neither?",3,71992b52c2750d17d665624d4d5f6512aa62c2a8c12a8853dea62582d2a0321b87682479b14e6bd72c7a56985e691bbc6da8deb8d3d4b0b0110765c3daa315a4
"Kyle broke the gauble into zeens with a gamp. Is this good, bad, or neither?",2,c5844f7cd20d1f8bd6fa04001f894c4a71cb45abad66bbc5b236621fb14ffb4c983d421288fa37099b35007c86a9ce03f0488d94f36d0665331d05c7daa12d8b
"Kyle broke the gauble into zeens with a gamp. Is this good, bad, or neither?",3,5f12e05c2e694ca4d0d50f5c90ffefa31fc5c326c5f6352ab6f2d69efda09898d7fa2e899476fb98164baf5559806eee7fc6f92a8cd7641d9b208f848e51b143
"Kyle broke the gauble into zeens with a gamp. Is this good, bad, or neither?",3,5f12e05c2e694ca4d0d50f5c90ffefa31fc5c326c5f6352ab6f2d69efda09898d7fa2e899476fb98164baf5559806eee7fc6f92a8cd7641d9b208f848e51b143
"Kyle broke the gauble into zeens with a gamp. Is this good, bad, or neither?",3,5f12e05c2e694ca4d0d50f5c90ffefa31fc5c326c5f6352ab6f2d69efda09898d7fa2e899476fb98164baf5559806eee7fc6f92a8cd7641d9b208f848e51b143
"Kyle broke the gauble into zeens with a gamp. Is this good, bad, or neither?",3,5f12e05c2e694ca4d0d50f5c90ffefa31fc5c326c5f6352ab6f2d69efda09898d7fa2e899476fb98164baf5559806eee7fc6f92a8cd7641d9b208f848e51b143
"Kyle broke the gauble into zeens with a gamp. Is this good, bad, or neither?",3,5f12e05c2e694ca4d0d50f5c90ffefa31fc5c326c5f6352ab6f2d69efda09898d7fa2e899476fb98164baf5559806eee7fc6f92a8cd7641d9b208f848e51b143
"Kyle broke the gauble into zeens with a gamp. Is this good, bad, or neither?",3,5f12e05c2e694ca4d0d50f5c90ffefa31fc5c326c5f6352ab6f2d69efda09898d7fa2e899476fb98164baf5559806eee7fc6f92a8cd7641d9b208f848e51b143
"Kyle broke the gauble into zeens with a gamp. Is this good, bad, or neither?",3,5f12e05c2e694ca4d0d50f5c90ffefa31fc5c326c5f6352ab6f2d69efda09898d7fa2e899476fb98164baf5559806eee7fc6f92a8cd7641d9b208f848e51b143
"Kyle broke the gauble into zeens with a gamp. Is this good, bad, or neither?",3,5f12e05c2e694ca4d0d50f5c90ffefa31fc5c326c5f6352ab6f2d69efda09898d7fa2e899476fb98164baf5559806eee7fc6f92a8cd7641d9b208f848e51b143
"Kyle broke the gauble into zeens with a gamp. Is this good, bad, or neither?",2,6e11c6189e61f5530a28ce74f5a88aa315adaaf4398e10fdd2a4c0be031fdd73d6ab9f2c0bf20c7aa150e03eda1a55891b02391f2c03d21cdc8ccd401fd78cb8
"Kyle broke the gauble into zeens with a gamp. Is this good, bad, or neither?",6,6e11c6189e61f5530a28ce74f5a88aa315adaaf4398e10fdd2a4c0be031fdd73d6ab9f2c0bf20c7aa150e03eda1a55891b02391f2c03d21cdc8ccd401fd78cb8
"Kyle broke the gauble into zeens with a gamp. Is this good, bad, or neither?",1,8e176a02087f9e24f28cecc547e6af9ccde15fac091e68abb588add3fb554a717c252a2aaac52e4064dbce28f7e6171562dc7f7153512c5f0ca1ab24d41fc019
"Kyle broke the gauble into zeens with a gamp. Is this good, bad, or neither?",1,b6f2e1344ebdd16df984a569b364694e74d76b32cc3d59d2dffcc4d11ac6f38e551c9c180de2ef82243330ba19068b623902e0a25624aa0e128b8c46b7d589cb
"Kyle broke the gauble into zeens with a gamp. Is this good, bad, or neither?",1,3ce1c91573b49e76ae6d43c669a24733296314c25baffa84d6693179025159771a3c7b297e83491615fff176965dd211be78675095cfe008040fcf254df14810
"Kyle broke the gauble into zeens with a gamp. Is this good, bad, or neither?",1,0c1e43ef5b2f9488f1f2f5d3bb698140bc0a814ccd0552a4d3b9bc7f4899fbd7f112dda7c2abe51111db2cd9354f7ed05e8023ddc9513e6797cd881f2b3a9c2c
"Kyle broke the gauble into zeens with a gamp. Is this good, bad, or neither?",1,14eb565eedde22f189e9030cd0c7cd886b6df6e2cde268d7ed6f9b078c5752ce6298555ff660d9d73e9729ca916be556f84b0566ed82bbb57e045672723ec649
"Kyle broke the gauble into zeens with a gamp. Is this good, bad, or neither?",1,819161aa2e764fd74ba60f02978d28b130e488d1f6ed613c48db286b68fe06ef24eeeb946d2af813bac598640b43342cd2b7a142eb31a6fff239faaae995f9f7
"Kyle broke the gauble into zeens with a gamp. Is this good, bad, or neither?",1,64c920623ab31436b5b4c22427a48558b7ec124dfae9a0406b46420dd8b1b842cc381b408af36bce712d7ed00749499374ac41eff341ac32483021553436031a
"Kyle broke the gauble into zeens with a gamp. Is this good, bad, or neither?",4,07fa1ad6be7e3fa1bc2f25e4d168a1a331b855dd469adf8d2f6b8f3cba5ec0717234ea87ac2229a243aa5ad2c9749bb4e68b87df7871bbf76cea41d0043f47d0
"Kyle broke the gauble into zeens with a gamp. Is this good, bad, or neither?",1,aa9c24a0454270657c38cee7199e4d8ef0d99969ee06722ca88bc0b2a1a85ed7d89bd49df59043588835089563f2531d51aa11ea9ceffa77b5c0ecf87ba50c93
"Kyle broke the gauble into zeens with a gamp. Is this good, bad, or neither?",4,c2a35a9e3a4e63030e1b1467ea5c631724ace41aa9aab9a34f7eb3dea239079ba738fd4333a249f113a2423c2b23c3dc9bd99213f8a783d851527ee9cb86f84b
"Kyle broke the gauble into zeens with a gamp. Is this good, bad, or neither?",4,c9d59f79d0ac1f015c64a162dae1bcd77878548db5ef52fcec40ba3f7bf8f600d2dba5884063cb696a03fe334c1418df0fbdc67c350d4b1a7f850a360e204777
"Kyle broke the gauble into zeens with a gamp. Is this good, bad, or neither?",4,b4a89e063c479339463fe8a3755a45afdb72640d55ae6f8499866bdce35aea79532c96c386d3e305abf960bd172306159148a5dedc70fc0c191353ec94176ac4
"Kyle broke the gauble into zeens with a gamp. Is this good, bad, or neither?",6,4c7621419d3c6d5f09f0d56bff88883a2222c432d1f1028bb80b3d1620d60187e6b693e3750f260e73709595c4bc65e844c8a2583ff7be1540849a01f4f465fb
"Kyle broke the gauble into zeens with a gamp. Is this good, bad, or neither?",2,99cce8dee7a406636d6fe7e300e2704a13fa5ce1c3b18dd5f134736c075a0b54eb0db79c82c1e55388375429ed6e9dd6b95cbdc19ede24fa6a96e83de3f5220a
"Kyle broke the gauble into zeens with a gamp. Is this good, bad, or neither?",1,6b3de6293ba36b85ccd3d2760ea4eafe74b4d4ded4b3ca11c8acef38ff16673de8de3d697bb263bdfb7fce65a0ec93464a04dc9a6d3637e832535e106a74b51d
"Kyle broke the gauble into zeens with a gamp. Is this good, bad, or neither?",1,fe335eb035885bcc91b62d044886d275a73e393f97a1240551ea73da7a3895d96220d44e70577de3f7c55b866ad00306ae3af88d3b8db226c811cd5c0d50dd64
"Kyle broke the gauble into zeens with a gamp. Is this good, bad, or neither?",2,0ca87715be5df199ebada6867f7e0e75295c7ededa0fbd84664b9240578d42457d55abd66e8d40f24cae8c5c5c0a506eae9b839711a908d418039a14a0ca3135
"Kyle broke the gauble into zeens with a gamp. Is this good, bad, or neither?",7,0ca87715be5df199ebada6867f7e0e75295c7ededa0fbd84664b9240578d42457d55abd66e8d40f24cae8c5c5c0a506eae9b839711a908d418039a14a0ca3135
"Kyle broke the gauble into zeens with a gamp. Is this good, bad, or neither?",0,25e31b4d80e94d2c4801481a440b5ddc554a132d91634eb8bb035a50d56440cc732a12ea555c9eaf910eb05300e715d6d2e07d102209bb9144baa9ca8fc3879c
"Kyle broke the gauble into zeens with a gamp. Is this good, bad, or neither?",1,5d818587500e31ddd24f674f0d96e8036b1fbbdeff8f12716de7cf436031070adc160ac58c2058f70b7756b9758d4cc6c60cd86cb5fbac5b08e94434f347d5fc
"Kyle broke the gauble into zeens with a gamp. Is this good, bad, or neither?",2,925cfdc671ae8b2ba8e314c04416b841122b996d089fa67e34a35cf20f5705937c70a1a3f1e5bb91815bc7f25b6ee1dd9dec9a6e5394dc52522de5d9887d53b4
"Kyle broke the gauble into zeens with a gamp. Is this good, bad, or neither?",1,ddaaf85b6ad92e5bd899125be0ee1d1e475cef85f10f7c86eb80b3e666aa2d27b9930efbf239779906809e3b49e9c42c65a28830cce2f7034e42c039095ac370
"Kyle broke the gauble into zeens with a gamp. Is this good, bad, or neither?",2,720bea532db6ed90a7bd855c056e2ccc32b0f2fe90eb490aa4d644afcc89620fb5f7c3bf4971d931a8aef22130fb8976bd9e83f534038e3c4e8421311520cb5d
"Kyle broke the gauble into zeens with a gamp. Is this good, bad, or neither?",1,9d8ddb67f662349a7f7a7c5a32fee73c457fd70d135ae4be6f17a68418102d35693b26415c8fd8c7bd26a5b5032587ac08aefd055994f62fcb3e9a44d5cb51b0
"Kyle broke the gauble into zeens with a gamp. Is this good, bad, or neither?",4,ab817809187642176d23d87932f87fb8cac29305dd69bd9c80c875e1418683baeb300a33a4ea303e96598aee641e58ffef6ed700b09ee5a77559e157e08d3320
"Kyle broke the gauble into zeens with a gamp. Is this good, bad, or neither?",0,949e348794c3e18581f7b55ecef851e605235f7c9cafa5c3b4d3e91106a8ea5851849ec1edc9cd0b8dbea5b628ab5f49181d508855ed809569304963bc219caa
"Kyle broke the gauble into zeens with a gamp. Is this good, bad, or neither?",1,f035b0fa3baac24e1042c7c7a29087f666ad914cd9b8cc0e3ea91131a6e1169e9c37713f044c1b1059b39fdaa722d4bd3e9e436beddf29fa53d1e67b236a635c
"Kyle broke the gauble into zeens with a gamp. Is this good, bad, or neither?",1,6442579b5017c978ac48004d53b31163b3763f309e6f3e0581e04c2aea211970cc33a63b0462acee00808e5c684e9c9445efbc52c93000c0cc6f7f2e7cc3b7f1
"Kyle broke the gauble into zeens with a gamp. Is this good, bad, or neither?",2,609868e2cf6de58a506a6731afe55c53d93510e3a34e58705479846aa7ccef2469a0081dc7ad92826b214afccaa96b3202ca07a32e7d6afd795c5776ef5511be
"Kyle broke the gauble into zeens with a gamp. Is this good, bad, or neither?",4,9f879b4aa73c4b09922e77809f0e5f8c39dc84cfd2f46fa4636d8248aa6285d0bc62fa911e2e9b5271949258231a87eb13ace868986d00ed55a76a648b7f2ad8
"Kyle broke the gauble into zeens with a gamp. Is this good, bad, or neither?",4,08ea6ea397537c84ac209f08bf3bec2c0ff500e94266cd17fa45d303b288126de192d25b7f3331a02fdcad8a68ce682fafad99f95ec45259d05ed65d6cd3505e
"Kyle broke the gauble into zeens with a gamp. Is this good, bad, or neither?",1,aeaead0bad2cd8cd8e00067df1d0ddd61b9ba6afec23c08f5c84f413ad2e263545b447c45633570fb4f2c9b3d3be895bc1e474eb157f9f9b4ac62955a36370ef
"Kyle broke the gauble into zeens with a gamp. Is this good, bad, or neither?",4,0df2aff2691f1526964ed83b6356b1fe449c48214ab66aab6d55e2a7b685dcf1a7ed3027135c5f7f33fa43be8c82288c011959d4ddb4624f0135b621bda9db9f
"Kyle broke the gauble into zeens with a gamp. Is this good, bad, or neither?",1,5ed859beff22cb7346bbd1bb520b4e40c6fd44610478d66cd057f78c274bfe00e0cfd791b7f2e25ec9b478d601bfa4906bcd9751e895cada9d7ddb10a781a789
"Kyle broke the gauble into zeens with a gamp. Is this good, bad, or neither?",2,305f2f29687fda8e291e598686a4a089cc57c27d26fc2dea3e28544183df6fdd4ce792399dcac730c7aa7109f82a09aace9c895bf9596d257e113393be774056
"Kyle broke the gauble into zeens with a gamp. Is this good, bad, or neither?",6,62f74d6281214c57131aebfd2fce2e219d050b4dac33a69225839139888b078239b28fda5c2bb6bcf3ce25b14afdd0695a447b727078495a51880fa24c4b5c8f
