"Thomas bounced the vatter. Is this good, bad, or neither?",2,5d818587500e31ddd24f674f0d96e8036b1fbbdeff8f12716de7cf436031070adc160ac58c2058f70b7756b9758d4cc6c60cd86cb5fbac5b08e94434f347d5fc
"Thomas bounced the vatter. Is this good, bad, or neither?",2,0e5d4f8f38e92f32b9ca2c526eeebf4ea0b144f4817f1354cfab269bb89c1a603f5dbf00526eb3e33607e46f673bf2c67488e89cb1e997b5a75862f6d7f6b657
"Thomas bounced the vatter. Is this good, bad, or neither?",2,720bea532db6ed90a7bd855c056e2ccc32b0f2fe90eb490aa4d644afcc89620fb5f7c3bf4971d931a8aef22130fb8976bd9e83f534038e3c4e8421311520cb5d
"Thomas bounced the vatter. Is this good, bad, or neither?",2,86329224a0c8a192a500145e1ae49e93754f5e25e2b1858b718f07e80a91fe10f22cd25c7e225a6a9b16f3c137bdd42ee8712e545b4da324bd73da759d39ec72
"Thomas bounced the vatter. Is this good, bad, or neither?",2,ddaaf85b6ad92e5bd899125be0ee1d1e475cef85f10f7c86eb80b3e666aa2d27b9930efbf239779906809e3b49e9c42c65a28830cce2f7034e42c039095ac370
"Thomas bounced the vatter. Is this good, bad, or neither?",0,6f5d3137f68645162d6754029499a9ec7ae5684f56847c76e1aed3915b42b3ec8caf636fecf4f90a32b0151ee5f9c6a1d6452b80a69f77275d541c9cea4cbff1
"Thomas bounced the vatter. Is this good, bad, or neither?",2,ab817809187642176d23d87932f87fb8cac29305dd69bd9c80c875e1418683baeb300a33a4ea303e96598aee641e58ffef6ed700b09ee5a77559e157e08d3320
"Thomas bounced the vatter. Is this good, bad, or neither?",2,14789a601233b7e84205d6826547ebfa50e1cae2db82c330820f4064ece769b00516053ee8a41763b1cceae8079019638920d55e3bce6940b3029251a7abd20c
"Thomas bounced the vatter. Is this good, bad, or neither?",2,fdcb2b05d3a3aa943a3b3391fa64407435c94b0436e74263463c67e17e9953705d3526147878dc1d17eeb8a37311cc71097d78d69109654a83ffff02ede3aedb
"Thomas bounced the vatter. Is this good, bad, or neither?",2,08ea6ea397537c84ac209f08bf3bec2c0ff500e94266cd17fa45d303b288126de192d25b7f3331a02fdcad8a68ce682fafad99f95ec45259d05ed65d6cd3505e
"Thomas bounced the vatter. Is this good, bad, or neither?",2,aeaead0bad2cd8cd8e00067df1d0ddd61b9ba6afec23c08f5c84f413ad2e263545b447c45633570fb4f2c9b3d3be895bc1e474eb157f9f9b4ac62955a36370ef
"Thomas bounced the vatter. Is this good, bad, or neither?",4,4be41924f5c0de2ce45f7717881357a0e2680247f64df41ab973dc190a0f8afcbe9fd6ece35b54fd3e49480fff211f0fe1dc0ba9494bbfa5d5b4f6393c798221
"Thomas bounced the vatter. Is this good, bad, or neither?",2,305f2f29687fda8e291e598686a4a089cc57c27d26fc2dea3e28544183df6fdd4ce792399dcac730c7aa7109f82a09aace9c895bf9596d257e113393be774056
"Thomas bounced the vatter. Is this good, bad, or neither?",2,91b3d21da428115769bf112425829c3e28a984912697812351f341d5a401134d1f5b988249c942963133742be3cf1f09c66a6549032792c3aef513b32c41ddfa
"Thomas bounced the vatter. Is this good, bad, or neither?",2,fe9dc2b531c337b0a87c0eca0598d082ede91b1965b1294a05b0d2b972030f64d9fe2aca9d6a4c9fbd90c2be2ce246caea0e18ecb01c89b121818e51268689bd
"Thomas bounced the vatter. Is this good, bad, or neither?",4,bcaeadfc56724d5a2432d2d012f80ea1f3af361fd2cc23ae85f9c718fc15e697164a11cbc8c601de2536a5c3f4d2cfa30f149dc06e2371384a24375be9cb90b5
"Thomas bounced the vatter. Is this good, bad, or neither?",4,8a74478a9db13d691c15cdcee8e51f2a7166c095ebc46b46a45db0f7e71f25326113b63f51c722ce73b2f2cb4b6c23f1f5bcf0819b2b17e93467b4e32ae84781
"Thomas bounced the vatter. Is this good, bad, or neither?",2,b58444df1aa20c5005f739d40601072c266d6fa43a16db0587813e3af15927101be624064ed344fe02d37256fea6921972c3b63cf04ab6073e02d07099a85c67
"Thomas bounced the vatter. Is this good, bad, or neither?",2,fb3ee4e72eb582b2b2920acd3ac5a4ed00149c2560bf0255b9bc8237d80cbadd7b353ced6ab5662f69dfe00d362575b7da94144cd2374866a682e39b17cc3c0d
"Thomas bounced the vatter. Is this good, bad, or neither?",2,832b19ea4eb64ad4f6298c0933ec2f6ba994974bcbbda62a7a0088a00f6cd96bd27aca96187875bf07fe2c868f7cd9e74b39598b91c261fd45079e5150637de4
"Thomas bounced the vatter. Is this good, bad, or neither?",4,050d3354591569cb7c302cb71e354fb23344a0e94f1750835adf74ba4c3a058dfe2731e2dd38d8d2f4cb80955424093ff619aa731c9d051ded0eee37a2630400
"Thomas bounced the vatter. Is this good, bad, or neither?",2,caff777a2303da77340521ef83945a07684b2612ccb93a9fe1e9e6b34d4e52177c4499982e59c5f493664f3123c4c9738867850e7445f494ca6c22600eb6e56a
"Thomas bounced the vatter. Is this good, bad, or neither?",6,409c12d0dd20b01733637a680f5229f9e32d49b7e5334090b79c8103ff6c2e3fa89a893c347853858d6340039bdbe9d67ffbb578ffd7aca629dd3a26b0805200
"Thomas bounced the vatter. Is this good, bad, or neither?",2,28195e505193242d636c8cf88927e3353b64c1e9365b6d4fe6834ae467adb58cc661083c465cf575a9d4e6e6ea9daf2f4e5b8eaf892be186be05aa6b9c0519ec
"Thomas bounced the vatter. Is this good, bad, or neither?",2,d52d0f79310a4a1585de2ba281cae55d8bf4f66ee89a3b0afe5bec86ac64f3fbcf4ac04acc90a017d6f66a1259e7c33c370048fe26771c06104f79c7f0e7daea
"Thomas bounced the vatter. Is this good, bad, or neither?",0,41628a0f8849c48d09c00e99c4a99cae8b10c5d31c76fc5043a816bea93afdb63771aa227c3fc1235d69b6c482ed4c1972716b6868be483c3ecaba9ca7efddc1
"Thomas bounced the vatter. Is this good, bad, or neither?",3,e816c25d00cf8e91122f1f3b229f41f298ddc4b6b47fcb5da8174bd83a0554271a821e737026ea6a344d4c078e1b3f87611f069ea877657588a824cf10970207
"Thomas bounced the vatter. Is this good, bad, or neither?",2,ecd12f5c7840150b6bf31f41cfe805fbb7f1e24d87bc7f9a7e4a26034d172ee611537c7e49e1951d513a1b63598bec45f4cf8d3fd4936ebe2747d7e8018937e5
"Thomas bounced the vatter. Is this good, bad, or neither?",0,2e08ea7a396b5dc2fc6ff518b56da9298cfd603a2f489e5145c092eb9870a320d2bfa8fd161fe5975a370e19055991d826fd24dea216f722fe25dbbf75088cd3
"Thomas bounced the vatter. Is this good, bad, or neither?",2,11b25480062bacac60fcb5a581f8f79a8c86efd85a017e6f4eba8c3ae432f6871181bc84a59e3624ad3073d744a5560a4cc763c48d7d175fa2cd3ac6ae4b8d4c
"Thomas bounced the vatter. Is this good, bad, or neither?",2,134f4b378ea7d5e91b60c332e9e7264d208e707d4485c59a39c012d611a4b47ebd7ae8d5091d012f4e6b348fed21a30caf8226a4be915aec64fc2f9562f297bb
"Thomas bounced the vatter. Is this good, bad, or neither?",2,a7dc9d4f184ea86b7b6e6869b9a53887f9af455a7a9b3f701cc20ec18e11435fdb90d9c3eed921996792de6c1628b7a27219b25f044ffe99d725092cbc88af6e
"Thomas bounced the vatter. Is this good, bad, or neither?",3,f9fd05209933417c96ecb73a3ca6182d918094324bc1a1c90ad3eecf690d5206649a6bef945da828258499b098ebc96447a67d3d6b391b9374c9ad948a911b8c
"Thomas bounced the vatter. Is this good, bad, or neither?",2,2022179167b274cd6c9afcc3ec4d912303f7d84916b15ab66eaec1e1031f1510c26d676a6b3c5de6658e502583d0ad8dbb7c28e8b5dd28ad7ea7107b7b10b81d
"Thomas bounced the vatter. Is this good, bad, or neither?",4,ae71f9bdc55da0b8c3750381f7b461c628621bb341f0e02b43848a20de5aa785e174d7beb999f170b8bb7faab1935b89b977d5792d527da83e05755bab3f1c1f
"Thomas bounced the vatter. Is this good, bad, or neither?",2,f4d0a0e5543106139b65bc0db5d40eb416833c4fb456fd2272ffde8e7e162ac059f090e12c01686b7dd181834a59b46c179bb133739847ad085aeae5db86e3e7
"Thomas bounced the vatter. Is this good, bad, or neither?",2,3ad076fede3f08a7b9834c809e3d8a904bfeea58814d79bbbb951ae0000b8086643ea10beb09c603d5d4c715f799344424fdce61596148e0376b73776f5ec554
"Thomas bounced the vatter. Is this good, bad, or neither?",1,71bd9c2112c623cb54c4c766d466d986dc974804489e5066b3bfcf14086633287cb7a28b612d261de55f02b9df2ab28cf400ffdccb08db8e1e934990de4e6243
"Thomas bounced the vatter. Is this good, bad, or neither?",2,512926c32568782467c043d9acacef7e1297fe10e47106d36f90ed38f8036a40a0f8a10a29ae7a31a0a93e5ad4fed44921abf919134ac7a8d096c8022d200715
"Thomas bounced the vatter. Is this good, bad, or neither?",2,0a10cfbe96898e179a6989823d1b388e63fd11f48fd9bb0f118bf62cd7dfea5dd88a7b1d57cbd9606e10dc7e76ef4a52208822cd8d1992d9cbf67431ac76dda0
"Thomas bounced the vatter. Is this good, bad, or neither?",6,19277661313b5118bd1b2e29039b47276f1f8235917f3217bf95498030989874a1ca10bb943fa21faf787d793095c0d4119e136013ed4a9be167f67c2a6d11d3
"Thomas bounced the vatter. Is this good, bad, or neither?",2,a8c587b500db841a040c834ea7e138d680f58a94067a016d1e34bb029e7a5755a7b629b83510771826624e6ba17f86d951b5c9399cff1af255e887a48cc06c67
"Thomas bounced the vatter. Is this good, bad, or neither?",2,868fd3ba2ef67db192746e40d1c8eb19999054d23346415bc18c6b6ed9351a171915fffbfebee929b615f8feb6ef228e3db55737500fb292d0f36852fd4b4d61
"Thomas bounced the vatter. Is this good, bad, or neither?",3,5f12e05c2e694ca4d0d50f5c90ffefa31fc5c326c5f6352ab6f2d69efda09898d7fa2e899476fb98164baf5559806eee7fc6f92a8cd7641d9b208f848e51b143
"Thomas bounced the vatter. Is this good, bad, or neither?",3,5f12e05c2e694ca4d0d50f5c90ffefa31fc5c326c5f6352ab6f2d69efda09898d7fa2e899476fb98164baf5559806eee7fc6f92a8cd7641d9b208f848e51b143
"Thomas bounced the vatter. Is this good, bad, or neither?",3,5f12e05c2e694ca4d0d50f5c90ffefa31fc5c326c5f6352ab6f2d69efda09898d7fa2e899476fb98164baf5559806eee7fc6f92a8cd7641d9b208f848e51b143
"Thomas bounced the vatter. Is this good, bad, or neither?",3,5f12e05c2e694ca4d0d50f5c90ffefa31fc5c326c5f6352ab6f2d69efda09898d7fa2e899476fb98164baf5559806eee7fc6f92a8cd7641d9b208f848e51b143
"Thomas bounced the vatter. Is this good, bad, or neither?",3,5f12e05c2e694ca4d0d50f5c90ffefa31fc5c326c5f6352ab6f2d69efda09898d7fa2e899476fb98164baf5559806eee7fc6f92a8cd7641d9b208f848e51b143
"Thomas bounced the vatter. Is this good, bad, or neither?",3,5f12e05c2e694ca4d0d50f5c90ffefa31fc5c326c5f6352ab6f2d69efda09898d7fa2e899476fb98164baf5559806eee7fc6f92a8cd7641d9b208f848e51b143
"Thomas bounced the vatter. Is this good, bad, or neither?",3,5f12e05c2e694ca4d0d50f5c90ffefa31fc5c326c5f6352ab6f2d69efda09898d7fa2e899476fb98164baf5559806eee7fc6f92a8cd7641d9b208f848e51b143
"Thomas bounced the vatter. Is this good, bad, or neither?",3,5f12e05c2e694ca4d0d50f5c90ffefa31fc5c326c5f6352ab6f2d69efda09898d7fa2e899476fb98164baf5559806eee7fc6f92a8cd7641d9b208f848e51b143
"Thomas bounced the vatter. Is this good, bad, or neither?",2,65742ec00905d9ad667185f5a7511d343df8df345ed0fef3db00fd29f3e4040f867eeef26a01c000f7ceca04ea07537add62b3f1ff8422adb173a9bd22ecf46d
"Thomas bounced the vatter. Is this good, bad, or neither?",0,e91a5e89234ddd86725b715ed907755f95624eec13f5eaf5cb07e3465d87ef4676dabfb5f38aeca898d023da197409f47edd255a0779cb6f5137b376794ad5d4
"Thomas bounced the vatter. Is this good, bad, or neither?",2,138a9e562648c08d9c6ac98bd7942309c86588c91b78686f82eddb4832388a43fb44b7f280b9e3eb49cbeec29242f2f10d71b467c9475a5b05c0bf3a4a00185a
"Thomas bounced the vatter. Is this good, bad, or neither?",2,3ce1c91573b49e76ae6d43c669a24733296314c25baffa84d6693179025159771a3c7b297e83491615fff176965dd211be78675095cfe008040fcf254df14810
"Thomas bounced the vatter. Is this good, bad, or neither?",4,600f9e662e9ce9b4e8857046d3243562bb9d8d592d711f763dc5818f20675f1c658a571f4e6034e6738d172bcf49d398f62065909e3e0fa68d9675ede405abd9
"Thomas bounced the vatter. Is this good, bad, or neither?",2,49ab4e617e4b019aa6e4bc33ab3a5579ea5df801ae9ba374945bda0d876c0a9ee62ffe4c625d112600ddc52abb43cd72d4cc79fe6fbe81da8c944cf03623fbba
"Thomas bounced the vatter. Is this good, bad, or neither?",0,83e68bdb3c8d06734b9c63de2e996ad5203cfadd686bffeb5371242a53bd2562e4ee27b56455e36057ad2b7ff679b1bc0942e1b5e336f4762c4ed9cc49cb339a
"Thomas bounced the vatter. Is this good, bad, or neither?",2,819161aa2e764fd74ba60f02978d28b130e488d1f6ed613c48db286b68fe06ef24eeeb946d2af813bac598640b43342cd2b7a142eb31a6fff239faaae995f9f7
"Thomas bounced the vatter. Is this good, bad, or neither?",3,64c920623ab31436b5b4c22427a48558b7ec124dfae9a0406b46420dd8b1b842cc381b408af36bce712d7ed00749499374ac41eff341ac32483021553436031a
"Thomas bounced the vatter. Is this good, bad, or neither?",2,c2a35a9e3a4e63030e1b1467ea5c631724ace41aa9aab9a34f7eb3dea239079ba738fd4333a249f113a2423c2b23c3dc9bd99213f8a783d851527ee9cb86f84b
"Thomas bounced the vatter. Is this good, bad, or neither?",4,b4a89e063c479339463fe8a3755a45afdb72640d55ae6f8499866bdce35aea79532c96c386d3e305abf960bd172306159148a5dedc70fc0c191353ec94176ac4
"Thomas bounced the vatter. Is this good, bad, or neither?",4,3ce1c91573b49e76ae6d43c669a24733296314c25baffa84d6693179025159771a3c7b297e83491615fff176965dd211be78675095cfe008040fcf254df14810
"Thomas bounced the vatter. Is this good, bad, or neither?",2,a04441347c7a31798c34e1a297af024142381cfd06d1679184d6b0cf7ea8eda83518c819aaa67808a7238790be4a54c02324be8e270298ac207e0fa103ba2135
"Thomas bounced the vatter. Is this good, bad, or neither?",0,99cce8dee7a406636d6fe7e300e2704a13fa5ce1c3b18dd5f134736c075a0b54eb0db79c82c1e55388375429ed6e9dd6b95cbdc19ede24fa6a96e83de3f5220a
"Thomas bounced the vatter. Is this good, bad, or neither?",2,1be222c39120244cfe6a47d90c27706b2e543b95521a627341fee86271e94d0469c20d55487f5f96287823c9ea56224f299c7f034feab447356e17f10d0617aa
"Thomas bounced the vatter. Is this good, bad, or neither?",5,1be222c39120244cfe6a47d90c27706b2e543b95521a627341fee86271e94d0469c20d55487f5f96287823c9ea56224f299c7f034feab447356e17f10d0617aa
"Thomas bounced the vatter. Is this good, bad, or neither?",2,0ca87715be5df199ebada6867f7e0e75295c7ededa0fbd84664b9240578d42457d55abd66e8d40f24cae8c5c5c0a506eae9b839711a908d418039a14a0ca3135
"Thomas bounced the vatter. Is this good, bad, or neither?",7,0ca87715be5df199ebada6867f7e0e75295c7ededa0fbd84664b9240578d42457d55abd66e8d40f24cae8c5c5c0a506eae9b839711a908d418039a14a0ca3135
"Thomas bounced the vatter. Is this good, bad, or neither?",2,fa397b6498f37b2486c93b942859ab6761684709953bb9b06336fe536b3e6c2d0043a688e1a403ddc83f90029b00ccbc62362baf6394859c6c7acc269ea368b5
"Thomas bounced the vatter. Is this good, bad, or neither?",7,fa397b6498f37b2486c93b942859ab6761684709953bb9b06336fe536b3e6c2d0043a688e1a403ddc83f90029b00ccbc62362baf6394859c6c7acc269ea368b5
"Thomas bounced the vatter. Is this good, bad, or neither?",6,bc519b108cb3b181697a45b38b621f4d3a1bdeb58c9b600882dbc3e707bf06daa50f8ed87c6b2086c519d7f6a5ffe9d84b09275db3130a602c38b70e6c4bfe64
"Thomas bounced the vatter. Is this good, bad, or neither?",2,5d818587500e31ddd24f674f0d96e8036b1fbbdeff8f12716de7cf436031070adc160ac58c2058f70b7756b9758d4cc6c60cd86cb5fbac5b08e94434f347d5fc
"Thomas bounced the vatter. Is this good, bad, or neither?",2,0e5d4f8f38e92f32b9ca2c526eeebf4ea0b144f4817f1354cfab269bb89c1a603f5dbf00526eb3e33607e46f673bf2c67488e89cb1e997b5a75862f6d7f6b657
"Thomas bounced the vatter. Is this good, bad, or neither?",2,720bea532db6ed90a7bd855c056e2ccc32b0f2fe90eb490aa4d644afcc89620fb5f7c3bf4971d931a8aef22130fb8976bd9e83f534038e3c4e8421311520cb5d
"Thomas bounced the vatter. Is this good, bad, or neither?",2,86329224a0c8a192a500145e1ae49e93754f5e25e2b1858b718f07e80a91fe10f22cd25c7e225a6a9b16f3c137bdd42ee8712e545b4da324bd73da759d39ec72
"Thomas bounced the vatter. Is this good, bad, or neither?",2,ddaaf85b6ad92e5bd899125be0ee1d1e475cef85f10f7c86eb80b3e666aa2d27b9930efbf239779906809e3b49e9c42c65a28830cce2f7034e42c039095ac370
"Thomas bounced the vatter. Is this good, bad, or neither?",0,6f5d3137f68645162d6754029499a9ec7ae5684f56847c76e1aed3915b42b3ec8caf636fecf4f90a32b0151ee5f9c6a1d6452b80a69f77275d541c9cea4cbff1
"Thomas bounced the vatter. Is this good, bad, or neither?",2,ab817809187642176d23d87932f87fb8cac29305dd69bd9c80c875e1418683baeb300a33a4ea303e96598aee641e58ffef6ed700b09ee5a77559e157e08d3320
"Thomas bounced the vatter. Is this good, bad, or neither?",2,14789a601233b7e84205d6826547ebfa50e1cae2db82c330820f4064ece769b00516053ee8a41763b1cceae8079019638920d55e3bce6940b3029251a7abd20c
"Thomas bounced the vatter. Is this good, bad, or neither?",2,fdcb2b05d3a3aa943a3b3391fa64407435c94b0436e74263463c67e17e9953705d3526147878dc1d17eeb8a37311cc71097d78d69109654a83ffff02ede3aedb
"Thomas bounced the vatter. Is this good, bad, or neither?",2,08ea6ea397537c84ac209f08bf3bec2c0ff500e94266cd17fa45d303b288126de192d25b7f3331a02fdcad8a68ce682fafad99f95ec45259d05ed65d6cd3505e
"Thomas bounced the vatter. Is this good, bad, or neither?",2,aeaead0bad2cd8cd8e00067df1d0ddd61b9ba6afec23c08f5c84f413ad2e263545b447c45633570fb4f2c9b3d3be895bc1e474eb157f9f9b4ac62955a36370ef
"Thomas bounced the vatter. Is this good, bad, or neither?",4,4be41924f5c0de2ce45f7717881357a0e2680247f64df41ab973dc190a0f8afcbe9fd6ece35b54fd3e49480fff211f0fe1dc0ba9494bbfa5d5b4f6393c798221
"Thomas bounced the vatter. Is this good, bad, or neither?",2,305f2f29687fda8e291e598686a4a089cc57c27d26fc2dea3e28544183df6fdd4ce792399dcac730c7aa7109f82a09aace9c895bf9596d257e113393be774056
"Thomas bounced the vatter. Is this good, bad, or neither?",2,91b3d21da428115769bf112425829c3e28a984912697812351f341d5a401134d1f5b988249c942963133742be3cf1f09c66a6549032792c3aef513b32c41ddfa
"Thomas bounced the vatter. Is this good, bad, or neither?",2,fe9dc2b531c337b0a87c0eca0598d082ede91b1965b1294a05b0d2b972030f64d9fe2aca9d6a4c9fbd90c2be2ce246caea0e18ecb01c89b121818e51268689bd
"Thomas bounced the vatter. Is this good, bad, or neither?",3,e816c25d00cf8e91122f1f3b229f41f298ddc4b6b47fcb5da8174bd83a0554271a821e737026ea6a344d4c078e1b3f87611f069ea877657588a824cf10970207
