"Hannah bounced the soch over the gamp. Is this good, bad, or neither?",2,5d818587500e31ddd24f674f0d96e8036b1fbbdeff8f12716de7cf436031070adc160ac58c2058f70b7756b9758d4cc6c60cd86cb5fbac5b08e94434f347d5fc
"Hannah bounced the soch over the gamp. Is this good, bad, or neither?",2,925cfdc671ae8b2ba8e314c04416b841122b996d089fa67e34a35cf20f5705937c70a1a3f1e5bb91815bc7f25b6ee1dd9dec9a6e5394dc52522de5d9887d53b4
"Hannah bounced the soch over the gamp. Is this good, bad, or neither?",2,ddaaf85b6ad92e5bd899125be0ee1d1e475cef85f10f7c86eb80b3e666aa2d27b9930efbf239779906809e3b49e9c42c65a28830cce2f7034e42c039095ac370
"Hannah bounced the soch over the gamp. Is this good, bad, or neither?",2,720bea532db6ed90a7bd855c056e2ccc32b0f2fe90eb490aa4d644afcc89620fb5f7c3bf4971d931a8aef22130fb8976bd9e83f534038e3c4e8421311520cb5d
"Hannah bounced the soch over the gamp. Is this good, bad, or neither?",2,347bd04604a50aa718d7d6ee1677b228c0a22ea5cd548723c497e2ef919aa02dcca0e7df6a0872a1f6f15f14b1dad953469a41411000a6a76c69306782a6b1c1
"Hannah bounced the soch over the gamp. Is this good, bad, or neither?",2,ac724fc5fb40437657716148e67ce96d7833e23cb99ba2729a7b08527de53c0ff20fb2f1642005cea59e47b70d45720137e984675680b17c656205a979bd9ddd
"Hannah bounced the soch over the gamp. Is this good, bad, or neither?",2,e06c575f2b7396be1fa932cabeb8c17cd2753600f2b2610cff1505d17df8d64357607ac301c55060cbd312ac7ecda837831707cc3006d4951e07aacd15a3ca56
"Hannah bounced the soch over the gamp. Is this good, bad, or neither?",2,7c716e84485c4b668a895395c75ec25821b87a2ecc2eeb5126c6b960c4b368389f56e5487f589f0f84cf6e6db4cc4f03f869246bfecdf8f11a2bb59dfc45a76e
"Hannah bounced the soch over the gamp. Is this good, bad, or neither?",2,6442579b5017c978ac48004d53b31163b3763f309e6f3e0581e04c2aea211970cc33a63b0462acee00808e5c684e9c9445efbc52c93000c0cc6f7f2e7cc3b7f1
"Hannah bounced the soch over the gamp. Is this good, bad, or neither?",2,609868e2cf6de58a506a6731afe55c53d93510e3a34e58705479846aa7ccef2469a0081dc7ad92826b214afccaa96b3202ca07a32e7d6afd795c5776ef5511be
"Hannah bounced the soch over the gamp. Is this good, bad, or neither?",2,a36b43bd789ef341914e784ff830963bac3b6bad0211de9ca706eb1013daab7c00b75359bb7c07515d48907ceecd41f54b7469a8c480913ff97cf3b110e345b8
"Hannah bounced the soch over the gamp. Is this good, bad, or neither?",2,08ea6ea397537c84ac209f08bf3bec2c0ff500e94266cd17fa45d303b288126de192d25b7f3331a02fdcad8a68ce682fafad99f95ec45259d05ed65d6cd3505e
"Hannah bounced the soch over the gamp. Is this good, bad, or neither?",2,aeaead0bad2cd8cd8e00067df1d0ddd61b9ba6afec23c08f5c84f413ad2e263545b447c45633570fb4f2c9b3d3be895bc1e474eb157f9f9b4ac62955a36370ef
"Hannah bounced the soch over the gamp. Is this good, bad, or neither?",2,305f2f29687fda8e291e598686a4a089cc57c27d26fc2dea3e28544183df6fdd4ce792399dcac730c7aa7109f82a09aace9c895bf9596d257e113393be774056
"Hannah bounced the soch over the gamp. Is this good, bad, or neither?",2,9d8ddb67f662349a7f7a7c5a32fee73c457fd70d135ae4be6f17a68418102d35693b26415c8fd8c7bd26a5b5032587ac08aefd055994f62fcb3e9a44d5cb51b0
"Hannah bounced the soch over the gamp. Is this good, bad, or neither?",2,a04441347c7a31798c34e1a297af024142381cfd06d1679184d6b0cf7ea8eda83518c819aaa67808a7238790be4a54c02324be8e270298ac207e0fa103ba2135
"Hannah bounced the soch over the gamp. Is this good, bad, or neither?",4,5b56973b88ed7b736ff3966dd5900790af0d217684769981e05a869fd0482e4eb627fbc83ef164acdcc19dfee68958f3688d63269cfdc0cd3c3ec35969e3c934
"Hannah bounced the soch over the gamp. Is this good, bad, or neither?",2,e54ad29a9f68ae9c74dc5e9abb66c78b733890c4ef372fa8bd1d2e6afae1ecbc89d14a67f04a7f84a234ebb95c6ba9ca0f6bd7adefde709159de2c4e7b247878
"Hannah bounced the soch over the gamp. Is this good, bad, or neither?",0,4ffc2db6a39a68933e1bb525ce217b5efe8dc7a65ebbaaaac26c38732bd49217244891a55c5614335219686aff6c588014a90164b02957752136736af9740e30
"Hannah bounced the soch over the gamp. Is this good, bad, or neither?",2,7f45982c84b0e62975c836530ebc5c20ed43e2aaac4d7f1c99d59dac30103bb0a2c7f0c3eb3c011244e3b29b96036757199959b8d8fbcc5cf995fee8253a05f5
"Hannah bounced the soch over the gamp. Is this good, bad, or neither?",2,b58444df1aa20c5005f739d40601072c266d6fa43a16db0587813e3af15927101be624064ed344fe02d37256fea6921972c3b63cf04ab6073e02d07099a85c67
"Hannah bounced the soch over the gamp. Is this good, bad, or neither?",2,fb3ee4e72eb582b2b2920acd3ac5a4ed00149c2560bf0255b9bc8237d80cbadd7b353ced6ab5662f69dfe00d362575b7da94144cd2374866a682e39b17cc3c0d
"Hannah bounced the soch over the gamp. Is this good, bad, or neither?",2,948b1546ab23598285d2f77f39e4276a3a82e5d340295aa6760c9fc6f36b7437bb3a495a3ba88d447f3fe661e3d3dc2ca10e32b8b5eb3feb6619e793bc050ef2
"Hannah bounced the soch over the gamp. Is this good, bad, or neither?",5,28195e505193242d636c8cf88927e3353b64c1e9365b6d4fe6834ae467adb58cc661083c465cf575a9d4e6e6ea9daf2f4e5b8eaf892be186be05aa6b9c0519ec
"Hannah bounced the soch over the gamp. Is this good, bad, or neither?",2,832b19ea4eb64ad4f6298c0933ec2f6ba994974bcbbda62a7a0088a00f6cd96bd27aca96187875bf07fe2c868f7cd9e74b39598b91c261fd45079e5150637de4
"Hannah bounced the soch over the gamp. Is this good, bad, or neither?",2,caff777a2303da77340521ef83945a07684b2612ccb93a9fe1e9e6b34d4e52177c4499982e59c5f493664f3123c4c9738867850e7445f494ca6c22600eb6e56a
"Hannah bounced the soch over the gamp. Is this good, bad, or neither?",2,d52d0f79310a4a1585de2ba281cae55d8bf4f66ee89a3b0afe5bec86ac64f3fbcf4ac04acc90a017d6f66a1259e7c33c370048fe26771c06104f79c7f0e7daea
"Hannah bounced the soch over the gamp. Is this good, bad, or neither?",2,ecd12f5c7840150b6bf31f41cfe805fbb7f1e24d87bc7f9a7e4a26034d172ee611537c7e49e1951d513a1b63598bec45f4cf8d3fd4936ebe2747d7e8018937e5
"Hannah bounced the soch over the gamp. Is this good, bad, or neither?",0,ed956aa7b693923b4bbdca90bb8c9c7505a9b43b440a32d8e1732ec0744525e4b8029f98d2e191a87a21fd37fedcce4d0d0ecd73edb5a6bc98a77369444c8b50
"Hannah bounced the soch over the gamp. Is this good, bad, or neither?",0,2e522521b21a1d41db023ae4136de708be41301c58d69e04637ddec14a114c7c1f10e4555ae1ec9a19db821aefe44567cf8091fcb0b60094d09e877612635b17
"Hannah bounced the soch over the gamp. Is this good, bad, or neither?",0,41628a0f8849c48d09c00e99c4a99cae8b10c5d31c76fc5043a816bea93afdb63771aa227c3fc1235d69b6c482ed4c1972716b6868be483c3ecaba9ca7efddc1
"Hannah bounced the soch over the gamp. Is this good, bad, or neither?",4,0cce9151698e5674daa0d80fe4efc4daa6c28de601e9af357d943b02c498a73578d8113eba388846a2ca22017c481f5d2b2a23aca606799dfa309a4c8d51c86e
"Hannah bounced the soch over the gamp. Is this good, bad, or neither?",3,2affe66e78ed0fdb8662d48e9de768393c88ec5e667c71326bc9ac141e2742f64028489e0a9dbbd820ca7d777483a05f81c195e5a46d9c595e8003584f94b06f
"Hannah bounced the soch over the gamp. Is this good, bad, or neither?",6,a1b8f559a99b04d559dfb9c5b3e357a487f200336059b0d6524e9fa602f9b568cebcdce39c3e0d2e4b6941fa85395e824e2c38acd8d5c0d558d8f88e5400f060
"Hannah bounced the soch over the gamp. Is this good, bad, or neither?",2,2e08ea7a396b5dc2fc6ff518b56da9298cfd603a2f489e5145c092eb9870a320d2bfa8fd161fe5975a370e19055991d826fd24dea216f722fe25dbbf75088cd3
"Hannah bounced the soch over the gamp. Is this good, bad, or neither?",4,2e08ea7a396b5dc2fc6ff518b56da9298cfd603a2f489e5145c092eb9870a320d2bfa8fd161fe5975a370e19055991d826fd24dea216f722fe25dbbf75088cd3
"Hannah bounced the soch over the gamp. Is this good, bad, or neither?",2,b0d9c2d8691f4316e1b262befbbf21875e54953ac94d958088ee327ec7e4b9a519987db3fe0c492b3c1bee962b256ef852d45c6ea7760841c756f9361c5f1c88
"Hannah bounced the soch over the gamp. Is this good, bad, or neither?",2,bd8500c1c2f8c784d068f6f13ef5900aab4adbd69718bb8c5edff3dea108a40e3d1964336a167dfa897b6e64aa3af4a90637d57ad779f6b14c95753c2c05a0da
"Hannah bounced the soch over the gamp. Is this good, bad, or neither?",4,ac3b1b10808f1753ec2a45dbfd111934fc15f5c99e8d54caa1b9fa0399c450a1b4489cb0037029cbf93008625f0c076357a1b8e164d2f400a000fbd6062f7bad
"Hannah bounced the soch over the gamp. Is this good, bad, or neither?",2,16d785c237ab0145dd17c99315c624818a6c9d96faa7921ad05ae845892abe7c567c04e6d6d3bbeba4f93021f4746591e1b416ae5b018f1d1013348293fd60ce
"Hannah bounced the soch over the gamp. Is this good, bad, or neither?",2,a5cd43510a8d580a7aaec836dac53cb850e0a625397965aa275b26a4a3934c7df4497572147e223e6b72ec3be908b76a9e3e8c56af4ca50b8ae877cd0dca5a66
"Hannah bounced the soch over the gamp. Is this good, bad, or neither?",4,0c33596a211c9528555e1c98f43e155e869a607ce695bf43c5cdb7a140fba66d42e82b9b214ac39d7c59360459d86f180026d85150b05dba521211b234e62dd8
"Hannah bounced the soch over the gamp. Is this good, bad, or neither?",6,0c33596a211c9528555e1c98f43e155e869a607ce695bf43c5cdb7a140fba66d42e82b9b214ac39d7c59360459d86f180026d85150b05dba521211b234e62dd8
"Hannah bounced the soch over the gamp. Is this good, bad, or neither?",7,291b4f7cbe26075ed72a3a2522f12dda372e0a92e42e4379d0529c0865532ef95fc4ead7f1b1fcc75c322c9d04b2ffb23e56f38e069984fe929dc235c746959d
"Hannah bounced the soch over the gamp. Is this good, bad, or neither?",4,ae71f9bdc55da0b8c3750381f7b461c628621bb341f0e02b43848a20de5aa785e174d7beb999f170b8bb7faab1935b89b977d5792d527da83e05755bab3f1c1f
"Hannah bounced the soch over the gamp. Is this good, bad, or neither?",2,f935cd86cd40733f10e8b019cab00565e691cd528ea983d9d4b804869419b115bae4ba3ba55604ba762aa263851888c7c1c2b6e517d81e2ed3c724a92e1e5f00
"Hannah bounced the soch over the gamp. Is this good, bad, or neither?",0,967f13aaaf5cd0ee63c48959255ec53b83c336b8a8bd12df54c4aaf48329320a410beb369f7e27f9befee01065f92326ebb4ffa08963d72c5ef85871f4ca1d74
"Hannah bounced the soch over the gamp. Is this good, bad, or neither?",2,af2a334d706c1b69573a219943b69d932d7ab19af138b53be67e9aecd99fabaeb2a49b44537009c3139302d498eb4b5f83a8e2bb09d9b9cfb8869bd630c6c757
"Hannah bounced the soch over the gamp. Is this good, bad, or neither?",7,d6679d00499ecff8e7ada6b1ab2e1f6909a9c75867c5294e42eb86f0bce5a2ef7e661aeff27dcb214eb2fc88ab64ff9300c3b90f170c3786b050193b63061dc3
"Hannah bounced the soch over the gamp. Is this good, bad, or neither?",2,512926c32568782467c043d9acacef7e1297fe10e47106d36f90ed38f8036a40a0f8a10a29ae7a31a0a93e5ad4fed44921abf919134ac7a8d096c8022d200715
"Hannah bounced the soch over the gamp. Is this good, bad, or neither?",2,7603972bcf278788da4380407a260fbe0ba126c02fdebd65eb1f095e912e7f85b16c8493ebd6e0daa1cbeaf206ae602bf794eee28315685bab5c4fc6486885e7
"Hannah bounced the soch over the gamp. Is this good, bad, or neither?",6,19277661313b5118bd1b2e29039b47276f1f8235917f3217bf95498030989874a1ca10bb943fa21faf787d793095c0d4119e136013ed4a9be167f67c2a6d11d3
"Hannah bounced the soch over the gamp. Is this good, bad, or neither?",2,a8c587b500db841a040c834ea7e138d680f58a94067a016d1e34bb029e7a5755a7b629b83510771826624e6ba17f86d951b5c9399cff1af255e887a48cc06c67
"Hannah bounced the soch over the gamp. Is this good, bad, or neither?",4,654abee2a34ea238dd9860279c2e4f4ca17d0745f80e3a567f1be1f8bc80565588c6bc0d387e4705bac6ad4b8113565bc4647802a60f9ec02d1e658cb7bd2331
"Hannah bounced the soch over the gamp. Is this good, bad, or neither?",3,5f12e05c2e694ca4d0d50f5c90ffefa31fc5c326c5f6352ab6f2d69efda09898d7fa2e899476fb98164baf5559806eee7fc6f92a8cd7641d9b208f848e51b143
"Hannah bounced the soch over the gamp. Is this good, bad, or neither?",3,5f12e05c2e694ca4d0d50f5c90ffefa31fc5c326c5f6352ab6f2d69efda09898d7fa2e899476fb98164baf5559806eee7fc6f92a8cd7641d9b208f848e51b143
"Hannah bounced the soch over the gamp. Is this good, bad, or neither?",3,5f12e05c2e694ca4d0d50f5c90ffefa31fc5c326c5f6352ab6f2d69efda09898d7fa2e899476fb98164baf5559806eee7fc6f92a8cd7641d9b208f848e51b143
"Hannah bounced the soch over the gamp. Is this good, bad, or neither?",3,5f12e05c2e694ca4d0d50f5c90ffefa31fc5c326c5f6352ab6f2d69efda09898d7fa2e899476fb98164baf5559806eee7fc6f92a8cd7641d9b208f848e51b143
"Hannah bounced the soch over the gamp. Is this good, bad, or neither?",3,5f12e05c2e694ca4d0d50f5c90ffefa31fc5c326c5f6352ab6f2d69efda09898d7fa2e899476fb98164baf5559806eee7fc6f92a8cd7641d9b208f848e51b143
"Hannah bounced the soch over the gamp. Is this good, bad, or neither?",3,5f12e05c2e694ca4d0d50f5c90ffefa31fc5c326c5f6352ab6f2d69efda09898d7fa2e899476fb98164baf5559806eee7fc6f92a8cd7641d9b208f848e51b143
"Hannah bounced the soch over the gamp. Is this good, bad, or neither?",3,5f12e05c2e694ca4d0d50f5c90ffefa31fc5c326c5f6352ab6f2d69efda09898d7fa2e899476fb98164baf5559806eee7fc6f92a8cd7641d9b208f848e51b143
"Hannah bounced the soch over the gamp. Is this good, bad, or neither?",3,5f12e05c2e694ca4d0d50f5c90ffefa31fc5c326c5f6352ab6f2d69efda09898d7fa2e899476fb98164baf5559806eee7fc6f92a8cd7641d9b208f848e51b143
"Hannah bounced the soch over the gamp. Is this good, bad, or neither?",4,3f544229454cffe8b3303eb1ac6ea1ebd0a1bc3a39dd7cfc5eb9eeeef74177d8151d0c6e6875398ba823b4aae060cb902b0b893dab32a97a2ed3ecbe6bc97d28
"Hannah bounced the soch over the gamp. Is this good, bad, or neither?",5,322f3fc9a65b52f17cfe21ce3e2a9d9d92a47fa515825ca5dfa09748ce6bc96e42524a760635bfbe96a7226586be29c5348d2b5b9422d1ce92b61d9bca99d317
"Hannah bounced the soch over the gamp. Is this good, bad, or neither?",2,3ce1c91573b49e76ae6d43c669a24733296314c25baffa84d6693179025159771a3c7b297e83491615fff176965dd211be78675095cfe008040fcf254df14810
"Hannah bounced the soch over the gamp. Is this good, bad, or neither?",1,a2e6df552487befd608a9f750cb8b27c0871c2706e72ce4d856dd31ec3b2ec8e1debe6176c895cb0378e76a113b8b464b055fcdc18efa122a24dc83cc46b7067
"Hannah bounced the soch over the gamp. Is this good, bad, or neither?",1,819161aa2e764fd74ba60f02978d28b130e488d1f6ed613c48db286b68fe06ef24eeeb946d2af813bac598640b43342cd2b7a142eb31a6fff239faaae995f9f7
"Hannah bounced the soch over the gamp. Is this good, bad, or neither?",4,7c31d8a6b789f5d31410d53b319860e959a72e3d19360af41225050b709f9f0cb85d0b30cf386c70f5c651b2a54158786759de0a844488d3dbbb4d550830abfa
"Hannah bounced the soch over the gamp. Is this good, bad, or neither?",6,7c31d8a6b789f5d31410d53b319860e959a72e3d19360af41225050b709f9f0cb85d0b30cf386c70f5c651b2a54158786759de0a844488d3dbbb4d550830abfa
"Hannah bounced the soch over the gamp. Is this good, bad, or neither?",2,93c7036b79a7067a106c2cd4223276dd446c2c72895d509f80be5d6eee41883385bb69360c7da00f9264787a1a356ab846a84ec970d0be5d899ed01e316f758f
"Hannah bounced the soch over the gamp. Is this good, bad, or neither?",2,1be222c39120244cfe6a47d90c27706b2e543b95521a627341fee86271e94d0469c20d55487f5f96287823c9ea56224f299c7f034feab447356e17f10d0617aa
"Hannah bounced the soch over the gamp. Is this good, bad, or neither?",5,1be222c39120244cfe6a47d90c27706b2e543b95521a627341fee86271e94d0469c20d55487f5f96287823c9ea56224f299c7f034feab447356e17f10d0617aa
"Hannah bounced the soch over the gamp. Is this good, bad, or neither?",4,f2d6b51dfd20eed1bd0330fdb2930840694538c9582d2b3d8d8d239cc9a74436f22cc405cafa0585ee0ba12957a0a33ac29e60434f30ce312df3202bb9c7906d
"Hannah bounced the soch over the gamp. Is this good, bad, or neither?",0,bc519b108cb3b181697a45b38b621f4d3a1bdeb58c9b600882dbc3e707bf06daa50f8ed87c6b2086c519d7f6a5ffe9d84b09275db3130a602c38b70e6c4bfe64
"Hannah bounced the soch over the gamp. Is this good, bad, or neither?",2,5d818587500e31ddd24f674f0d96e8036b1fbbdeff8f12716de7cf436031070adc160ac58c2058f70b7756b9758d4cc6c60cd86cb5fbac5b08e94434f347d5fc
"Hannah bounced the soch over the gamp. Is this good, bad, or neither?",2,925cfdc671ae8b2ba8e314c04416b841122b996d089fa67e34a35cf20f5705937c70a1a3f1e5bb91815bc7f25b6ee1dd9dec9a6e5394dc52522de5d9887d53b4
"Hannah bounced the soch over the gamp. Is this good, bad, or neither?",2,ddaaf85b6ad92e5bd899125be0ee1d1e475cef85f10f7c86eb80b3e666aa2d27b9930efbf239779906809e3b49e9c42c65a28830cce2f7034e42c039095ac370
"Hannah bounced the soch over the gamp. Is this good, bad, or neither?",2,720bea532db6ed90a7bd855c056e2ccc32b0f2fe90eb490aa4d644afcc89620fb5f7c3bf4971d931a8aef22130fb8976bd9e83f534038e3c4e8421311520cb5d
"Hannah bounced the soch over the gamp. Is this good, bad, or neither?",2,347bd04604a50aa718d7d6ee1677b228c0a22ea5cd548723c497e2ef919aa02dcca0e7df6a0872a1f6f15f14b1dad953469a41411000a6a76c69306782a6b1c1
"Hannah bounced the soch over the gamp. Is this good, bad, or neither?",2,ac724fc5fb40437657716148e67ce96d7833e23cb99ba2729a7b08527de53c0ff20fb2f1642005cea59e47b70d45720137e984675680b17c656205a979bd9ddd
"Hannah bounced the soch over the gamp. Is this good, bad, or neither?",2,e06c575f2b7396be1fa932cabeb8c17cd2753600f2b2610cff1505d17df8d64357607ac301c55060cbd312ac7ecda837831707cc3006d4951e07aacd15a3ca56
"Hannah bounced the soch over the gamp. Is this good, bad, or neither?",2,7c716e84485c4b668a895395c75ec25821b87a2ecc2eeb5126c6b960c4b368389f56e5487f589f0f84cf6e6db4cc4f03f869246bfecdf8f11a2bb59dfc45a76e
"Hannah bounced the soch over the gamp. Is this good, bad, or neither?",2,6442579b5017c978ac48004d53b31163b3763f309e6f3e0581e04c2aea211970cc33a63b0462acee00808e5c684e9c9445efbc52c93000c0cc6f7f2e7cc3b7f1
"Hannah bounced the soch over the gamp. Is this good, bad, or neither?",2,609868e2cf6de58a506a6731afe55c53d93510e3a34e58705479846aa7ccef2469a0081dc7ad92826b214afccaa96b3202ca07a32e7d6afd795c5776ef5511be
"Hannah bounced the soch over the gamp. Is this good, bad, or neither?",2,a36b43bd789ef341914e784ff830963bac3b6bad0211de9ca706eb1013daab7c00b75359bb7c07515d48907ceecd41f54b7469a8c480913ff97cf3b110e345b8
"Hannah bounced the soch over the gamp. Is this good, bad, or neither?",2,08ea6ea397537c84ac209f08bf3bec2c0ff500e94266cd17fa45d303b288126de192d25b7f3331a02fdcad8a68ce682fafad99f95ec45259d05ed65d6cd3505e
"Hannah bounced the soch over the gamp. Is this good, bad, or neither?",2,aeaead0bad2cd8cd8e00067df1d0ddd61b9ba6afec23c08f5c84f413ad2e263545b447c45633570fb4f2c9b3d3be895bc1e474eb157f9f9b4ac62955a36370ef
"Hannah bounced the soch over the gamp. Is this good, bad, or neither?",2,305f2f29687fda8e291e598686a4a089cc57c27d26fc2dea3e28544183df6fdd4ce792399dcac730c7aa7109f82a09aace9c895bf9596d257e113393be774056
"Hannah bounced the soch over the gamp. Is this good, bad, or neither?",5,28195e505193242d636c8cf88927e3353b64c1e9365b6d4fe6834ae467adb58cc661083c465cf575a9d4e6e6ea9daf2f4e5b8eaf892be186be05aa6b9c0519ec
"Hannah bounced the soch over the gamp. Is this good, bad, or neither?",3,2affe66e78ed0fdb8662d48e9de768393c88ec5e667c71326bc9ac141e2742f64028489e0a9dbbd820ca7d777483a05f81c195e5a46d9c595e8003584f94b06f
"Hannah bounced the soch over the gamp. Is this good, bad, or neither?",6,a1b8f559a99b04d559dfb9c5b3e357a487f200336059b0d6524e9fa602f9b568cebcdce39c3e0d2e4b6941fa85395e824e2c38acd8d5c0d558d8f88e5400f060
