"The alkop floated. Is this good, bad, or neither?",2,5d818587500e31ddd24f674f0d96e8036b1fbbdeff8f12716de7cf436031070adc160ac58c2058f70b7756b9758d4cc6c60cd86cb5fbac5b08e94434f347d5fc
"The alkop floated. Is this good, bad, or neither?",2,ddaaf85b6ad92e5bd899125be0ee1d1e475cef85f10f7c86eb80b3e666aa2d27b9930efbf239779906809e3b49e9c42c65a28830cce2f7034e42c039095ac370
"The alkop floated. Is this good, bad, or neither?",2,720bea532db6ed90a7bd855c056e2ccc32b0f2fe90eb490aa4d644afcc89620fb5f7c3bf4971d931a8aef22130fb8976bd9e83f534038e3c4e8421311520cb5d
"The alkop floated. Is this good, bad, or neither?",2,928377da5ab212a9b8b353c5a7d674cdb97439ca059563d8fc5626218a700145bae435717959cdcd5ac2b5728016aa29a0a5049e69a7a7f7bc66c06a91546dc0
"The alkop floated. Is this good, bad, or neither?",2,a86c50a32e78a366ad59ca66bd4ff32c1fb53ba75d3046acefe4f6962978f006f2def13e4f57f022679e54032bef024655e022bbc37488fcfc98bd2ce571c546
"The alkop floated. Is this good, bad, or neither?",0,e6b4887e60c9a9f61270335f1a765cea5e2de4f9bd5c8679d463718729ffd1c834479d1bd0d6f92c8aabdcaabb0fc7f7c4a236e0d23015adf1f49241e28f25ab
"The alkop floated. Is this good, bad, or neither?",2,ab817809187642176d23d87932f87fb8cac29305dd69bd9c80c875e1418683baeb300a33a4ea303e96598aee641e58ffef6ed700b09ee5a77559e157e08d3320
"The alkop floated. Is this good, bad, or neither?",2,17f6732cbcd360848927fad93c861a02892af401338bc95414692acfacfa7d9ad8dd7dc0691a31a9d719f2dded1671f031232d2413fb564895308f69d045f664
"The alkop floated. Is this good, bad, or neither?",2,c05c20b19bfac736223d995201caec3443e1880034895de95b3cb59dd4346a6be7b45a13643ce08200ba740941e12766d4634f1629daa5e4e4eeb57e2a14915f
"The alkop floated. Is this good, bad, or neither?",2,6442579b5017c978ac48004d53b31163b3763f309e6f3e0581e04c2aea211970cc33a63b0462acee00808e5c684e9c9445efbc52c93000c0cc6f7f2e7cc3b7f1
"The alkop floated. Is this good, bad, or neither?",2,08ea6ea397537c84ac209f08bf3bec2c0ff500e94266cd17fa45d303b288126de192d25b7f3331a02fdcad8a68ce682fafad99f95ec45259d05ed65d6cd3505e
"The alkop floated. Is this good, bad, or neither?",2,aeaead0bad2cd8cd8e00067df1d0ddd61b9ba6afec23c08f5c84f413ad2e263545b447c45633570fb4f2c9b3d3be895bc1e474eb157f9f9b4ac62955a36370ef
"The alkop floated. Is this good, bad, or neither?",2,305f2f29687fda8e291e598686a4a089cc57c27d26fc2dea3e28544183df6fdd4ce792399dcac730c7aa7109f82a09aace9c895bf9596d257e113393be774056
"The alkop floated. Is this good, bad, or neither?",2,c4ed94657e69e8d0ab2fc62ae827e33b39befc4999fffa6f5fd6cc66b82427202a7aa870b5327b553f62a9c69474930cded1869d86d079f9aed5650135c1c560
"The alkop floated. Is this good, bad, or neither?",4,8a74478a9db13d691c15cdcee8e51f2a7166c095ebc46b46a45db0f7e71f25326113b63f51c722ce73b2f2cb4b6c23f1f5bcf0819b2b17e93467b4e32ae84781
"The alkop floated. Is this good, bad, or neither?",2,54f6b3e513c13bfcdbe1fe36eb012ee13d6a602793f7b0d77a58e9677d4df23396135d1671a38883db4788ebb0ed5a75fe3538b70666e0d9f1400e9f96cb120b
"The alkop floated. Is this good, bad, or neither?",6,5b56973b88ed7b736ff3966dd5900790af0d217684769981e05a869fd0482e4eb627fbc83ef164acdcc19dfee68958f3688d63269cfdc0cd3c3ec35969e3c934
"The alkop floated. Is this good, bad, or neither?",2,5de7b886a8e9d03160145a2c857e7a513d279c1afda8a15e2f3b842b220911a0db6d8f73ebf2fa9d9628aa86f669ca60c7bb844f3535032c2078a13a63bb8b6e
"The alkop floated. Is this good, bad, or neither?",2,b179bf87e97d0aad06140401a354f970d9f9f908a7222e8a20115fd3162f35935143e526aeca64de034f817f716e847c5129f5ea83ccd1c0cc16f8fca2515b7d
"The alkop floated. Is this good, bad, or neither?",2,2cb44008208d14c82cf8868fc09b67e721d51c1b25835a53ce5c75d4338141e971e3aad3228e19b641ecd4278d4576dc2f1af7702b6c5731e30d7d54f5a829a5
"The alkop floated. Is this good, bad, or neither?",2,fb3ee4e72eb582b2b2920acd3ac5a4ed00149c2560bf0255b9bc8237d80cbadd7b353ced6ab5662f69dfe00d362575b7da94144cd2374866a682e39b17cc3c0d
"The alkop floated. Is this good, bad, or neither?",2,caff777a2303da77340521ef83945a07684b2612ccb93a9fe1e9e6b34d4e52177c4499982e59c5f493664f3123c4c9738867850e7445f494ca6c22600eb6e56a
"The alkop floated. Is this good, bad, or neither?",2,28195e505193242d636c8cf88927e3353b64c1e9365b6d4fe6834ae467adb58cc661083c465cf575a9d4e6e6ea9daf2f4e5b8eaf892be186be05aa6b9c0519ec
"The alkop floated. Is this good, bad, or neither?",2,d52d0f79310a4a1585de2ba281cae55d8bf4f66ee89a3b0afe5bec86ac64f3fbcf4ac04acc90a017d6f66a1259e7c33c370048fe26771c06104f79c7f0e7daea
"The alkop floated. Is this good, bad, or neither?",2,832b19ea4eb64ad4f6298c0933ec2f6ba994974bcbbda62a7a0088a00f6cd96bd27aca96187875bf07fe2c868f7cd9e74b39598b91c261fd45079e5150637de4
"The alkop floated. Is this good, bad, or neither?",2,ecd12f5c7840150b6bf31f41cfe805fbb7f1e24d87bc7f9a7e4a26034d172ee611537c7e49e1951d513a1b63598bec45f4cf8d3fd4936ebe2747d7e8018937e5
"The alkop floated. Is this good, bad, or neither?",2,f1eb75ab133f98de9313eaa708288fe05f8edc2a71325a89f088c6072071cd7ba3e1521b35c4faa0e68cbc0e11f31370b17a25705d5666efa406adbdfc6ba16b
"The alkop floated. Is this good, bad, or neither?",2,8ace81bbe7463b21c7345606418bfa6079189ef80cf5763a7f4c4a3bd223cd630865863a41bf1b1d2ef628f4461eb12b542bb3d8d2337a08e0547a1805b152cb
"The alkop floated. Is this good, bad, or neither?",2,168d989d5a8bf42be4878545ffd79f5998371c61905c2ce1f58caadac00ef8b1e459f75cd9c88375c7f37cc01be2bf733d276c1163c8ef2d6440ca612f8dab51
"The alkop floated. Is this good, bad, or neither?",2,2affe66e78ed0fdb8662d48e9de768393c88ec5e667c71326bc9ac141e2742f64028489e0a9dbbd820ca7d777483a05f81c195e5a46d9c595e8003584f94b06f
"The alkop floated. Is this good, bad, or neither?",2,aad7840fcb5dff54e3eae36cda774cd4ad1caa08acc4c6e55b69d4de5cb05abf67d4dd55cb8d7c319fbf56033a93753e4406cc086ac2b1625057d19815817666
"The alkop floated. Is this good, bad, or neither?",0,05a6b177c92562f489dc0bb52c359451294706b649a6dc2317be20f4d47a36c0afd07176d104c2a1b5f5158f1b36ef385b60a82a5746de2f5eb199f4eae805d7
"The alkop floated. Is this good, bad, or neither?",3,38c131a7646a062573780a5f22be2eadc950a65085da9224a6dc2ca2a6452d71f3602389b7728a427ec7d5ddfcb8a8d3df0723cff6fca20bf97a20ea5fd8d0f0
"The alkop floated. Is this good, bad, or neither?",2,ee47e0c15d50c35a9b471df221cd9fdacf8423f98053494692e630774589836405b9abe0ee632c43a5d4325fcab3775381df724a3b19c7e32b6e7887d5f58ee5
"The alkop floated. Is this good, bad, or neither?",2,ac3b1b10808f1753ec2a45dbfd111934fc15f5c99e8d54caa1b9fa0399c450a1b4489cb0037029cbf93008625f0c076357a1b8e164d2f400a000fbd6062f7bad
"The alkop floated. Is this good, bad, or neither?",0,7975a1eff3588457a6978c651bad3ef2fb4371896fe8366d49e48771f54068380e5378da853cffbdc82dbf8480475b2d6152ff033a4041f6c4cf8fafbd57f2f4
"The alkop floated. Is this good, bad, or neither?",2,80b28adadaf0e2d6beedbfe6bf2bbaecd941c58b9945a43bfbf0703ae56eaa5d63aceca7de202c1fec54957b266b1fc5056cc19f8bccf74ada878b736db1ade9
"The alkop floated. Is this good, bad, or neither?",4,e02d3512a4bac1d7294850cd0c341e272fa99f04631a719c4a5f68a4190b3839780f7ce180851312a044fb083b5d10bb568550efa408a958ac4eaaa67755ae15
"The alkop floated. Is this good, bad, or neither?",1,e026cbf1f92ffcd63549ad9958fb5feeaed2d6b545677b809b1cafc3fc96349d27e28ef3da4919854a8b6d9ce320dc40b10f705c361b77a717ca1cc8d70dca1b
"The alkop floated. Is this good, bad, or neither?",0,dbd17fa36700ca2741e6535fab4a709611c4afef3ca1568b7b615d5c3949e04d18e377916954680e075bb2165cc7c333aaacc829ab69dec266c02ba5e229eb02
"The alkop floated. Is this good, bad, or neither?",4,a806fb93a69b899120cba92fbc98b0b60a2d7a50e48e9583cac003dc40f738c84b361c723ab019899550501a1d4fdb0b7a640def9a0b21b9ca49088a50bb55a1
"The alkop floated. Is this good, bad, or neither?",5,a806fb93a69b899120cba92fbc98b0b60a2d7a50e48e9583cac003dc40f738c84b361c723ab019899550501a1d4fdb0b7a640def9a0b21b9ca49088a50bb55a1
"The alkop floated. Is this good, bad, or neither?",4,46d758db8ba305c0245486317a6271cc58318a074b9c3d1e7ebf4a427b7a2e9fcb2cce152fe584a330e22dd7772866dd52055bf3242bddb68c7009aae15ecef8
"The alkop floated. Is this good, bad, or neither?",4,f193f48b238e6f3d109299b03c13bb1e6e59675e1ff1054e9c8d9a76db8f241d70708fe386ba913aa398eff5ac2499b8220c54bf80b516259acee4998b5a937c
"The alkop floated. Is this good, bad, or neither?",6,f193f48b238e6f3d109299b03c13bb1e6e59675e1ff1054e9c8d9a76db8f241d70708fe386ba913aa398eff5ac2499b8220c54bf80b516259acee4998b5a937c
"The alkop floated. Is this good, bad, or neither?",4,1a5d01a8f2ba0f052d42862405865a6ebdb7995783d2a479f3b410a4b6fb3c6c34d614a1e0e6e055487856fb573cf7381a259f6295dd347d9977d286ecc8b4f2
"The alkop floated. Is this good, bad, or neither?",2,788586ec500f36a90e8e9cd2929df992dcef928d4a899a97f3ee045cae7941804fbd867cc1bd8322157279243f823395f4acb456de65b81bfb1653cd212debeb
"The alkop floated. Is this good, bad, or neither?",0,2c67dc02cd888344bfa1e1250faca9503398644e119e31ab8fd176e1cccf52fa608f6f99ad4cde7120c0a00aad38ff4e3f678099fe53d54a7bae192f4c5f33c1
"The alkop floated. Is this good, bad, or neither?",5,a15e92f2ecda70c76495473afa429fa1a431361a32967c1aa9d3a5d63322ebde5dd3817e1af70e502687692352a073d087c0d22c787d72faf9ae1bfcda0be82c
"The alkop floated. Is this good, bad, or neither?",2,891dd03066bd0aff97d59506dd4ad95d855b864c7d3c139e37b53a37c4730a2f2abc5aed9f012e35ce7e9fa0f838788f2293f9c9cae0731a6bec2c96485e8cc6
"The alkop floated. Is this good, bad, or neither?",4,2e5811234ed8384e899048967a6c6cb894abd6b53357d91c38554e420e7b50d64df50d176e09b02fefd002548bf5fd6fea291bc50f736bb0994b6d5bc51effe2
"The alkop floated. Is this good, bad, or neither?",2,25f59b566bfd6c48199f78f2ca8c9e3394ba87dd2b89641de88eadfe68d9f750c0706df1f2c4ec7d3b8a68dc3684d43958937d6d1b9641bd2933ada2425d599f
"The alkop floated. Is this good, bad, or neither?",6,19277661313b5118bd1b2e29039b47276f1f8235917f3217bf95498030989874a1ca10bb943fa21faf787d793095c0d4119e136013ed4a9be167f67c2a6d11d3
"The alkop floated. Is this good, bad, or neither?",2,ff81e450a0f7e41316e3c96247e9fd77e61cb5e06b5bd5a87c4171d7bad76bfc10f708ec5c7eeaaf15f7ff9c7f17226d5abe54e68669a5abaca1581e0281bf76
"The alkop floated. Is this good, bad, or neither?",2,a8c587b500db841a040c834ea7e138d680f58a94067a016d1e34bb029e7a5755a7b629b83510771826624e6ba17f86d951b5c9399cff1af255e887a48cc06c67
"The alkop floated. Is this good, bad, or neither?",6,dd29bcfc5039bf254fad4a16308af948e10f00523f7439208715d7dc7e8bc383942d63173014a44512e3d62008df50d93570f0b0c14c442b4dd89ae332d0d808
"The alkop floated. Is this good, bad, or neither?",2,654abee2a34ea238dd9860279c2e4f4ca17d0745f80e3a567f1be1f8bc80565588c6bc0d387e4705bac6ad4b8113565bc4647802a60f9ec02d1e658cb7bd2331
"The alkop floated. Is this good, bad, or neither?",3,5f12e05c2e694ca4d0d50f5c90ffefa31fc5c326c5f6352ab6f2d69efda09898d7fa2e899476fb98164baf5559806eee7fc6f92a8cd7641d9b208f848e51b143
"The alkop floated. Is this good, bad, or neither?",3,5f12e05c2e694ca4d0d50f5c90ffefa31fc5c326c5f6352ab6f2d69efda09898d7fa2e899476fb98164baf5559806eee7fc6f92a8cd7641d9b208f848e51b143
"The alkop floated. Is this good, bad, or neither?",3,5f12e05c2e694ca4d0d50f5c90ffefa31fc5c326c5f6352ab6f2d69efda09898d7fa2e899476fb98164baf5559806eee7fc6f92a8cd7641d9b208f848e51b143
"The alkop floated. Is this good, bad, or neither?",3,5f12e05c2e694ca4d0d50f5c90ffefa31fc5c326c5f6352ab6f2d69efda09898d7fa2e899476fb98164baf5559806eee7fc6f92a8cd7641d9b208f848e51b143
"The alkop floated. Is this good, bad, or neither?",3,5f12e05c2e694ca4d0d50f5c90ffefa31fc5c326c5f6352ab6f2d69efda09898d7fa2e899476fb98164baf5559806eee7fc6f92a8cd7641d9b208f848e51b143
"The alkop floated. Is this good, bad, or neither?",3,5f12e05c2e694ca4d0d50f5c90ffefa31fc5c326c5f6352ab6f2d69efda09898d7fa2e899476fb98164baf5559806eee7fc6f92a8cd7641d9b208f848e51b143
"The alkop floated. Is this good, bad, or neither?",3,5f12e05c2e694ca4d0d50f5c90ffefa31fc5c326c5f6352ab6f2d69efda09898d7fa2e899476fb98164baf5559806eee7fc6f92a8cd7641d9b208f848e51b143
"The alkop floated. Is this good, bad, or neither?",3,5f12e05c2e694ca4d0d50f5c90ffefa31fc5c326c5f6352ab6f2d69efda09898d7fa2e899476fb98164baf5559806eee7fc6f92a8cd7641d9b208f848e51b143
"The alkop floated. Is this good, bad, or neither?",6,00a59b79b42eb7c88d4a5aa00b0e40ef2ff324daa59a037ea7dbce5d8638bedba177a7bfb67ccd17a29a0a10014a5ce4800db03b660c9b81846013435dc1058c
"The alkop floated. Is this good, bad, or neither?",5,9d0d39cf59bd187336aeed710e3d62f5ae57162f65cddfa22c43c90e5b1249d450aeed5444643aa6b101c9ef790d8769b63d57936afbc23f36652ea3f04cb63b
"The alkop floated. Is this good, bad, or neither?",2,3ce1c91573b49e76ae6d43c669a24733296314c25baffa84d6693179025159771a3c7b297e83491615fff176965dd211be78675095cfe008040fcf254df14810
"The alkop floated. Is this good, bad, or neither?",2,0c1e43ef5b2f9488f1f2f5d3bb698140bc0a814ccd0552a4d3b9bc7f4899fbd7f112dda7c2abe51111db2cd9354f7ed05e8023ddc9513e6797cd881f2b3a9c2c
"The alkop floated. Is this good, bad, or neither?",2,522cba799e3ba91efa463736999b4bb16e49ef6800fbe6e828823422d30a16e88fca4f35d76885a886bf051f6c8b546b1f7b65ece8f52995b87be6a85d81d792
"The alkop floated. Is this good, bad, or neither?",0,819161aa2e764fd74ba60f02978d28b130e488d1f6ed613c48db286b68fe06ef24eeeb946d2af813bac598640b43342cd2b7a142eb31a6fff239faaae995f9f7
"The alkop floated. Is this good, bad, or neither?",6,f45f1aa95cdc724e1ff7e33dc7155b0f3ac4bba1082df2f26206fe0758865273906c8a90f1bb48c2a5539965e3427373c3ee22c6040667b70e90435f5c56ade3
"The alkop floated. Is this good, bad, or neither?",1,8eb8eb9ee8a5dc5a76832099bd61e3988c8e01c2c58daae7a5a78563d2f5449d2ac146d6d35c79e2f33b7fe14c8d00f78deea59045dcb4570a6484c7fe7175f4
"The alkop floated. Is this good, bad, or neither?",2,e99ecb5d42bcb556995b59950ff2adddeed2be5050bd1be001ea5c7406b2758121a564b947dd78f9585c52677cf9a6f0d860adc9290d708573e1d3b54e46459d
"The alkop floated. Is this good, bad, or neither?",2,b4a89e063c479339463fe8a3755a45afdb72640d55ae6f8499866bdce35aea79532c96c386d3e305abf960bd172306159148a5dedc70fc0c191353ec94176ac4
"The alkop floated. Is this good, bad, or neither?",2,0cce9151698e5674daa0d80fe4efc4daa6c28de601e9af357d943b02c498a73578d8113eba388846a2ca22017c481f5d2b2a23aca606799dfa309a4c8d51c86e
"The alkop floated. Is this good, bad, or neither?",2,e118178ae8b6bcc8b0296c7ee930808b3e9519f0ed3bee093cac0da45b006de2270581af9e201134ef529e9542daba1617fd67bde390fb3665ab11b401beca11
"The alkop floated. Is this good, bad, or neither?",6,e118178ae8b6bcc8b0296c7ee930808b3e9519f0ed3bee093cac0da45b006de2270581af9e201134ef529e9542daba1617fd67bde390fb3665ab11b401beca11
"The alkop floated. Is this good, bad, or neither?",4,b4a89e063c479339463fe8a3755a45afdb72640d55ae6f8499866bdce35aea79532c96c386d3e305abf960bd172306159148a5dedc70fc0c191353ec94176ac4
"The alkop floated. Is this good, bad, or neither?",0,f2d6b51dfd20eed1bd0330fdb2930840694538c9582d2b3d8d8d239cc9a74436f22cc405cafa0585ee0ba12957a0a33ac29e60434f30ce312df3202bb9c7906d
"The alkop floated. Is this good, bad, or neither?",2,5d818587500e31ddd24f674f0d96e8036b1fbbdeff8f12716de7cf436031070adc160ac58c2058f70b7756b9758d4cc6c60cd86cb5fbac5b08e94434f347d5fc
"The alkop floated. Is this good, bad, or neither?",2,ddaaf85b6ad92e5bd899125be0ee1d1e475cef85f10f7c86eb80b3e666aa2d27b9930efbf239779906809e3b49e9c42c65a28830cce2f7034e42c039095ac370
"The alkop floated. Is this good, bad, or neither?",2,720bea532db6ed90a7bd855c056e2ccc32b0f2fe90eb490aa4d644afcc89620fb5f7c3bf4971d931a8aef22130fb8976bd9e83f534038e3c4e8421311520cb5d
"The alkop floated. Is this good, bad, or neither?",2,928377da5ab212a9b8b353c5a7d674cdb97439ca059563d8fc5626218a700145bae435717959cdcd5ac2b5728016aa29a0a5049e69a7a7f7bc66c06a91546dc0
"The alkop floated. Is this good, bad, or neither?",2,a86c50a32e78a366ad59ca66bd4ff32c1fb53ba75d3046acefe4f6962978f006f2def13e4f57f022679e54032bef024655e022bbc37488fcfc98bd2ce571c546
"The alkop floated. Is this good, bad, or neither?",0,e6b4887e60c9a9f61270335f1a765cea5e2de4f9bd5c8679d463718729ffd1c834479d1bd0d6f92c8aabdcaabb0fc7f7c4a236e0d23015adf1f49241e28f25ab
"The alkop floated. Is this good, bad, or neither?",2,ab817809187642176d23d87932f87fb8cac29305dd69bd9c80c875e1418683baeb300a33a4ea303e96598aee641e58ffef6ed700b09ee5a77559e157e08d3320
"The alkop floated. Is this good, bad, or neither?",2,17f6732cbcd360848927fad93c861a02892af401338bc95414692acfacfa7d9ad8dd7dc0691a31a9d719f2dded1671f031232d2413fb564895308f69d045f664
"The alkop floated. Is this good, bad, or neither?",2,c05c20b19bfac736223d995201caec3443e1880034895de95b3cb59dd4346a6be7b45a13643ce08200ba740941e12766d4634f1629daa5e4e4eeb57e2a14915f
"The alkop floated. Is this good, bad, or neither?",2,6442579b5017c978ac48004d53b31163b3763f309e6f3e0581e04c2aea211970cc33a63b0462acee00808e5c684e9c9445efbc52c93000c0cc6f7f2e7cc3b7f1
"The alkop floated. Is this good, bad, or neither?",2,08ea6ea397537c84ac209f08bf3bec2c0ff500e94266cd17fa45d303b288126de192d25b7f3331a02fdcad8a68ce682fafad99f95ec45259d05ed65d6cd3505e
"The alkop floated. Is this good, bad, or neither?",2,aeaead0bad2cd8cd8e00067df1d0ddd61b9ba6afec23c08f5c84f413ad2e263545b447c45633570fb4f2c9b3d3be895bc1e474eb157f9f9b4ac62955a36370ef
"The alkop floated. Is this good, bad, or neither?",2,305f2f29687fda8e291e598686a4a089cc57c27d26fc2dea3e28544183df6fdd4ce792399dcac730c7aa7109f82a09aace9c895bf9596d257e113393be774056
"The alkop floated. Is this good, bad, or neither?",2,c4ed94657e69e8d0ab2fc62ae827e33b39befc4999fffa6f5fd6cc66b82427202a7aa870b5327b553f62a9c69474930cded1869d86d079f9aed5650135c1c560
