"The gamp broke the quap into ginks. Is this good, bad, or neither?",1,5d818587500e31ddd24f674f0d96e8036b1fbbdeff8f12716de7cf436031070adc160ac58c2058f70b7756b9758d4cc6c60cd86cb5fbac5b08e94434f347d5fc
"The gamp broke the quap into ginks. Is this good, bad, or neither?",1,9d8ddb67f662349a7f7a7c5a32fee73c457fd70d135ae4be6f17a68418102d35693b26415c8fd8c7bd26a5b5032587ac08aefd055994f62fcb3e9a44d5cb51b0
"The gamp broke the quap into ginks. Is this good, bad, or neither?",4,a86ed65d61974d7dea82060be097f86c660af18270b8a54ee25f3a061989f9d295222b9d4acf42f927c58a5b72418c1f574ba07654f4e4dd0639ecc38dab1058
"The gamp broke the quap into ginks. Is this good, bad, or neither?",2,720bea532db6ed90a7bd855c056e2ccc32b0f2fe90eb490aa4d644afcc89620fb5f7c3bf4971d931a8aef22130fb8976bd9e83f534038e3c4e8421311520cb5d
"The gamp broke the quap into ginks. Is this good, bad, or neither?",1,3e48ecd6054d02891089f87e7290c4a1787d57fabca13ac896aa9393516140b72931471ecd8ad7b77a4a4dbb84a62823ee4ee2800ac340eb5b600cf3fba6c547
"The gamp broke the quap into ginks. Is this good, bad, or neither?",2,ddaaf85b6ad92e5bd899125be0ee1d1e475cef85f10f7c86eb80b3e666aa2d27b9930efbf239779906809e3b49e9c42c65a28830cce2f7034e42c039095ac370
"The gamp broke the quap into ginks. Is this good, bad, or neither?",4,875020ab790a2a14de66f1031c9dbe948349d58ca878a7ebdf2af07b04dd9e5ab4a699ced7cd5f0dd4086c9d36d349e952b257a9921f440dc5f764a7d05e7b7f
"The gamp broke the quap into ginks. Is this good, bad, or neither?",4,e6b4887e60c9a9f61270335f1a765cea5e2de4f9bd5c8679d463718729ffd1c834479d1bd0d6f92c8aabdcaabb0fc7f7c4a236e0d23015adf1f49241e28f25ab
"The gamp broke the quap into ginks. Is this good, bad, or neither?",2,ab817809187642176d23d87932f87fb8cac29305dd69bd9c80c875e1418683baeb300a33a4ea303e96598aee641e58ffef6ed700b09ee5a77559e157e08d3320
"The gamp broke the quap into ginks. Is this good, bad, or neither?",2,247d016ad1965e185b284a032af50657ede03f4f6dfc65f402943ca2d27268dbc47a7ee39ad2eed9b24b64110dc50e8dd10ca6597e88d493637c358a9ba6470b
"The gamp broke the quap into ginks. Is this good, bad, or neither?",4,a2d9d2b53a64cc210c5d5ae513697dde98962d35ab23b7f1d01f7dbee0ab2bd758c58bb31ad6a0ab40ecb1fa916498f9711de450706865a35f42029ae3c0a523
"The gamp broke the quap into ginks. Is this good, bad, or neither?",2,609868e2cf6de58a506a6731afe55c53d93510e3a34e58705479846aa7ccef2469a0081dc7ad92826b214afccaa96b3202ca07a32e7d6afd795c5776ef5511be
"The gamp broke the quap into ginks. Is this good, bad, or neither?",1,675a6154d38e7981c932127e219f374c1a8880011eab4c932106ac51314fb2868ba8fd7264f3bb40c5a96272dc019e5c9cf6c60011e9e9a04b73042a43219af2
"The gamp broke the quap into ginks. Is this good, bad, or neither?",1,08ea6ea397537c84ac209f08bf3bec2c0ff500e94266cd17fa45d303b288126de192d25b7f3331a02fdcad8a68ce682fafad99f95ec45259d05ed65d6cd3505e
"The gamp broke the quap into ginks. Is this good, bad, or neither?",2,aeaead0bad2cd8cd8e00067df1d0ddd61b9ba6afec23c08f5c84f413ad2e263545b447c45633570fb4f2c9b3d3be895bc1e474eb157f9f9b4ac62955a36370ef
"The gamp broke the quap into ginks. Is this good, bad, or neither?",4,49dcb1441d32656cba9d11b70043b0c4d17712f6a50e97b4a50054f5ed2de2456bfaa95cc13099b9c4e56b3877f0d046a24ebafe7ba804cb86d78cf96ab92a6b
"The gamp broke the quap into ginks. Is this good, bad, or neither?",1,305f2f29687fda8e291e598686a4a089cc57c27d26fc2dea3e28544183df6fdd4ce792399dcac730c7aa7109f82a09aace9c895bf9596d257e113393be774056
"The gamp broke the quap into ginks. Is this good, bad, or neither?",1,91b3d21da428115769bf112425829c3e28a984912697812351f341d5a401134d1f5b988249c942963133742be3cf1f09c66a6549032792c3aef513b32c41ddfa
"The gamp broke the quap into ginks. Is this good, bad, or neither?",4,62b9649ab9f438f49f6d48420311d7ce07e618efcbd790e60672d4aa3065807f5cb3680924be4de5d41ceba3547c415e1bf957e772c1fe72220ab8512b0c0920
"The gamp broke the quap into ginks. Is this good, bad, or neither?",4,5b56973b88ed7b736ff3966dd5900790af0d217684769981e05a869fd0482e4eb627fbc83ef164acdcc19dfee68958f3688d63269cfdc0cd3c3ec35969e3c934
"The gamp broke the quap into ginks. Is this good, bad, or neither?",1,af989e3af8e0075e9bde53bd63f64cd6e74e8b4e5bd1927668d72c74602eac36c160300f69280c96acac6f88b8e2304f56fa42541c2b6de1348a754f5f87e17c
"The gamp broke the quap into ginks. Is this good, bad, or neither?",4,374634f202202263ffdd8668a1488ecd7d08e9ad30a552d742cc8d6a4a6336712da7922b4a1a4dd141940d6c0fc175765c5a7bb0ae45350384eb54f9f136d3e3
"The gamp broke the quap into ginks. Is this good, bad, or neither?",1,fb3ee4e72eb582b2b2920acd3ac5a4ed00149c2560bf0255b9bc8237d80cbadd7b353ced6ab5662f69dfe00d362575b7da94144cd2374866a682e39b17cc3c0d
"The gamp broke the quap into ginks. Is this good, bad, or neither?",1,caff777a2303da77340521ef83945a07684b2612ccb93a9fe1e9e6b34d4e52177c4499982e59c5f493664f3123c4c9738867850e7445f494ca6c22600eb6e56a
"The gamp broke the quap into ginks. Is this good, bad, or neither?",2,10eecac5dd10a7b29f90ca6e983e11cc3b12eab243f42689c970dc5f5d63fcb1f335d3180b5765263795e3bbbcdb63f1e72454ef8820e9646006a9a3f3fa4c4b
"The gamp broke the quap into ginks. Is this good, bad, or neither?",4,28195e505193242d636c8cf88927e3353b64c1e9365b6d4fe6834ae467adb58cc661083c465cf575a9d4e6e6ea9daf2f4e5b8eaf892be186be05aa6b9c0519ec
"The gamp broke the quap into ginks. Is this good, bad, or neither?",1,ecd12f5c7840150b6bf31f41cfe805fbb7f1e24d87bc7f9a7e4a26034d172ee611537c7e49e1951d513a1b63598bec45f4cf8d3fd4936ebe2747d7e8018937e5
"The gamp broke the quap into ginks. Is this good, bad, or neither?",5,f1eb75ab133f98de9313eaa708288fe05f8edc2a71325a89f088c6072071cd7ba3e1521b35c4faa0e68cbc0e11f31370b17a25705d5666efa406adbdfc6ba16b
"The gamp broke the quap into ginks. Is this good, bad, or neither?",1,4a3b6525f743328fefbe54fa0e2a131c486a29ff6d59072386194011c355e03503043b89aa96a3e0f0cb2c3ce8c28128628fe40bd6ecd633c235bc5b4e6b3ca4
"The gamp broke the quap into ginks. Is this good, bad, or neither?",2,401591f278e1aaec5101f645338fca5fbbdec09332561ec98cafc52acdfccf065d04e4648dd1bf79814b86322d53768e40cef7ca3015a513d4528319988a1d5c
"The gamp broke the quap into ginks. Is this good, bad, or neither?",1,41628a0f8849c48d09c00e99c4a99cae8b10c5d31c76fc5043a816bea93afdb63771aa227c3fc1235d69b6c482ed4c1972716b6868be483c3ecaba9ca7efddc1
"The gamp broke the quap into ginks. Is this good, bad, or neither?",2,e841321e059be2b94df077bd960087ffa88be0467ee0e277363923cedf4989e22abafe90ba8c04c13c440fcdba69e089667bf8128550fc7c0acf3fa0675d411d
"The gamp broke the quap into ginks. Is this good, bad, or neither?",2,4cb9ab4def28942a82e018ef738f8bf46f6b385fd31a98124410d4d9705f76996eb4c0a668232278bc77d0e87b7cefc590324d6f808c14a6b67697b28895cf7e
"The gamp broke the quap into ginks. Is this good, bad, or neither?",4,87d20b91bd4e4d749ce2b5e4414c28a7cef02c7c2e5311c42906d9854ec9b2ff96f0a731cbb7fb8815395b3cf83911614f2e723355f2998ea39b9d17e27ba0ef
"The gamp broke the quap into ginks. Is this good, bad, or neither?",1,a7dc9d4f184ea86b7b6e6869b9a53887f9af455a7a9b3f701cc20ec18e11435fdb90d9c3eed921996792de6c1628b7a27219b25f044ffe99d725092cbc88af6e
"The gamp broke the quap into ginks. Is this good, bad, or neither?",4,3d4fc7b2dadb2b182d403a89b5b1771f45fe25dc6bc63f09adc7633a8a11cca9c91b4455faf8b8a973a33d286a5a58caf726f100a06cb3a9dcbbc6cb0bfb78a3
"The gamp broke the quap into ginks. Is this good, bad, or neither?",1,ac3b1b10808f1753ec2a45dbfd111934fc15f5c99e8d54caa1b9fa0399c450a1b4489cb0037029cbf93008625f0c076357a1b8e164d2f400a000fbd6062f7bad
"The gamp broke the quap into ginks. Is this good, bad, or neither?",4,0b26b8aed57f4e9be590b42b9daa3d8622e64baa51c0ea2b398cb98373013ed5f6932b4141176ed987db52af7c560e116eb90e2b60aab554df8506277321c989
"The gamp broke the quap into ginks. Is this good, bad, or neither?",3,2fa44ca94b069ecc66e19188e735c0580159e621237f15a2b650226b20386c483391b287591d8580625154104af33af7d42c323c68583319a520f6da608900c1
"The gamp broke the quap into ginks. Is this good, bad, or neither?",3,2fa44ca94b069ecc66e19188e735c0580159e621237f15a2b650226b20386c483391b287591d8580625154104af33af7d42c323c68583319a520f6da608900c1
"The gamp broke the quap into ginks. Is this good, bad, or neither?",2,6f584a2292fcdead193993356855ecc69394ee6e71878f23e0bf338388d960094cb9b47f31c47901714ad33d0171864b21a7fbf301d62f82acbac4e17c303ef3
"The gamp broke the quap into ginks. Is this good, bad, or neither?",2,00e8bcb123506406d6c9ca8f1dcbafc41f731cf423f17fc415b41f83f02f6e10df5daef6b05e39aa0e0f55bc915fc0a38f6d4a5236e9cab67d7ca11c57a7731b
"The gamp broke the quap into ginks. Is this good, bad, or neither?",2,af2a334d706c1b69573a219943b69d932d7ab19af138b53be67e9aecd99fabaeb2a49b44537009c3139302d498eb4b5f83a8e2bb09d9b9cfb8869bd630c6c757
"The gamp broke the quap into ginks. Is this good, bad, or neither?",4,864fd6d6c6f3b061f8849268ccbe26a8df17226567b244b0760c60bacd2b79ced559640987941fff3ebd0eb3949cea7885c56e467856a8919d1736aa402c8087
"The gamp broke the quap into ginks. Is this good, bad, or neither?",4,0a10cfbe96898e179a6989823d1b388e63fd11f48fd9bb0f118bf62cd7dfea5dd88a7b1d57cbd9606e10dc7e76ef4a52208822cd8d1992d9cbf67431ac76dda0
"The gamp broke the quap into ginks. Is this good, bad, or neither?",2,0ef960d6d853ec615d67ffde3515107defa311e837571d6204b6bec828f4921b1d5eb9eaa05cc0576f1ede6d94934ca78dc6544d3eb51b738a3a901b2eda0a02
"The gamp broke the quap into ginks. Is this good, bad, or neither?",4,a8c587b500db841a040c834ea7e138d680f58a94067a016d1e34bb029e7a5755a7b629b83510771826624e6ba17f86d951b5c9399cff1af255e887a48cc06c67
"The gamp broke the quap into ginks. Is this good, bad, or neither?",6,dd29bcfc5039bf254fad4a16308af948e10f00523f7439208715d7dc7e8bc383942d63173014a44512e3d62008df50d93570f0b0c14c442b4dd89ae332d0d808
"The gamp broke the quap into ginks. Is this good, bad, or neither?",4,654abee2a34ea238dd9860279c2e4f4ca17d0745f80e3a567f1be1f8bc80565588c6bc0d387e4705bac6ad4b8113565bc4647802a60f9ec02d1e658cb7bd2331
"The gamp broke the quap into ginks. Is this good, bad, or neither?",3,5f12e05c2e694ca4d0d50f5c90ffefa31fc5c326c5f6352ab6f2d69efda09898d7fa2e899476fb98164baf5559806eee7fc6f92a8cd7641d9b208f848e51b143
"The gamp broke the quap into ginks. Is this good, bad, or neither?",3,5f12e05c2e694ca4d0d50f5c90ffefa31fc5c326c5f6352ab6f2d69efda09898d7fa2e899476fb98164baf5559806eee7fc6f92a8cd7641d9b208f848e51b143
"The gamp broke the quap into ginks. Is this good, bad, or neither?",3,5f12e05c2e694ca4d0d50f5c90ffefa31fc5c326c5f6352ab6f2d69efda09898d7fa2e899476fb98164baf5559806eee7fc6f92a8cd7641d9b208f848e51b143
"The gamp broke the quap into ginks. Is this good, bad, or neither?",3,5f12e05c2e694ca4d0d50f5c90ffefa31fc5c326c5f6352ab6f2d69efda09898d7fa2e899476fb98164baf5559806eee7fc6f92a8cd7641d9b208f848e51b143
"The gamp broke the quap into ginks. Is this good, bad, or neither?",3,5f12e05c2e694ca4d0d50f5c90ffefa31fc5c326c5f6352ab6f2d69efda09898d7fa2e899476fb98164baf5559806eee7fc6f92a8cd7641d9b208f848e51b143
"The gamp broke the quap into ginks. Is this good, bad, or neither?",3,5f12e05c2e694ca4d0d50f5c90ffefa31fc5c326c5f6352ab6f2d69efda09898d7fa2e899476fb98164baf5559806eee7fc6f92a8cd7641d9b208f848e51b143
"The gamp broke the quap into ginks. Is this good, bad, or neither?",3,5f12e05c2e694ca4d0d50f5c90ffefa31fc5c326c5f6352ab6f2d69efda09898d7fa2e899476fb98164baf5559806eee7fc6f92a8cd7641d9b208f848e51b143
"The gamp broke the quap into ginks. Is this good, bad, or neither?",3,5f12e05c2e694ca4d0d50f5c90ffefa31fc5c326c5f6352ab6f2d69efda09898d7fa2e899476fb98164baf5559806eee7fc6f92a8cd7641d9b208f848e51b143
"The gamp broke the quap into ginks. Is this good, bad, or neither?",3,690b49f0e827aa455ea6c318c99285b316b81d8d80a68acfe717410a787a5d40ff7276cb8aa57d269e1dd32d2ae208e6e8f244522492494c2761d70ff5d65f56
"The gamp broke the quap into ginks. Is this good, bad, or neither?",3,690b49f0e827aa455ea6c318c99285b316b81d8d80a68acfe717410a787a5d40ff7276cb8aa57d269e1dd32d2ae208e6e8f244522492494c2761d70ff5d65f56
"The gamp broke the quap into ginks. Is this good, bad, or neither?",4,4c18057285e1b9791d09337ac3924f51b200b67b2da3e9ca06dbbf7c449cfc9efdddbb34f52463558c75e7235a69b15eece24190ba6b2bb5ad4c030ef81f8a67
"The gamp broke the quap into ginks. Is this good, bad, or neither?",4,8c198db1cf066bfe79b2a6823e8b0ebb3c0d364ebe469cfad908c14c03120b0af55f92854ff81242816d09ab5caf9b0398c329ebcb7575b705a61ff6c2a5339d
"The gamp broke the quap into ginks. Is this good, bad, or neither?",3,d803e41b888ff54cd60907b7f05720a733c4c6f6aab9dbfd15088faaa54b31c29ddf7783f42e31d212eb85c93386af22d864eb27b6f477588b5ee5312ff3fe2a
"The gamp broke the quap into ginks. Is this good, bad, or neither?",3,d803e41b888ff54cd60907b7f05720a733c4c6f6aab9dbfd15088faaa54b31c29ddf7783f42e31d212eb85c93386af22d864eb27b6f477588b5ee5312ff3fe2a
"The gamp broke the quap into ginks. Is this good, bad, or neither?",1,3ce1c91573b49e76ae6d43c669a24733296314c25baffa84d6693179025159771a3c7b297e83491615fff176965dd211be78675095cfe008040fcf254df14810
"The gamp broke the quap into ginks. Is this good, bad, or neither?",1,49ab4e617e4b019aa6e4bc33ab3a5579ea5df801ae9ba374945bda0d876c0a9ee62ffe4c625d112600ddc52abb43cd72d4cc79fe6fbe81da8c944cf03623fbba
"The gamp broke the quap into ginks. Is this good, bad, or neither?",1,819161aa2e764fd74ba60f02978d28b130e488d1f6ed613c48db286b68fe06ef24eeeb946d2af813bac598640b43342cd2b7a142eb31a6fff239faaae995f9f7
"The gamp broke the quap into ginks. Is this good, bad, or neither?",2,f74a189a696ebb5d3833d4b89b0f94733b24c099235b93e38989b213817f3f6c519b8f67d99e68d2aae2d8cec42afe0dc9936b8765108818964591269daa19f6
"The gamp broke the quap into ginks. Is this good, bad, or neither?",7,5a586abfb0b187a0f1f9b5485bd78a39509a7ccce19c73e01ce2789939e34bd90489f02639b521fcb9ed5c4156c08c2aff3004fa38cd00c674977ea923fbbf88
"The gamp broke the quap into ginks. Is this good, bad, or neither?",1,a04441347c7a31798c34e1a297af024142381cfd06d1679184d6b0cf7ea8eda83518c819aaa67808a7238790be4a54c02324be8e270298ac207e0fa103ba2135
"The gamp broke the quap into ginks. Is this good, bad, or neither?",0,99cce8dee7a406636d6fe7e300e2704a13fa5ce1c3b18dd5f134736c075a0b54eb0db79c82c1e55388375429ed6e9dd6b95cbdc19ede24fa6a96e83de3f5220a
"The gamp broke the quap into ginks. Is this good, bad, or neither?",1,72d1c9853df3d3644610f651fe7698341b570aaefc46052d0ded8bbbdc6d391fd63756a98ecba6103b15777dc7237c385637dd01aa20a1dae807fa976cc0b5fd
"The gamp broke the quap into ginks. Is this good, bad, or neither?",1,83e68bdb3c8d06734b9c63de2e996ad5203cfadd686bffeb5371242a53bd2562e4ee27b56455e36057ad2b7ff679b1bc0942e1b5e336f4762c4ed9cc49cb339a
"The gamp broke the quap into ginks. Is this good, bad, or neither?",1,5d818587500e31ddd24f674f0d96e8036b1fbbdeff8f12716de7cf436031070adc160ac58c2058f70b7756b9758d4cc6c60cd86cb5fbac5b08e94434f347d5fc
"The gamp broke the quap into ginks. Is this good, bad, or neither?",1,9d8ddb67f662349a7f7a7c5a32fee73c457fd70d135ae4be6f17a68418102d35693b26415c8fd8c7bd26a5b5032587ac08aefd055994f62fcb3e9a44d5cb51b0
"The gamp broke the quap into ginks. Is this good, bad, or neither?",4,a86ed65d61974d7dea82060be097f86c660af18270b8a54ee25f3a061989f9d295222b9d4acf42f927c58a5b72418c1f574ba07654f4e4dd0639ecc38dab1058
"The gamp broke the quap into ginks. Is this good, bad, or neither?",2,720bea532db6ed90a7bd855c056e2ccc32b0f2fe90eb490aa4d644afcc89620fb5f7c3bf4971d931a8aef22130fb8976bd9e83f534038e3c4e8421311520cb5d
"The gamp broke the quap into ginks. Is this good, bad, or neither?",1,3e48ecd6054d02891089f87e7290c4a1787d57fabca13ac896aa9393516140b72931471ecd8ad7b77a4a4dbb84a62823ee4ee2800ac340eb5b600cf3fba6c547
"The gamp broke the quap into ginks. Is this good, bad, or neither?",2,ddaaf85b6ad92e5bd899125be0ee1d1e475cef85f10f7c86eb80b3e666aa2d27b9930efbf239779906809e3b49e9c42c65a28830cce2f7034e42c039095ac370
"The gamp broke the quap into ginks. Is this good, bad, or neither?",4,875020ab790a2a14de66f1031c9dbe948349d58ca878a7ebdf2af07b04dd9e5ab4a699ced7cd5f0dd4086c9d36d349e952b257a9921f440dc5f764a7d05e7b7f
"The gamp broke the quap into ginks. Is this good, bad, or neither?",4,e6b4887e60c9a9f61270335f1a765cea5e2de4f9bd5c8679d463718729ffd1c834479d1bd0d6f92c8aabdcaabb0fc7f7c4a236e0d23015adf1f49241e28f25ab
"The gamp broke the quap into ginks. Is this good, bad, or neither?",2,ab817809187642176d23d87932f87fb8cac29305dd69bd9c80c875e1418683baeb300a33a4ea303e96598aee641e58ffef6ed700b09ee5a77559e157e08d3320
"The gamp broke the quap into ginks. Is this good, bad, or neither?",2,247d016ad1965e185b284a032af50657ede03f4f6dfc65f402943ca2d27268dbc47a7ee39ad2eed9b24b64110dc50e8dd10ca6597e88d493637c358a9ba6470b
"The gamp broke the quap into ginks. Is this good, bad, or neither?",4,a2d9d2b53a64cc210c5d5ae513697dde98962d35ab23b7f1d01f7dbee0ab2bd758c58bb31ad6a0ab40ecb1fa916498f9711de450706865a35f42029ae3c0a523
"The gamp broke the quap into ginks. Is this good, bad, or neither?",2,609868e2cf6de58a506a6731afe55c53d93510e3a34e58705479846aa7ccef2469a0081dc7ad92826b214afccaa96b3202ca07a32e7d6afd795c5776ef5511be
"The gamp broke the quap into ginks. Is this good, bad, or neither?",1,675a6154d38e7981c932127e219f374c1a8880011eab4c932106ac51314fb2868ba8fd7264f3bb40c5a96272dc019e5c9cf6c60011e9e9a04b73042a43219af2
"The gamp broke the quap into ginks. Is this good, bad, or neither?",1,08ea6ea397537c84ac209f08bf3bec2c0ff500e94266cd17fa45d303b288126de192d25b7f3331a02fdcad8a68ce682fafad99f95ec45259d05ed65d6cd3505e
"The gamp broke the quap into ginks. Is this good, bad, or neither?",2,aeaead0bad2cd8cd8e00067df1d0ddd61b9ba6afec23c08f5c84f413ad2e263545b447c45633570fb4f2c9b3d3be895bc1e474eb157f9f9b4ac62955a36370ef
"The gamp broke the quap into ginks. Is this good, bad, or neither?",4,49dcb1441d32656cba9d11b70043b0c4d17712f6a50e97b4a50054f5ed2de2456bfaa95cc13099b9c4e56b3877f0d046a24ebafe7ba804cb86d78cf96ab92a6b
"The gamp broke the quap into ginks. Is this good, bad, or neither?",1,305f2f29687fda8e291e598686a4a089cc57c27d26fc2dea3e28544183df6fdd4ce792399dcac730c7aa7109f82a09aace9c895bf9596d257e113393be774056
"The gamp broke the quap into ginks. Is this good, bad, or neither?",1,91b3d21da428115769bf112425829c3e28a984912697812351f341d5a401134d1f5b988249c942963133742be3cf1f09c66a6549032792c3aef513b32c41ddfa
"The gamp broke the quap into ginks. Is this good, bad, or neither?",5,f1eb75ab133f98de9313eaa708288fe05f8edc2a71325a89f088c6072071cd7ba3e1521b35c4faa0e68cbc0e11f31370b17a25705d5666efa406adbdfc6ba16b
