"Ryan floated Andrew to moopation. Is this good, bad, or neither?",2,5d818587500e31ddd24f674f0d96e8036b1fbbdeff8f12716de7cf436031070adc160ac58c2058f70b7756b9758d4cc6c60cd86cb5fbac5b08e94434f347d5fc
"Ryan floated Andrew to moopation. Is this good, bad, or neither?",2,ddaaf85b6ad92e5bd899125be0ee1d1e475cef85f10f7c86eb80b3e666aa2d27b9930efbf239779906809e3b49e9c42c65a28830cce2f7034e42c039095ac370
"Ryan floated Andrew to moopation. Is this good, bad, or neither?",2,1087a43a37ae1cb35eccb8816ba7fc286c146a503720821260b4583da9758bf337636549d782ce5628cefa3a4e159821de84af1d07c4ba8f2aa730bcec6d8090
"Ryan floated Andrew to moopation. Is this good, bad, or neither?",2,720bea532db6ed90a7bd855c056e2ccc32b0f2fe90eb490aa4d644afcc89620fb5f7c3bf4971d931a8aef22130fb8976bd9e83f534038e3c4e8421311520cb5d
"Ryan floated Andrew to moopation. Is this good, bad, or neither?",2,269dfe0e4036e124b0023f51520133b14049e18ffdf0f22e597294d0c3dfeab7dae9e7dffd9513341d21a4800cbf27e4ca4be902b97160ef7e97b245a9ee7213
"Ryan floated Andrew to moopation. Is this good, bad, or neither?",2,2c2cc02e7c4a9fac5ac9ee043d4014664033de8160410dd0f74c5d9a47316655e56987022590768f6c92f449a8e28ac81befff9e286014110f0a9154585ea11e
"Ryan floated Andrew to moopation. Is this good, bad, or neither?",7,2b7c5e1cfd928b69b2462448b818ce402ca6368c509876c25ddb504c94558cc00c4547f4ee0b505040090fded24678c4e2585c588470990b8014578236561f4f
"Ryan floated Andrew to moopation. Is this good, bad, or neither?",2,eb4b6b706a0f89e14a2d8d16dfc7aa9c87a7d0595820e60b0d5dec6c005f0197619f954c3c62e433d7c45a2749d03a361351da7118319f5edfc5ea8c0c918e14
"Ryan floated Andrew to moopation. Is this good, bad, or neither?",2,55fb5ea820db06b66c24eb761d9f1ea559d9445d82e0e493133ee6e7c0c253ba2fd5653e6733d2ea13d3834eeb5fc32e8cc061d5591fd3cffa9c654918a3aec4
"Ryan floated Andrew to moopation. Is this good, bad, or neither?",3,9fc9d3de7ddb83580fc430d2d5c6ee47e775cabd5a982d7012deb44dbf1042f8b3db8ea6b2c4ee7b39f82b84b6b071d6968393ccc6520a6870f0883ccc441cf9
"Ryan floated Andrew to moopation. Is this good, bad, or neither?",2,609868e2cf6de58a506a6731afe55c53d93510e3a34e58705479846aa7ccef2469a0081dc7ad92826b214afccaa96b3202ca07a32e7d6afd795c5776ef5511be
"Ryan floated Andrew to moopation. Is this good, bad, or neither?",2,fdcb2b05d3a3aa943a3b3391fa64407435c94b0436e74263463c67e17e9953705d3526147878dc1d17eeb8a37311cc71097d78d69109654a83ffff02ede3aedb
"Ryan floated Andrew to moopation. Is this good, bad, or neither?",2,305f2f29687fda8e291e598686a4a089cc57c27d26fc2dea3e28544183df6fdd4ce792399dcac730c7aa7109f82a09aace9c895bf9596d257e113393be774056
"Ryan floated Andrew to moopation. Is this good, bad, or neither?",4,08ea6ea397537c84ac209f08bf3bec2c0ff500e94266cd17fa45d303b288126de192d25b7f3331a02fdcad8a68ce682fafad99f95ec45259d05ed65d6cd3505e
"Ryan floated Andrew to moopation. Is this good, bad, or neither?",2,aeaead0bad2cd8cd8e00067df1d0ddd61b9ba6afec23c08f5c84f413ad2e263545b447c45633570fb4f2c9b3d3be895bc1e474eb157f9f9b4ac62955a36370ef
"Ryan floated Andrew to moopation. Is this good, bad, or neither?",2,5ed859beff22cb7346bbd1bb520b4e40c6fd44610478d66cd057f78c274bfe00e0cfd791b7f2e25ec9b478d601bfa4906bcd9751e895cada9d7ddb10a781a789
"Ryan floated Andrew to moopation. Is this good, bad, or neither?",2,44ff1cf089bbf7211828a3fdb20b42438871616ec1673ead8a12f71d33cd02a9c9b6277f081d013d9f2ec7440ed01aff2b636ec53a25db5c848ae2217fd50870
"Ryan floated Andrew to moopation. Is this good, bad, or neither?",2,aeaead0bad2cd8cd8e00067df1d0ddd61b9ba6afec23c08f5c84f413ad2e263545b447c45633570fb4f2c9b3d3be895bc1e474eb157f9f9b4ac62955a36370ef
"Ryan floated Andrew to moopation. Is this good, bad, or neither?",4,8a74478a9db13d691c15cdcee8e51f2a7166c095ebc46b46a45db0f7e71f25326113b63f51c722ce73b2f2cb4b6c23f1f5bcf0819b2b17e93467b4e32ae84781
"Ryan floated Andrew to moopation. Is this good, bad, or neither?",6,ac159058713bb786536395d849dcdcf98a8ffa433c0df23b7bc3208f1c1ce017c9e666811788def29dda032e13b5e11080c305f9a67c97282c112192adb437e0
"Ryan floated Andrew to moopation. Is this good, bad, or neither?",0,6c6c49ee869b4ca1ba79f9e7161de8bf469354e88f91864b66c80b413102959cddfeccd497a130d4d9dccb97f91a2d4061527fd34a6a5660aa9c5ec30fa2c11f
"Ryan floated Andrew to moopation. Is this good, bad, or neither?",2,a04441347c7a31798c34e1a297af024142381cfd06d1679184d6b0cf7ea8eda83518c819aaa67808a7238790be4a54c02324be8e270298ac207e0fa103ba2135
"Ryan floated Andrew to moopation. Is this good, bad, or neither?",6,5b56973b88ed7b736ff3966dd5900790af0d217684769981e05a869fd0482e4eb627fbc83ef164acdcc19dfee68958f3688d63269cfdc0cd3c3ec35969e3c934
"Ryan floated Andrew to moopation. Is this good, bad, or neither?",4,b9823f44a96a09bb0a39b059bc590571f243e6b4cae8f72f462a679bd66dd4a5df1300c501ee1ee59d2ef0b3924ec82649208ef3855c81f609b9a3b93dc2e442
"Ryan floated Andrew to moopation. Is this good, bad, or neither?",2,7f45982c84b0e62975c836530ebc5c20ed43e2aaac4d7f1c99d59dac30103bb0a2c7f0c3eb3c011244e3b29b96036757199959b8d8fbcc5cf995fee8253a05f5
"Ryan floated Andrew to moopation. Is this good, bad, or neither?",2,b58444df1aa20c5005f739d40601072c266d6fa43a16db0587813e3af15927101be624064ed344fe02d37256fea6921972c3b63cf04ab6073e02d07099a85c67
"Ryan floated Andrew to moopation. Is this good, bad, or neither?",2,fb3ee4e72eb582b2b2920acd3ac5a4ed00149c2560bf0255b9bc8237d80cbadd7b353ced6ab5662f69dfe00d362575b7da94144cd2374866a682e39b17cc3c0d
"Ryan floated Andrew to moopation. Is this good, bad, or neither?",6,2cb44008208d14c82cf8868fc09b67e721d51c1b25835a53ce5c75d4338141e971e3aad3228e19b641ecd4278d4576dc2f1af7702b6c5731e30d7d54f5a829a5
"Ryan floated Andrew to moopation. Is this good, bad, or neither?",3,28195e505193242d636c8cf88927e3353b64c1e9365b6d4fe6834ae467adb58cc661083c465cf575a9d4e6e6ea9daf2f4e5b8eaf892be186be05aa6b9c0519ec
"Ryan floated Andrew to moopation. Is this good, bad, or neither?",2,caff777a2303da77340521ef83945a07684b2612ccb93a9fe1e9e6b34d4e52177c4499982e59c5f493664f3123c4c9738867850e7445f494ca6c22600eb6e56a
"Ryan floated Andrew to moopation. Is this good, bad, or neither?",2,28195e505193242d636c8cf88927e3353b64c1e9365b6d4fe6834ae467adb58cc661083c465cf575a9d4e6e6ea9daf2f4e5b8eaf892be186be05aa6b9c0519ec
"Ryan floated Andrew to moopation. Is this good, bad, or neither?",2,ecd12f5c7840150b6bf31f41cfe805fbb7f1e24d87bc7f9a7e4a26034d172ee611537c7e49e1951d513a1b63598bec45f4cf8d3fd4936ebe2747d7e8018937e5
"Ryan floated Andrew to moopation. Is this good, bad, or neither?",2,401591f278e1aaec5101f645338fca5fbbdec09332561ec98cafc52acdfccf065d04e4648dd1bf79814b86322d53768e40cef7ca3015a513d4528319988a1d5c
"Ryan floated Andrew to moopation. Is this good, bad, or neither?",2,41628a0f8849c48d09c00e99c4a99cae8b10c5d31c76fc5043a816bea93afdb63771aa227c3fc1235d69b6c482ed4c1972716b6868be483c3ecaba9ca7efddc1
"Ryan floated Andrew to moopation. Is this good, bad, or neither?",2,b876aa0d347b24f28a11f66537cbe96167b3ad5b69864d47a4b375277f3a99caabe00ce8e81870868d74ae4ef34abe34b10efbae0ab8b1ff43959286d771a33c
"Ryan floated Andrew to moopation. Is this good, bad, or neither?",2,8cb3711296d5f468aa0575747e649c39032b9926b6aeee771a45ea7a328bb4710ba5bf88689a9cb923c32d808a5b86a31515227d30aa5112c5262f727e9187c0
"Ryan floated Andrew to moopation. Is this good, bad, or neither?",4,b88cd3c9d6cd92c409019db9cac377feb36ef2130ba16ca18a06d45d3317e4f890bf1c6de06059d2df56d783422ec0de325a2cdae437e36ae74c328672732bf9
"Ryan floated Andrew to moopation. Is this good, bad, or neither?",4,2affe66e78ed0fdb8662d48e9de768393c88ec5e667c71326bc9ac141e2742f64028489e0a9dbbd820ca7d777483a05f81c195e5a46d9c595e8003584f94b06f
"Ryan floated Andrew to moopation. Is this good, bad, or neither?",2,79d1e9ddd47e7ce7e9b79d5cf0a129bc40266c682d754429271b543d4a9f1ae0745951873983a83a499b790bece0a94ef2d667c15198c41de7ac15df6808ea45
"Ryan floated Andrew to moopation. Is this good, bad, or neither?",5,4e0ebc74b0fd45f144e272dd994ed45f22ba286a46cc319363385f74ed728273c70ea80f2ee981aa731757a19c0f2078b1f441daf4880bcfda4f42d3cfdf405b
"Ryan floated Andrew to moopation. Is this good, bad, or neither?",2,0ddcb88c065e5bb7e1afc9bd53240b026d032edf884f6dc3fdb0ee2e584db539b52c8eea95c7301a71b6ab355e7a68e705591e1acbf64a7a7663044677d7f8b9
"Ryan floated Andrew to moopation. Is this good, bad, or neither?",2,7d9b8ba455fda802a90a434bdc6f9606e7aa53cf0b22f36f16ead082ed57db04273e16b87cf6da80a229f88dd89aea65f3846cb5189a244c1ec2bcfd86a219b8
"Ryan floated Andrew to moopation. Is this good, bad, or neither?",2,1e7019267a5b9fb0c239414b1e225193cc46ec9d6c9a84692122a153d5af4e4bec36f2ece04c27828e7c811956744c4cdaf9b6e007fe5418441f79557bd2012a
"Ryan floated Andrew to moopation. Is this good, bad, or neither?",2,babc00f7084ee988d833fa44eafa094e2085228f488f14685f845f8053f66dbdad6a613a27792b5f8117a11bfb148963607244616ba8272de95a605e9bfb1c9d
"Ryan floated Andrew to moopation. Is this good, bad, or neither?",5,7eac63dd734031a37e46a4e523aa6bfac9447229a7978f447e0dd64aaeb24d0d1a328b33c9c4f7113e04ffb0b3b9208c1ba47d96cd9c916cdf876f738fa5ae44
"Ryan floated Andrew to moopation. Is this good, bad, or neither?",0,5adefca985807c50c8c3653bc05dd62711748c31faf2fc5e7214a6c8a54953845a096abf18034228cdef8df2149de79b181f416f14036eb5488ae4b5e10799af
"Ryan floated Andrew to moopation. Is this good, bad, or neither?",2,a7dc9d4f184ea86b7b6e6869b9a53887f9af455a7a9b3f701cc20ec18e11435fdb90d9c3eed921996792de6c1628b7a27219b25f044ffe99d725092cbc88af6e
"Ryan floated Andrew to moopation. Is this good, bad, or neither?",2,bab49db9e10dd5714af99e492f159b412bbbe71c4e4a2c9c45b40d6fd28a6bfd3921bfb223f8d4c148d9364edf70bb77b1e5cdac743fccd8905ffe91119f5c87
"Ryan floated Andrew to moopation. Is this good, bad, or neither?",5,58d21333fabff922d46df0c898c21f914f63033e21c078454fd057723a4362ff5e714be632468569187f5304a1e5bc13ab0f894291a6bf075ca570441f1f6d15
"Ryan floated Andrew to moopation. Is this good, bad, or neither?",4,e02d3512a4bac1d7294850cd0c341e272fa99f04631a719c4a5f68a4190b3839780f7ce180851312a044fb083b5d10bb568550efa408a958ac4eaaa67755ae15
"Ryan floated Andrew to moopation. Is this good, bad, or neither?",4,acd8febf40d6112e2e3c5cc387fd5e3a47d5544abb49c4d3f1e18a79b6e9c879af617f7067b1c5c6b80b05094286fc527bfd9f2d984b6523c8ff1f5ecd1ea8ae
"Ryan floated Andrew to moopation. Is this good, bad, or neither?",4,064379b16839f5e0b605be94fbe537281a71080dde9ae89ec38e910e850fe4210f6aae74e4e749794052bd68107a21767deedc93d7cd9268ba62ffac492e1ff0
"Ryan floated Andrew to moopation. Is this good, bad, or neither?",0,e026cbf1f92ffcd63549ad9958fb5feeaed2d6b545677b809b1cafc3fc96349d27e28ef3da4919854a8b6d9ce320dc40b10f705c361b77a717ca1cc8d70dca1b
"Ryan floated Andrew to moopation. Is this good, bad, or neither?",0,f2c74eb01ebfd3398f927554f63a332dc17dc98e01e74eafa50f1618d1988f81656ab9ab2650e80cf64a5daab251d8ea67a685428d7617705c723f4346e74489
"Ryan floated Andrew to moopation. Is this good, bad, or neither?",4,f152fccfa1b4275911c3d51209757f8f47524d9e0dac927fa3cf085a412f2995c54db4378764d73c2aeccf796c683eda37b79db7a22b6c9fb80818fa2a0358f7
"Ryan floated Andrew to moopation. Is this good, bad, or neither?",2,864fd6d6c6f3b061f8849268ccbe26a8df17226567b244b0760c60bacd2b79ced559640987941fff3ebd0eb3949cea7885c56e467856a8919d1736aa402c8087
"Ryan floated Andrew to moopation. Is this good, bad, or neither?",2,25f59b566bfd6c48199f78f2ca8c9e3394ba87dd2b89641de88eadfe68d9f750c0706df1f2c4ec7d3b8a68dc3684d43958937d6d1b9641bd2933ada2425d599f
"Ryan floated Andrew to moopation. Is this good, bad, or neither?",4,af8a38336d92249b322e970e7fda2ac11d51761c496ed87bf1d77d1e99083a7e344df56c3c77cb4fb114298619d6ed36fa9cc3bb0ed11be3c946f677b3161cb0
"Ryan floated Andrew to moopation. Is this good, bad, or neither?",6,af8a38336d92249b322e970e7fda2ac11d51761c496ed87bf1d77d1e99083a7e344df56c3c77cb4fb114298619d6ed36fa9cc3bb0ed11be3c946f677b3161cb0
"Ryan floated Andrew to moopation. Is this good, bad, or neither?",6,95c3a3623f760fce57bda9eac1b09da8bfd71062f4d91b9fe4057843a7d99dc32ae555361e5e61d1a17ec11bf81a08b43671eb437cf7b72f2afa56d6f7599321
"Ryan floated Andrew to moopation. Is this good, bad, or neither?",4,654abee2a34ea238dd9860279c2e4f4ca17d0745f80e3a567f1be1f8bc80565588c6bc0d387e4705bac6ad4b8113565bc4647802a60f9ec02d1e658cb7bd2331
"Ryan floated Andrew to moopation. Is this good, bad, or neither?",4,bdcab5cd1212582dca8e50813eb9d163931efe5267ebfa63e032c1b5b75d61e915f696c1245ea08eb59d0685c2c37571e2b97ec2b046d4d43886cecc5779d0eb
"Ryan floated Andrew to moopation. Is this good, bad, or neither?",0,1cb17f58987a3aa5c097d970489dbf5e227d0c4f76c32f66fd3f93b130e641e3b083481a2e10d52ae5c320b7bfb4896ccdb785fac2c30eebe38445669515a8bc
"Ryan floated Andrew to moopation. Is this good, bad, or neither?",5,8ded77a21fe05c7756085556cca8f98f5eb31dedfed36a6e262cb8adc9034cd291306beab7fc461a490aca5e434bd7146b3069946e787af0ebac1f4361b7c52a
"Ryan floated Andrew to moopation. Is this good, bad, or neither?",3,5f12e05c2e694ca4d0d50f5c90ffefa31fc5c326c5f6352ab6f2d69efda09898d7fa2e899476fb98164baf5559806eee7fc6f92a8cd7641d9b208f848e51b143
"Ryan floated Andrew to moopation. Is this good, bad, or neither?",3,5f12e05c2e694ca4d0d50f5c90ffefa31fc5c326c5f6352ab6f2d69efda09898d7fa2e899476fb98164baf5559806eee7fc6f92a8cd7641d9b208f848e51b143
"Ryan floated Andrew to moopation. Is this good, bad, or neither?",3,5f12e05c2e694ca4d0d50f5c90ffefa31fc5c326c5f6352ab6f2d69efda09898d7fa2e899476fb98164baf5559806eee7fc6f92a8cd7641d9b208f848e51b143
"Ryan floated Andrew to moopation. Is this good, bad, or neither?",3,5f12e05c2e694ca4d0d50f5c90ffefa31fc5c326c5f6352ab6f2d69efda09898d7fa2e899476fb98164baf5559806eee7fc6f92a8cd7641d9b208f848e51b143
"Ryan floated Andrew to moopation. Is this good, bad, or neither?",3,5f12e05c2e694ca4d0d50f5c90ffefa31fc5c326c5f6352ab6f2d69efda09898d7fa2e899476fb98164baf5559806eee7fc6f92a8cd7641d9b208f848e51b143
"Ryan floated Andrew to moopation. Is this good, bad, or neither?",3,5f12e05c2e694ca4d0d50f5c90ffefa31fc5c326c5f6352ab6f2d69efda09898d7fa2e899476fb98164baf5559806eee7fc6f92a8cd7641d9b208f848e51b143
"Ryan floated Andrew to moopation. Is this good, bad, or neither?",3,5f12e05c2e694ca4d0d50f5c90ffefa31fc5c326c5f6352ab6f2d69efda09898d7fa2e899476fb98164baf5559806eee7fc6f92a8cd7641d9b208f848e51b143
"Ryan floated Andrew to moopation. Is this good, bad, or neither?",3,5f12e05c2e694ca4d0d50f5c90ffefa31fc5c326c5f6352ab6f2d69efda09898d7fa2e899476fb98164baf5559806eee7fc6f92a8cd7641d9b208f848e51b143
"Ryan floated Andrew to moopation. Is this good, bad, or neither?",3,4208b89ba035bb5f3c4a756a9c4fec99b9cf4841cc3aa8cefc768c4bc3f12c812a6d2edb5779788bc375456168fe9f15bfd50515558fa0456b36417c6eaf1405
"Ryan floated Andrew to moopation. Is this good, bad, or neither?",3,4208b89ba035bb5f3c4a756a9c4fec99b9cf4841cc3aa8cefc768c4bc3f12c812a6d2edb5779788bc375456168fe9f15bfd50515558fa0456b36417c6eaf1405
"Ryan floated Andrew to moopation. Is this good, bad, or neither?",3,1ff9157bc59753370b5f0a6b43b46c311aa5200f00839d7013c00e8c0eba9ef03024ce3f67d21cda8a6ff6c8ab755a5ed75c614757c4e3cc8af8f7dab3fee7b1
"Ryan floated Andrew to moopation. Is this good, bad, or neither?",4,c07f4f64cd173ffbdb95004d1d4c6df0ec8d7e10228b22ed3329ddf0736f2e3767476d808d166a87cbd915df2e5d59f28ad6b823d3e894f1fc21ea833303c33c
"Ryan floated Andrew to moopation. Is this good, bad, or neither?",6,c07f4f64cd173ffbdb95004d1d4c6df0ec8d7e10228b22ed3329ddf0736f2e3767476d808d166a87cbd915df2e5d59f28ad6b823d3e894f1fc21ea833303c33c
"Ryan floated Andrew to moopation. Is this good, bad, or neither?",0,bf3d4aa93fd1aa36a49910a8c53b5dd5f2417128237981a24cc46057ea3a4f3b54eb9a90508abc2c978147a5369220ddfc949936e547e638b6643c0ea8b6f0aa
"Ryan floated Andrew to moopation. Is this good, bad, or neither?",1,3ce1c91573b49e76ae6d43c669a24733296314c25baffa84d6693179025159771a3c7b297e83491615fff176965dd211be78675095cfe008040fcf254df14810
"Ryan floated Andrew to moopation. Is this good, bad, or neither?",2,b4a89e063c479339463fe8a3755a45afdb72640d55ae6f8499866bdce35aea79532c96c386d3e305abf960bd172306159148a5dedc70fc0c191353ec94176ac4
"Ryan floated Andrew to moopation. Is this good, bad, or neither?",1,83e68bdb3c8d06734b9c63de2e996ad5203cfadd686bffeb5371242a53bd2562e4ee27b56455e36057ad2b7ff679b1bc0942e1b5e336f4762c4ed9cc49cb339a
"Ryan floated Andrew to moopation. Is this good, bad, or neither?",2,819161aa2e764fd74ba60f02978d28b130e488d1f6ed613c48db286b68fe06ef24eeeb946d2af813bac598640b43342cd2b7a142eb31a6fff239faaae995f9f7
"Ryan floated Andrew to moopation. Is this good, bad, or neither?",2,64c920623ab31436b5b4c22427a48558b7ec124dfae9a0406b46420dd8b1b842cc381b408af36bce712d7ed00749499374ac41eff341ac32483021553436031a
"Ryan floated Andrew to moopation. Is this good, bad, or neither?",2,d7891981bd23572d2feb633fd1a58b9ed6dc3e4ac7d092aeb23e6717992663d0b9a8191beebd812db6ce7ef616929ee1dde8c2e0da3183f1a5bbd318ce71daae
"Ryan floated Andrew to moopation. Is this good, bad, or neither?",4,b4a89e063c479339463fe8a3755a45afdb72640d55ae6f8499866bdce35aea79532c96c386d3e305abf960bd172306159148a5dedc70fc0c191353ec94176ac4
"Ryan floated Andrew to moopation. Is this good, bad, or neither?",1,0ca87715be5df199ebada6867f7e0e75295c7ededa0fbd84664b9240578d42457d55abd66e8d40f24cae8c5c5c0a506eae9b839711a908d418039a14a0ca3135
"Ryan floated Andrew to moopation. Is this good, bad, or neither?",3,64b0b383abef7422d0ae1d374180558f9cd4a3b0e91ed813b32c93202f31411e1af4445cc49c3e7a5e27274da047d27abc1a040400096e04e1c3e039548aed58
"Ryan floated Andrew to moopation. Is this good, bad, or neither?",3,64b0b383abef7422d0ae1d374180558f9cd4a3b0e91ed813b32c93202f31411e1af4445cc49c3e7a5e27274da047d27abc1a040400096e04e1c3e039548aed58
"Ryan floated Andrew to moopation. Is this good, bad, or neither?",2,5d818587500e31ddd24f674f0d96e8036b1fbbdeff8f12716de7cf436031070adc160ac58c2058f70b7756b9758d4cc6c60cd86cb5fbac5b08e94434f347d5fc
"Ryan floated Andrew to moopation. Is this good, bad, or neither?",2,ddaaf85b6ad92e5bd899125be0ee1d1e475cef85f10f7c86eb80b3e666aa2d27b9930efbf239779906809e3b49e9c42c65a28830cce2f7034e42c039095ac370
"Ryan floated Andrew to moopation. Is this good, bad, or neither?",2,1087a43a37ae1cb35eccb8816ba7fc286c146a503720821260b4583da9758bf337636549d782ce5628cefa3a4e159821de84af1d07c4ba8f2aa730bcec6d8090
"Ryan floated Andrew to moopation. Is this good, bad, or neither?",2,720bea532db6ed90a7bd855c056e2ccc32b0f2fe90eb490aa4d644afcc89620fb5f7c3bf4971d931a8aef22130fb8976bd9e83f534038e3c4e8421311520cb5d
"Ryan floated Andrew to moopation. Is this good, bad, or neither?",2,269dfe0e4036e124b0023f51520133b14049e18ffdf0f22e597294d0c3dfeab7dae9e7dffd9513341d21a4800cbf27e4ca4be902b97160ef7e97b245a9ee7213
"Ryan floated Andrew to moopation. Is this good, bad, or neither?",2,2c2cc02e7c4a9fac5ac9ee043d4014664033de8160410dd0f74c5d9a47316655e56987022590768f6c92f449a8e28ac81befff9e286014110f0a9154585ea11e
"Ryan floated Andrew to moopation. Is this good, bad, or neither?",7,2b7c5e1cfd928b69b2462448b818ce402ca6368c509876c25ddb504c94558cc00c4547f4ee0b505040090fded24678c4e2585c588470990b8014578236561f4f
"Ryan floated Andrew to moopation. Is this good, bad, or neither?",2,eb4b6b706a0f89e14a2d8d16dfc7aa9c87a7d0595820e60b0d5dec6c005f0197619f954c3c62e433d7c45a2749d03a361351da7118319f5edfc5ea8c0c918e14
"Ryan floated Andrew to moopation. Is this good, bad, or neither?",2,55fb5ea820db06b66c24eb761d9f1ea559d9445d82e0e493133ee6e7c0c253ba2fd5653e6733d2ea13d3834eeb5fc32e8cc061d5591fd3cffa9c654918a3aec4
"Ryan floated Andrew to moopation. Is this good, bad, or neither?",3,9fc9d3de7ddb83580fc430d2d5c6ee47e775cabd5a982d7012deb44dbf1042f8b3db8ea6b2c4ee7b39f82b84b6b071d6968393ccc6520a6870f0883ccc441cf9
"Ryan floated Andrew to moopation. Is this good, bad, or neither?",2,609868e2cf6de58a506a6731afe55c53d93510e3a34e58705479846aa7ccef2469a0081dc7ad92826b214afccaa96b3202ca07a32e7d6afd795c5776ef5511be
"Ryan floated Andrew to moopation. Is this good, bad, or neither?",2,fdcb2b05d3a3aa943a3b3391fa64407435c94b0436e74263463c67e17e9953705d3526147878dc1d17eeb8a37311cc71097d78d69109654a83ffff02ede3aedb
"Ryan floated Andrew to moopation. Is this good, bad, or neither?",2,305f2f29687fda8e291e598686a4a089cc57c27d26fc2dea3e28544183df6fdd4ce792399dcac730c7aa7109f82a09aace9c895bf9596d257e113393be774056
"Ryan floated Andrew to moopation. Is this good, bad, or neither?",4,08ea6ea397537c84ac209f08bf3bec2c0ff500e94266cd17fa45d303b288126de192d25b7f3331a02fdcad8a68ce682fafad99f95ec45259d05ed65d6cd3505e
"Ryan floated Andrew to moopation. Is this good, bad, or neither?",2,aeaead0bad2cd8cd8e00067df1d0ddd61b9ba6afec23c08f5c84f413ad2e263545b447c45633570fb4f2c9b3d3be895bc1e474eb157f9f9b4ac62955a36370ef
"Ryan floated Andrew to moopation. Is this good, bad, or neither?",2,5ed859beff22cb7346bbd1bb520b4e40c6fd44610478d66cd057f78c274bfe00e0cfd791b7f2e25ec9b478d601bfa4906bcd9751e895cada9d7ddb10a781a789
"Ryan floated Andrew to moopation. Is this good, bad, or neither?",2,44ff1cf089bbf7211828a3fdb20b42438871616ec1673ead8a12f71d33cd02a9c9b6277f081d013d9f2ec7440ed01aff2b636ec53a25db5c848ae2217fd50870
"Ryan floated Andrew to moopation. Is this good, bad, or neither?",3,28195e505193242d636c8cf88927e3353b64c1e9365b6d4fe6834ae467adb58cc661083c465cf575a9d4e6e6ea9daf2f4e5b8eaf892be186be05aa6b9c0519ec
"Ryan floated Andrew to moopation. Is this good, bad, or neither?",5,4e0ebc74b0fd45f144e272dd994ed45f22ba286a46cc319363385f74ed728273c70ea80f2ee981aa731757a19c0f2078b1f441daf4880bcfda4f42d3cfdf405b
