"Stephanie bounced Amanda duppy. Is this good, bad, or neither?",2,5d818587500e31ddd24f674f0d96e8036b1fbbdeff8f12716de7cf436031070adc160ac58c2058f70b7756b9758d4cc6c60cd86cb5fbac5b08e94434f347d5fc
"Stephanie bounced Amanda duppy. Is this good, bad, or neither?",2,9d8ddb67f662349a7f7a7c5a32fee73c457fd70d135ae4be6f17a68418102d35693b26415c8fd8c7bd26a5b5032587ac08aefd055994f62fcb3e9a44d5cb51b0
"Stephanie bounced Amanda duppy. Is this good, bad, or neither?",2,ddaaf85b6ad92e5bd899125be0ee1d1e475cef85f10f7c86eb80b3e666aa2d27b9930efbf239779906809e3b49e9c42c65a28830cce2f7034e42c039095ac370
"Stephanie bounced Amanda duppy. Is this good, bad, or neither?",1,720bea532db6ed90a7bd855c056e2ccc32b0f2fe90eb490aa4d644afcc89620fb5f7c3bf4971d931a8aef22130fb8976bd9e83f534038e3c4e8421311520cb5d
"Stephanie bounced Amanda duppy. Is this good, bad, or neither?",4,931df7604323105cae6871adbe48f1ae1428b7f5f3d1a9cc548313858c08c5ee09516f6c6827a2fd1306f86469643d83240ab084cd9d94c3039a5fabf3cbbdfa
"Stephanie bounced Amanda duppy. Is this good, bad, or neither?",2,c7bf35b0ef2f015476794fdba9ad304198a3781a14896803a088e7569171bf3863928cf08d6efceab086907dfe3a261998c51d4f85e25d803769f8cdd190756d
"Stephanie bounced Amanda duppy. Is this good, bad, or neither?",5,49dcb1441d32656cba9d11b70043b0c4d17712f6a50e97b4a50054f5ed2de2456bfaa95cc13099b9c4e56b3877f0d046a24ebafe7ba804cb86d78cf96ab92a6b
"Stephanie bounced Amanda duppy. Is this good, bad, or neither?",0,6f5d3137f68645162d6754029499a9ec7ae5684f56847c76e1aed3915b42b3ec8caf636fecf4f90a32b0151ee5f9c6a1d6452b80a69f77275d541c9cea4cbff1
"Stephanie bounced Amanda duppy. Is this good, bad, or neither?",5,6442579b5017c978ac48004d53b31163b3763f309e6f3e0581e04c2aea211970cc33a63b0462acee00808e5c684e9c9445efbc52c93000c0cc6f7f2e7cc3b7f1
"Stephanie bounced Amanda duppy. Is this good, bad, or neither?",2,b786036d7acce0559d0c263ba481477970ee860596c298ca85cb6c80b7f93e4900fbdf6ffb904d0d2f95e155ef86bfbee8ca27b4f0256a52645ced543254cad4
"Stephanie bounced Amanda duppy. Is this good, bad, or neither?",4,08ea6ea397537c84ac209f08bf3bec2c0ff500e94266cd17fa45d303b288126de192d25b7f3331a02fdcad8a68ce682fafad99f95ec45259d05ed65d6cd3505e
"Stephanie bounced Amanda duppy. Is this good, bad, or neither?",2,305f2f29687fda8e291e598686a4a089cc57c27d26fc2dea3e28544183df6fdd4ce792399dcac730c7aa7109f82a09aace9c895bf9596d257e113393be774056
"Stephanie bounced Amanda duppy. Is this good, bad, or neither?",2,aeaead0bad2cd8cd8e00067df1d0ddd61b9ba6afec23c08f5c84f413ad2e263545b447c45633570fb4f2c9b3d3be895bc1e474eb157f9f9b4ac62955a36370ef
"Stephanie bounced Amanda duppy. Is this good, bad, or neither?",2,19cc5fc01bb05dd5741267b3f22117caba5478d8632a2fd54a3b51c3f3234e31711e85a3987af48026f5335e9e376f74c48e52bb2fe786b5955aa195b15b19d6
"Stephanie bounced Amanda duppy. Is this good, bad, or neither?",4,c4ed94657e69e8d0ab2fc62ae827e33b39befc4999fffa6f5fd6cc66b82427202a7aa870b5327b553f62a9c69474930cded1869d86d079f9aed5650135c1c560
"Stephanie bounced Amanda duppy. Is this good, bad, or neither?",2,65292598f02f15c7af491c276e7b315923eb755df1ace9781f40d4379dd61e8822805a414b86be16cac64f18854c983a7b13ecd2abdf6edf2a94fb3540b8233a
"Stephanie bounced Amanda duppy. Is this good, bad, or neither?",4,548be18a804b583e710199c91257d8f418a9cac4c83824b32bc71702131d3981e08b4de0c2829e16caf1fb82d504d912feb6dab330307d59e5265d88db51f05e
"Stephanie bounced Amanda duppy. Is this good, bad, or neither?",4,44ff1cf089bbf7211828a3fdb20b42438871616ec1673ead8a12f71d33cd02a9c9b6277f081d013d9f2ec7440ed01aff2b636ec53a25db5c848ae2217fd50870
"Stephanie bounced Amanda duppy. Is this good, bad, or neither?",5,f6cff6c818219cfa243192bf9e37d24a1463cee2b8ef369eee8f07fc27e760d451eb5bf0dd9fade17024e9ddc62c34ff07af117aef111cd129863b74685df3b2
"Stephanie bounced Amanda duppy. Is this good, bad, or neither?",1,b3b9eab52694ada3268cee6cd621ee877d46cdcc180fb909e64f486f4c29791bf98de42621e7b64e87ae4b97c0cca47079f9774be06c814d59a6daf5bcca5302
"Stephanie bounced Amanda duppy. Is this good, bad, or neither?",4,5b56973b88ed7b736ff3966dd5900790af0d217684769981e05a869fd0482e4eb627fbc83ef164acdcc19dfee68958f3688d63269cfdc0cd3c3ec35969e3c934
"Stephanie bounced Amanda duppy. Is this good, bad, or neither?",2,7f45982c84b0e62975c836530ebc5c20ed43e2aaac4d7f1c99d59dac30103bb0a2c7f0c3eb3c011244e3b29b96036757199959b8d8fbcc5cf995fee8253a05f5
"Stephanie bounced Amanda duppy. Is this good, bad, or neither?",2,fb3ee4e72eb582b2b2920acd3ac5a4ed00149c2560bf0255b9bc8237d80cbadd7b353ced6ab5662f69dfe00d362575b7da94144cd2374866a682e39b17cc3c0d
"Stephanie bounced Amanda duppy. Is this good, bad, or neither?",0,caff777a2303da77340521ef83945a07684b2612ccb93a9fe1e9e6b34d4e52177c4499982e59c5f493664f3123c4c9738867850e7445f494ca6c22600eb6e56a
"Stephanie bounced Amanda duppy. Is this good, bad, or neither?",2,28195e505193242d636c8cf88927e3353b64c1e9365b6d4fe6834ae467adb58cc661083c465cf575a9d4e6e6ea9daf2f4e5b8eaf892be186be05aa6b9c0519ec
"Stephanie bounced Amanda duppy. Is this good, bad, or neither?",2,e638d19a85dbdcfbfbbb478c494b70b4575cf4ccff3b7b7b4b156af61da173d66095b67f71f41920657d321a3a6d26c9a157f64b91ad2126f03928c9645c3702
"Stephanie bounced Amanda duppy. Is this good, bad, or neither?",1,d52d0f79310a4a1585de2ba281cae55d8bf4f66ee89a3b0afe5bec86ac64f3fbcf4ac04acc90a017d6f66a1259e7c33c370048fe26771c06104f79c7f0e7daea
"Stephanie bounced Amanda duppy. Is this good, bad, or neither?",2,a5c073306569583b1452bb0d9993ce03eb3064e9c24ad08478942dcaa9253f72224cded64b65c25665f6015f552724e340f2ed78c1f3fbe29f5ded4dfc3eaf99
"Stephanie bounced Amanda duppy. Is this good, bad, or neither?",2,8e39364603baf3edd6ae064e90c9efff318932f32d298796f1a55d1e7044ee54edec04b63f9c2ab1e4598362559b814331ad2258a67f174e42bca3ec9ceb4e06
"Stephanie bounced Amanda duppy. Is this good, bad, or neither?",0,019db9849fbccf5726490ab64aa3a38725f0fbff3fa674ebccc5ad8eb2545a58b021ff9df8cf7fdc3d7dd52831ffdbf674953f8c6fae23d9d327dd9784d28ef5
"Stephanie bounced Amanda duppy. Is this good, bad, or neither?",4,2affe66e78ed0fdb8662d48e9de768393c88ec5e667c71326bc9ac141e2742f64028489e0a9dbbd820ca7d777483a05f81c195e5a46d9c595e8003584f94b06f
"Stephanie bounced Amanda duppy. Is this good, bad, or neither?",2,b1398925dea14d74b483e31da9dae3bbca307ebad6d7ea073cf6760842ed77649a07d73875d68e3c69920c4aba1861a58d4822ac9f44bbf8b9cabe27b9889775
"Stephanie bounced Amanda duppy. Is this good, bad, or neither?",2,1e7019267a5b9fb0c239414b1e225193cc46ec9d6c9a84692122a153d5af4e4bec36f2ece04c27828e7c811956744c4cdaf9b6e007fe5418441f79557bd2012a
"Stephanie bounced Amanda duppy. Is this good, bad, or neither?",2,ecd12f5c7840150b6bf31f41cfe805fbb7f1e24d87bc7f9a7e4a26034d172ee611537c7e49e1951d513a1b63598bec45f4cf8d3fd4936ebe2747d7e8018937e5
"Stephanie bounced Amanda duppy. Is this good, bad, or neither?",6,2e08ea7a396b5dc2fc6ff518b56da9298cfd603a2f489e5145c092eb9870a320d2bfa8fd161fe5975a370e19055991d826fd24dea216f722fe25dbbf75088cd3
"Stephanie bounced Amanda duppy. Is this good, bad, or neither?",4,2e08ea7a396b5dc2fc6ff518b56da9298cfd603a2f489e5145c092eb9870a320d2bfa8fd161fe5975a370e19055991d826fd24dea216f722fe25dbbf75088cd3
"Stephanie bounced Amanda duppy. Is this good, bad, or neither?",2,bddab661b674206bd7cd56a842a33689a54dbb9a25cf6bf152c1aca723b16c3e727b6444bf708e3bc9922bbfa49a615c29b758531236f32b24ffab39c8e8a9c3
"Stephanie bounced Amanda duppy. Is this good, bad, or neither?",5,604ad1f7c12ebb30e512629c9761c7d54bc34e17d556740d474c5000ea4d229b2b9d5c3ce48a06681c5eba6d244a156a6cc8af77a7ea8055dd09d0d9ce1c7678
"Stephanie bounced Amanda duppy. Is this good, bad, or neither?",6,9bead9901fd8948cfe071e5d8ae3b3be1ed74c64124ecf8c75d19242c22b1982abbfd4fe909c4c433d712dd816d44400cabb90a208e351321815b0ab491409ed
"Stephanie bounced Amanda duppy. Is this good, bad, or neither?",1,a7dc9d4f184ea86b7b6e6869b9a53887f9af455a7a9b3f701cc20ec18e11435fdb90d9c3eed921996792de6c1628b7a27219b25f044ffe99d725092cbc88af6e
"Stephanie bounced Amanda duppy. Is this good, bad, or neither?",4,cebade569ead85de952674cd6c74f8f0df517e793681823d54276fa8ca2f93ace936224cca2b2af3d356dcaf4f012d195f109a80a9d35dfedcdcf838559a4f13
"Stephanie bounced Amanda duppy. Is this good, bad, or neither?",6,291b4f7cbe26075ed72a3a2522f12dda372e0a92e42e4379d0529c0865532ef95fc4ead7f1b1fcc75c322c9d04b2ffb23e56f38e069984fe929dc235c746959d
"Stephanie bounced Amanda duppy. Is this good, bad, or neither?",5,fd1957fc4ac94c9d517d3a1ebd22f70bd60231bd9afdf765049797f4d73442fadeba7eefb97518ec49c2375e20d096ac8dc87cc4b1f160eee060f18f36a38e7b
"Stephanie bounced Amanda duppy. Is this good, bad, or neither?",4,fac3778c133385ce3e2011a322176a1d38eedb3595998a298a14a5593d91d1358cc957d6d70a6510b1e217a2336810d6a13636729e0ca586d95b3503151cf970
"Stephanie bounced Amanda duppy. Is this good, bad, or neither?",5,715b29fd55d4679228f75a341beeff0fa51f11c88bac262fab7bec4f7cca44f83d54e78853ae1e128dff55430f88dbbee9ab1b8b5ce68f9dc6b74a80f0d6e303
"Stephanie bounced Amanda duppy. Is this good, bad, or neither?",6,6247cdbecf8da45493fec7b4f9ae851ca7ab871f8a1a44117ae164c9d2170e50d4757c013a5530d360c04073467397e9b039f45b84c1bc7142974db94ac2b5be
"Stephanie bounced Amanda duppy. Is this good, bad, or neither?",1,788586ec500f36a90e8e9cd2929df992dcef928d4a899a97f3ee045cae7941804fbd867cc1bd8322157279243f823395f4acb456de65b81bfb1653cd212debeb
"Stephanie bounced Amanda duppy. Is this good, bad, or neither?",5,994e540c5c87d346eea903a063ce4b6b838c1a086bf3b25f872a9580e560ad7c947d47845147985d38960790f2acbb580cec045b34999d3e266553c5d6df9095
"Stephanie bounced Amanda duppy. Is this good, bad, or neither?",4,891dd03066bd0aff97d59506dd4ad95d855b864c7d3c139e37b53a37c4730a2f2abc5aed9f012e35ce7e9fa0f838788f2293f9c9cae0731a6bec2c96485e8cc6
"Stephanie bounced Amanda duppy. Is this good, bad, or neither?",1,af8a38336d92249b322e970e7fda2ac11d51761c496ed87bf1d77d1e99083a7e344df56c3c77cb4fb114298619d6ed36fa9cc3bb0ed11be3c946f677b3161cb0
"Stephanie bounced Amanda duppy. Is this good, bad, or neither?",2,dc1573fdf940f9fb09d57b0011d03c1c44d31b200b999056f3ba7a66f968fff14e39bb77a6b95cde426287b90f173b03c2bb7c514497e44276b0f589563d5728
"Stephanie bounced Amanda duppy. Is this good, bad, or neither?",6,abb7b52d6cd506530513dcebbc4f3f8907b20833cf98b9796b3c04aaedf4041c1a1c7c1bc81c59906578fd317ecef010e757b86d26a905ea96db5023e4d358f1
"Stephanie bounced Amanda duppy. Is this good, bad, or neither?",3,5f12e05c2e694ca4d0d50f5c90ffefa31fc5c326c5f6352ab6f2d69efda09898d7fa2e899476fb98164baf5559806eee7fc6f92a8cd7641d9b208f848e51b143
"Stephanie bounced Amanda duppy. Is this good, bad, or neither?",3,5f12e05c2e694ca4d0d50f5c90ffefa31fc5c326c5f6352ab6f2d69efda09898d7fa2e899476fb98164baf5559806eee7fc6f92a8cd7641d9b208f848e51b143
"Stephanie bounced Amanda duppy. Is this good, bad, or neither?",3,5f12e05c2e694ca4d0d50f5c90ffefa31fc5c326c5f6352ab6f2d69efda09898d7fa2e899476fb98164baf5559806eee7fc6f92a8cd7641d9b208f848e51b143
"Stephanie bounced Amanda duppy. Is this good, bad, or neither?",3,5f12e05c2e694ca4d0d50f5c90ffefa31fc5c326c5f6352ab6f2d69efda09898d7fa2e899476fb98164baf5559806eee7fc6f92a8cd7641d9b208f848e51b143
"Stephanie bounced Amanda duppy. Is this good, bad, or neither?",3,5f12e05c2e694ca4d0d50f5c90ffefa31fc5c326c5f6352ab6f2d69efda09898d7fa2e899476fb98164baf5559806eee7fc6f92a8cd7641d9b208f848e51b143
"Stephanie bounced Amanda duppy. Is this good, bad, or neither?",3,5f12e05c2e694ca4d0d50f5c90ffefa31fc5c326c5f6352ab6f2d69efda09898d7fa2e899476fb98164baf5559806eee7fc6f92a8cd7641d9b208f848e51b143
"Stephanie bounced Amanda duppy. Is this good, bad, or neither?",3,5f12e05c2e694ca4d0d50f5c90ffefa31fc5c326c5f6352ab6f2d69efda09898d7fa2e899476fb98164baf5559806eee7fc6f92a8cd7641d9b208f848e51b143
"Stephanie bounced Amanda duppy. Is this good, bad, or neither?",3,5f12e05c2e694ca4d0d50f5c90ffefa31fc5c326c5f6352ab6f2d69efda09898d7fa2e899476fb98164baf5559806eee7fc6f92a8cd7641d9b208f848e51b143
"Stephanie bounced Amanda duppy. Is this good, bad, or neither?",2,10eca2e7ffd7ad3c0d0df5f92d4b8760b7b9f03b6514aadfc8ad8aed698af60cc29f51e4444e8b30e3daa1c4c5de0c828bd8dd5c3cf32e2d8aeb4d7e519726e4
"Stephanie bounced Amanda duppy. Is this good, bad, or neither?",6,10eca2e7ffd7ad3c0d0df5f92d4b8760b7b9f03b6514aadfc8ad8aed698af60cc29f51e4444e8b30e3daa1c4c5de0c828bd8dd5c3cf32e2d8aeb4d7e519726e4
"Stephanie bounced Amanda duppy. Is this good, bad, or neither?",4,4d81f18eb0b168f54279329379c9909658a1fb164176e070b24317f4d941e763daa2c4b3c6d4cf24cade6d4897c8af1aa886b2f0aa0e8838b955cc349eed8a1f
"Stephanie bounced Amanda duppy. Is this good, bad, or neither?",6,4d81f18eb0b168f54279329379c9909658a1fb164176e070b24317f4d941e763daa2c4b3c6d4cf24cade6d4897c8af1aa886b2f0aa0e8838b955cc349eed8a1f
"Stephanie bounced Amanda duppy. Is this good, bad, or neither?",1,a66f60c025f602176678dc0c74c37a194f33f9d412f9ad76ac18cb842349aaaededfd0082123c987955a76f78f8566ef7c467ce0adc856607f51653f236d9e6c
"Stephanie bounced Amanda duppy. Is this good, bad, or neither?",4,7c38ba709843141a94384e2b59cef8417aecf0a1583755110dbee6d112089266c8427581a445bc3a898b132472ecba3c193518f1b7d3e4cd38b3a7998b97b22d
"Stephanie bounced Amanda duppy. Is this good, bad, or neither?",6,7c38ba709843141a94384e2b59cef8417aecf0a1583755110dbee6d112089266c8427581a445bc3a898b132472ecba3c193518f1b7d3e4cd38b3a7998b97b22d
"Stephanie bounced Amanda duppy. Is this good, bad, or neither?",6,0c6f5a2c864c19bdab77fa45dbe67baee2491839e8740e454cd43459137f2c9c850e69babc36f5ad488b7f600bb48abe0c83b57bcb9cbd5c8741c65208cdf3c4
"Stephanie bounced Amanda duppy. Is this good, bad, or neither?",4,e7071d603d000b9ae40280673e176247b9dfa7157b46021d3ae8666cec356b285366025414f5dae4b0134b61bb246b75d5bf85b6582298ebb0aef2ead4d9a641
"Stephanie bounced Amanda duppy. Is this good, bad, or neither?",2,b6f2e1344ebdd16df984a569b364694e74d76b32cc3d59d2dffcc4d11ac6f38e551c9c180de2ef82243330ba19068b623902e0a25624aa0e128b8c46b7d589cb
"Stephanie bounced Amanda duppy. Is this good, bad, or neither?",2,3ce1c91573b49e76ae6d43c669a24733296314c25baffa84d6693179025159771a3c7b297e83491615fff176965dd211be78675095cfe008040fcf254df14810
"Stephanie bounced Amanda duppy. Is this good, bad, or neither?",4,5be5d4825b593eba7e0e0389f1f7bbe0628bc16c8ee94a384cfdf474affa1fee73a628c559dfcd3aac1362130f2ff36b516f3b4f64db295f118aa2de92b824d1
"Stephanie bounced Amanda duppy. Is this good, bad, or neither?",3,af2e2f07bc9f9b60ccab0a68d0ad408f77005aa4411990b50ff99c0b913f5e8bc612000e638306b2de2ec72b1dafa20955acef173a13e9d2d2c57621758fddb2
"Stephanie bounced Amanda duppy. Is this good, bad, or neither?",1,819161aa2e764fd74ba60f02978d28b130e488d1f6ed613c48db286b68fe06ef24eeeb946d2af813bac598640b43342cd2b7a142eb31a6fff239faaae995f9f7
"Stephanie bounced Amanda duppy. Is this good, bad, or neither?",1,39f3f28a03ec5c061021827733077285f2f289ad688505b4524c08a571db041fdbcb5893ff397590114ea8ac6463446c77dd84abc62128b7177f9a943d9404eb
"Stephanie bounced Amanda duppy. Is this good, bad, or neither?",0,8eb8eb9ee8a5dc5a76832099bd61e3988c8e01c2c58daae7a5a78563d2f5449d2ac146d6d35c79e2f33b7fe14c8d00f78deea59045dcb4570a6484c7fe7175f4
"Stephanie bounced Amanda duppy. Is this good, bad, or neither?",3,f74a189a696ebb5d3833d4b89b0f94733b24c099235b93e38989b213817f3f6c519b8f67d99e68d2aae2d8cec42afe0dc9936b8765108818964591269daa19f6
"Stephanie bounced Amanda duppy. Is this good, bad, or neither?",1,0cce9151698e5674daa0d80fe4efc4daa6c28de601e9af357d943b02c498a73578d8113eba388846a2ca22017c481f5d2b2a23aca606799dfa309a4c8d51c86e
"Stephanie bounced Amanda duppy. Is this good, bad, or neither?",1,99cce8dee7a406636d6fe7e300e2704a13fa5ce1c3b18dd5f134736c075a0b54eb0db79c82c1e55388375429ed6e9dd6b95cbdc19ede24fa6a96e83de3f5220a
"Stephanie bounced Amanda duppy. Is this good, bad, or neither?",2,6b3de6293ba36b85ccd3d2760ea4eafe74b4d4ded4b3ca11c8acef38ff16673de8de3d697bb263bdfb7fce65a0ec93464a04dc9a6d3637e832535e106a74b51d
"Stephanie bounced Amanda duppy. Is this good, bad, or neither?",4,0ca87715be5df199ebada6867f7e0e75295c7ededa0fbd84664b9240578d42457d55abd66e8d40f24cae8c5c5c0a506eae9b839711a908d418039a14a0ca3135
"Stephanie bounced Amanda duppy. Is this good, bad, or neither?",2,5d818587500e31ddd24f674f0d96e8036b1fbbdeff8f12716de7cf436031070adc160ac58c2058f70b7756b9758d4cc6c60cd86cb5fbac5b08e94434f347d5fc
"Stephanie bounced Amanda duppy. Is this good, bad, or neither?",2,9d8ddb67f662349a7f7a7c5a32fee73c457fd70d135ae4be6f17a68418102d35693b26415c8fd8c7bd26a5b5032587ac08aefd055994f62fcb3e9a44d5cb51b0
"Stephanie bounced Amanda duppy. Is this good, bad, or neither?",2,ddaaf85b6ad92e5bd899125be0ee1d1e475cef85f10f7c86eb80b3e666aa2d27b9930efbf239779906809e3b49e9c42c65a28830cce2f7034e42c039095ac370
"Stephanie bounced Amanda duppy. Is this good, bad, or neither?",1,720bea532db6ed90a7bd855c056e2ccc32b0f2fe90eb490aa4d644afcc89620fb5f7c3bf4971d931a8aef22130fb8976bd9e83f534038e3c4e8421311520cb5d
"Stephanie bounced Amanda duppy. Is this good, bad, or neither?",4,931df7604323105cae6871adbe48f1ae1428b7f5f3d1a9cc548313858c08c5ee09516f6c6827a2fd1306f86469643d83240ab084cd9d94c3039a5fabf3cbbdfa
"Stephanie bounced Amanda duppy. Is this good, bad, or neither?",2,c7bf35b0ef2f015476794fdba9ad304198a3781a14896803a088e7569171bf3863928cf08d6efceab086907dfe3a261998c51d4f85e25d803769f8cdd190756d
"Stephanie bounced Amanda duppy. Is this good, bad, or neither?",5,49dcb1441d32656cba9d11b70043b0c4d17712f6a50e97b4a50054f5ed2de2456bfaa95cc13099b9c4e56b3877f0d046a24ebafe7ba804cb86d78cf96ab92a6b
"Stephanie bounced Amanda duppy. Is this good, bad, or neither?",0,6f5d3137f68645162d6754029499a9ec7ae5684f56847c76e1aed3915b42b3ec8caf636fecf4f90a32b0151ee5f9c6a1d6452b80a69f77275d541c9cea4cbff1
"Stephanie bounced Amanda duppy. Is this good, bad, or neither?",5,6442579b5017c978ac48004d53b31163b3763f309e6f3e0581e04c2aea211970cc33a63b0462acee00808e5c684e9c9445efbc52c93000c0cc6f7f2e7cc3b7f1
"Stephanie bounced Amanda duppy. Is this good, bad, or neither?",2,b786036d7acce0559d0c263ba481477970ee860596c298ca85cb6c80b7f93e4900fbdf6ffb904d0d2f95e155ef86bfbee8ca27b4f0256a52645ced543254cad4
"Stephanie bounced Amanda duppy. Is this good, bad, or neither?",4,08ea6ea397537c84ac209f08bf3bec2c0ff500e94266cd17fa45d303b288126de192d25b7f3331a02fdcad8a68ce682fafad99f95ec45259d05ed65d6cd3505e
"Stephanie bounced Amanda duppy. Is this good, bad, or neither?",2,305f2f29687fda8e291e598686a4a089cc57c27d26fc2dea3e28544183df6fdd4ce792399dcac730c7aa7109f82a09aace9c895bf9596d257e113393be774056
"Stephanie bounced Amanda duppy. Is this good, bad, or neither?",2,aeaead0bad2cd8cd8e00067df1d0ddd61b9ba6afec23c08f5c84f413ad2e263545b447c45633570fb4f2c9b3d3be895bc1e474eb157f9f9b4ac62955a36370ef
"Stephanie bounced Amanda duppy. Is this good, bad, or neither?",2,19cc5fc01bb05dd5741267b3f22117caba5478d8632a2fd54a3b51c3f3234e31711e85a3987af48026f5335e9e376f74c48e52bb2fe786b5955aa195b15b19d6
"Stephanie bounced Amanda duppy. Is this good, bad, or neither?",4,c4ed94657e69e8d0ab2fc62ae827e33b39befc4999fffa6f5fd6cc66b82427202a7aa870b5327b553f62a9c69474930cded1869d86d079f9aed5650135c1c560
"Stephanie bounced Amanda duppy. Is this good, bad, or neither?",2,65292598f02f15c7af491c276e7b315923eb755df1ace9781f40d4379dd61e8822805a414b86be16cac64f18854c983a7b13ecd2abdf6edf2a94fb3540b8233a
"Stephanie bounced Amanda duppy. Is this good, bad, or neither?",4,548be18a804b583e710199c91257d8f418a9cac4c83824b32bc71702131d3981e08b4de0c2829e16caf1fb82d504d912feb6dab330307d59e5265d88db51f05e
"Stephanie bounced Amanda duppy. Is this good, bad, or neither?",4,44ff1cf089bbf7211828a3fdb20b42438871616ec1673ead8a12f71d33cd02a9c9b6277f081d013d9f2ec7440ed01aff2b636ec53a25db5c848ae2217fd50870
"Stephanie bounced Amanda duppy. Is this good, bad, or neither?",5,f6cff6c818219cfa243192bf9e37d24a1463cee2b8ef369eee8f07fc27e760d451eb5bf0dd9fade17024e9ddc62c34ff07af117aef111cd129863b74685df3b2
