"Molly trusted the quol. Is this good, bad, or neither?",0,5d818587500e31ddd24f674f0d96e8036b1fbbdeff8f12716de7cf436031070adc160ac58c2058f70b7756b9758d4cc6c60cd86cb5fbac5b08e94434f347d5fc
"Molly trusted the quol. Is this good, bad, or neither?",2,925cfdc671ae8b2ba8e314c04416b841122b996d089fa67e34a35cf20f5705937c70a1a3f1e5bb91815bc7f25b6ee1dd9dec9a6e5394dc52522de5d9887d53b4
"Molly trusted the quol. Is this good, bad, or neither?",0,720bea532db6ed90a7bd855c056e2ccc32b0f2fe90eb490aa4d644afcc89620fb5f7c3bf4971d931a8aef22130fb8976bd9e83f534038e3c4e8421311520cb5d
"Molly trusted the quol. Is this good, bad, or neither?",0,d6bbf40b7bd919dd7a4fe74fbcc3a8f9a3e86aa0ced6474cb3fabf619655ba3bfe47e1f6b5aa67de8e98e5649a0001837377568226cd148f89b154b19f6398aa
"Molly trusted the quol. Is this good, bad, or neither?",0,aaa95c0664846be1d183b973a91ed74b1685e5e25ec9e68c82d19b353a324b47a68c74351d84d21e911a7cc42db0bd220fc29db5c10db1fce24a60559e550ef1
"Molly trusted the quol. Is this good, bad, or neither?",0,ddaaf85b6ad92e5bd899125be0ee1d1e475cef85f10f7c86eb80b3e666aa2d27b9930efbf239779906809e3b49e9c42c65a28830cce2f7034e42c039095ac370
"Molly trusted the quol. Is this good, bad, or neither?",0,8bbdd4b7da1f9d8297c04f175d21d6afdaa72eb55a954a5c04cfec77bd44caf4fb146a47105503e9da66c8a5ce78c99e363e8dc8d6a39280e5a0cf80b6b23e11
"Molly trusted the quol. Is this good, bad, or neither?",2,bea0fd542e426e9178f522ba9216343653116a9663397c9861abb8a5e57f4e10ecac30ad308d3f11abb8d01ff34fba133b6d3b91fafb6b47f663071d10ec78ae
"Molly trusted the quol. Is this good, bad, or neither?",0,09bbb38f5dd8235cf44d38725804029527c42a20731ab136a3b8aab53630ce178689a70589bf9dd53a48c43ad209e01377be814f8d9e02d22ee971162d2206b8
"Molly trusted the quol. Is this good, bad, or neither?",0,67d4c282ff4f428364fe93c252fb94ab0dea1111a72214b8c4fd7ec53288ea67be0525ee2fbd6961e735a4ba93e1806e1e1bbbfbb53e1b026367f424611d3c84
"Molly trusted the quol. Is this good, bad, or neither?",0,6f5d3137f68645162d6754029499a9ec7ae5684f56847c76e1aed3915b42b3ec8caf636fecf4f90a32b0151ee5f9c6a1d6452b80a69f77275d541c9cea4cbff1
"Molly trusted the quol. Is this good, bad, or neither?",1,949e348794c3e18581f7b55ecef851e605235f7c9cafa5c3b4d3e91106a8ea5851849ec1edc9cd0b8dbea5b628ab5f49181d508855ed809569304963bc219caa
"Molly trusted the quol. Is this good, bad, or neither?",4,20781c6cc63f295dcffca3f5f20b91224ce9544cf0c3018dd7e010ebb3e07df37831f196fdfc2db1a89a1383b5ad26e1b298c6eb7bd53e26d47cfc458a9bce08
"Molly trusted the quol. Is this good, bad, or neither?",4,005ffae1a901ae0d1247bfb3cf6d7c43e7167bb481c5f7836ac1c5ccde13e810b32a1712d684919c2b4060c9f8207fe16f2e4d432ef2d64ffa64f6beb00f1afa
"Molly trusted the quol. Is this good, bad, or neither?",0,305f2f29687fda8e291e598686a4a089cc57c27d26fc2dea3e28544183df6fdd4ce792399dcac730c7aa7109f82a09aace9c895bf9596d257e113393be774056
"Molly trusted the quol. Is this good, bad, or neither?",2,08ea6ea397537c84ac209f08bf3bec2c0ff500e94266cd17fa45d303b288126de192d25b7f3331a02fdcad8a68ce682fafad99f95ec45259d05ed65d6cd3505e
"Molly trusted the quol. Is this good, bad, or neither?",0,aeaead0bad2cd8cd8e00067df1d0ddd61b9ba6afec23c08f5c84f413ad2e263545b447c45633570fb4f2c9b3d3be895bc1e474eb157f9f9b4ac62955a36370ef
"Molly trusted the quol. Is this good, bad, or neither?",2,c426e9f161047d7dc47c0e6fc5fd100e35f2e3405720c6e9a5da9c7f6868d0260d9189f1498d344dc5f1ce73a3704f67a17c42a1feeb45bbc24c33e6299620fe
"Molly trusted the quol. Is this good, bad, or neither?",4,5b56973b88ed7b736ff3966dd5900790af0d217684769981e05a869fd0482e4eb627fbc83ef164acdcc19dfee68958f3688d63269cfdc0cd3c3ec35969e3c934
"Molly trusted the quol. Is this good, bad, or neither?",0,af989e3af8e0075e9bde53bd63f64cd6e74e8b4e5bd1927668d72c74602eac36c160300f69280c96acac6f88b8e2304f56fa42541c2b6de1348a754f5f87e17c
"Molly trusted the quol. Is this good, bad, or neither?",0,5de7b886a8e9d03160145a2c857e7a513d279c1afda8a15e2f3b842b220911a0db6d8f73ebf2fa9d9628aa86f669ca60c7bb844f3535032c2078a13a63bb8b6e
"Molly trusted the quol. Is this good, bad, or neither?",0,fb3ee4e72eb582b2b2920acd3ac5a4ed00149c2560bf0255b9bc8237d80cbadd7b353ced6ab5662f69dfe00d362575b7da94144cd2374866a682e39b17cc3c0d
"Molly trusted the quol. Is this good, bad, or neither?",0,948b1546ab23598285d2f77f39e4276a3a82e5d340295aa6760c9fc6f36b7437bb3a495a3ba88d447f3fe661e3d3dc2ca10e32b8b5eb3feb6619e793bc050ef2
"Molly trusted the quol. Is this good, bad, or neither?",0,caff777a2303da77340521ef83945a07684b2612ccb93a9fe1e9e6b34d4e52177c4499982e59c5f493664f3123c4c9738867850e7445f494ca6c22600eb6e56a
"Molly trusted the quol. Is this good, bad, or neither?",0,0a980ec8dce9200ab13cc3756bf978141e01f04474a87189dc66346ede7928491bc66cfb050768ae1729da9238762fac16f1cbdf334dda1bd760920e08ab2fd0
"Molly trusted the quol. Is this good, bad, or neither?",0,28195e505193242d636c8cf88927e3353b64c1e9365b6d4fe6834ae467adb58cc661083c465cf575a9d4e6e6ea9daf2f4e5b8eaf892be186be05aa6b9c0519ec
"Molly trusted the quol. Is this good, bad, or neither?",0,d52d0f79310a4a1585de2ba281cae55d8bf4f66ee89a3b0afe5bec86ac64f3fbcf4ac04acc90a017d6f66a1259e7c33c370048fe26771c06104f79c7f0e7daea
"Molly trusted the quol. Is this good, bad, or neither?",0,69bf71a23950a19d51588205bb33b43a6c847df0a5e564427b2d61a5489a3d037dcf472674ab77e4abb6133e088ce98f278ad721e939562236b4f32ab79e07e7
"Molly trusted the quol. Is this good, bad, or neither?",0,138a9e562648c08d9c6ac98bd7942309c86588c91b78686f82eddb4832388a43fb44b7f280b9e3eb49cbeec29242f2f10d71b467c9475a5b05c0bf3a4a00185a
"Molly trusted the quol. Is this good, bad, or neither?",0,2affe66e78ed0fdb8662d48e9de768393c88ec5e667c71326bc9ac141e2742f64028489e0a9dbbd820ca7d777483a05f81c195e5a46d9c595e8003584f94b06f
"Molly trusted the quol. Is this good, bad, or neither?",0,d8d36b556cb88089c396a1aa18d3b2fcc76975bf65b7c36c6bfdde6fb04622148a36cd6ddaf29b2df5b5d98328fadebc0d4a61203ea283c2a49ea9dc69cc2a86
"Molly trusted the quol. Is this good, bad, or neither?",0,43e89fa2b84ebb65f173260c86b6bde3eb7ca194b599227bfef31b47e07f9e0b8d227137948d5966aac499e4af152a6336da099f5812c88c1cbc58572d02b87d
"Molly trusted the quol. Is this good, bad, or neither?",2,0ddcb88c065e5bb7e1afc9bd53240b026d032edf884f6dc3fdb0ee2e584db539b52c8eea95c7301a71b6ab355e7a68e705591e1acbf64a7a7663044677d7f8b9
"Molly trusted the quol. Is this good, bad, or neither?",0,2e522521b21a1d41db023ae4136de708be41301c58d69e04637ddec14a114c7c1f10e4555ae1ec9a19db821aefe44567cf8091fcb0b60094d09e877612635b17
"Molly trusted the quol. Is this good, bad, or neither?",1,2201ade4e3a7d9c9eb234068b02afab25e4ffc57c5b7da9cef0d0c5d43c439b237aef535fbd03da514bd4ec5b38b1d578710b46c312f3c77c944376abfa41dc0
"Molly trusted the quol. Is this good, bad, or neither?",2,ecd12f5c7840150b6bf31f41cfe805fbb7f1e24d87bc7f9a7e4a26034d172ee611537c7e49e1951d513a1b63598bec45f4cf8d3fd4936ebe2747d7e8018937e5
"Molly trusted the quol. Is this good, bad, or neither?",4,aed43b72a338086b520cb668a9cf7e669e409f45b4894f77a6f396d98a4adfdc10667c444bde106229585e6aed44f794222a3250f0de77bd9f30e43c1ecf04a5
"Molly trusted the quol. Is this good, bad, or neither?",0,dbbd33d0b87f8671e1970dc5e921a78a19b4c3e1c23d1261deeb5b4ff8d03866d1daf636fb6e61107012748e767f3386108e944f0316d85dba6b76d48b36c539
"Molly trusted the quol. Is this good, bad, or neither?",2,9e4f99683f985e073dfc63168a83369c53bae7c6cb57226226dd598ced7658fb1937e02062d3b5b8526df2afccfba7a1c6544461c46679f4c48556ad51d6eaf0
"Molly trusted the quol. Is this good, bad, or neither?",0,d81d47cba87302981ee1c7696367589a3bea8585244ff9425abcaae858f3ee82915dca9159c52e8959b1b1fc96af0f65a36071c10dc326656b9aa2414be85d8a
"Molly trusted the quol. Is this good, bad, or neither?",0,0020a24a20802b3f7622c57eb342f0f2906c3cd8ff2b934a2d803e2f4648497401e35c264a3559e90ef28adcf165b6d12329bf8f1defa56678e326984591140d
"Molly trusted the quol. Is this good, bad, or neither?",0,989ada2fa3562f7723726df8c38aa3371ef63bfedaad9c2ee6713ef634bbed8d19f42b13e7f6739b3848b1a02d3819c058057fde8b207b59707318af5553d2e9
"Molly trusted the quol. Is this good, bad, or neither?",1,e026cbf1f92ffcd63549ad9958fb5feeaed2d6b545677b809b1cafc3fc96349d27e28ef3da4919854a8b6d9ce320dc40b10f705c361b77a717ca1cc8d70dca1b
"Molly trusted the quol. Is this good, bad, or neither?",2,2d60b1f3ab5201cad9a0353ed97dab24b7acd315bfb280fffb4f492b3c791e02f205b024d6ac7cf6d7cbe3b6f6b2f8fe50f154635c03a07be86909539525a6cf
"Molly trusted the quol. Is this good, bad, or neither?",4,e53c7c593c98147d72ddab8932637fe17e085db8158b333555f7aa47b1c508c8ebe1373dab0629e8de6b36de06fba179a7075dc0527495204375206328750a1f
"Molly trusted the quol. Is this good, bad, or neither?",2,c06061e9252b0616c0202fd36ce38a30c50bb1fc17651f6dcda01d750dd8dc0c2c312475a7e48a6d0217b81b0f2ebfca3453d005c32412ec337e86854ca4f6ef
"Molly trusted the quol. Is this good, bad, or neither?",4,c06061e9252b0616c0202fd36ce38a30c50bb1fc17651f6dcda01d750dd8dc0c2c312475a7e48a6d0217b81b0f2ebfca3453d005c32412ec337e86854ca4f6ef
"Molly trusted the quol. Is this good, bad, or neither?",1,3ac8974d378257d2f5c2a7eef24d6bfc9f00290d1e70023f424f344842f7c1310c081af0a32b38dab20cf63aae57fc0267fc819fdbc12de1b1e2bbcb22bf7e19
"Molly trusted the quol. Is this good, bad, or neither?",0,e4340041a84d5f58d27a71f4b2e549d7cba7112b07b0cf98b9af1f98f1c1deb16eac577ec01eeb2677ae98cf7dea090466c277041a1176f96e1fb298b91d48c4
"Molly trusted the quol. Is this good, bad, or neither?",2,c76022a4ee7802ac2e3d8b2e9220733d3f23527903dee66979c1d006dd926666a25d8f693429bd0e150bd921c53878018d675bf76f24c8c5ace27640f0950e36
"Molly trusted the quol. Is this good, bad, or neither?",0,864fd6d6c6f3b061f8849268ccbe26a8df17226567b244b0760c60bacd2b79ced559640987941fff3ebd0eb3949cea7885c56e467856a8919d1736aa402c8087
"Molly trusted the quol. Is this good, bad, or neither?",2,512926c32568782467c043d9acacef7e1297fe10e47106d36f90ed38f8036a40a0f8a10a29ae7a31a0a93e5ad4fed44921abf919134ac7a8d096c8022d200715
"Molly trusted the quol. Is this good, bad, or neither?",0,0a10cfbe96898e179a6989823d1b388e63fd11f48fd9bb0f118bf62cd7dfea5dd88a7b1d57cbd9606e10dc7e76ef4a52208822cd8d1992d9cbf67431ac76dda0
"Molly trusted the quol. Is this good, bad, or neither?",0,19277661313b5118bd1b2e29039b47276f1f8235917f3217bf95498030989874a1ca10bb943fa21faf787d793095c0d4119e136013ed4a9be167f67c2a6d11d3
"Molly trusted the quol. Is this good, bad, or neither?",0,a8c587b500db841a040c834ea7e138d680f58a94067a016d1e34bb029e7a5755a7b629b83510771826624e6ba17f86d951b5c9399cff1af255e887a48cc06c67
"Molly trusted the quol. Is this good, bad, or neither?",4,3812edbb5a791a9c27427cf97b110f65a2b846cdf58202c505b4f2329d4ee92f4a30684f31d3970fb7ab736c2ac10348c69dac654e5416be99c5826577ff40d9
"Molly trusted the quol. Is this good, bad, or neither?",6,3812edbb5a791a9c27427cf97b110f65a2b846cdf58202c505b4f2329d4ee92f4a30684f31d3970fb7ab736c2ac10348c69dac654e5416be99c5826577ff40d9
"Molly trusted the quol. Is this good, bad, or neither?",0,868fd3ba2ef67db192746e40d1c8eb19999054d23346415bc18c6b6ed9351a171915fffbfebee929b615f8feb6ef228e3db55737500fb292d0f36852fd4b4d61
"Molly trusted the quol. Is this good, bad, or neither?",0,1cb17f58987a3aa5c097d970489dbf5e227d0c4f76c32f66fd3f93b130e641e3b083481a2e10d52ae5c320b7bfb4896ccdb785fac2c30eebe38445669515a8bc
"Molly trusted the quol. Is this good, bad, or neither?",3,5f12e05c2e694ca4d0d50f5c90ffefa31fc5c326c5f6352ab6f2d69efda09898d7fa2e899476fb98164baf5559806eee7fc6f92a8cd7641d9b208f848e51b143
"Molly trusted the quol. Is this good, bad, or neither?",3,5f12e05c2e694ca4d0d50f5c90ffefa31fc5c326c5f6352ab6f2d69efda09898d7fa2e899476fb98164baf5559806eee7fc6f92a8cd7641d9b208f848e51b143
"Molly trusted the quol. Is this good, bad, or neither?",3,5f12e05c2e694ca4d0d50f5c90ffefa31fc5c326c5f6352ab6f2d69efda09898d7fa2e899476fb98164baf5559806eee7fc6f92a8cd7641d9b208f848e51b143
"Molly trusted the quol. Is this good, bad, or neither?",3,5f12e05c2e694ca4d0d50f5c90ffefa31fc5c326c5f6352ab6f2d69efda09898d7fa2e899476fb98164baf5559806eee7fc6f92a8cd7641d9b208f848e51b143
"Molly trusted the quol. Is this good, bad, or neither?",3,5f12e05c2e694ca4d0d50f5c90ffefa31fc5c326c5f6352ab6f2d69efda09898d7fa2e899476fb98164baf5559806eee7fc6f92a8cd7641d9b208f848e51b143
"Molly trusted the quol. Is this good, bad, or neither?",3,5f12e05c2e694ca4d0d50f5c90ffefa31fc5c326c5f6352ab6f2d69efda09898d7fa2e899476fb98164baf5559806eee7fc6f92a8cd7641d9b208f848e51b143
"Molly trusted the quol. Is this good, bad, or neither?",3,5f12e05c2e694ca4d0d50f5c90ffefa31fc5c326c5f6352ab6f2d69efda09898d7fa2e899476fb98164baf5559806eee7fc6f92a8cd7641d9b208f848e51b143
"Molly trusted the quol. Is this good, bad, or neither?",3,5f12e05c2e694ca4d0d50f5c90ffefa31fc5c326c5f6352ab6f2d69efda09898d7fa2e899476fb98164baf5559806eee7fc6f92a8cd7641d9b208f848e51b143
"Molly trusted the quol. Is this good, bad, or neither?",0,b6f2e1344ebdd16df984a569b364694e74d76b32cc3d59d2dffcc4d11ac6f38e551c9c180de2ef82243330ba19068b623902e0a25624aa0e128b8c46b7d589cb
"Molly trusted the quol. Is this good, bad, or neither?",0,3ce1c91573b49e76ae6d43c669a24733296314c25baffa84d6693179025159771a3c7b297e83491615fff176965dd211be78675095cfe008040fcf254df14810
"Molly trusted the quol. Is this good, bad, or neither?",0,83e68bdb3c8d06734b9c63de2e996ad5203cfadd686bffeb5371242a53bd2562e4ee27b56455e36057ad2b7ff679b1bc0942e1b5e336f4762c4ed9cc49cb339a
"Molly trusted the quol. Is this good, bad, or neither?",0,6e98388f0852ac83570927b2fb181318deed25f154f35dd19f3d03b54533c6fe6605af9e225d47988a0ba9f63c5b9c452704250d15420f3fc1c0b16b60bc64ed
"Molly trusted the quol. Is this good, bad, or neither?",0,819161aa2e764fd74ba60f02978d28b130e488d1f6ed613c48db286b68fe06ef24eeeb946d2af813bac598640b43342cd2b7a142eb31a6fff239faaae995f9f7
"Molly trusted the quol. Is this good, bad, or neither?",4,c2a35a9e3a4e63030e1b1467ea5c631724ace41aa9aab9a34f7eb3dea239079ba738fd4333a249f113a2423c2b23c3dc9bd99213f8a783d851527ee9cb86f84b
"Molly trusted the quol. Is this good, bad, or neither?",0,b4a89e063c479339463fe8a3755a45afdb72640d55ae6f8499866bdce35aea79532c96c386d3e305abf960bd172306159148a5dedc70fc0c191353ec94176ac4
"Molly trusted the quol. Is this good, bad, or neither?",0,debb17488df62ae009c8f893779083f5aaae66dfd2db2c859053611f5d8e7baf78c626ed0e18df1842a2f630804e312a74e053a442dbc3496bf8109458642fff
"Molly trusted the quol. Is this good, bad, or neither?",0,028f2326f23b57835d3db6e2c22a4e1808609ad1bf536f4980f7188c6e0c31b233c2cc2c3ce3d79b6378a82333d9cee84cae1b2dc2866d503717599c7c6e9dc6
"Molly trusted the quol. Is this good, bad, or neither?",4,0ca87715be5df199ebada6867f7e0e75295c7ededa0fbd84664b9240578d42457d55abd66e8d40f24cae8c5c5c0a506eae9b839711a908d418039a14a0ca3135
"Molly trusted the quol. Is this good, bad, or neither?",6,0ca87715be5df199ebada6867f7e0e75295c7ededa0fbd84664b9240578d42457d55abd66e8d40f24cae8c5c5c0a506eae9b839711a908d418039a14a0ca3135
"Molly trusted the quol. Is this good, bad, or neither?",0,5d818587500e31ddd24f674f0d96e8036b1fbbdeff8f12716de7cf436031070adc160ac58c2058f70b7756b9758d4cc6c60cd86cb5fbac5b08e94434f347d5fc
"Molly trusted the quol. Is this good, bad, or neither?",2,925cfdc671ae8b2ba8e314c04416b841122b996d089fa67e34a35cf20f5705937c70a1a3f1e5bb91815bc7f25b6ee1dd9dec9a6e5394dc52522de5d9887d53b4
"Molly trusted the quol. Is this good, bad, or neither?",0,720bea532db6ed90a7bd855c056e2ccc32b0f2fe90eb490aa4d644afcc89620fb5f7c3bf4971d931a8aef22130fb8976bd9e83f534038e3c4e8421311520cb5d
"Molly trusted the quol. Is this good, bad, or neither?",0,d6bbf40b7bd919dd7a4fe74fbcc3a8f9a3e86aa0ced6474cb3fabf619655ba3bfe47e1f6b5aa67de8e98e5649a0001837377568226cd148f89b154b19f6398aa
"Molly trusted the quol. Is this good, bad, or neither?",0,aaa95c0664846be1d183b973a91ed74b1685e5e25ec9e68c82d19b353a324b47a68c74351d84d21e911a7cc42db0bd220fc29db5c10db1fce24a60559e550ef1
"Molly trusted the quol. Is this good, bad, or neither?",0,ddaaf85b6ad92e5bd899125be0ee1d1e475cef85f10f7c86eb80b3e666aa2d27b9930efbf239779906809e3b49e9c42c65a28830cce2f7034e42c039095ac370
"Molly trusted the quol. Is this good, bad, or neither?",0,8bbdd4b7da1f9d8297c04f175d21d6afdaa72eb55a954a5c04cfec77bd44caf4fb146a47105503e9da66c8a5ce78c99e363e8dc8d6a39280e5a0cf80b6b23e11
"Molly trusted the quol. Is this good, bad, or neither?",2,bea0fd542e426e9178f522ba9216343653116a9663397c9861abb8a5e57f4e10ecac30ad308d3f11abb8d01ff34fba133b6d3b91fafb6b47f663071d10ec78ae
"Molly trusted the quol. Is this good, bad, or neither?",0,09bbb38f5dd8235cf44d38725804029527c42a20731ab136a3b8aab53630ce178689a70589bf9dd53a48c43ad209e01377be814f8d9e02d22ee971162d2206b8
"Molly trusted the quol. Is this good, bad, or neither?",0,67d4c282ff4f428364fe93c252fb94ab0dea1111a72214b8c4fd7ec53288ea67be0525ee2fbd6961e735a4ba93e1806e1e1bbbfbb53e1b026367f424611d3c84
"Molly trusted the quol. Is this good, bad, or neither?",0,6f5d3137f68645162d6754029499a9ec7ae5684f56847c76e1aed3915b42b3ec8caf636fecf4f90a32b0151ee5f9c6a1d6452b80a69f77275d541c9cea4cbff1
"Molly trusted the quol. Is this good, bad, or neither?",1,949e348794c3e18581f7b55ecef851e605235f7c9cafa5c3b4d3e91106a8ea5851849ec1edc9cd0b8dbea5b628ab5f49181d508855ed809569304963bc219caa
"Molly trusted the quol. Is this good, bad, or neither?",4,20781c6cc63f295dcffca3f5f20b91224ce9544cf0c3018dd7e010ebb3e07df37831f196fdfc2db1a89a1383b5ad26e1b298c6eb7bd53e26d47cfc458a9bce08
"Molly trusted the quol. Is this good, bad, or neither?",4,005ffae1a901ae0d1247bfb3cf6d7c43e7167bb481c5f7836ac1c5ccde13e810b32a1712d684919c2b4060c9f8207fe16f2e4d432ef2d64ffa64f6beb00f1afa
"Molly trusted the quol. Is this good, bad, or neither?",0,305f2f29687fda8e291e598686a4a089cc57c27d26fc2dea3e28544183df6fdd4ce792399dcac730c7aa7109f82a09aace9c895bf9596d257e113393be774056
"Molly trusted the quol. Is this good, bad, or neither?",2,08ea6ea397537c84ac209f08bf3bec2c0ff500e94266cd17fa45d303b288126de192d25b7f3331a02fdcad8a68ce682fafad99f95ec45259d05ed65d6cd3505e
"Molly trusted the quol. Is this good, bad, or neither?",0,aeaead0bad2cd8cd8e00067df1d0ddd61b9ba6afec23c08f5c84f413ad2e263545b447c45633570fb4f2c9b3d3be895bc1e474eb157f9f9b4ac62955a36370ef
