"Samuel respected Tyler. Is this good, bad, or neither?",0,5d818587500e31ddd24f674f0d96e8036b1fbbdeff8f12716de7cf436031070adc160ac58c2058f70b7756b9758d4cc6c60cd86cb5fbac5b08e94434f347d5fc
"Samuel respected Tyler. Is this good, bad, or neither?",0,305db2991f8bbe19a6cb543f13cac19330f6f7d5a07468ef28beed97abe3abdc6cf62f1f39b843ec032c22d18f1d1e81817e00614f9cb42dd2923a5d6411f502
"Samuel respected Tyler. Is this good, bad, or neither?",0,ddaaf85b6ad92e5bd899125be0ee1d1e475cef85f10f7c86eb80b3e666aa2d27b9930efbf239779906809e3b49e9c42c65a28830cce2f7034e42c039095ac370
"Samuel respected Tyler. Is this good, bad, or neither?",0,720bea532db6ed90a7bd855c056e2ccc32b0f2fe90eb490aa4d644afcc89620fb5f7c3bf4971d931a8aef22130fb8976bd9e83f534038e3c4e8421311520cb5d
"Samuel respected Tyler. Is this good, bad, or neither?",0,ed02e20cfb42701b476bcdd51d82462911339c3c6c02b25cd0dcc8c9f6b2e2cb15f1b8f3f6c18e3ceb05290902f1230bb8570f448a59fefb7e4a0987a0461d1b
"Samuel respected Tyler. Is this good, bad, or neither?",0,fdfcaf2d1ae8edcee44629d64f330bdf60091699195a8f3900d40187345e96a4f16c77e4b1e79f51712cc548304d2bcf4843c9747e96646bc5d359cf2d6ba81e
"Samuel respected Tyler. Is this good, bad, or neither?",0,49dcb1441d32656cba9d11b70043b0c4d17712f6a50e97b4a50054f5ed2de2456bfaa95cc13099b9c4e56b3877f0d046a24ebafe7ba804cb86d78cf96ab92a6b
"Samuel respected Tyler. Is this good, bad, or neither?",0,6f5d3137f68645162d6754029499a9ec7ae5684f56847c76e1aed3915b42b3ec8caf636fecf4f90a32b0151ee5f9c6a1d6452b80a69f77275d541c9cea4cbff1
"Samuel respected Tyler. Is this good, bad, or neither?",0,ab817809187642176d23d87932f87fb8cac29305dd69bd9c80c875e1418683baeb300a33a4ea303e96598aee641e58ffef6ed700b09ee5a77559e157e08d3320
"Samuel respected Tyler. Is this good, bad, or neither?",2,949e348794c3e18581f7b55ecef851e605235f7c9cafa5c3b4d3e91106a8ea5851849ec1edc9cd0b8dbea5b628ab5f49181d508855ed809569304963bc219caa
"Samuel respected Tyler. Is this good, bad, or neither?",0,6442579b5017c978ac48004d53b31163b3763f309e6f3e0581e04c2aea211970cc33a63b0462acee00808e5c684e9c9445efbc52c93000c0cc6f7f2e7cc3b7f1
"Samuel respected Tyler. Is this good, bad, or neither?",0,609868e2cf6de58a506a6731afe55c53d93510e3a34e58705479846aa7ccef2469a0081dc7ad92826b214afccaa96b3202ca07a32e7d6afd795c5776ef5511be
"Samuel respected Tyler. Is this good, bad, or neither?",0,08ea6ea397537c84ac209f08bf3bec2c0ff500e94266cd17fa45d303b288126de192d25b7f3331a02fdcad8a68ce682fafad99f95ec45259d05ed65d6cd3505e
"Samuel respected Tyler. Is this good, bad, or neither?",0,aeaead0bad2cd8cd8e00067df1d0ddd61b9ba6afec23c08f5c84f413ad2e263545b447c45633570fb4f2c9b3d3be895bc1e474eb157f9f9b4ac62955a36370ef
"Samuel respected Tyler. Is this good, bad, or neither?",0,5ed859beff22cb7346bbd1bb520b4e40c6fd44610478d66cd057f78c274bfe00e0cfd791b7f2e25ec9b478d601bfa4906bcd9751e895cada9d7ddb10a781a789
"Samuel respected Tyler. Is this good, bad, or neither?",0,305f2f29687fda8e291e598686a4a089cc57c27d26fc2dea3e28544183df6fdd4ce792399dcac730c7aa7109f82a09aace9c895bf9596d257e113393be774056
"Samuel respected Tyler. Is this good, bad, or neither?",0,ac159058713bb786536395d849dcdcf98a8ffa433c0df23b7bc3208f1c1ce017c9e666811788def29dda032e13b5e11080c305f9a67c97282c112192adb437e0
"Samuel respected Tyler. Is this good, bad, or neither?",0,7f45982c84b0e62975c836530ebc5c20ed43e2aaac4d7f1c99d59dac30103bb0a2c7f0c3eb3c011244e3b29b96036757199959b8d8fbcc5cf995fee8253a05f5
"Samuel respected Tyler. Is this good, bad, or neither?",0,87ef026014587c59d56fa4c2071e6bb9d3bed56b2c3afb54b24d4cc832295bd62bbfb4a581d1881c6fcb84d2fb80ee66fccefc5a7457a6dc6289793ff7e7d0dc
"Samuel respected Tyler. Is this good, bad, or neither?",0,43e89fa2b84ebb65f173260c86b6bde3eb7ca194b599227bfef31b47e07f9e0b8d227137948d5966aac499e4af152a6336da099f5812c88c1cbc58572d02b87d
"Samuel respected Tyler. Is this good, bad, or neither?",0,fb3ee4e72eb582b2b2920acd3ac5a4ed00149c2560bf0255b9bc8237d80cbadd7b353ced6ab5662f69dfe00d362575b7da94144cd2374866a682e39b17cc3c0d
"Samuel respected Tyler. Is this good, bad, or neither?",0,28195e505193242d636c8cf88927e3353b64c1e9365b6d4fe6834ae467adb58cc661083c465cf575a9d4e6e6ea9daf2f4e5b8eaf892be186be05aa6b9c0519ec
"Samuel respected Tyler. Is this good, bad, or neither?",0,caff777a2303da77340521ef83945a07684b2612ccb93a9fe1e9e6b34d4e52177c4499982e59c5f493664f3123c4c9738867850e7445f494ca6c22600eb6e56a
"Samuel respected Tyler. Is this good, bad, or neither?",0,ecd12f5c7840150b6bf31f41cfe805fbb7f1e24d87bc7f9a7e4a26034d172ee611537c7e49e1951d513a1b63598bec45f4cf8d3fd4936ebe2747d7e8018937e5
"Samuel respected Tyler. Is this good, bad, or neither?",0,69bf71a23950a19d51588205bb33b43a6c847df0a5e564427b2d61a5489a3d037dcf472674ab77e4abb6133e088ce98f278ad721e939562236b4f32ab79e07e7
"Samuel respected Tyler. Is this good, bad, or neither?",0,41628a0f8849c48d09c00e99c4a99cae8b10c5d31c76fc5043a816bea93afdb63771aa227c3fc1235d69b6c482ed4c1972716b6868be483c3ecaba9ca7efddc1
"Samuel respected Tyler. Is this good, bad, or neither?",4,0598083fd59462c49ebd07fcb616994946c6a0f05ad470be3c7a73765a7ec1c5f6919d13dfb4af44158bd2e46b215e644628f82ef66854436a20f0cd8c10d60c
"Samuel respected Tyler. Is this good, bad, or neither?",0,14f23fcc167988dce6e55bce50b355428b82f247209c572f82715aac881afcb8162ebc7b557e1438dd2f69b3e915e6bcd037041df1904f0c6fe886c4637565f6
"Samuel respected Tyler. Is this good, bad, or neither?",4,87371ac7aa118d926855c9619ad44dd63827f39d101674421e11e3a662c0a1649325cf5e8d359d286f9ef8eb2120f8bf91577fe6c5899d963eb44b931fd4d378
"Samuel respected Tyler. Is this good, bad, or neither?",0,2e08ea7a396b5dc2fc6ff518b56da9298cfd603a2f489e5145c092eb9870a320d2bfa8fd161fe5975a370e19055991d826fd24dea216f722fe25dbbf75088cd3
"Samuel respected Tyler. Is this good, bad, or neither?",0,7eac63dd734031a37e46a4e523aa6bfac9447229a7978f447e0dd64aaeb24d0d1a328b33c9c4f7113e04ffb0b3b9208c1ba47d96cd9c916cdf876f738fa5ae44
"Samuel respected Tyler. Is this good, bad, or neither?",0,e829a504de3fccc7c8db7570e1574b0777f43cdc59d4c32d031cb7149cb39142733eb570df4492fc064057a7f8b8b484bcaac234cbff779949dc526060fb5280
"Samuel respected Tyler. Is this good, bad, or neither?",6,c1cfdf72ac40b04ade8ea5306496ff5924cb9fe1e0d0c329b96e8de4c6dd3d2245fc2adcd2dc0ab19d97944af2e4dad60ff9f6301f2cd851dcc80384a5123065
"Samuel respected Tyler. Is this good, bad, or neither?",0,a888eb3f8b2f0394a34fcc8d2a4823833067b7c7cc7daa129f450310e2886ccb3e74145e55e603e6551bebb0ac4bf648a5e66a606010b935b1f6fc59b7e95958
"Samuel respected Tyler. Is this good, bad, or neither?",0,23ac80a96418a83caf7a86cf0232f95eafe35823641d49c4aee479a56194225ab2aa02b246ce6516fe946108922608a4a31a44aa641790246f5ad45872807cbb
"Samuel respected Tyler. Is this good, bad, or neither?",0,a3fe48d172465fbb24a650eeb520bd4c4631496b6d9d7a38bf192e1566aa97e662f2b2e76290bf0e0a6c2a90ffb291b31ff1e75bb29714c834646a850ace5bf6
"Samuel respected Tyler. Is this good, bad, or neither?",0,f152fccfa1b4275911c3d51209757f8f47524d9e0dac927fa3cf085a412f2995c54db4378764d73c2aeccf796c683eda37b79db7a22b6c9fb80818fa2a0358f7
"Samuel respected Tyler. Is this good, bad, or neither?",0,cdc82decc385f7e309df95e76665c1a374f59a26484512f2db2ccd400075c0e7168901954aff2916ae1ce00679770656b6a59e655a4e26263c3a91889d44fc1a
"Samuel respected Tyler. Is this good, bad, or neither?",0,864fd6d6c6f3b061f8849268ccbe26a8df17226567b244b0760c60bacd2b79ced559640987941fff3ebd0eb3949cea7885c56e467856a8919d1736aa402c8087
"Samuel respected Tyler. Is this good, bad, or neither?",0,512926c32568782467c043d9acacef7e1297fe10e47106d36f90ed38f8036a40a0f8a10a29ae7a31a0a93e5ad4fed44921abf919134ac7a8d096c8022d200715
"Samuel respected Tyler. Is this good, bad, or neither?",0,19277661313b5118bd1b2e29039b47276f1f8235917f3217bf95498030989874a1ca10bb943fa21faf787d793095c0d4119e136013ed4a9be167f67c2a6d11d3
"Samuel respected Tyler. Is this good, bad, or neither?",0,3df5845412d99d9fce14210e30d0c5d7bf4fb088f318875476c681371d432c323ba86652a3c64138e49f21e9156970c227dd89ccb54eec8eafa969da28f43c14
"Samuel respected Tyler. Is this good, bad, or neither?",0,654abee2a34ea238dd9860279c2e4f4ca17d0745f80e3a567f1be1f8bc80565588c6bc0d387e4705bac6ad4b8113565bc4647802a60f9ec02d1e658cb7bd2331
"Samuel respected Tyler. Is this good, bad, or neither?",0,868fd3ba2ef67db192746e40d1c8eb19999054d23346415bc18c6b6ed9351a171915fffbfebee929b615f8feb6ef228e3db55737500fb292d0f36852fd4b4d61
"Samuel respected Tyler. Is this good, bad, or neither?",4,5f12e05c2e694ca4d0d50f5c90ffefa31fc5c326c5f6352ab6f2d69efda09898d7fa2e899476fb98164baf5559806eee7fc6f92a8cd7641d9b208f848e51b143
"Samuel respected Tyler. Is this good, bad, or neither?",0,3f544229454cffe8b3303eb1ac6ea1ebd0a1bc3a39dd7cfc5eb9eeeef74177d8151d0c6e6875398ba823b4aae060cb902b0b893dab32a97a2ed3ecbe6bc97d28
"Samuel respected Tyler. Is this good, bad, or neither?",0,709cea87b53a92d50754a00e46df56d11a56b4c21f08392e33a182751cebf5e2697e948121ae8574bbbdce3655c9af813f731d1e9db052ac0f602dd018dc043b
"Samuel respected Tyler. Is this good, bad, or neither?",0,15b1ed3fc755d2d5c3d8097f2f3cd9959224d9e69ced28762a951478a5a881578849bf26ed03df4c74b64bd143e27150cf4ea71bc39f4297b08d34c0723f1038
"Samuel respected Tyler. Is this good, bad, or neither?",0,d8df607040709fef5fb20aa491224fa16acfc168677e32ca2d49bcfb2a46636d9689ca87bb80c6414053f1a4e7f6a603dea0eab18b40e08c1654ec0212613b5e
"Samuel respected Tyler. Is this good, bad, or neither?",0,e06daefd4a6a8fc364f56da4d6c42c5ff5ddc3059a744d3ccd5f5cbc356439491841377fbac4951e7cb9474880f8549941758509ac0ac4010a4403e12d414038
"Samuel respected Tyler. Is this good, bad, or neither?",0,3ce1c91573b49e76ae6d43c669a24733296314c25baffa84d6693179025159771a3c7b297e83491615fff176965dd211be78675095cfe008040fcf254df14810
"Samuel respected Tyler. Is this good, bad, or neither?",0,21a65c15b3bbe24844899a284fb2239e80247056750510b98b004d6d5a236e73e581c1d7e033eb03d4649d2d009d6deaf5dba070dafb69aa762c6dae0ff06e3a
"Samuel respected Tyler. Is this good, bad, or neither?",0,0c1e43ef5b2f9488f1f2f5d3bb698140bc0a814ccd0552a4d3b9bc7f4899fbd7f112dda7c2abe51111db2cd9354f7ed05e8023ddc9513e6797cd881f2b3a9c2c
"Samuel respected Tyler. Is this good, bad, or neither?",0,6bfba2dff280e7b18fa9308cd61954284a642e1ecd54305b6cb751a417d64c9adc41eb73f4eab1cc4349686a694931f5ebd41c88172f388fb468c7a2f31b7d0e
"Samuel respected Tyler. Is this good, bad, or neither?",0,819161aa2e764fd74ba60f02978d28b130e488d1f6ed613c48db286b68fe06ef24eeeb946d2af813bac598640b43342cd2b7a142eb31a6fff239faaae995f9f7
"Samuel respected Tyler. Is this good, bad, or neither?",2,699fa775499b07421a88d315161256ed610af51d47269a03a1a3a423d991ee3f3c8d8b24a97c06fe4242390a783197fc9c021cd381f265d7ae82cad85ba7bcba
"Samuel respected Tyler. Is this good, bad, or neither?",0,6f16233ce91dd3e70004541a71a1aba0a5b74fecbe7fff7debed231210556cc15f33e0ad09ee39575226d8e7f5ba397aae9fe9240be5507f04db735ef4ee3b92
"Samuel respected Tyler. Is this good, bad, or neither?",0,a04441347c7a31798c34e1a297af024142381cfd06d1679184d6b0cf7ea8eda83518c819aaa67808a7238790be4a54c02324be8e270298ac207e0fa103ba2135
"Samuel respected Tyler. Is this good, bad, or neither?",0,028f2326f23b57835d3db6e2c22a4e1808609ad1bf536f4980f7188c6e0c31b233c2cc2c3ce3d79b6378a82333d9cee84cae1b2dc2866d503717599c7c6e9dc6
"Samuel respected Tyler. Is this good, bad, or neither?",0,64b0b383abef7422d0ae1d374180558f9cd4a3b0e91ed813b32c93202f31411e1af4445cc49c3e7a5e27274da047d27abc1a040400096e04e1c3e039548aed58
"Samuel respected Tyler. Is this good, bad, or neither?",5,64b0b383abef7422d0ae1d374180558f9cd4a3b0e91ed813b32c93202f31411e1af4445cc49c3e7a5e27274da047d27abc1a040400096e04e1c3e039548aed58
"Samuel respected Tyler. Is this good, bad, or neither?",0,5d818587500e31ddd24f674f0d96e8036b1fbbdeff8f12716de7cf436031070adc160ac58c2058f70b7756b9758d4cc6c60cd86cb5fbac5b08e94434f347d5fc
"Samuel respected Tyler. Is this good, bad, or neither?",0,305db2991f8bbe19a6cb543f13cac19330f6f7d5a07468ef28beed97abe3abdc6cf62f1f39b843ec032c22d18f1d1e81817e00614f9cb42dd2923a5d6411f502
"Samuel respected Tyler. Is this good, bad, or neither?",0,ddaaf85b6ad92e5bd899125be0ee1d1e475cef85f10f7c86eb80b3e666aa2d27b9930efbf239779906809e3b49e9c42c65a28830cce2f7034e42c039095ac370
"Samuel respected Tyler. Is this good, bad, or neither?",0,720bea532db6ed90a7bd855c056e2ccc32b0f2fe90eb490aa4d644afcc89620fb5f7c3bf4971d931a8aef22130fb8976bd9e83f534038e3c4e8421311520cb5d
"Samuel respected Tyler. Is this good, bad, or neither?",0,ed02e20cfb42701b476bcdd51d82462911339c3c6c02b25cd0dcc8c9f6b2e2cb15f1b8f3f6c18e3ceb05290902f1230bb8570f448a59fefb7e4a0987a0461d1b
"Samuel respected Tyler. Is this good, bad, or neither?",0,fdfcaf2d1ae8edcee44629d64f330bdf60091699195a8f3900d40187345e96a4f16c77e4b1e79f51712cc548304d2bcf4843c9747e96646bc5d359cf2d6ba81e
"Samuel respected Tyler. Is this good, bad, or neither?",0,49dcb1441d32656cba9d11b70043b0c4d17712f6a50e97b4a50054f5ed2de2456bfaa95cc13099b9c4e56b3877f0d046a24ebafe7ba804cb86d78cf96ab92a6b
"Samuel respected Tyler. Is this good, bad, or neither?",0,6f5d3137f68645162d6754029499a9ec7ae5684f56847c76e1aed3915b42b3ec8caf636fecf4f90a32b0151ee5f9c6a1d6452b80a69f77275d541c9cea4cbff1
"Samuel respected Tyler. Is this good, bad, or neither?",0,ab817809187642176d23d87932f87fb8cac29305dd69bd9c80c875e1418683baeb300a33a4ea303e96598aee641e58ffef6ed700b09ee5a77559e157e08d3320
"Samuel respected Tyler. Is this good, bad, or neither?",2,949e348794c3e18581f7b55ecef851e605235f7c9cafa5c3b4d3e91106a8ea5851849ec1edc9cd0b8dbea5b628ab5f49181d508855ed809569304963bc219caa
"Samuel respected Tyler. Is this good, bad, or neither?",0,6442579b5017c978ac48004d53b31163b3763f309e6f3e0581e04c2aea211970cc33a63b0462acee00808e5c684e9c9445efbc52c93000c0cc6f7f2e7cc3b7f1
"Samuel respected Tyler. Is this good, bad, or neither?",0,609868e2cf6de58a506a6731afe55c53d93510e3a34e58705479846aa7ccef2469a0081dc7ad92826b214afccaa96b3202ca07a32e7d6afd795c5776ef5511be
"Samuel respected Tyler. Is this good, bad, or neither?",0,08ea6ea397537c84ac209f08bf3bec2c0ff500e94266cd17fa45d303b288126de192d25b7f3331a02fdcad8a68ce682fafad99f95ec45259d05ed65d6cd3505e
"Samuel respected Tyler. Is this good, bad, or neither?",0,aeaead0bad2cd8cd8e00067df1d0ddd61b9ba6afec23c08f5c84f413ad2e263545b447c45633570fb4f2c9b3d3be895bc1e474eb157f9f9b4ac62955a36370ef
"Samuel respected Tyler. Is this good, bad, or neither?",0,5ed859beff22cb7346bbd1bb520b4e40c6fd44610478d66cd057f78c274bfe00e0cfd791b7f2e25ec9b478d601bfa4906bcd9751e895cada9d7ddb10a781a789
"Samuel respected Tyler. Is this good, bad, or neither?",0,305f2f29687fda8e291e598686a4a089cc57c27d26fc2dea3e28544183df6fdd4ce792399dcac730c7aa7109f82a09aace9c895bf9596d257e113393be774056
