"Hannah moved the sevel. Is this good, bad, or neither?",2,5d818587500e31ddd24f674f0d96e8036b1fbbdeff8f12716de7cf436031070adc160ac58c2058f70b7756b9758d4cc6c60cd86cb5fbac5b08e94434f347d5fc
"Hannah moved the sevel. Is this good, bad, or neither?",2,e32acc3720de73ab257e923557ba791b4db98db203286f956cc7d117906e5547f3f7e338aaa78b9152b0dfd10ce0ae962b8dfa72e117028b43b70fce1d3ee9ca
"Hannah moved the sevel. Is this good, bad, or neither?",2,ee32d783b7f7ee587fc9b0197a4a420bd8f135d2ec6ae54578c55344c4c264d6d932e2480647ddb3e5a0c78ca269db2c2e8fcc31e6bf604b7efbcc80ff586317
"Hannah moved the sevel. Is this good, bad, or neither?",2,720bea532db6ed90a7bd855c056e2ccc32b0f2fe90eb490aa4d644afcc89620fb5f7c3bf4971d931a8aef22130fb8976bd9e83f534038e3c4e8421311520cb5d
"Hannah moved the sevel. Is this good, bad, or neither?",2,ddaaf85b6ad92e5bd899125be0ee1d1e475cef85f10f7c86eb80b3e666aa2d27b9930efbf239779906809e3b49e9c42c65a28830cce2f7034e42c039095ac370
"Hannah moved the sevel. Is this good, bad, or neither?",2,6397efb8301eab1de15408fc9c5529d9d07efc295b839f9c361e25d997828250530ed8af2f2249e291b8f383fbd097caa7146545d65a397ca1f093960ed62dd0
"Hannah moved the sevel. Is this good, bad, or neither?",2,875020ab790a2a14de66f1031c9dbe948349d58ca878a7ebdf2af07b04dd9e5ab4a699ced7cd5f0dd4086c9d36d349e952b257a9921f440dc5f764a7d05e7b7f
"Hannah moved the sevel. Is this good, bad, or neither?",0,6f5d3137f68645162d6754029499a9ec7ae5684f56847c76e1aed3915b42b3ec8caf636fecf4f90a32b0151ee5f9c6a1d6452b80a69f77275d541c9cea4cbff1
"Hannah moved the sevel. Is this good, bad, or neither?",2,6442579b5017c978ac48004d53b31163b3763f309e6f3e0581e04c2aea211970cc33a63b0462acee00808e5c684e9c9445efbc52c93000c0cc6f7f2e7cc3b7f1
"Hannah moved the sevel. Is this good, bad, or neither?",2,609868e2cf6de58a506a6731afe55c53d93510e3a34e58705479846aa7ccef2469a0081dc7ad92826b214afccaa96b3202ca07a32e7d6afd795c5776ef5511be
"Hannah moved the sevel. Is this good, bad, or neither?",2,08ea6ea397537c84ac209f08bf3bec2c0ff500e94266cd17fa45d303b288126de192d25b7f3331a02fdcad8a68ce682fafad99f95ec45259d05ed65d6cd3505e
"Hannah moved the sevel. Is this good, bad, or neither?",2,aeaead0bad2cd8cd8e00067df1d0ddd61b9ba6afec23c08f5c84f413ad2e263545b447c45633570fb4f2c9b3d3be895bc1e474eb157f9f9b4ac62955a36370ef
"Hannah moved the sevel. Is this good, bad, or neither?",3,5ed859beff22cb7346bbd1bb520b4e40c6fd44610478d66cd057f78c274bfe00e0cfd791b7f2e25ec9b478d601bfa4906bcd9751e895cada9d7ddb10a781a789
"Hannah moved the sevel. Is this good, bad, or neither?",2,305f2f29687fda8e291e598686a4a089cc57c27d26fc2dea3e28544183df6fdd4ce792399dcac730c7aa7109f82a09aace9c895bf9596d257e113393be774056
"Hannah moved the sevel. Is this good, bad, or neither?",4,3415cb76896388583d993ad3378b35b206d58d75cefaac5d45f01a38556aa4cfff136fd41536dcbdcf63f4029eac4463ac5567d313d8b3dc6bd8dd1e8a2833ac
"Hannah moved the sevel. Is this good, bad, or neither?",2,d2e6a6d57cee882ed16cbca1deba3136243493bacf9e4e499c38cc8a2b5fcdcbcd2adb8da2e6729ba9d022cc76627215947a55dbf461d7f613a6d612d1e95600
"Hannah moved the sevel. Is this good, bad, or neither?",2,e54ad29a9f68ae9c74dc5e9abb66c78b733890c4ef372fa8bd1d2e6afae1ecbc89d14a67f04a7f84a234ebb95c6ba9ca0f6bd7adefde709159de2c4e7b247878
"Hannah moved the sevel. Is this good, bad, or neither?",2,3885872d2aa71ef9e4d95312a4bb23f301d9ec923dde0250ba69a21e33833a55987c0888790b64e61a58de072e8d93cea4ce96609cd8e46644b90554ec367d78
"Hannah moved the sevel. Is this good, bad, or neither?",2,2cb44008208d14c82cf8868fc09b67e721d51c1b25835a53ce5c75d4338141e971e3aad3228e19b641ecd4278d4576dc2f1af7702b6c5731e30d7d54f5a829a5
"Hannah moved the sevel. Is this good, bad, or neither?",2,832b19ea4eb64ad4f6298c0933ec2f6ba994974bcbbda62a7a0088a00f6cd96bd27aca96187875bf07fe2c868f7cd9e74b39598b91c261fd45079e5150637de4
"Hannah moved the sevel. Is this good, bad, or neither?",2,fb3ee4e72eb582b2b2920acd3ac5a4ed00149c2560bf0255b9bc8237d80cbadd7b353ced6ab5662f69dfe00d362575b7da94144cd2374866a682e39b17cc3c0d
"Hannah moved the sevel. Is this good, bad, or neither?",2,caff777a2303da77340521ef83945a07684b2612ccb93a9fe1e9e6b34d4e52177c4499982e59c5f493664f3123c4c9738867850e7445f494ca6c22600eb6e56a
"Hannah moved the sevel. Is this good, bad, or neither?",2,9d8ddb67f662349a7f7a7c5a32fee73c457fd70d135ae4be6f17a68418102d35693b26415c8fd8c7bd26a5b5032587ac08aefd055994f62fcb3e9a44d5cb51b0
"Hannah moved the sevel. Is this good, bad, or neither?",2,28195e505193242d636c8cf88927e3353b64c1e9365b6d4fe6834ae467adb58cc661083c465cf575a9d4e6e6ea9daf2f4e5b8eaf892be186be05aa6b9c0519ec
"Hannah moved the sevel. Is this good, bad, or neither?",2,d79e7515461bb1786cfade2fd1b566088466eb1af1860429e53f7824487f48c6430b7adafdb3398234e0c986489fd6d24eab828da7779aaeebbb45b45da90de1
"Hannah moved the sevel. Is this good, bad, or neither?",2,ecd12f5c7840150b6bf31f41cfe805fbb7f1e24d87bc7f9a7e4a26034d172ee611537c7e49e1951d513a1b63598bec45f4cf8d3fd4936ebe2747d7e8018937e5
"Hannah moved the sevel. Is this good, bad, or neither?",2,69bf71a23950a19d51588205bb33b43a6c847df0a5e564427b2d61a5489a3d037dcf472674ab77e4abb6133e088ce98f278ad721e939562236b4f32ab79e07e7
"Hannah moved the sevel. Is this good, bad, or neither?",2,c84e749a7cef7cce34bfddb7d3d8954d5a964b4dda3306e6514f98d50c3f2ef7dfc345e229bd8acb8b64369b679768741976de5551cd081d4df1f8a09b0b89fb
"Hannah moved the sevel. Is this good, bad, or neither?",6,4cf59e17a2c0a299dff2a0ddf16b180869020ea790bfd9d6bb8ea82fa580447c261b8a00d13a7ccacb15809f8e6cb697001cc22b0b4341b42d3fafd796cb7950
"Hannah moved the sevel. Is this good, bad, or neither?",2,6cef9a0d6bf0d39bbb98e3c747477771327365edf82e19de4a6b3ef2ad3dda6a36fd5ad3aa858d764c2264dd1dbf74801222c9f28955186a36819a25548f5204
"Hannah moved the sevel. Is this good, bad, or neither?",2,4c936421d33f89a86a2126ef307e8438506ebd5fdf60a8a9a4de33d6e8ee15731a498fbcf8097e81fca2f73298a79f0a7be7dc9143c2f513dcb1ae256be13c62
"Hannah moved the sevel. Is this good, bad, or neither?",2,019db9849fbccf5726490ab64aa3a38725f0fbff3fa674ebccc5ad8eb2545a58b021ff9df8cf7fdc3d7dd52831ffdbf674953f8c6fae23d9d327dd9784d28ef5
"Hannah moved the sevel. Is this good, bad, or neither?",2,1e7019267a5b9fb0c239414b1e225193cc46ec9d6c9a84692122a153d5af4e4bec36f2ece04c27828e7c811956744c4cdaf9b6e007fe5418441f79557bd2012a
"Hannah moved the sevel. Is this good, bad, or neither?",2,912ea83cdfc5cf06bd44077cb51de35e88b6654f5af0eb7f6f78d434377245fc012b228a5334411a8d988514eee1d5ac22fb8453f995095120ccaea0e01fac17
"Hannah moved the sevel. Is this good, bad, or neither?",3,5f42e5778fc7bb40e19cf04c888f2becc8f674890c1552d4b8df8bc668bc33ad4020d53366df0e31af22cb78a2ef5f9f6118de0306a1c6492c9fa2bd6d6d35a8
"Hannah moved the sevel. Is this good, bad, or neither?",2,a7dc9d4f184ea86b7b6e6869b9a53887f9af455a7a9b3f701cc20ec18e11435fdb90d9c3eed921996792de6c1628b7a27219b25f044ffe99d725092cbc88af6e
"Hannah moved the sevel. Is this good, bad, or neither?",2,90c8c114b2ac4d6f1e62e52bc301dd65a525f994d43a9296dc09c93befbef5e24c5ce552fac13db1b1a127b83446b3a4893a06c8ab19e050405b8c2c0cc89fab
"Hannah moved the sevel. Is this good, bad, or neither?",2,ac3b1b10808f1753ec2a45dbfd111934fc15f5c99e8d54caa1b9fa0399c450a1b4489cb0037029cbf93008625f0c076357a1b8e164d2f400a000fbd6062f7bad
"Hannah moved the sevel. Is this good, bad, or neither?",2,d2e3673bc7780c259a972a85d3fdefb8898ea010935a1d6be7f3e10e320b69de9a6e36299cca12094f5cf754d758903cd6e4e3a67f279c51ca65983da9b10883
"Hannah moved the sevel. Is this good, bad, or neither?",2,44cb69d363b6d99287402410490198709810d13e74a75276dbb979e5f5387c1256447125e35607b5fb4bd589b7d3c4067f5e02ae5e26e50c3be55284e647c71d
"Hannah moved the sevel. Is this good, bad, or neither?",2,a3fe48d172465fbb24a650eeb520bd4c4631496b6d9d7a38bf192e1566aa97e662f2b2e76290bf0e0a6c2a90ffb291b31ff1e75bb29714c834646a850ace5bf6
"Hannah moved the sevel. Is this good, bad, or neither?",2,c5c7a359614b5a4a3081ea3fcad30ceb637d07f997531b3a5d7df5a3b7c21d6c3ea95af67e1163a07272fc0f0f99ad4ec8fa6aee59c5d52b6fc8e01d88cbb67a
"Hannah moved the sevel. Is this good, bad, or neither?",2,c06061e9252b0616c0202fd36ce38a30c50bb1fc17651f6dcda01d750dd8dc0c2c312475a7e48a6d0217b81b0f2ebfca3453d005c32412ec337e86854ca4f6ef
"Hannah moved the sevel. Is this good, bad, or neither?",2,30cb0d42c57087052ff768a8d8fdf6d3a33e80ce1bd8ffdcb4918d6768d6361e6e81c3b22896b50c65813302e4db3287569a3a87ed1b1f3fa82da1ac59cb904f
"Hannah moved the sevel. Is this good, bad, or neither?",1,ba2d26f4dd8b4ccde0d80cd193e49becdc1a6ced8451c530f884e2ecde79ac6d58475ad5ef1dfdcd67bd7d965d15a61fba11b234efe086db92e4fbf0c0fb3855
"Hannah moved the sevel. Is this good, bad, or neither?",2,59c6e6ecca7aed6faf69351ead07ea14299ef4a8d166147d454e28e696ea27faa1e70307fba3612ef991263b5b092d93a2c2f0df25220aa29c69a40fdc93db08
"Hannah moved the sevel. Is this good, bad, or neither?",6,42498ab106589a2d965743a9200eca3f9e072e4a48133f9761f0d3366abf668d6a1f559169377a2bc75cd5dca19c2eaceacffcaea32add480cb5324fd7b0fbac
"Hannah moved the sevel. Is this good, bad, or neither?",6,3d9d80e69570fa67965ed8ae401083f847e98a9a9db449964408daf9731b6af6b5cbf53ce437416d9d5df0d968e6a35c0572da190d688fee406126bb0f4eeb6a
"Hannah moved the sevel. Is this good, bad, or neither?",2,f152fccfa1b4275911c3d51209757f8f47524d9e0dac927fa3cf085a412f2995c54db4378764d73c2aeccf796c683eda37b79db7a22b6c9fb80818fa2a0358f7
"Hannah moved the sevel. Is this good, bad, or neither?",2,af2a334d706c1b69573a219943b69d932d7ab19af138b53be67e9aecd99fabaeb2a49b44537009c3139302d498eb4b5f83a8e2bb09d9b9cfb8869bd630c6c757
"Hannah moved the sevel. Is this good, bad, or neither?",2,19277661313b5118bd1b2e29039b47276f1f8235917f3217bf95498030989874a1ca10bb943fa21faf787d793095c0d4119e136013ed4a9be167f67c2a6d11d3
"Hannah moved the sevel. Is this good, bad, or neither?",2,a8c587b500db841a040c834ea7e138d680f58a94067a016d1e34bb029e7a5755a7b629b83510771826624e6ba17f86d951b5c9399cff1af255e887a48cc06c67
"Hannah moved the sevel. Is this good, bad, or neither?",4,25e046295c3c4df65fec1f338915593023cbc8595b49545a780cbbd2d319b40def7a7b4161fe635075a0f88b18b672376308156d0633b22bb7b144697da4bf5e
"Hannah moved the sevel. Is this good, bad, or neither?",5,25e046295c3c4df65fec1f338915593023cbc8595b49545a780cbbd2d319b40def7a7b4161fe635075a0f88b18b672376308156d0633b22bb7b144697da4bf5e
"Hannah moved the sevel. Is this good, bad, or neither?",2,654abee2a34ea238dd9860279c2e4f4ca17d0745f80e3a567f1be1f8bc80565588c6bc0d387e4705bac6ad4b8113565bc4647802a60f9ec02d1e658cb7bd2331
"Hannah moved the sevel. Is this good, bad, or neither?",2,936e4d0c7ae8f4ae60ef19afcda7860025714a8f2dfbfb1727bcae20d1b685758898105f9b26f1dbaf8ae6d5a89ac9a0fa5ba4e72758cc901c9ae79056966748
"Hannah moved the sevel. Is this good, bad, or neither?",3,5f12e05c2e694ca4d0d50f5c90ffefa31fc5c326c5f6352ab6f2d69efda09898d7fa2e899476fb98164baf5559806eee7fc6f92a8cd7641d9b208f848e51b143
"Hannah moved the sevel. Is this good, bad, or neither?",3,5f12e05c2e694ca4d0d50f5c90ffefa31fc5c326c5f6352ab6f2d69efda09898d7fa2e899476fb98164baf5559806eee7fc6f92a8cd7641d9b208f848e51b143
"Hannah moved the sevel. Is this good, bad, or neither?",3,5f12e05c2e694ca4d0d50f5c90ffefa31fc5c326c5f6352ab6f2d69efda09898d7fa2e899476fb98164baf5559806eee7fc6f92a8cd7641d9b208f848e51b143
"Hannah moved the sevel. Is this good, bad, or neither?",3,5f12e05c2e694ca4d0d50f5c90ffefa31fc5c326c5f6352ab6f2d69efda09898d7fa2e899476fb98164baf5559806eee7fc6f92a8cd7641d9b208f848e51b143
"Hannah moved the sevel. Is this good, bad, or neither?",3,5f12e05c2e694ca4d0d50f5c90ffefa31fc5c326c5f6352ab6f2d69efda09898d7fa2e899476fb98164baf5559806eee7fc6f92a8cd7641d9b208f848e51b143
"Hannah moved the sevel. Is this good, bad, or neither?",3,5f12e05c2e694ca4d0d50f5c90ffefa31fc5c326c5f6352ab6f2d69efda09898d7fa2e899476fb98164baf5559806eee7fc6f92a8cd7641d9b208f848e51b143
"Hannah moved the sevel. Is this good, bad, or neither?",3,5f12e05c2e694ca4d0d50f5c90ffefa31fc5c326c5f6352ab6f2d69efda09898d7fa2e899476fb98164baf5559806eee7fc6f92a8cd7641d9b208f848e51b143
"Hannah moved the sevel. Is this good, bad, or neither?",3,5f12e05c2e694ca4d0d50f5c90ffefa31fc5c326c5f6352ab6f2d69efda09898d7fa2e899476fb98164baf5559806eee7fc6f92a8cd7641d9b208f848e51b143
"Hannah moved the sevel. Is this good, bad, or neither?",4,370f144cf4dd604d413a2490e2c85d9e53ae075a91ae7daa3d8ba77587d0dbacfec8f8ef4d914d51123bcd0eebd2592f3db18a708a2b046006d5bb42658e78b0
"Hannah moved the sevel. Is this good, bad, or neither?",6,370f144cf4dd604d413a2490e2c85d9e53ae075a91ae7daa3d8ba77587d0dbacfec8f8ef4d914d51123bcd0eebd2592f3db18a708a2b046006d5bb42658e78b0
"Hannah moved the sevel. Is this good, bad, or neither?",6,322f3fc9a65b52f17cfe21ce3e2a9d9d92a47fa515825ca5dfa09748ce6bc96e42524a760635bfbe96a7226586be29c5348d2b5b9422d1ce92b61d9bca99d317
"Hannah moved the sevel. Is this good, bad, or neither?",2,fb01d843f3d40d6501b9eda6a355052637b31f6b3c21fb0e3a860bdb506a42f2df07cd249b3096c402209021a9fd4679bb47c89ec3fc03513b12f8cb6975cd47
"Hannah moved the sevel. Is this good, bad, or neither?",2,b6f2e1344ebdd16df984a569b364694e74d76b32cc3d59d2dffcc4d11ac6f38e551c9c180de2ef82243330ba19068b623902e0a25624aa0e128b8c46b7d589cb
"Hannah moved the sevel. Is this good, bad, or neither?",2,3ce1c91573b49e76ae6d43c669a24733296314c25baffa84d6693179025159771a3c7b297e83491615fff176965dd211be78675095cfe008040fcf254df14810
"Hannah moved the sevel. Is this good, bad, or neither?",0,83e68bdb3c8d06734b9c63de2e996ad5203cfadd686bffeb5371242a53bd2562e4ee27b56455e36057ad2b7ff679b1bc0942e1b5e336f4762c4ed9cc49cb339a
"Hannah moved the sevel. Is this good, bad, or neither?",2,b4a89e063c479339463fe8a3755a45afdb72640d55ae6f8499866bdce35aea79532c96c386d3e305abf960bd172306159148a5dedc70fc0c191353ec94176ac4
"Hannah moved the sevel. Is this good, bad, or neither?",2,d49bd61708a618375192584b6feb0866394fa6315e5ea593bd9f8178744d7297d008c3686283894a46d2da52fc7094c88fdc80897c821e7db2c7b80b8761c712
"Hannah moved the sevel. Is this good, bad, or neither?",4,d49bd61708a618375192584b6feb0866394fa6315e5ea593bd9f8178744d7297d008c3686283894a46d2da52fc7094c88fdc80897c821e7db2c7b80b8761c712
"Hannah moved the sevel. Is this good, bad, or neither?",2,0c1e43ef5b2f9488f1f2f5d3bb698140bc0a814ccd0552a4d3b9bc7f4899fbd7f112dda7c2abe51111db2cd9354f7ed05e8023ddc9513e6797cd881f2b3a9c2c
"Hannah moved the sevel. Is this good, bad, or neither?",2,819161aa2e764fd74ba60f02978d28b130e488d1f6ed613c48db286b68fe06ef24eeeb946d2af813bac598640b43342cd2b7a142eb31a6fff239faaae995f9f7
"Hannah moved the sevel. Is this good, bad, or neither?",2,383c31fc054e97f9de55280d21a99453c9af5fbbe7daaba525a7182937b3cceb4b752f8d974eff05463a1bce47dfeae49028a0ee352343fee2d36977a47e5ae8
"Hannah moved the sevel. Is this good, bad, or neither?",2,531c667d4f67a26af45a5bfab6e20324aaa1acbcdbd2ac94f656bed1a4a854ed782760da32b1894db093d87f786a06b36748c4859a7d63a8ee897aa837aedc5e
"Hannah moved the sevel. Is this good, bad, or neither?",2,0ca87715be5df199ebada6867f7e0e75295c7ededa0fbd84664b9240578d42457d55abd66e8d40f24cae8c5c5c0a506eae9b839711a908d418039a14a0ca3135
"Hannah moved the sevel. Is this good, bad, or neither?",7,0ca87715be5df199ebada6867f7e0e75295c7ededa0fbd84664b9240578d42457d55abd66e8d40f24cae8c5c5c0a506eae9b839711a908d418039a14a0ca3135
"Hannah moved the sevel. Is this good, bad, or neither?",4,b4a89e063c479339463fe8a3755a45afdb72640d55ae6f8499866bdce35aea79532c96c386d3e305abf960bd172306159148a5dedc70fc0c191353ec94176ac4
"Hannah moved the sevel. Is this good, bad, or neither?",2,2f9462113b5e9601214e682c9cca4bae20f7a2bd9f6b7580e21b2ed74c953986cd53cac441413ec6c175876577943995429763c2ac64cd4327329f8013b68332
"Hannah moved the sevel. Is this good, bad, or neither?",2,5d818587500e31ddd24f674f0d96e8036b1fbbdeff8f12716de7cf436031070adc160ac58c2058f70b7756b9758d4cc6c60cd86cb5fbac5b08e94434f347d5fc
"Hannah moved the sevel. Is this good, bad, or neither?",2,e32acc3720de73ab257e923557ba791b4db98db203286f956cc7d117906e5547f3f7e338aaa78b9152b0dfd10ce0ae962b8dfa72e117028b43b70fce1d3ee9ca
"Hannah moved the sevel. Is this good, bad, or neither?",2,ee32d783b7f7ee587fc9b0197a4a420bd8f135d2ec6ae54578c55344c4c264d6d932e2480647ddb3e5a0c78ca269db2c2e8fcc31e6bf604b7efbcc80ff586317
"Hannah moved the sevel. Is this good, bad, or neither?",2,720bea532db6ed90a7bd855c056e2ccc32b0f2fe90eb490aa4d644afcc89620fb5f7c3bf4971d931a8aef22130fb8976bd9e83f534038e3c4e8421311520cb5d
"Hannah moved the sevel. Is this good, bad, or neither?",2,ddaaf85b6ad92e5bd899125be0ee1d1e475cef85f10f7c86eb80b3e666aa2d27b9930efbf239779906809e3b49e9c42c65a28830cce2f7034e42c039095ac370
"Hannah moved the sevel. Is this good, bad, or neither?",2,6397efb8301eab1de15408fc9c5529d9d07efc295b839f9c361e25d997828250530ed8af2f2249e291b8f383fbd097caa7146545d65a397ca1f093960ed62dd0
"Hannah moved the sevel. Is this good, bad, or neither?",2,875020ab790a2a14de66f1031c9dbe948349d58ca878a7ebdf2af07b04dd9e5ab4a699ced7cd5f0dd4086c9d36d349e952b257a9921f440dc5f764a7d05e7b7f
"Hannah moved the sevel. Is this good, bad, or neither?",0,6f5d3137f68645162d6754029499a9ec7ae5684f56847c76e1aed3915b42b3ec8caf636fecf4f90a32b0151ee5f9c6a1d6452b80a69f77275d541c9cea4cbff1
"Hannah moved the sevel. Is this good, bad, or neither?",2,6442579b5017c978ac48004d53b31163b3763f309e6f3e0581e04c2aea211970cc33a63b0462acee00808e5c684e9c9445efbc52c93000c0cc6f7f2e7cc3b7f1
"Hannah moved the sevel. Is this good, bad, or neither?",2,609868e2cf6de58a506a6731afe55c53d93510e3a34e58705479846aa7ccef2469a0081dc7ad92826b214afccaa96b3202ca07a32e7d6afd795c5776ef5511be
"Hannah moved the sevel. Is this good, bad, or neither?",2,08ea6ea397537c84ac209f08bf3bec2c0ff500e94266cd17fa45d303b288126de192d25b7f3331a02fdcad8a68ce682fafad99f95ec45259d05ed65d6cd3505e
"Hannah moved the sevel. Is this good, bad, or neither?",2,aeaead0bad2cd8cd8e00067df1d0ddd61b9ba6afec23c08f5c84f413ad2e263545b447c45633570fb4f2c9b3d3be895bc1e474eb157f9f9b4ac62955a36370ef
"Hannah moved the sevel. Is this good, bad, or neither?",3,5ed859beff22cb7346bbd1bb520b4e40c6fd44610478d66cd057f78c274bfe00e0cfd791b7f2e25ec9b478d601bfa4906bcd9751e895cada9d7ddb10a781a789
"Hannah moved the sevel. Is this good, bad, or neither?",2,305f2f29687fda8e291e598686a4a089cc57c27d26fc2dea3e28544183df6fdd4ce792399dcac730c7aa7109f82a09aace9c895bf9596d257e113393be774056
"Hannah moved the sevel. Is this good, bad, or neither?",4,3415cb76896388583d993ad3378b35b206d58d75cefaac5d45f01a38556aa4cfff136fd41536dcbdcf63f4029eac4463ac5567d313d8b3dc6bd8dd1e8a2833ac
"Hannah moved the sevel. Is this good, bad, or neither?",2,d2e6a6d57cee882ed16cbca1deba3136243493bacf9e4e499c38cc8a2b5fcdcbcd2adb8da2e6729ba9d022cc76627215947a55dbf461d7f613a6d612d1e95600
