"Nicholas moved Anthony to a moopy position. Is this good, bad, or neither?",4,5d818587500e31ddd24f674f0d96e8036b1fbbdeff8f12716de7cf436031070adc160ac58c2058f70b7756b9758d4cc6c60cd86cb5fbac5b08e94434f347d5fc
"Nicholas moved Anthony to a moopy position. Is this good, bad, or neither?",2,ddaaf85b6ad92e5bd899125be0ee1d1e475cef85f10f7c86eb80b3e666aa2d27b9930efbf239779906809e3b49e9c42c65a28830cce2f7034e42c039095ac370
"Nicholas moved Anthony to a moopy position. Is this good, bad, or neither?",4,d53a3853a701c0b2c6f59ecd154f16c81f913ab177c92d983b7f485f248ad8e3d2c917c73c67b45bfb8b646f5401330409d7a70104a1e853cdb47c89d1ab7624
"Nicholas moved Anthony to a moopy position. Is this good, bad, or neither?",4,0f8b0a6747c2c67c47eabd0e7ef8f16f8ded2c61207aad26a80a05076caf477a98492e88c1493d8d0c97008428802daf57b604ad8ec3417e999bf1eb41c94031
"Nicholas moved Anthony to a moopy position. Is this good, bad, or neither?",4,d5cd7b4079f465d6001dfb4f19d5bed8595a7f44cf6db60c8f5ca3e5a4419560f169556e71022b03197c5304759b4d22610da06f561c4343ec484b2ef9690c3f
"Nicholas moved Anthony to a moopy position. Is this good, bad, or neither?",2,3ea090e0d52b5916693ddea1a4ed0d34133d09edcf13ec3a74e022dc7a649d164d85028ee829765cf9075791cd903c8bd236bb18330c14024002b933f6337871
"Nicholas moved Anthony to a moopy position. Is this good, bad, or neither?",2,6f5d3137f68645162d6754029499a9ec7ae5684f56847c76e1aed3915b42b3ec8caf636fecf4f90a32b0151ee5f9c6a1d6452b80a69f77275d541c9cea4cbff1
"Nicholas moved Anthony to a moopy position. Is this good, bad, or neither?",2,247d016ad1965e185b284a032af50657ede03f4f6dfc65f402943ca2d27268dbc47a7ee39ad2eed9b24b64110dc50e8dd10ca6597e88d493637c358a9ba6470b
"Nicholas moved Anthony to a moopy position. Is this good, bad, or neither?",0,949e348794c3e18581f7b55ecef851e605235f7c9cafa5c3b4d3e91106a8ea5851849ec1edc9cd0b8dbea5b628ab5f49181d508855ed809569304963bc219caa
"Nicholas moved Anthony to a moopy position. Is this good, bad, or neither?",2,9fc9d3de7ddb83580fc430d2d5c6ee47e775cabd5a982d7012deb44dbf1042f8b3db8ea6b2c4ee7b39f82b84b6b071d6968393ccc6520a6870f0883ccc441cf9
"Nicholas moved Anthony to a moopy position. Is this good, bad, or neither?",2,609868e2cf6de58a506a6731afe55c53d93510e3a34e58705479846aa7ccef2469a0081dc7ad92826b214afccaa96b3202ca07a32e7d6afd795c5776ef5511be
"Nicholas moved Anthony to a moopy position. Is this good, bad, or neither?",4,a2bf94b2fa6ec12f6f56f644922ed639f314cb5f6ed9a2067e35a7ce83e6fd42d18a3255962dc0cdf1dd6421416dce98512b8047c3cedc7c1b6b6dde0e93b791
"Nicholas moved Anthony to a moopy position. Is this good, bad, or neither?",4,08ea6ea397537c84ac209f08bf3bec2c0ff500e94266cd17fa45d303b288126de192d25b7f3331a02fdcad8a68ce682fafad99f95ec45259d05ed65d6cd3505e
"Nicholas moved Anthony to a moopy position. Is this good, bad, or neither?",2,aeaead0bad2cd8cd8e00067df1d0ddd61b9ba6afec23c08f5c84f413ad2e263545b447c45633570fb4f2c9b3d3be895bc1e474eb157f9f9b4ac62955a36370ef
"Nicholas moved Anthony to a moopy position. Is this good, bad, or neither?",2,19cc5fc01bb05dd5741267b3f22117caba5478d8632a2fd54a3b51c3f3234e31711e85a3987af48026f5335e9e376f74c48e52bb2fe786b5955aa195b15b19d6
"Nicholas moved Anthony to a moopy position. Is this good, bad, or neither?",2,5ed859beff22cb7346bbd1bb520b4e40c6fd44610478d66cd057f78c274bfe00e0cfd791b7f2e25ec9b478d601bfa4906bcd9751e895cada9d7ddb10a781a789
"Nicholas moved Anthony to a moopy position. Is this good, bad, or neither?",2,305f2f29687fda8e291e598686a4a089cc57c27d26fc2dea3e28544183df6fdd4ce792399dcac730c7aa7109f82a09aace9c895bf9596d257e113393be774056
"Nicholas moved Anthony to a moopy position. Is this good, bad, or neither?",2,ea4dbd7f03bb4a333233577dd57fdd1613870a381423bc653611b4e99d179ee38f63f2083ff5b8ca8901f3caea1bf131911228b2d4aed2ec891ff0b260c60a63
"Nicholas moved Anthony to a moopy position. Is this good, bad, or neither?",4,5b56973b88ed7b736ff3966dd5900790af0d217684769981e05a869fd0482e4eb627fbc83ef164acdcc19dfee68958f3688d63269cfdc0cd3c3ec35969e3c934
"Nicholas moved Anthony to a moopy position. Is this good, bad, or neither?",2,7f45982c84b0e62975c836530ebc5c20ed43e2aaac4d7f1c99d59dac30103bb0a2c7f0c3eb3c011244e3b29b96036757199959b8d8fbcc5cf995fee8253a05f5
"Nicholas moved Anthony to a moopy position. Is this good, bad, or neither?",2,5de7b886a8e9d03160145a2c857e7a513d279c1afda8a15e2f3b842b220911a0db6d8f73ebf2fa9d9628aa86f669ca60c7bb844f3535032c2078a13a63bb8b6e
"Nicholas moved Anthony to a moopy position. Is this good, bad, or neither?",2,fb3ee4e72eb582b2b2920acd3ac5a4ed00149c2560bf0255b9bc8237d80cbadd7b353ced6ab5662f69dfe00d362575b7da94144cd2374866a682e39b17cc3c0d
"Nicholas moved Anthony to a moopy position. Is this good, bad, or neither?",2,948b1546ab23598285d2f77f39e4276a3a82e5d340295aa6760c9fc6f36b7437bb3a495a3ba88d447f3fe661e3d3dc2ca10e32b8b5eb3feb6619e793bc050ef2
"Nicholas moved Anthony to a moopy position. Is this good, bad, or neither?",2,2cb44008208d14c82cf8868fc09b67e721d51c1b25835a53ce5c75d4338141e971e3aad3228e19b641ecd4278d4576dc2f1af7702b6c5731e30d7d54f5a829a5
"Nicholas moved Anthony to a moopy position. Is this good, bad, or neither?",2,409c12d0dd20b01733637a680f5229f9e32d49b7e5334090b79c8103ff6c2e3fa89a893c347853858d6340039bdbe9d67ffbb578ffd7aca629dd3a26b0805200
"Nicholas moved Anthony to a moopy position. Is this good, bad, or neither?",2,28195e505193242d636c8cf88927e3353b64c1e9365b6d4fe6834ae467adb58cc661083c465cf575a9d4e6e6ea9daf2f4e5b8eaf892be186be05aa6b9c0519ec
"Nicholas moved Anthony to a moopy position. Is this good, bad, or neither?",2,caff777a2303da77340521ef83945a07684b2612ccb93a9fe1e9e6b34d4e52177c4499982e59c5f493664f3123c4c9738867850e7445f494ca6c22600eb6e56a
"Nicholas moved Anthony to a moopy position. Is this good, bad, or neither?",1,d52d0f79310a4a1585de2ba281cae55d8bf4f66ee89a3b0afe5bec86ac64f3fbcf4ac04acc90a017d6f66a1259e7c33c370048fe26771c06104f79c7f0e7daea
"Nicholas moved Anthony to a moopy position. Is this good, bad, or neither?",1,e77caff9eb162055b441a87362379461113618c628aafb278e20fd212121ac21d22ea253a902456466d5912f7b529e848e7bf7738fbf7cdaf865552c14fb25b7
"Nicholas moved Anthony to a moopy position. Is this good, bad, or neither?",2,ecd12f5c7840150b6bf31f41cfe805fbb7f1e24d87bc7f9a7e4a26034d172ee611537c7e49e1951d513a1b63598bec45f4cf8d3fd4936ebe2747d7e8018937e5
"Nicholas moved Anthony to a moopy position. Is this good, bad, or neither?",2,832b19ea4eb64ad4f6298c0933ec2f6ba994974bcbbda62a7a0088a00f6cd96bd27aca96187875bf07fe2c868f7cd9e74b39598b91c261fd45079e5150637de4
"Nicholas moved Anthony to a moopy position. Is this good, bad, or neither?",4,0110bdd5696a3b93e855ce7a2ea6cbd8bc19ceac0629eb528d16bd6e69fc7749ba8b338e8f21bbddd0c2fe0fb6bd7c9a0f0f6c61458d20e736f7f30c19f5a682
"Nicholas moved Anthony to a moopy position. Is this good, bad, or neither?",0,ba28996bbe1cd9b4e75499acf693e83a7ad7e2b18117c2fd645a8ca50bb7e1493cd089f87cc8f48bff82e202ddfee7db9bc3230bdc5bce2446f0639ec4c007e6
"Nicholas moved Anthony to a moopy position. Is this good, bad, or neither?",4,2affe66e78ed0fdb8662d48e9de768393c88ec5e667c71326bc9ac141e2742f64028489e0a9dbbd820ca7d777483a05f81c195e5a46d9c595e8003584f94b06f
"Nicholas moved Anthony to a moopy position. Is this good, bad, or neither?",1,a2018b2f2cb0df35c6f604e995f17d6e17a322bd7ef574ff0f88abed8f0038a8c6390bc5c591132e61e97cdaf158fa2774550303bbc57047e4a2eb4e94c6e54b
"Nicholas moved Anthony to a moopy position. Is this good, bad, or neither?",3,e816c25d00cf8e91122f1f3b229f41f298ddc4b6b47fcb5da8174bd83a0554271a821e737026ea6a344d4c078e1b3f87611f069ea877657588a824cf10970207
"Nicholas moved Anthony to a moopy position. Is this good, bad, or neither?",2,9d8ddb67f662349a7f7a7c5a32fee73c457fd70d135ae4be6f17a68418102d35693b26415c8fd8c7bd26a5b5032587ac08aefd055994f62fcb3e9a44d5cb51b0
"Nicholas moved Anthony to a moopy position. Is this good, bad, or neither?",6,2e08ea7a396b5dc2fc6ff518b56da9298cfd603a2f489e5145c092eb9870a320d2bfa8fd161fe5975a370e19055991d826fd24dea216f722fe25dbbf75088cd3
"Nicholas moved Anthony to a moopy position. Is this good, bad, or neither?",4,2e08ea7a396b5dc2fc6ff518b56da9298cfd603a2f489e5145c092eb9870a320d2bfa8fd161fe5975a370e19055991d826fd24dea216f722fe25dbbf75088cd3
"Nicholas moved Anthony to a moopy position. Is this good, bad, or neither?",0,5adefca985807c50c8c3653bc05dd62711748c31faf2fc5e7214a6c8a54953845a096abf18034228cdef8df2149de79b181f416f14036eb5488ae4b5e10799af
"Nicholas moved Anthony to a moopy position. Is this good, bad, or neither?",4,9e4013154f0a1507ccbad82f319a33f94cbca2b3500085187724eb8c6b9c15a77844a8e06291b2ecc7a5be930a9f3d32ebcf81ed14be737e9d4a7803f2677cec
"Nicholas moved Anthony to a moopy position. Is this good, bad, or neither?",6,37578547f1e72c2e181925154fbdeaf28a34ddef57a11c73e5354ac5cbe58b67e9df62b6a311add4f34307459b975527f5895549250704ff8787429765f9c639
"Nicholas moved Anthony to a moopy position. Is this good, bad, or neither?",2,56e5028ee24e5456fffd37e15d33cc106507d3c4bf70fab4985dd3127882f2243a2a39afe1d705391f79b38c2cf76dce2fe05f6ea053f2558dd38b6700940fc9
"Nicholas moved Anthony to a moopy position. Is this good, bad, or neither?",1,bab49db9e10dd5714af99e492f159b412bbbe71c4e4a2c9c45b40d6fd28a6bfd3921bfb223f8d4c148d9364edf70bb77b1e5cdac743fccd8905ffe91119f5c87
"Nicholas moved Anthony to a moopy position. Is this good, bad, or neither?",4,8cb8721a497f7dddc49cd62eaa7e3e3bcf1e0ef5f546273978164d3223649eae35e9652c579057e8aeb3edf203dd19109db78046896b63a4d12d3f8ba89b662c
"Nicholas moved Anthony to a moopy position. Is this good, bad, or neither?",2,d26733bfaabe7d9d3fe2ff42b52d563ace7d2453fe85eecfda6eb4a07031f5595888597572225c7da3a5e5e8c9ea01d6af261603cf795d4bddd7887325780e12
"Nicholas moved Anthony to a moopy position. Is this good, bad, or neither?",4,ad1326d97150be39c54e291e77d0742b8574db603daa5fed675d73efd780c3e2927bcda79127c867f203c13a3c429cfb8275f4624c00623e9396682bf3b88d60
"Nicholas moved Anthony to a moopy position. Is this good, bad, or neither?",1,7b09ce890d746b737b3d5e072337796076eacc9352739ca9077211a9f9849e4ad5ec2c6748bdc99154c82eac548d8b84c01aec4cd357bdeb158ac2f7481be9f1
"Nicholas moved Anthony to a moopy position. Is this good, bad, or neither?",2,df6254e78e6f867ed8fb7fdba210cd281f866a9564f7979605bd593de7bbd2d4ac5040d210d19f00eb3c2ad739a0ccdfca659bffd8af1ada805123d8114646cc
"Nicholas moved Anthony to a moopy position. Is this good, bad, or neither?",2,ea64ad6a42a21d4c8cbc48bf090ef805116de15778437596da86680797d3e62898467e5f97b29625139470497bda90acdbd776853b9cf9ba9609884a5d6b49c9
"Nicholas moved Anthony to a moopy position. Is this good, bad, or neither?",6,4b7aa2ac29873b136889672fbba234406ea7ad911ab1951b9e452ed881bb852ff9af5f5843f38dc143ca3bef72c08fe862237e058ec0f62b8b6fdfeea92c4438
"Nicholas moved Anthony to a moopy position. Is this good, bad, or neither?",4,af8a38336d92249b322e970e7fda2ac11d51761c496ed87bf1d77d1e99083a7e344df56c3c77cb4fb114298619d6ed36fa9cc3bb0ed11be3c946f677b3161cb0
"Nicholas moved Anthony to a moopy position. Is this good, bad, or neither?",4,654abee2a34ea238dd9860279c2e4f4ca17d0745f80e3a567f1be1f8bc80565588c6bc0d387e4705bac6ad4b8113565bc4647802a60f9ec02d1e658cb7bd2331
"Nicholas moved Anthony to a moopy position. Is this good, bad, or neither?",1,1b43d5f4ee2ce3f2d017ae4138656dce6c4b3f2422664225620c700e95457296724aaf9f55dd4adc40ac81639644b87192aafd9130b1cc4d6c108038f5bad5b7
"Nicholas moved Anthony to a moopy position. Is this good, bad, or neither?",3,5f12e05c2e694ca4d0d50f5c90ffefa31fc5c326c5f6352ab6f2d69efda09898d7fa2e899476fb98164baf5559806eee7fc6f92a8cd7641d9b208f848e51b143
"Nicholas moved Anthony to a moopy position. Is this good, bad, or neither?",3,5f12e05c2e694ca4d0d50f5c90ffefa31fc5c326c5f6352ab6f2d69efda09898d7fa2e899476fb98164baf5559806eee7fc6f92a8cd7641d9b208f848e51b143
"Nicholas moved Anthony to a moopy position. Is this good, bad, or neither?",3,5f12e05c2e694ca4d0d50f5c90ffefa31fc5c326c5f6352ab6f2d69efda09898d7fa2e899476fb98164baf5559806eee7fc6f92a8cd7641d9b208f848e51b143
"Nicholas moved Anthony to a moopy position. Is this good, bad, or neither?",3,5f12e05c2e694ca4d0d50f5c90ffefa31fc5c326c5f6352ab6f2d69efda09898d7fa2e899476fb98164baf5559806eee7fc6f92a8cd7641d9b208f848e51b143
"Nicholas moved Anthony to a moopy position. Is this good, bad, or neither?",3,5f12e05c2e694ca4d0d50f5c90ffefa31fc5c326c5f6352ab6f2d69efda09898d7fa2e899476fb98164baf5559806eee7fc6f92a8cd7641d9b208f848e51b143
"Nicholas moved Anthony to a moopy position. Is this good, bad, or neither?",3,5f12e05c2e694ca4d0d50f5c90ffefa31fc5c326c5f6352ab6f2d69efda09898d7fa2e899476fb98164baf5559806eee7fc6f92a8cd7641d9b208f848e51b143
"Nicholas moved Anthony to a moopy position. Is this good, bad, or neither?",3,5f12e05c2e694ca4d0d50f5c90ffefa31fc5c326c5f6352ab6f2d69efda09898d7fa2e899476fb98164baf5559806eee7fc6f92a8cd7641d9b208f848e51b143
"Nicholas moved Anthony to a moopy position. Is this good, bad, or neither?",3,5f12e05c2e694ca4d0d50f5c90ffefa31fc5c326c5f6352ab6f2d69efda09898d7fa2e899476fb98164baf5559806eee7fc6f92a8cd7641d9b208f848e51b143
"Nicholas moved Anthony to a moopy position. Is this good, bad, or neither?",1,3ce1c91573b49e76ae6d43c669a24733296314c25baffa84d6693179025159771a3c7b297e83491615fff176965dd211be78675095cfe008040fcf254df14810
"Nicholas moved Anthony to a moopy position. Is this good, bad, or neither?",3,0c1e43ef5b2f9488f1f2f5d3bb698140bc0a814ccd0552a4d3b9bc7f4899fbd7f112dda7c2abe51111db2cd9354f7ed05e8023ddc9513e6797cd881f2b3a9c2c
"Nicholas moved Anthony to a moopy position. Is this good, bad, or neither?",3,0c1e43ef5b2f9488f1f2f5d3bb698140bc0a814ccd0552a4d3b9bc7f4899fbd7f112dda7c2abe51111db2cd9354f7ed05e8023ddc9513e6797cd881f2b3a9c2c
"Nicholas moved Anthony to a moopy position. Is this good, bad, or neither?",0,819161aa2e764fd74ba60f02978d28b130e488d1f6ed613c48db286b68fe06ef24eeeb946d2af813bac598640b43342cd2b7a142eb31a6fff239faaae995f9f7
"Nicholas moved Anthony to a moopy position. Is this good, bad, or neither?",2,c2a35a9e3a4e63030e1b1467ea5c631724ace41aa9aab9a34f7eb3dea239079ba738fd4333a249f113a2423c2b23c3dc9bd99213f8a783d851527ee9cb86f84b
"Nicholas moved Anthony to a moopy position. Is this good, bad, or neither?",4,b4a89e063c479339463fe8a3755a45afdb72640d55ae6f8499866bdce35aea79532c96c386d3e305abf960bd172306159148a5dedc70fc0c191353ec94176ac4
"Nicholas moved Anthony to a moopy position. Is this good, bad, or neither?",2,a04441347c7a31798c34e1a297af024142381cfd06d1679184d6b0cf7ea8eda83518c819aaa67808a7238790be4a54c02324be8e270298ac207e0fa103ba2135
"Nicholas moved Anthony to a moopy position. Is this good, bad, or neither?",1,83e68bdb3c8d06734b9c63de2e996ad5203cfadd686bffeb5371242a53bd2562e4ee27b56455e36057ad2b7ff679b1bc0942e1b5e336f4762c4ed9cc49cb339a
"Nicholas moved Anthony to a moopy position. Is this good, bad, or neither?",0,4c98db9968edffffeaebad289235acc7fdd8ad3f65d639bc7aa14a8643e95fb65bb2cc57682abcf8e6ae5795c7a51a74da8bf9045ec06d2f4b8309d59d9251e9
"Nicholas moved Anthony to a moopy position. Is this good, bad, or neither?",4,26729c392072f043615adffdd8653c7ba3bb0a1666325fbc5e4200c5527ff8f7b18e0fe11a3076def10d3c2e4eae07213bcb2c233bab7241ba47f38ad8a9ccd4
"Nicholas moved Anthony to a moopy position. Is this good, bad, or neither?",1,72d1c9853df3d3644610f651fe7698341b570aaefc46052d0ded8bbbdc6d391fd63756a98ecba6103b15777dc7237c385637dd01aa20a1dae807fa976cc0b5fd
"Nicholas moved Anthony to a moopy position. Is this good, bad, or neither?",2,0ca87715be5df199ebada6867f7e0e75295c7ededa0fbd84664b9240578d42457d55abd66e8d40f24cae8c5c5c0a506eae9b839711a908d418039a14a0ca3135
"Nicholas moved Anthony to a moopy position. Is this good, bad, or neither?",7,0ca87715be5df199ebada6867f7e0e75295c7ededa0fbd84664b9240578d42457d55abd66e8d40f24cae8c5c5c0a506eae9b839711a908d418039a14a0ca3135
"Nicholas moved Anthony to a moopy position. Is this good, bad, or neither?",2,b4a89e063c479339463fe8a3755a45afdb72640d55ae6f8499866bdce35aea79532c96c386d3e305abf960bd172306159148a5dedc70fc0c191353ec94176ac4
"Nicholas moved Anthony to a moopy position. Is this good, bad, or neither?",4,5d818587500e31ddd24f674f0d96e8036b1fbbdeff8f12716de7cf436031070adc160ac58c2058f70b7756b9758d4cc6c60cd86cb5fbac5b08e94434f347d5fc
"Nicholas moved Anthony to a moopy position. Is this good, bad, or neither?",2,ddaaf85b6ad92e5bd899125be0ee1d1e475cef85f10f7c86eb80b3e666aa2d27b9930efbf239779906809e3b49e9c42c65a28830cce2f7034e42c039095ac370
"Nicholas moved Anthony to a moopy position. Is this good, bad, or neither?",4,d53a3853a701c0b2c6f59ecd154f16c81f913ab177c92d983b7f485f248ad8e3d2c917c73c67b45bfb8b646f5401330409d7a70104a1e853cdb47c89d1ab7624
"Nicholas moved Anthony to a moopy position. Is this good, bad, or neither?",4,0f8b0a6747c2c67c47eabd0e7ef8f16f8ded2c61207aad26a80a05076caf477a98492e88c1493d8d0c97008428802daf57b604ad8ec3417e999bf1eb41c94031
"Nicholas moved Anthony to a moopy position. Is this good, bad, or neither?",4,d5cd7b4079f465d6001dfb4f19d5bed8595a7f44cf6db60c8f5ca3e5a4419560f169556e71022b03197c5304759b4d22610da06f561c4343ec484b2ef9690c3f
"Nicholas moved Anthony to a moopy position. Is this good, bad, or neither?",2,3ea090e0d52b5916693ddea1a4ed0d34133d09edcf13ec3a74e022dc7a649d164d85028ee829765cf9075791cd903c8bd236bb18330c14024002b933f6337871
"Nicholas moved Anthony to a moopy position. Is this good, bad, or neither?",2,6f5d3137f68645162d6754029499a9ec7ae5684f56847c76e1aed3915b42b3ec8caf636fecf4f90a32b0151ee5f9c6a1d6452b80a69f77275d541c9cea4cbff1
"Nicholas moved Anthony to a moopy position. Is this good, bad, or neither?",2,247d016ad1965e185b284a032af50657ede03f4f6dfc65f402943ca2d27268dbc47a7ee39ad2eed9b24b64110dc50e8dd10ca6597e88d493637c358a9ba6470b
"Nicholas moved Anthony to a moopy position. Is this good, bad, or neither?",0,949e348794c3e18581f7b55ecef851e605235f7c9cafa5c3b4d3e91106a8ea5851849ec1edc9cd0b8dbea5b628ab5f49181d508855ed809569304963bc219caa
"Nicholas moved Anthony to a moopy position. Is this good, bad, or neither?",2,9fc9d3de7ddb83580fc430d2d5c6ee47e775cabd5a982d7012deb44dbf1042f8b3db8ea6b2c4ee7b39f82b84b6b071d6968393ccc6520a6870f0883ccc441cf9
"Nicholas moved Anthony to a moopy position. Is this good, bad, or neither?",2,609868e2cf6de58a506a6731afe55c53d93510e3a34e58705479846aa7ccef2469a0081dc7ad92826b214afccaa96b3202ca07a32e7d6afd795c5776ef5511be
"Nicholas moved Anthony to a moopy position. Is this good, bad, or neither?",4,a2bf94b2fa6ec12f6f56f644922ed639f314cb5f6ed9a2067e35a7ce83e6fd42d18a3255962dc0cdf1dd6421416dce98512b8047c3cedc7c1b6b6dde0e93b791
"Nicholas moved Anthony to a moopy position. Is this good, bad, or neither?",4,08ea6ea397537c84ac209f08bf3bec2c0ff500e94266cd17fa45d303b288126de192d25b7f3331a02fdcad8a68ce682fafad99f95ec45259d05ed65d6cd3505e
"Nicholas moved Anthony to a moopy position. Is this good, bad, or neither?",2,aeaead0bad2cd8cd8e00067df1d0ddd61b9ba6afec23c08f5c84f413ad2e263545b447c45633570fb4f2c9b3d3be895bc1e474eb157f9f9b4ac62955a36370ef
"Nicholas moved Anthony to a moopy position. Is this good, bad, or neither?",2,19cc5fc01bb05dd5741267b3f22117caba5478d8632a2fd54a3b51c3f3234e31711e85a3987af48026f5335e9e376f74c48e52bb2fe786b5955aa195b15b19d6
"Nicholas moved Anthony to a moopy position. Is this good, bad, or neither?",2,5ed859beff22cb7346bbd1bb520b4e40c6fd44610478d66cd057f78c274bfe00e0cfd791b7f2e25ec9b478d601bfa4906bcd9751e895cada9d7ddb10a781a789
"Nicholas moved Anthony to a moopy position. Is this good, bad, or neither?",2,305f2f29687fda8e291e598686a4a089cc57c27d26fc2dea3e28544183df6fdd4ce792399dcac730c7aa7109f82a09aace9c895bf9596d257e113393be774056
"Nicholas moved Anthony to a moopy position. Is this good, bad, or neither?",3,e816c25d00cf8e91122f1f3b229f41f298ddc4b6b47fcb5da8174bd83a0554271a821e737026ea6a344d4c078e1b3f87611f069ea877657588a824cf10970207
"Nicholas moved Anthony to a moopy position. Is this good, bad, or neither?",6,37578547f1e72c2e181925154fbdeaf28a34ddef57a11c73e5354ac5cbe58b67e9df62b6a311add4f34307459b975527f5895549250704ff8787429765f9c639
