"Jeremy bounced. Is this good, bad, or neither?",2,5d818587500e31ddd24f674f0d96e8036b1fbbdeff8f12716de7cf436031070adc160ac58c2058f70b7756b9758d4cc6c60cd86cb5fbac5b08e94434f347d5fc
"Jeremy bounced. Is this good, bad, or neither?",2,9d8ddb67f662349a7f7a7c5a32fee73c457fd70d135ae4be6f17a68418102d35693b26415c8fd8c7bd26a5b5032587ac08aefd055994f62fcb3e9a44d5cb51b0
"Jeremy bounced. Is this good, bad, or neither?",2,720bea532db6ed90a7bd855c056e2ccc32b0f2fe90eb490aa4d644afcc89620fb5f7c3bf4971d931a8aef22130fb8976bd9e83f534038e3c4e8421311520cb5d
"Jeremy bounced. Is this good, bad, or neither?",0,d6bbf40b7bd919dd7a4fe74fbcc3a8f9a3e86aa0ced6474cb3fabf619655ba3bfe47e1f6b5aa67de8e98e5649a0001837377568226cd148f89b154b19f6398aa
"Jeremy bounced. Is this good, bad, or neither?",2,ddaaf85b6ad92e5bd899125be0ee1d1e475cef85f10f7c86eb80b3e666aa2d27b9930efbf239779906809e3b49e9c42c65a28830cce2f7034e42c039095ac370
"Jeremy bounced. Is this good, bad, or neither?",2,a6e3e5fadd18f91cf3b98367d61e458d833818fc25f28852fb2a5782720689df8ca05957c6d0a4610da5640485522b4cbefe1b6672ef13ea57f87fb371760066
"Jeremy bounced. Is this good, bad, or neither?",2,875020ab790a2a14de66f1031c9dbe948349d58ca878a7ebdf2af07b04dd9e5ab4a699ced7cd5f0dd4086c9d36d349e952b257a9921f440dc5f764a7d05e7b7f
"Jeremy bounced. Is this good, bad, or neither?",2,9fc9d3de7ddb83580fc430d2d5c6ee47e775cabd5a982d7012deb44dbf1042f8b3db8ea6b2c4ee7b39f82b84b6b071d6968393ccc6520a6870f0883ccc441cf9
"Jeremy bounced. Is this good, bad, or neither?",2,609868e2cf6de58a506a6731afe55c53d93510e3a34e58705479846aa7ccef2469a0081dc7ad92826b214afccaa96b3202ca07a32e7d6afd795c5776ef5511be
"Jeremy bounced. Is this good, bad, or neither?",2,fdcb2b05d3a3aa943a3b3391fa64407435c94b0436e74263463c67e17e9953705d3526147878dc1d17eeb8a37311cc71097d78d69109654a83ffff02ede3aedb
"Jeremy bounced. Is this good, bad, or neither?",2,675a6154d38e7981c932127e219f374c1a8880011eab4c932106ac51314fb2868ba8fd7264f3bb40c5a96272dc019e5c9cf6c60011e9e9a04b73042a43219af2
"Jeremy bounced. Is this good, bad, or neither?",2,08ea6ea397537c84ac209f08bf3bec2c0ff500e94266cd17fa45d303b288126de192d25b7f3331a02fdcad8a68ce682fafad99f95ec45259d05ed65d6cd3505e
"Jeremy bounced. Is this good, bad, or neither?",2,aeaead0bad2cd8cd8e00067df1d0ddd61b9ba6afec23c08f5c84f413ad2e263545b447c45633570fb4f2c9b3d3be895bc1e474eb157f9f9b4ac62955a36370ef
"Jeremy bounced. Is this good, bad, or neither?",2,5ed859beff22cb7346bbd1bb520b4e40c6fd44610478d66cd057f78c274bfe00e0cfd791b7f2e25ec9b478d601bfa4906bcd9751e895cada9d7ddb10a781a789
"Jeremy bounced. Is this good, bad, or neither?",2,305f2f29687fda8e291e598686a4a089cc57c27d26fc2dea3e28544183df6fdd4ce792399dcac730c7aa7109f82a09aace9c895bf9596d257e113393be774056
"Jeremy bounced. Is this good, bad, or neither?",0,5413a412d4833ac9cfad22dce2c78e46f7ad8e3534e1741f4732e318296028ad444f1ba913fed810c1af16b369223c94f1ec5ea721d12e9753ad7d6d7ba1cf04
"Jeremy bounced. Is this good, bad, or neither?",2,5de7b886a8e9d03160145a2c857e7a513d279c1afda8a15e2f3b842b220911a0db6d8f73ebf2fa9d9628aa86f669ca60c7bb844f3535032c2078a13a63bb8b6e
"Jeremy bounced. Is this good, bad, or neither?",2,87ef026014587c59d56fa4c2071e6bb9d3bed56b2c3afb54b24d4cc832295bd62bbfb4a581d1881c6fcb84d2fb80ee66fccefc5a7457a6dc6289793ff7e7d0dc
"Jeremy bounced. Is this good, bad, or neither?",2,fb3ee4e72eb582b2b2920acd3ac5a4ed00149c2560bf0255b9bc8237d80cbadd7b353ced6ab5662f69dfe00d362575b7da94144cd2374866a682e39b17cc3c0d
"Jeremy bounced. Is this good, bad, or neither?",2,050d3354591569cb7c302cb71e354fb23344a0e94f1750835adf74ba4c3a058dfe2731e2dd38d8d2f4cb80955424093ff619aa731c9d051ded0eee37a2630400
"Jeremy bounced. Is this good, bad, or neither?",2,28195e505193242d636c8cf88927e3353b64c1e9365b6d4fe6834ae467adb58cc661083c465cf575a9d4e6e6ea9daf2f4e5b8eaf892be186be05aa6b9c0519ec
"Jeremy bounced. Is this good, bad, or neither?",2,caff777a2303da77340521ef83945a07684b2612ccb93a9fe1e9e6b34d4e52177c4499982e59c5f493664f3123c4c9738867850e7445f494ca6c22600eb6e56a
"Jeremy bounced. Is this good, bad, or neither?",2,832b19ea4eb64ad4f6298c0933ec2f6ba994974bcbbda62a7a0088a00f6cd96bd27aca96187875bf07fe2c868f7cd9e74b39598b91c261fd45079e5150637de4
"Jeremy bounced. Is this good, bad, or neither?",4,c84e749a7cef7cce34bfddb7d3d8954d5a964b4dda3306e6514f98d50c3f2ef7dfc345e229bd8acb8b64369b679768741976de5551cd081d4df1f8a09b0b89fb
"Jeremy bounced. Is this good, bad, or neither?",2,8e39364603baf3edd6ae064e90c9efff318932f32d298796f1a55d1e7044ee54edec04b63f9c2ab1e4598362559b814331ad2258a67f174e42bca3ec9ceb4e06
"Jeremy bounced. Is this good, bad, or neither?",4,e0f955eb160411861b9dca3fb34740a97aa8489ae4545726c843bfa8e5bd2c362684438e79385dabb01f9f8969be876d5ce3226675c01e625073de59d43d6b76
"Jeremy bounced. Is this good, bad, or neither?",2,34ef1f05271654743005d09f6ddcde9b366a900be98f28a982b8327dde6d04bf19e0fd7522bf5d3227ea5e144e30f99798b079c0b2a8f10fd07deafd8d5bac27
"Jeremy bounced. Is this good, bad, or neither?",2,b876aa0d347b24f28a11f66537cbe96167b3ad5b69864d47a4b375277f3a99caabe00ce8e81870868d74ae4ef34abe34b10efbae0ab8b1ff43959286d771a33c
"Jeremy bounced. Is this good, bad, or neither?",3,a90072432d6a55bb28164c87f873f2022daa4faa2165d21c9f136bf9b7705b2f48584e73c94036570b9c361a10a61227087e14e8624fca45253259317eb7d5f5
"Jeremy bounced. Is this good, bad, or neither?",2,0cce9151698e5674daa0d80fe4efc4daa6c28de601e9af357d943b02c498a73578d8113eba388846a2ca22017c481f5d2b2a23aca606799dfa309a4c8d51c86e
"Jeremy bounced. Is this good, bad, or neither?",2,a5b20cd1dea7fa471d035ada2bb5f8712944ff752a20d90c293a8a52baf43b09439a907ea4f22c84a8782bbd85c7801254d17e272b04112657f000a4f9c7a000
"Jeremy bounced. Is this good, bad, or neither?",2,2affe66e78ed0fdb8662d48e9de768393c88ec5e667c71326bc9ac141e2742f64028489e0a9dbbd820ca7d777483a05f81c195e5a46d9c595e8003584f94b06f
"Jeremy bounced. Is this good, bad, or neither?",4,3114a574e6e6bda1e965c075e10700b70d5105d57e9de202b5ec895a2759816106c7c6c387d2c7fdbb52e58d1ff0af1deeed2678ec798af375ca15085ac5fb5b
"Jeremy bounced. Is this good, bad, or neither?",4,352e7092221254de5346a08edec544947e6c369aab0f6c0c2a26748639cdfc5c9b0bf29304ec0f0417e95997f1f1e32da9511fd90788e68886b850c8d0860068
"Jeremy bounced. Is this good, bad, or neither?",0,47be7182d34b0dc183b2ffee4b5e9d646eb06f58143cc2524921ebd570f2d4eb07dc296ab8f1b2988b494663ab642f6b7c44447bfd61cfdb18de4acb9a239515
"Jeremy bounced. Is this good, bad, or neither?",2,93374345456684232ba7d1983c70cad209421cf911c693ea0a5291a71fb09869150d62b81eeff7ce416df9ad12f18f6f2a1fab42c9a46fc7a861409969856f0f
"Jeremy bounced. Is this good, bad, or neither?",2,ecd12f5c7840150b6bf31f41cfe805fbb7f1e24d87bc7f9a7e4a26034d172ee611537c7e49e1951d513a1b63598bec45f4cf8d3fd4936ebe2747d7e8018937e5
"Jeremy bounced. Is this good, bad, or neither?",2,1e7019267a5b9fb0c239414b1e225193cc46ec9d6c9a84692122a153d5af4e4bec36f2ece04c27828e7c811956744c4cdaf9b6e007fe5418441f79557bd2012a
"Jeremy bounced. Is this good, bad, or neither?",0,8565b6c3c5f853c4a69d40c4c414b37529c802fdf47ff39085e0f5742739c936f565ac5d35679c5b744371bbd5e3d5b08e50e9e5fed73834b407d37df6a214b7
"Jeremy bounced. Is this good, bad, or neither?",0,2e08ea7a396b5dc2fc6ff518b56da9298cfd603a2f489e5145c092eb9870a320d2bfa8fd161fe5975a370e19055991d826fd24dea216f722fe25dbbf75088cd3
"Jeremy bounced. Is this good, bad, or neither?",0,38c131a7646a062573780a5f22be2eadc950a65085da9224a6dc2ca2a6452d71f3602389b7728a427ec7d5ddfcb8a8d3df0723cff6fca20bf97a20ea5fd8d0f0
"Jeremy bounced. Is this good, bad, or neither?",2,4c30b9bece8b54ff205c57f8f0d5ffbe6b3b1e8c99c6be939b93b012f1a8b20803619ca3368969ac4a82d591157b9785ffdf2be8ca1eef403efd7ef46d805589
"Jeremy bounced. Is this good, bad, or neither?",2,ab3c5608bc5cbb64740dd67860afe5dedd7e7de8f4e5bf4d0e01e2910645c1c9397666033af39a650019b36a1b2074edb211b4cdb18f59cf54094072625e7ffb
"Jeremy bounced. Is this good, bad, or neither?",2,912ea83cdfc5cf06bd44077cb51de35e88b6654f5af0eb7f6f78d434377245fc012b228a5334411a8d988514eee1d5ac22fb8453f995095120ccaea0e01fac17
"Jeremy bounced. Is this good, bad, or neither?",2,35369e87aa8b28979e62db760672610ff9d8427f5d29f50a3d057e07941217cb1336505170c607c299afe9de5878d2e0ade5bbdfcb9f60f748bc175c62ff14a4
"Jeremy bounced. Is this good, bad, or neither?",2,931eac14dd58d2504b6e0701374b724ff807ad02d573c1a661e9bde054e5cd5c1bcedb755beb82d3a26e395c80e19d222a2cf3f69b5aabf3f345bfa11d4dca75
"Jeremy bounced. Is this good, bad, or neither?",7,b464da582faff09b1b3f35075c7587581b68cc9ae5938c44a405688f299d3e0e41297636a3b6410d299ebe8103765b20a463ef742ec2dabfa5adad5fbbe786f9
"Jeremy bounced. Is this good, bad, or neither?",2,d9817c12ce36a895955c17e41a3ca19fb4ef7d6ac1a96738ed1f5b0e31276adb39221dcdf83a2de7d505b5e15f4700cb346343c6be6b2499e77d4b33ee5d7ef2
"Jeremy bounced. Is this good, bad, or neither?",3,72b426ef8904e35634836e622d0aaad6a6b2c73aa2dbd83ccf462cab9657cd62fef4b142fa2f0db29d9e6590eb1df2f101ec960d304e331c270126aa221117fe
"Jeremy bounced. Is this good, bad, or neither?",3,9e3a61b80a05ca3a7c0ad9445b5049a5119f310f2ec0c8c2a9c320b1926a7af397dee82bd0f88577c42b6b0336fb46e77ed2e17b47f3166c818645fed5e98ceb
"Jeremy bounced. Is this good, bad, or neither?",3,9e3a61b80a05ca3a7c0ad9445b5049a5119f310f2ec0c8c2a9c320b1926a7af397dee82bd0f88577c42b6b0336fb46e77ed2e17b47f3166c818645fed5e98ceb
"Jeremy bounced. Is this good, bad, or neither?",0,e026cbf1f92ffcd63549ad9958fb5feeaed2d6b545677b809b1cafc3fc96349d27e28ef3da4919854a8b6d9ce320dc40b10f705c361b77a717ca1cc8d70dca1b
"Jeremy bounced. Is this good, bad, or neither?",2,ae71f9bdc55da0b8c3750381f7b461c628621bb341f0e02b43848a20de5aa785e174d7beb999f170b8bb7faab1935b89b977d5792d527da83e05755bab3f1c1f
"Jeremy bounced. Is this good, bad, or neither?",1,fd1957fc4ac94c9d517d3a1ebd22f70bd60231bd9afdf765049797f4d73442fadeba7eefb97518ec49c2375e20d096ac8dc87cc4b1f160eee060f18f36a38e7b
"Jeremy bounced. Is this good, bad, or neither?",2,c81641423f42117b9e23ce0d1b54fa51b8dff70b43f83e2d8e45fa4049d2fe317cd097aedfff514c9bef00b6bfd8055a536c96f75680ccc396f8a1e7ac9e3670
"Jeremy bounced. Is this good, bad, or neither?",2,a7bc9f901d081d40cd20cca41d5486dd48ba531211c6eea7e496c48bc59a99cb848f19b9e9604d48cd13cd66042c6d46f46c91ef21889e0a1dfe028077159213
"Jeremy bounced. Is this good, bad, or neither?",2,af2a334d706c1b69573a219943b69d932d7ab19af138b53be67e9aecd99fabaeb2a49b44537009c3139302d498eb4b5f83a8e2bb09d9b9cfb8869bd630c6c757
"Jeremy bounced. Is this good, bad, or neither?",2,864fd6d6c6f3b061f8849268ccbe26a8df17226567b244b0760c60bacd2b79ced559640987941fff3ebd0eb3949cea7885c56e467856a8919d1736aa402c8087
"Jeremy bounced. Is this good, bad, or neither?",2,512926c32568782467c043d9acacef7e1297fe10e47106d36f90ed38f8036a40a0f8a10a29ae7a31a0a93e5ad4fed44921abf919134ac7a8d096c8022d200715
"Jeremy bounced. Is this good, bad, or neither?",0,0a10cfbe96898e179a6989823d1b388e63fd11f48fd9bb0f118bf62cd7dfea5dd88a7b1d57cbd9606e10dc7e76ef4a52208822cd8d1992d9cbf67431ac76dda0
"Jeremy bounced. Is this good, bad, or neither?",2,0ef960d6d853ec615d67ffde3515107defa311e837571d6204b6bec828f4921b1d5eb9eaa05cc0576f1ede6d94934ca78dc6544d3eb51b738a3a901b2eda0a02
"Jeremy bounced. Is this good, bad, or neither?",3,8479e72ccee36b76ff2a45f02701312b2e93d874d9621045148a7508cf8793c9d87f7666c393d0adf7dedeb3d342e69f2ab65298fb8432de4cef814fafa2c398
"Jeremy bounced. Is this good, bad, or neither?",4,67605ef551558355dded5b2c592eaa62c3faa89926c8cf189038bd668d92c21e252da4637f36648f20d36fb77b32d20de68f2520f4ada00f291ec90862cd18cd
"Jeremy bounced. Is this good, bad, or neither?",2,46dad48e18672499c9eaffcfa952dbc553442fb77bff1c2f1408f32a502adb7f4cc7325f92b33fc5ab052335f95abbbb0da706ddc33c1b173d8591c28a1853c6
"Jeremy bounced. Is this good, bad, or neither?",0,ecd4e679eead2611d151b9fd3189f84afe28cc33a91195ad3d4d2aff8984c552a757f1c75d2fcb0c91595cbc47f1dd1a8d1fac98696b1c07848373cce0f4bd6b
"Jeremy bounced. Is this good, bad, or neither?",2,381831bc520825b4d8a6a52b301a2fa7bac3e224a40f3fe3e3167ad113d7a2b736e4c9c786f72ab4d639803bff71d14d979c3fc3834d2a1e55bdb6cce13cf1e0
"Jeremy bounced. Is this good, bad, or neither?",3,816865e7f71ecf83499b36b3396f60d61b3e99811a7fe05266f82ceeaa4a8a9fea2aa2bedd37dd93e0d21c2066097829f11f097a577ddbeef82013b14d4c02dc
"Jeremy bounced. Is this good, bad, or neither?",3,5f12e05c2e694ca4d0d50f5c90ffefa31fc5c326c5f6352ab6f2d69efda09898d7fa2e899476fb98164baf5559806eee7fc6f92a8cd7641d9b208f848e51b143
"Jeremy bounced. Is this good, bad, or neither?",3,5f12e05c2e694ca4d0d50f5c90ffefa31fc5c326c5f6352ab6f2d69efda09898d7fa2e899476fb98164baf5559806eee7fc6f92a8cd7641d9b208f848e51b143
"Jeremy bounced. Is this good, bad, or neither?",3,5f12e05c2e694ca4d0d50f5c90ffefa31fc5c326c5f6352ab6f2d69efda09898d7fa2e899476fb98164baf5559806eee7fc6f92a8cd7641d9b208f848e51b143
"Jeremy bounced. Is this good, bad, or neither?",3,5f12e05c2e694ca4d0d50f5c90ffefa31fc5c326c5f6352ab6f2d69efda09898d7fa2e899476fb98164baf5559806eee7fc6f92a8cd7641d9b208f848e51b143
"Jeremy bounced. Is this good, bad, or neither?",3,5f12e05c2e694ca4d0d50f5c90ffefa31fc5c326c5f6352ab6f2d69efda09898d7fa2e899476fb98164baf5559806eee7fc6f92a8cd7641d9b208f848e51b143
"Jeremy bounced. Is this good, bad, or neither?",3,5f12e05c2e694ca4d0d50f5c90ffefa31fc5c326c5f6352ab6f2d69efda09898d7fa2e899476fb98164baf5559806eee7fc6f92a8cd7641d9b208f848e51b143
"Jeremy bounced. Is this good, bad, or neither?",3,5f12e05c2e694ca4d0d50f5c90ffefa31fc5c326c5f6352ab6f2d69efda09898d7fa2e899476fb98164baf5559806eee7fc6f92a8cd7641d9b208f848e51b143
"Jeremy bounced. Is this good, bad, or neither?",3,5f12e05c2e694ca4d0d50f5c90ffefa31fc5c326c5f6352ab6f2d69efda09898d7fa2e899476fb98164baf5559806eee7fc6f92a8cd7641d9b208f848e51b143
"Jeremy bounced. Is this good, bad, or neither?",3,a5b6580ba34061bea59e84a182ac0aa40fb141e819a254c7468bc4093355d9343f47260e861a1282815cbc9c26d48245d9304c727e3eccf2fa6cd63d46d47ca4
"Jeremy bounced. Is this good, bad, or neither?",3,a5b6580ba34061bea59e84a182ac0aa40fb141e819a254c7468bc4093355d9343f47260e861a1282815cbc9c26d48245d9304c727e3eccf2fa6cd63d46d47ca4
"Jeremy bounced. Is this good, bad, or neither?",3,43e360c7cb31ee066473eacbec7f4d20f89d86b6e8fdef082c161365753e55dbe3aaa5642b02e70bebb4aa41c5c625c46ce788f873bacdae444c86721902b2e5
"Jeremy bounced. Is this good, bad, or neither?",3,43e360c7cb31ee066473eacbec7f4d20f89d86b6e8fdef082c161365753e55dbe3aaa5642b02e70bebb4aa41c5c625c46ce788f873bacdae444c86721902b2e5
"Jeremy bounced. Is this good, bad, or neither?",2,4fbeb7d2234bf57b68432b5549db7253699acd3412b701545012316ac7a942724c666a108bd786e63fe7af918c8050baa6ee858cc2f163e7eaa2e681d079c956
"Jeremy bounced. Is this good, bad, or neither?",2,759b3004a2e5f6aaf6fc26baed979fa101cecd51734d2fdc3e2521fb9d07dd4dafac5b43ccfae049e99bd30017a6727d0863a03a9172a9a167722bd56f799989
"Jeremy bounced. Is this good, bad, or neither?",2,347bd04604a50aa718d7d6ee1677b228c0a22ea5cd548723c497e2ef919aa02dcca0e7df6a0872a1f6f15f14b1dad953469a41411000a6a76c69306782a6b1c1
"Jeremy bounced. Is this good, bad, or neither?",2,e7071d603d000b9ae40280673e176247b9dfa7157b46021d3ae8666cec356b285366025414f5dae4b0134b61bb246b75d5bf85b6582298ebb0aef2ead4d9a641
"Jeremy bounced. Is this good, bad, or neither?",2,3ce1c91573b49e76ae6d43c669a24733296314c25baffa84d6693179025159771a3c7b297e83491615fff176965dd211be78675095cfe008040fcf254df14810
"Jeremy bounced. Is this good, bad, or neither?",2,0c1e43ef5b2f9488f1f2f5d3bb698140bc0a814ccd0552a4d3b9bc7f4899fbd7f112dda7c2abe51111db2cd9354f7ed05e8023ddc9513e6797cd881f2b3a9c2c
"Jeremy bounced. Is this good, bad, or neither?",2,b4a89e063c479339463fe8a3755a45afdb72640d55ae6f8499866bdce35aea79532c96c386d3e305abf960bd172306159148a5dedc70fc0c191353ec94176ac4
"Jeremy bounced. Is this good, bad, or neither?",4,819161aa2e764fd74ba60f02978d28b130e488d1f6ed613c48db286b68fe06ef24eeeb946d2af813bac598640b43342cd2b7a142eb31a6fff239faaae995f9f7
"Jeremy bounced. Is this good, bad, or neither?",4,383c31fc054e97f9de55280d21a99453c9af5fbbe7daaba525a7182937b3cceb4b752f8d974eff05463a1bce47dfeae49028a0ee352343fee2d36977a47e5ae8
"Jeremy bounced. Is this good, bad, or neither?",3,6577bc641c8d8bbe9c5a7b8e518f6dd2f688d2dd67cfc51fde40d3de2064007ccf04ab502e0ed980d318c585d56b8844cc81947c1a2f66643bfa8fa61a17b349
"Jeremy bounced. Is this good, bad, or neither?",3,6577bc641c8d8bbe9c5a7b8e518f6dd2f688d2dd67cfc51fde40d3de2064007ccf04ab502e0ed980d318c585d56b8844cc81947c1a2f66643bfa8fa61a17b349
"Jeremy bounced. Is this good, bad, or neither?",2,c2a35a9e3a4e63030e1b1467ea5c631724ace41aa9aab9a34f7eb3dea239079ba738fd4333a249f113a2423c2b23c3dc9bd99213f8a783d851527ee9cb86f84b
"Jeremy bounced. Is this good, bad, or neither?",4,b4a89e063c479339463fe8a3755a45afdb72640d55ae6f8499866bdce35aea79532c96c386d3e305abf960bd172306159148a5dedc70fc0c191353ec94176ac4
"Jeremy bounced. Is this good, bad, or neither?",2,bacafe2011f70b6dec7d7bb4d21f45b190174a23e7bd20c1c541961cbaccd15e745d72288a9ff24174f4ae90a310a7560c716409e0abf220a40ccb073191016b
"Jeremy bounced. Is this good, bad, or neither?",2,5d818587500e31ddd24f674f0d96e8036b1fbbdeff8f12716de7cf436031070adc160ac58c2058f70b7756b9758d4cc6c60cd86cb5fbac5b08e94434f347d5fc
"Jeremy bounced. Is this good, bad, or neither?",2,9d8ddb67f662349a7f7a7c5a32fee73c457fd70d135ae4be6f17a68418102d35693b26415c8fd8c7bd26a5b5032587ac08aefd055994f62fcb3e9a44d5cb51b0
"Jeremy bounced. Is this good, bad, or neither?",2,720bea532db6ed90a7bd855c056e2ccc32b0f2fe90eb490aa4d644afcc89620fb5f7c3bf4971d931a8aef22130fb8976bd9e83f534038e3c4e8421311520cb5d
"Jeremy bounced. Is this good, bad, or neither?",0,d6bbf40b7bd919dd7a4fe74fbcc3a8f9a3e86aa0ced6474cb3fabf619655ba3bfe47e1f6b5aa67de8e98e5649a0001837377568226cd148f89b154b19f6398aa
"Jeremy bounced. Is this good, bad, or neither?",2,ddaaf85b6ad92e5bd899125be0ee1d1e475cef85f10f7c86eb80b3e666aa2d27b9930efbf239779906809e3b49e9c42c65a28830cce2f7034e42c039095ac370
"Jeremy bounced. Is this good, bad, or neither?",2,a6e3e5fadd18f91cf3b98367d61e458d833818fc25f28852fb2a5782720689df8ca05957c6d0a4610da5640485522b4cbefe1b6672ef13ea57f87fb371760066
"Jeremy bounced. Is this good, bad, or neither?",2,875020ab790a2a14de66f1031c9dbe948349d58ca878a7ebdf2af07b04dd9e5ab4a699ced7cd5f0dd4086c9d36d349e952b257a9921f440dc5f764a7d05e7b7f
"Jeremy bounced. Is this good, bad, or neither?",2,9fc9d3de7ddb83580fc430d2d5c6ee47e775cabd5a982d7012deb44dbf1042f8b3db8ea6b2c4ee7b39f82b84b6b071d6968393ccc6520a6870f0883ccc441cf9
"Jeremy bounced. Is this good, bad, or neither?",2,609868e2cf6de58a506a6731afe55c53d93510e3a34e58705479846aa7ccef2469a0081dc7ad92826b214afccaa96b3202ca07a32e7d6afd795c5776ef5511be
"Jeremy bounced. Is this good, bad, or neither?",2,fdcb2b05d3a3aa943a3b3391fa64407435c94b0436e74263463c67e17e9953705d3526147878dc1d17eeb8a37311cc71097d78d69109654a83ffff02ede3aedb
"Jeremy bounced. Is this good, bad, or neither?",2,675a6154d38e7981c932127e219f374c1a8880011eab4c932106ac51314fb2868ba8fd7264f3bb40c5a96272dc019e5c9cf6c60011e9e9a04b73042a43219af2
"Jeremy bounced. Is this good, bad, or neither?",2,08ea6ea397537c84ac209f08bf3bec2c0ff500e94266cd17fa45d303b288126de192d25b7f3331a02fdcad8a68ce682fafad99f95ec45259d05ed65d6cd3505e
"Jeremy bounced. Is this good, bad, or neither?",2,aeaead0bad2cd8cd8e00067df1d0ddd61b9ba6afec23c08f5c84f413ad2e263545b447c45633570fb4f2c9b3d3be895bc1e474eb157f9f9b4ac62955a36370ef
"Jeremy bounced. Is this good, bad, or neither?",2,5ed859beff22cb7346bbd1bb520b4e40c6fd44610478d66cd057f78c274bfe00e0cfd791b7f2e25ec9b478d601bfa4906bcd9751e895cada9d7ddb10a781a789
"Jeremy bounced. Is this good, bad, or neither?",2,305f2f29687fda8e291e598686a4a089cc57c27d26fc2dea3e28544183df6fdd4ce792399dcac730c7aa7109f82a09aace9c895bf9596d257e113393be774056
"Jeremy bounced. Is this good, bad, or neither?",0,5413a412d4833ac9cfad22dce2c78e46f7ad8e3534e1741f4732e318296028ad444f1ba913fed810c1af16b369223c94f1ec5ea721d12e9753ad7d6d7ba1cf04
"Jeremy bounced. Is this good, bad, or neither?",3,a90072432d6a55bb28164c87f873f2022daa4faa2165d21c9f136bf9b7705b2f48584e73c94036570b9c361a10a61227087e14e8624fca45253259317eb7d5f5
