"The quol smashed the pord frimpy. Is this good, bad, or neither?",1,5d818587500e31ddd24f674f0d96e8036b1fbbdeff8f12716de7cf436031070adc160ac58c2058f70b7756b9758d4cc6c60cd86cb5fbac5b08e94434f347d5fc
"The quol smashed the pord frimpy. Is this good, bad, or neither?",2,ddaaf85b6ad92e5bd899125be0ee1d1e475cef85f10f7c86eb80b3e666aa2d27b9930efbf239779906809e3b49e9c42c65a28830cce2f7034e42c039095ac370
"The quol smashed the pord frimpy. Is this good, bad, or neither?",1,9fa34cf7fb8dea4ed69138f7a8cb88f05fb7799bd02a2c55f01ffabfc4886b672b779cf89dcf7bec0a19171745d3989b0613cd31bb6b5fe5ff447993c52886b4
"The quol smashed the pord frimpy. Is this good, bad, or neither?",1,d53a3853a701c0b2c6f59ecd154f16c81f913ab177c92d983b7f485f248ad8e3d2c917c73c67b45bfb8b646f5401330409d7a70104a1e853cdb47c89d1ab7624
"The quol smashed the pord frimpy. Is this good, bad, or neither?",1,720bea532db6ed90a7bd855c056e2ccc32b0f2fe90eb490aa4d644afcc89620fb5f7c3bf4971d931a8aef22130fb8976bd9e83f534038e3c4e8421311520cb5d
"The quol smashed the pord frimpy. Is this good, bad, or neither?",3,ab817809187642176d23d87932f87fb8cac29305dd69bd9c80c875e1418683baeb300a33a4ea303e96598aee641e58ffef6ed700b09ee5a77559e157e08d3320
"The quol smashed the pord frimpy. Is this good, bad, or neither?",1,949e348794c3e18581f7b55ecef851e605235f7c9cafa5c3b4d3e91106a8ea5851849ec1edc9cd0b8dbea5b628ab5f49181d508855ed809569304963bc219caa
"The quol smashed the pord frimpy. Is this good, bad, or neither?",4,e7fc88a02d1d3ddbeed6592fe81031d691bca12b7173b5acc9272ab868ac251f320f7bc4f9196f0c3e7d813c39eb751f159fc050df966b9028b7a911dc580099
"The quol smashed the pord frimpy. Is this good, bad, or neither?",1,6442579b5017c978ac48004d53b31163b3763f309e6f3e0581e04c2aea211970cc33a63b0462acee00808e5c684e9c9445efbc52c93000c0cc6f7f2e7cc3b7f1
"The quol smashed the pord frimpy. Is this good, bad, or neither?",1,675a6154d38e7981c932127e219f374c1a8880011eab4c932106ac51314fb2868ba8fd7264f3bb40c5a96272dc019e5c9cf6c60011e9e9a04b73042a43219af2
"The quol smashed the pord frimpy. Is this good, bad, or neither?",1,08ea6ea397537c84ac209f08bf3bec2c0ff500e94266cd17fa45d303b288126de192d25b7f3331a02fdcad8a68ce682fafad99f95ec45259d05ed65d6cd3505e
"The quol smashed the pord frimpy. Is this good, bad, or neither?",1,aeaead0bad2cd8cd8e00067df1d0ddd61b9ba6afec23c08f5c84f413ad2e263545b447c45633570fb4f2c9b3d3be895bc1e474eb157f9f9b4ac62955a36370ef
"The quol smashed the pord frimpy. Is this good, bad, or neither?",1,49dcb1441d32656cba9d11b70043b0c4d17712f6a50e97b4a50054f5ed2de2456bfaa95cc13099b9c4e56b3877f0d046a24ebafe7ba804cb86d78cf96ab92a6b
"The quol smashed the pord frimpy. Is this good, bad, or neither?",1,5ed859beff22cb7346bbd1bb520b4e40c6fd44610478d66cd057f78c274bfe00e0cfd791b7f2e25ec9b478d601bfa4906bcd9751e895cada9d7ddb10a781a789
"The quol smashed the pord frimpy. Is this good, bad, or neither?",1,305f2f29687fda8e291e598686a4a089cc57c27d26fc2dea3e28544183df6fdd4ce792399dcac730c7aa7109f82a09aace9c895bf9596d257e113393be774056
"The quol smashed the pord frimpy. Is this good, bad, or neither?",1,bf435862f195c67a1f256ccb9169191368ae588fb872199d27203a4469693a1c5ae8e6f67309f1b6a9f7f743502c9d97a86ecabd770d7b359ff352c26b625267
"The quol smashed the pord frimpy. Is this good, bad, or neither?",4,aeaead0bad2cd8cd8e00067df1d0ddd61b9ba6afec23c08f5c84f413ad2e263545b447c45633570fb4f2c9b3d3be895bc1e474eb157f9f9b4ac62955a36370ef
"The quol smashed the pord frimpy. Is this good, bad, or neither?",4,5b56973b88ed7b736ff3966dd5900790af0d217684769981e05a869fd0482e4eb627fbc83ef164acdcc19dfee68958f3688d63269cfdc0cd3c3ec35969e3c934
"The quol smashed the pord frimpy. Is this good, bad, or neither?",4,e54ad29a9f68ae9c74dc5e9abb66c78b733890c4ef372fa8bd1d2e6afae1ecbc89d14a67f04a7f84a234ebb95c6ba9ca0f6bd7adefde709159de2c4e7b247878
"The quol smashed the pord frimpy. Is this good, bad, or neither?",1,7f45982c84b0e62975c836530ebc5c20ed43e2aaac4d7f1c99d59dac30103bb0a2c7f0c3eb3c011244e3b29b96036757199959b8d8fbcc5cf995fee8253a05f5
"The quol smashed the pord frimpy. Is this good, bad, or neither?",4,c1c850a3ceae942c7b9e613ecea1c1f69711a609f9e98b77ce56b921620583f81b4c458a2e2280b8da308bbe84f90c4a495b9efd5d34b4f95c4f80d663ac2340
"The quol smashed the pord frimpy. Is this good, bad, or neither?",1,fb3ee4e72eb582b2b2920acd3ac5a4ed00149c2560bf0255b9bc8237d80cbadd7b353ced6ab5662f69dfe00d362575b7da94144cd2374866a682e39b17cc3c0d
"The quol smashed the pord frimpy. Is this good, bad, or neither?",1,948b1546ab23598285d2f77f39e4276a3a82e5d340295aa6760c9fc6f36b7437bb3a495a3ba88d447f3fe661e3d3dc2ca10e32b8b5eb3feb6619e793bc050ef2
"The quol smashed the pord frimpy. Is this good, bad, or neither?",1,28195e505193242d636c8cf88927e3353b64c1e9365b6d4fe6834ae467adb58cc661083c465cf575a9d4e6e6ea9daf2f4e5b8eaf892be186be05aa6b9c0519ec
"The quol smashed the pord frimpy. Is this good, bad, or neither?",1,caff777a2303da77340521ef83945a07684b2612ccb93a9fe1e9e6b34d4e52177c4499982e59c5f493664f3123c4c9738867850e7445f494ca6c22600eb6e56a
"The quol smashed the pord frimpy. Is this good, bad, or neither?",2,1bc716fd1a98f7bd26c9975e5116f4a46497329a34b7dfd92db8b35132edc51380a56798db2d8a50e9e282586d4658d3a423d435384e76296d0ec4909827bf59
"The quol smashed the pord frimpy. Is this good, bad, or neither?",1,1d6e25166a8b6d9220341b9777943f8f9207f6570ab6c8945b52785b99a53dd40db80a3523ca48d4ad74c2c963ef178eac19a5fa416cfaad04b8d26c00a35ca2
"The quol smashed the pord frimpy. Is this good, bad, or neither?",4,1ee5f16b8d48ba0369b3f8bacb01e5825aac05e86a3c5532ebcfa5b8fd51fc5aa6501fad91a2f6e6d2ba92274702248f6013e25573abd966b42d849e4901b3ea
"The quol smashed the pord frimpy. Is this good, bad, or neither?",1,a0c2bf77506ceec29061fe07d5fdab303f3e7651dd1f1ced94313ff3f82650f44730b0b9e0216688a148161413bafd0a860a6e1c3f76238aceb75be1d6bf6034
"The quol smashed the pord frimpy. Is this good, bad, or neither?",5,d34fb644041a1c63902958da956ff0e1873d4b97f931fd6f0d154e3517646f3272824a2eb36baa894e61fc2c0f5e0f8c85ec148333363adccc7dcea0f2e5bf1b
"The quol smashed the pord frimpy. Is this good, bad, or neither?",1,ecd6d46f017aad5e91768684441ddf03749be676c11a743c422d7c5e9cacf3807b4b70c0d2f90511c805e029dd0741e2dca9b6bce539b4aab910af63afa89136
"The quol smashed the pord frimpy. Is this good, bad, or neither?",1,5dc4a9833d4e836ac85467a1f1ad45d16de10610cb84e15e1bbecdb2ac32d30cff7b4b1a5c7ec4963715a4f57976baded6d3e5a09537c38c6c3042a4f907ea95
"The quol smashed the pord frimpy. Is this good, bad, or neither?",1,ecd12f5c7840150b6bf31f41cfe805fbb7f1e24d87bc7f9a7e4a26034d172ee611537c7e49e1951d513a1b63598bec45f4cf8d3fd4936ebe2747d7e8018937e5
"The quol smashed the pord frimpy. Is this good, bad, or neither?",1,79d1e9ddd47e7ce7e9b79d5cf0a129bc40266c682d754429271b543d4a9f1ae0745951873983a83a499b790bece0a94ef2d667c15198c41de7ac15df6808ea45
"The quol smashed the pord frimpy. Is this good, bad, or neither?",6,85dffd3880a0231348bc5a8bf04a016690d82e8da79607acf037f9b63a1f451d145ef5ffd87337dbd5ae4996b7c626313e9cc277141d909c832580646f2db4bf
"The quol smashed the pord frimpy. Is this good, bad, or neither?",4,782e5ab0c80da54f32c4d3eef0307cacec84ca395fce68a3c40ce72256a8c0baa1aaa4e62856020d103163415b50a781b29c044248aa96a85456e8cb14959779
"The quol smashed the pord frimpy. Is this good, bad, or neither?",1,e816c25d00cf8e91122f1f3b229f41f298ddc4b6b47fcb5da8174bd83a0554271a821e737026ea6a344d4c078e1b3f87611f069ea877657588a824cf10970207
"The quol smashed the pord frimpy. Is this good, bad, or neither?",1,e841321e059be2b94df077bd960087ffa88be0467ee0e277363923cedf4989e22abafe90ba8c04c13c440fcdba69e089667bf8128550fc7c0acf3fa0675d411d
"The quol smashed the pord frimpy. Is this good, bad, or neither?",4,fbc0e1c572df203dd612af32844ec5aa3fff919db9fef738c3276b9e44939ee74976d13ace46afcff7b98c8c0c567ba4aaeb9900c209a133aa7f57984188b75f
"The quol smashed the pord frimpy. Is this good, bad, or neither?",2,b0d9c2d8691f4316e1b262befbbf21875e54953ac94d958088ee327ec7e4b9a519987db3fe0c492b3c1bee962b256ef852d45c6ea7760841c756f9361c5f1c88
"The quol smashed the pord frimpy. Is this good, bad, or neither?",1,4c30b9bece8b54ff205c57f8f0d5ffbe6b3b1e8c99c6be939b93b012f1a8b20803619ca3368969ac4a82d591157b9785ffdf2be8ca1eef403efd7ef46d805589
"The quol smashed the pord frimpy. Is this good, bad, or neither?",2,8e5028dac50b1a97cb19f1a582ea969df1787494e1b13b35a5c4abe344e2ae1f2b398777172f3fb964141db7501d0117a9ea6358b0127c10bfe8e1907eb1782d
"The quol smashed the pord frimpy. Is this good, bad, or neither?",6,f634795fb7aca9be402c2173cf4b7a8637dfdf51d57d911dbff561044e0c2e9c599c3da857b0959bbb707f8eaa63238c1d496a38d7c1abc573c11dec0620f0bf
"The quol smashed the pord frimpy. Is this good, bad, or neither?",1,a7dc9d4f184ea86b7b6e6869b9a53887f9af455a7a9b3f701cc20ec18e11435fdb90d9c3eed921996792de6c1628b7a27219b25f044ffe99d725092cbc88af6e
"The quol smashed the pord frimpy. Is this good, bad, or neither?",1,ac3b1b10808f1753ec2a45dbfd111934fc15f5c99e8d54caa1b9fa0399c450a1b4489cb0037029cbf93008625f0c076357a1b8e164d2f400a000fbd6062f7bad
"The quol smashed the pord frimpy. Is this good, bad, or neither?",1,7975a1eff3588457a6978c651bad3ef2fb4371896fe8366d49e48771f54068380e5378da853cffbdc82dbf8480475b2d6152ff033a4041f6c4cf8fafbd57f2f4
"The quol smashed the pord frimpy. Is this good, bad, or neither?",4,6d77a30f4f74c33367b16fae8e7465942778558b15665a5f128d4c5375a2ddf2b577b36032c8f29409dd29319ab71921bac1dab5caf5f834c04c8d7ec19d517e
"The quol smashed the pord frimpy. Is this good, bad, or neither?",1,e026cbf1f92ffcd63549ad9958fb5feeaed2d6b545677b809b1cafc3fc96349d27e28ef3da4919854a8b6d9ce320dc40b10f705c361b77a717ca1cc8d70dca1b
"The quol smashed the pord frimpy. Is this good, bad, or neither?",4,4d597427355b386d236216b658b41a25aac3860f7378550307537b4946db382603a46f6844f584339f9befe3a84156eaef8351fc4d1fe1c0c652a66d08dbd42e
"The quol smashed the pord frimpy. Is this good, bad, or neither?",1,c3c45610090ecdde60e1dcc409af02ca28a4659f908ea0530544f11d27dbfc6bb633fd13eacf8543f487c6032bef0159d8118d809bff6b76ba0872262f08b325
"The quol smashed the pord frimpy. Is this good, bad, or neither?",4,f4d0a0e5543106139b65bc0db5d40eb416833c4fb456fd2272ffde8e7e162ac059f090e12c01686b7dd181834a59b46c179bb133739847ad085aeae5db86e3e7
"The quol smashed the pord frimpy. Is this good, bad, or neither?",6,f4d0a0e5543106139b65bc0db5d40eb416833c4fb456fd2272ffde8e7e162ac059f090e12c01686b7dd181834a59b46c179bb133739847ad085aeae5db86e3e7
"The quol smashed the pord frimpy. Is this good, bad, or neither?",2,af2a334d706c1b69573a219943b69d932d7ab19af138b53be67e9aecd99fabaeb2a49b44537009c3139302d498eb4b5f83a8e2bb09d9b9cfb8869bd630c6c757
"The quol smashed the pord frimpy. Is this good, bad, or neither?",2,864fd6d6c6f3b061f8849268ccbe26a8df17226567b244b0760c60bacd2b79ced559640987941fff3ebd0eb3949cea7885c56e467856a8919d1736aa402c8087
"The quol smashed the pord frimpy. Is this good, bad, or neither?",4,46c33fd60780994a3398c16523e9980535733005eb902b122fbc6eab8d256b3aea18e11b86f927ea45cc845cd307f78b4fa9951d84231da71fdf5e01bda6ba83
"The quol smashed the pord frimpy. Is this good, bad, or neither?",6,46c33fd60780994a3398c16523e9980535733005eb902b122fbc6eab8d256b3aea18e11b86f927ea45cc845cd307f78b4fa9951d84231da71fdf5e01bda6ba83
"The quol smashed the pord frimpy. Is this good, bad, or neither?",1,654abee2a34ea238dd9860279c2e4f4ca17d0745f80e3a567f1be1f8bc80565588c6bc0d387e4705bac6ad4b8113565bc4647802a60f9ec02d1e658cb7bd2331
"The quol smashed the pord frimpy. Is this good, bad, or neither?",3,5f12e05c2e694ca4d0d50f5c90ffefa31fc5c326c5f6352ab6f2d69efda09898d7fa2e899476fb98164baf5559806eee7fc6f92a8cd7641d9b208f848e51b143
"The quol smashed the pord frimpy. Is this good, bad, or neither?",3,5f12e05c2e694ca4d0d50f5c90ffefa31fc5c326c5f6352ab6f2d69efda09898d7fa2e899476fb98164baf5559806eee7fc6f92a8cd7641d9b208f848e51b143
"The quol smashed the pord frimpy. Is this good, bad, or neither?",3,5f12e05c2e694ca4d0d50f5c90ffefa31fc5c326c5f6352ab6f2d69efda09898d7fa2e899476fb98164baf5559806eee7fc6f92a8cd7641d9b208f848e51b143
"The quol smashed the pord frimpy. Is this good, bad, or neither?",3,5f12e05c2e694ca4d0d50f5c90ffefa31fc5c326c5f6352ab6f2d69efda09898d7fa2e899476fb98164baf5559806eee7fc6f92a8cd7641d9b208f848e51b143
"The quol smashed the pord frimpy. Is this good, bad, or neither?",3,5f12e05c2e694ca4d0d50f5c90ffefa31fc5c326c5f6352ab6f2d69efda09898d7fa2e899476fb98164baf5559806eee7fc6f92a8cd7641d9b208f848e51b143
"The quol smashed the pord frimpy. Is this good, bad, or neither?",3,5f12e05c2e694ca4d0d50f5c90ffefa31fc5c326c5f6352ab6f2d69efda09898d7fa2e899476fb98164baf5559806eee7fc6f92a8cd7641d9b208f848e51b143
"The quol smashed the pord frimpy. Is this good, bad, or neither?",3,5f12e05c2e694ca4d0d50f5c90ffefa31fc5c326c5f6352ab6f2d69efda09898d7fa2e899476fb98164baf5559806eee7fc6f92a8cd7641d9b208f848e51b143
"The quol smashed the pord frimpy. Is this good, bad, or neither?",3,5f12e05c2e694ca4d0d50f5c90ffefa31fc5c326c5f6352ab6f2d69efda09898d7fa2e899476fb98164baf5559806eee7fc6f92a8cd7641d9b208f848e51b143
"The quol smashed the pord frimpy. Is this good, bad, or neither?",1,8e176a02087f9e24f28cecc547e6af9ccde15fac091e68abb588add3fb554a717c252a2aaac52e4064dbce28f7e6171562dc7f7153512c5f0ca1ab24d41fc019
"The quol smashed the pord frimpy. Is this good, bad, or neither?",4,138a9e562648c08d9c6ac98bd7942309c86588c91b78686f82eddb4832388a43fb44b7f280b9e3eb49cbeec29242f2f10d71b467c9475a5b05c0bf3a4a00185a
"The quol smashed the pord frimpy. Is this good, bad, or neither?",1,c167d5ffc4654ccdea573f9e9175fd7a07bdb6c23798491ba96410580b234c37e4ed61694c28a4d4f53090060ec07723c0b643daa9e9373eccccd470084feadd
"The quol smashed the pord frimpy. Is this good, bad, or neither?",1,3ce1c91573b49e76ae6d43c669a24733296314c25baffa84d6693179025159771a3c7b297e83491615fff176965dd211be78675095cfe008040fcf254df14810
"The quol smashed the pord frimpy. Is this good, bad, or neither?",1,0c1e43ef5b2f9488f1f2f5d3bb698140bc0a814ccd0552a4d3b9bc7f4899fbd7f112dda7c2abe51111db2cd9354f7ed05e8023ddc9513e6797cd881f2b3a9c2c
"The quol smashed the pord frimpy. Is this good, bad, or neither?",1,522cba799e3ba91efa463736999b4bb16e49ef6800fbe6e828823422d30a16e88fca4f35d76885a886bf051f6c8b546b1f7b65ece8f52995b87be6a85d81d792
"The quol smashed the pord frimpy. Is this good, bad, or neither?",1,819161aa2e764fd74ba60f02978d28b130e488d1f6ed613c48db286b68fe06ef24eeeb946d2af813bac598640b43342cd2b7a142eb31a6fff239faaae995f9f7
"The quol smashed the pord frimpy. Is this good, bad, or neither?",3,383c31fc054e97f9de55280d21a99453c9af5fbbe7daaba525a7182937b3cceb4b752f8d974eff05463a1bce47dfeae49028a0ee352343fee2d36977a47e5ae8
"The quol smashed the pord frimpy. Is this good, bad, or neither?",3,383c31fc054e97f9de55280d21a99453c9af5fbbe7daaba525a7182937b3cceb4b752f8d974eff05463a1bce47dfeae49028a0ee352343fee2d36977a47e5ae8
"The quol smashed the pord frimpy. Is this good, bad, or neither?",4,3ce1c91573b49e76ae6d43c669a24733296314c25baffa84d6693179025159771a3c7b297e83491615fff176965dd211be78675095cfe008040fcf254df14810
"The quol smashed the pord frimpy. Is this good, bad, or neither?",1,b4a89e063c479339463fe8a3755a45afdb72640d55ae6f8499866bdce35aea79532c96c386d3e305abf960bd172306159148a5dedc70fc0c191353ec94176ac4
"The quol smashed the pord frimpy. Is this good, bad, or neither?",1,6b3de6293ba36b85ccd3d2760ea4eafe74b4d4ded4b3ca11c8acef38ff16673de8de3d697bb263bdfb7fce65a0ec93464a04dc9a6d3637e832535e106a74b51d
"The quol smashed the pord frimpy. Is this good, bad, or neither?",6,39649fd534105e77335f2de993055445be352f53a7573119fb38cf5c6343c9e3379a032be77fba20aceea57d5a4696fc635653d0a192beb97aa21ea5ed4c2a0d
"The quol smashed the pord frimpy. Is this good, bad, or neither?",1,5d818587500e31ddd24f674f0d96e8036b1fbbdeff8f12716de7cf436031070adc160ac58c2058f70b7756b9758d4cc6c60cd86cb5fbac5b08e94434f347d5fc
"The quol smashed the pord frimpy. Is this good, bad, or neither?",2,ddaaf85b6ad92e5bd899125be0ee1d1e475cef85f10f7c86eb80b3e666aa2d27b9930efbf239779906809e3b49e9c42c65a28830cce2f7034e42c039095ac370
"The quol smashed the pord frimpy. Is this good, bad, or neither?",1,9fa34cf7fb8dea4ed69138f7a8cb88f05fb7799bd02a2c55f01ffabfc4886b672b779cf89dcf7bec0a19171745d3989b0613cd31bb6b5fe5ff447993c52886b4
"The quol smashed the pord frimpy. Is this good, bad, or neither?",1,d53a3853a701c0b2c6f59ecd154f16c81f913ab177c92d983b7f485f248ad8e3d2c917c73c67b45bfb8b646f5401330409d7a70104a1e853cdb47c89d1ab7624
"The quol smashed the pord frimpy. Is this good, bad, or neither?",1,720bea532db6ed90a7bd855c056e2ccc32b0f2fe90eb490aa4d644afcc89620fb5f7c3bf4971d931a8aef22130fb8976bd9e83f534038e3c4e8421311520cb5d
"The quol smashed the pord frimpy. Is this good, bad, or neither?",3,ab817809187642176d23d87932f87fb8cac29305dd69bd9c80c875e1418683baeb300a33a4ea303e96598aee641e58ffef6ed700b09ee5a77559e157e08d3320
"The quol smashed the pord frimpy. Is this good, bad, or neither?",1,949e348794c3e18581f7b55ecef851e605235f7c9cafa5c3b4d3e91106a8ea5851849ec1edc9cd0b8dbea5b628ab5f49181d508855ed809569304963bc219caa
"The quol smashed the pord frimpy. Is this good, bad, or neither?",4,e7fc88a02d1d3ddbeed6592fe81031d691bca12b7173b5acc9272ab868ac251f320f7bc4f9196f0c3e7d813c39eb751f159fc050df966b9028b7a911dc580099
"The quol smashed the pord frimpy. Is this good, bad, or neither?",1,6442579b5017c978ac48004d53b31163b3763f309e6f3e0581e04c2aea211970cc33a63b0462acee00808e5c684e9c9445efbc52c93000c0cc6f7f2e7cc3b7f1
"The quol smashed the pord frimpy. Is this good, bad, or neither?",1,675a6154d38e7981c932127e219f374c1a8880011eab4c932106ac51314fb2868ba8fd7264f3bb40c5a96272dc019e5c9cf6c60011e9e9a04b73042a43219af2
"The quol smashed the pord frimpy. Is this good, bad, or neither?",1,08ea6ea397537c84ac209f08bf3bec2c0ff500e94266cd17fa45d303b288126de192d25b7f3331a02fdcad8a68ce682fafad99f95ec45259d05ed65d6cd3505e
"The quol smashed the pord frimpy. Is this good, bad, or neither?",1,aeaead0bad2cd8cd8e00067df1d0ddd61b9ba6afec23c08f5c84f413ad2e263545b447c45633570fb4f2c9b3d3be895bc1e474eb157f9f9b4ac62955a36370ef
"The quol smashed the pord frimpy. Is this good, bad, or neither?",1,49dcb1441d32656cba9d11b70043b0c4d17712f6a50e97b4a50054f5ed2de2456bfaa95cc13099b9c4e56b3877f0d046a24ebafe7ba804cb86d78cf96ab92a6b
"The quol smashed the pord frimpy. Is this good, bad, or neither?",1,5ed859beff22cb7346bbd1bb520b4e40c6fd44610478d66cd057f78c274bfe00e0cfd791b7f2e25ec9b478d601bfa4906bcd9751e895cada9d7ddb10a781a789
"The quol smashed the pord frimpy. Is this good, bad, or neither?",1,305f2f29687fda8e291e598686a4a089cc57c27d26fc2dea3e28544183df6fdd4ce792399dcac730c7aa7109f82a09aace9c895bf9596d257e113393be774056
"The quol smashed the pord frimpy. Is this good, bad, or neither?",1,bf435862f195c67a1f256ccb9169191368ae588fb872199d27203a4469693a1c5ae8e6f67309f1b6a9f7f743502c9d97a86ecabd770d7b359ff352c26b625267
"The quol smashed the pord frimpy. Is this good, bad, or neither?",5,d34fb644041a1c63902958da956ff0e1873d4b97f931fd6f0d154e3517646f3272824a2eb36baa894e61fc2c0f5e0f8c85ec148333363adccc7dcea0f2e5bf1b
