"Paul smashed at the gamp. Is this good, bad, or neither?",1,5d818587500e31ddd24f674f0d96e8036b1fbbdeff8f12716de7cf436031070adc160ac58c2058f70b7756b9758d4cc6c60cd86cb5fbac5b08e94434f347d5fc
"Paul smashed at the gamp. Is this good, bad, or neither?",1,305db2991f8bbe19a6cb543f13cac19330f6f7d5a07468ef28beed97abe3abdc6cf62f1f39b843ec032c22d18f1d1e81817e00614f9cb42dd2923a5d6411f502
"Paul smashed at the gamp. Is this good, bad, or neither?",2,9d8ddb67f662349a7f7a7c5a32fee73c457fd70d135ae4be6f17a68418102d35693b26415c8fd8c7bd26a5b5032587ac08aefd055994f62fcb3e9a44d5cb51b0
"Paul smashed at the gamp. Is this good, bad, or neither?",2,720bea532db6ed90a7bd855c056e2ccc32b0f2fe90eb490aa4d644afcc89620fb5f7c3bf4971d931a8aef22130fb8976bd9e83f534038e3c4e8421311520cb5d
"Paul smashed at the gamp. Is this good, bad, or neither?",1,ddaaf85b6ad92e5bd899125be0ee1d1e475cef85f10f7c86eb80b3e666aa2d27b9930efbf239779906809e3b49e9c42c65a28830cce2f7034e42c039095ac370
"Paul smashed at the gamp. Is this good, bad, or neither?",3,ab817809187642176d23d87932f87fb8cac29305dd69bd9c80c875e1418683baeb300a33a4ea303e96598aee641e58ffef6ed700b09ee5a77559e157e08d3320
"Paul smashed at the gamp. Is this good, bad, or neither?",1,949e348794c3e18581f7b55ecef851e605235f7c9cafa5c3b4d3e91106a8ea5851849ec1edc9cd0b8dbea5b628ab5f49181d508855ed809569304963bc219caa
"Paul smashed at the gamp. Is this good, bad, or neither?",3,3002cf418cc46b25d43f1ad9159d09eef6460fa2f207739147fbcaed98358862cf97ed858880b6f5b593a4b325c7408efc4cb1d987aff392dd201897c8177d9d
"Paul smashed at the gamp. Is this good, bad, or neither?",1,6442579b5017c978ac48004d53b31163b3763f309e6f3e0581e04c2aea211970cc33a63b0462acee00808e5c684e9c9445efbc52c93000c0cc6f7f2e7cc3b7f1
"Paul smashed at the gamp. Is this good, bad, or neither?",1,609868e2cf6de58a506a6731afe55c53d93510e3a34e58705479846aa7ccef2469a0081dc7ad92826b214afccaa96b3202ca07a32e7d6afd795c5776ef5511be
"Paul smashed at the gamp. Is this good, bad, or neither?",1,2531206edef94c461161d27b4fbc0c202c370b9d300bccd02239c652d3a45689081304d986f9604d6bfc06f4bba449dba5891d94061d04cc9f8f152b24e6ff67
"Paul smashed at the gamp. Is this good, bad, or neither?",1,305f2f29687fda8e291e598686a4a089cc57c27d26fc2dea3e28544183df6fdd4ce792399dcac730c7aa7109f82a09aace9c895bf9596d257e113393be774056
"Paul smashed at the gamp. Is this good, bad, or neither?",1,08ea6ea397537c84ac209f08bf3bec2c0ff500e94266cd17fa45d303b288126de192d25b7f3331a02fdcad8a68ce682fafad99f95ec45259d05ed65d6cd3505e
"Paul smashed at the gamp. Is this good, bad, or neither?",1,aeaead0bad2cd8cd8e00067df1d0ddd61b9ba6afec23c08f5c84f413ad2e263545b447c45633570fb4f2c9b3d3be895bc1e474eb157f9f9b4ac62955a36370ef
"Paul smashed at the gamp. Is this good, bad, or neither?",1,5ed859beff22cb7346bbd1bb520b4e40c6fd44610478d66cd057f78c274bfe00e0cfd791b7f2e25ec9b478d601bfa4906bcd9751e895cada9d7ddb10a781a789
"Paul smashed at the gamp. Is this good, bad, or neither?",3,ac159058713bb786536395d849dcdcf98a8ffa433c0df23b7bc3208f1c1ce017c9e666811788def29dda032e13b5e11080c305f9a67c97282c112192adb437e0
"Paul smashed at the gamp. Is this good, bad, or neither?",4,5b56973b88ed7b736ff3966dd5900790af0d217684769981e05a869fd0482e4eb627fbc83ef164acdcc19dfee68958f3688d63269cfdc0cd3c3ec35969e3c934
"Paul smashed at the gamp. Is this good, bad, or neither?",1,7f45982c84b0e62975c836530ebc5c20ed43e2aaac4d7f1c99d59dac30103bb0a2c7f0c3eb3c011244e3b29b96036757199959b8d8fbcc5cf995fee8253a05f5
"Paul smashed at the gamp. Is this good, bad, or neither?",4,c1c850a3ceae942c7b9e613ecea1c1f69711a609f9e98b77ce56b921620583f81b4c458a2e2280b8da308bbe84f90c4a495b9efd5d34b4f95c4f80d663ac2340
"Paul smashed at the gamp. Is this good, bad, or neither?",1,87ef026014587c59d56fa4c2071e6bb9d3bed56b2c3afb54b24d4cc832295bd62bbfb4a581d1881c6fcb84d2fb80ee66fccefc5a7457a6dc6289793ff7e7d0dc
"Paul smashed at the gamp. Is this good, bad, or neither?",1,d52d0f79310a4a1585de2ba281cae55d8bf4f66ee89a3b0afe5bec86ac64f3fbcf4ac04acc90a017d6f66a1259e7c33c370048fe26771c06104f79c7f0e7daea
"Paul smashed at the gamp. Is this good, bad, or neither?",1,fb3ee4e72eb582b2b2920acd3ac5a4ed00149c2560bf0255b9bc8237d80cbadd7b353ced6ab5662f69dfe00d362575b7da94144cd2374866a682e39b17cc3c0d
"Paul smashed at the gamp. Is this good, bad, or neither?",1,2cb44008208d14c82cf8868fc09b67e721d51c1b25835a53ce5c75d4338141e971e3aad3228e19b641ecd4278d4576dc2f1af7702b6c5731e30d7d54f5a829a5
"Paul smashed at the gamp. Is this good, bad, or neither?",1,050d3354591569cb7c302cb71e354fb23344a0e94f1750835adf74ba4c3a058dfe2731e2dd38d8d2f4cb80955424093ff619aa731c9d051ded0eee37a2630400
"Paul smashed at the gamp. Is this good, bad, or neither?",1,4fc0018974e48c2a689f8f1adf0eddb7b9b2b618943904eebf76868f893e99c087a24304db0c91a10a1a8fc74ccf5891c047f0c2636db1ee14842df50a3f1228
"Paul smashed at the gamp. Is this good, bad, or neither?",4,28195e505193242d636c8cf88927e3353b64c1e9365b6d4fe6834ae467adb58cc661083c465cf575a9d4e6e6ea9daf2f4e5b8eaf892be186be05aa6b9c0519ec
"Paul smashed at the gamp. Is this good, bad, or neither?",1,caff777a2303da77340521ef83945a07684b2612ccb93a9fe1e9e6b34d4e52177c4499982e59c5f493664f3123c4c9738867850e7445f494ca6c22600eb6e56a
"Paul smashed at the gamp. Is this good, bad, or neither?",1,2cbebb6c7482f05a91d4b2097fbb4ef889d97402fa993b5cfe116d6a955794727c611cd785559723bc8e0c5e96de7ef5e4a0b301d0c73b6b9bbce647ff7d82d4
"Paul smashed at the gamp. Is this good, bad, or neither?",1,ecd12f5c7840150b6bf31f41cfe805fbb7f1e24d87bc7f9a7e4a26034d172ee611537c7e49e1951d513a1b63598bec45f4cf8d3fd4936ebe2747d7e8018937e5
"Paul smashed at the gamp. Is this good, bad, or neither?",1,ef839af5258330256a11b6f1c4860d8f1f6d40416c75faaf3c9d02c664df7a5a7ec2813838e46a328b0eb5692cedfe252043a67dfc8245b8070e086e35a08f9c
"Paul smashed at the gamp. Is this good, bad, or neither?",0,ed956aa7b693923b4bbdca90bb8c9c7505a9b43b440a32d8e1732ec0744525e4b8029f98d2e191a87a21fd37fedcce4d0d0ecd73edb5a6bc98a77369444c8b50
"Paul smashed at the gamp. Is this good, bad, or neither?",4,e0f955eb160411861b9dca3fb34740a97aa8489ae4545726c843bfa8e5bd2c362684438e79385dabb01f9f8969be876d5ce3226675c01e625073de59d43d6b76
"Paul smashed at the gamp. Is this good, bad, or neither?",5,7711f4e120534a76964d969a162247ca8ed86caca58256f9969be64bccf760f3bcf70d1fce422f2fabd16a266d02d399c3be5441c4694e4dc8ffdd1c91fa1f4c
"Paul smashed at the gamp. Is this good, bad, or neither?",4,50382e84cff15ff279d039319537be609c34e7eab94add3958257e22f73035e78293431d69b5d6328a9568c7554ac16f8ab7fa01e06221ed1536637cd148de0b
"Paul smashed at the gamp. Is this good, bad, or neither?",6,161a138b9690b3cad9b0fa0f2ea0aa1110f8d1b3e9bf884df27fb7b09322d459b01d61c7e4a7eac9655ca13269cf538abcd41551ff7e364bc217ed2a5f14aac8
"Paul smashed at the gamp. Is this good, bad, or neither?",5,4c9b0ad46480744731184d098d1109a987dce8a3b7a26048127be01a71b48623cb9423a61076a2e95ef013f30af27e5bb4ff5a3e6218421dfa0b8b8b2eac2568
"Paul smashed at the gamp. Is this good, bad, or neither?",5,310ecd1f768bb6b808211c2ba69dd45f30d0a6cf6102cfedebb1e43e2b8e0b815c2a16b92fadd9556f3a20e29e8ea30c2c5e378e47b0705dd034ca4ee338ce60
"Paul smashed at the gamp. Is this good, bad, or neither?",1,14f23fcc167988dce6e55bce50b355428b82f247209c572f82715aac881afcb8162ebc7b557e1438dd2f69b3e915e6bcd037041df1904f0c6fe886c4637565f6
"Paul smashed at the gamp. Is this good, bad, or neither?",1,2025068238268e1779a670f1019089d23dfd0843e8c13d47fb57d427c51cba12450779bcb1fe2ee8e8ca84de660b4aec6893ea28a6dcd2d003c5eb45bb12508a
"Paul smashed at the gamp. Is this good, bad, or neither?",3,2e08ea7a396b5dc2fc6ff518b56da9298cfd603a2f489e5145c092eb9870a320d2bfa8fd161fe5975a370e19055991d826fd24dea216f722fe25dbbf75088cd3
"Paul smashed at the gamp. Is this good, bad, or neither?",1,96e0026396a2bf2c04df0ab1dc3bf52cf42197f54aedbd0ebf8e5e49cb291c318f02fcbaaf89dead07811fcef7e875758410e4cc8cc4f51bb7dfa7cfc3d03284
"Paul smashed at the gamp. Is this good, bad, or neither?",1,912ea83cdfc5cf06bd44077cb51de35e88b6654f5af0eb7f6f78d434377245fc012b228a5334411a8d988514eee1d5ac22fb8453f995095120ccaea0e01fac17
"Paul smashed at the gamp. Is this good, bad, or neither?",1,9b2c7999e14c3454c4040c57630dd6dd9ee2554ec359ef309fbdfbc93ef663c89d8a48198c56c7bd2523781745f3782b5a9a2f990acbac42622758d8f239c95c
"Paul smashed at the gamp. Is this good, bad, or neither?",4,a7dc9d4f184ea86b7b6e6869b9a53887f9af455a7a9b3f701cc20ec18e11435fdb90d9c3eed921996792de6c1628b7a27219b25f044ffe99d725092cbc88af6e
"Paul smashed at the gamp. Is this good, bad, or neither?",1,5a23402dc15233be68d0f6f87dcdce887a714a5507871ff7b39191fbd84ad58479f2c95fb420e292d80b74051e38f9f54e2670ad4b963f05e83c6224babbf504
"Paul smashed at the gamp. Is this good, bad, or neither?",4,cec74023ec011c05d418b07a92d9a9710762291380c8199164ef32a58d02dc79876bc9268c0910efe2625133d745da1e3445b3459271ac889dcc3494c32e5ae9
"Paul smashed at the gamp. Is this good, bad, or neither?",1,f9fd05209933417c96ecb73a3ca6182d918094324bc1a1c90ad3eecf690d5206649a6bef945da828258499b098ebc96447a67d3d6b391b9374c9ad948a911b8c
"Paul smashed at the gamp. Is this good, bad, or neither?",5,361e0570e826a3d029e418acfa187b1e66866890f77919b8c5f71e3c1853be0958d7293a48fd1a6adb4462b37cf2b896d9aa8d1358477d42d2f429a5dfbdbae0
"Paul smashed at the gamp. Is this good, bad, or neither?",1,e026cbf1f92ffcd63549ad9958fb5feeaed2d6b545677b809b1cafc3fc96349d27e28ef3da4919854a8b6d9ce320dc40b10f705c361b77a717ca1cc8d70dca1b
"Paul smashed at the gamp. Is this good, bad, or neither?",3,dbd17fa36700ca2741e6535fab4a709611c4afef3ca1568b7b615d5c3949e04d18e377916954680e075bb2165cc7c333aaacc829ab69dec266c02ba5e229eb02
"Paul smashed at the gamp. Is this good, bad, or neither?",3,840b09693e92e05e2dccddf3cd9843bbf39fa26d52f79a5d93fd75d4376c2ebb7f3df1d93ee27aa468aa33da0c520bb786f5d68beddf22bf8517c95bc3e2c4c4
"Paul smashed at the gamp. Is this good, bad, or neither?",3,840b09693e92e05e2dccddf3cd9843bbf39fa26d52f79a5d93fd75d4376c2ebb7f3df1d93ee27aa468aa33da0c520bb786f5d68beddf22bf8517c95bc3e2c4c4
"Paul smashed at the gamp. Is this good, bad, or neither?",4,f4d0a0e5543106139b65bc0db5d40eb416833c4fb456fd2272ffde8e7e162ac059f090e12c01686b7dd181834a59b46c179bb133739847ad085aeae5db86e3e7
"Paul smashed at the gamp. Is this good, bad, or neither?",6,f4d0a0e5543106139b65bc0db5d40eb416833c4fb456fd2272ffde8e7e162ac059f090e12c01686b7dd181834a59b46c179bb133739847ad085aeae5db86e3e7
"Paul smashed at the gamp. Is this good, bad, or neither?",1,fc276da07f1bcaad013b658bfbd8218c71b31f63527beff26bd8172f1008b89238ebac7dab084468bf193237ac70dce969185e9fe99387bbeebe0533ff9342ec
"Paul smashed at the gamp. Is this good, bad, or neither?",4,9fe2a1f263a2315f047e38de04f06545dcb36aa8e9bd3e464cad9531498eadca17e2a9e48ae2d7642f5ad51b833626821016bdd84ab6e6df4c31e50d11b22ced
"Paul smashed at the gamp. Is this good, bad, or neither?",5,9fe2a1f263a2315f047e38de04f06545dcb36aa8e9bd3e464cad9531498eadca17e2a9e48ae2d7642f5ad51b833626821016bdd84ab6e6df4c31e50d11b22ced
"Paul smashed at the gamp. Is this good, bad, or neither?",6,9fe2a1f263a2315f047e38de04f06545dcb36aa8e9bd3e464cad9531498eadca17e2a9e48ae2d7642f5ad51b833626821016bdd84ab6e6df4c31e50d11b22ced
"Paul smashed at the gamp. Is this good, bad, or neither?",3,e4340041a84d5f58d27a71f4b2e549d7cba7112b07b0cf98b9af1f98f1c1deb16eac577ec01eeb2677ae98cf7dea090466c277041a1176f96e1fb298b91d48c4
"Paul smashed at the gamp. Is this good, bad, or neither?",3,e4340041a84d5f58d27a71f4b2e549d7cba7112b07b0cf98b9af1f98f1c1deb16eac577ec01eeb2677ae98cf7dea090466c277041a1176f96e1fb298b91d48c4
"Paul smashed at the gamp. Is this good, bad, or neither?",1,9a96358df32a7fd5babf35574af4197f094772f1fc2d7d155f9944f81dd0578d61e6f6419c952e751c20755a7bac7cbe48e465094aeb54c472492173dc846828
"Paul smashed at the gamp. Is this good, bad, or neither?",1,f152fccfa1b4275911c3d51209757f8f47524d9e0dac927fa3cf085a412f2995c54db4378764d73c2aeccf796c683eda37b79db7a22b6c9fb80818fa2a0358f7
"Paul smashed at the gamp. Is this good, bad, or neither?",1,cdc82decc385f7e309df95e76665c1a374f59a26484512f2db2ccd400075c0e7168901954aff2916ae1ce00679770656b6a59e655a4e26263c3a91889d44fc1a
"Paul smashed at the gamp. Is this good, bad, or neither?",4,864fd6d6c6f3b061f8849268ccbe26a8df17226567b244b0760c60bacd2b79ced559640987941fff3ebd0eb3949cea7885c56e467856a8919d1736aa402c8087
"Paul smashed at the gamp. Is this good, bad, or neither?",1,0a10cfbe96898e179a6989823d1b388e63fd11f48fd9bb0f118bf62cd7dfea5dd88a7b1d57cbd9606e10dc7e76ef4a52208822cd8d1992d9cbf67431ac76dda0
"Paul smashed at the gamp. Is this good, bad, or neither?",1,68b5491d12ab5f1954fc55da02c4929299b124158c25baef918d949ff441cc2f05597d96a46c7a4fd94e64cad10bc7a35d0365836ea6f6ec8eeb8b15dc76f062
"Paul smashed at the gamp. Is this good, bad, or neither?",2,dc1573fdf940f9fb09d57b0011d03c1c44d31b200b999056f3ba7a66f968fff14e39bb77a6b95cde426287b90f173b03c2bb7c514497e44276b0f589563d5728
"Paul smashed at the gamp. Is this good, bad, or neither?",1,5b7ceefc0e2dd6c723feb26877b9d0582984ba27b4a15335b3850b7abe49c2b3330ad3f86b5f2c63e25a82ccd0b42c2d5df899162a3a9bf283de8c9e8b871927
"Paul smashed at the gamp. Is this good, bad, or neither?",4,cf3acd50e78817e886b7c9033a67b96058d6010e56219bec7c8a89a181b4780a4af248cec6fb536ffa254d902e101056ae1801999191a13961a5516fc9cd9a34
"Paul smashed at the gamp. Is this good, bad, or neither?",3,5f12e05c2e694ca4d0d50f5c90ffefa31fc5c326c5f6352ab6f2d69efda09898d7fa2e899476fb98164baf5559806eee7fc6f92a8cd7641d9b208f848e51b143
"Paul smashed at the gamp. Is this good, bad, or neither?",3,5f12e05c2e694ca4d0d50f5c90ffefa31fc5c326c5f6352ab6f2d69efda09898d7fa2e899476fb98164baf5559806eee7fc6f92a8cd7641d9b208f848e51b143
"Paul smashed at the gamp. Is this good, bad, or neither?",3,5f12e05c2e694ca4d0d50f5c90ffefa31fc5c326c5f6352ab6f2d69efda09898d7fa2e899476fb98164baf5559806eee7fc6f92a8cd7641d9b208f848e51b143
"Paul smashed at the gamp. Is this good, bad, or neither?",3,5f12e05c2e694ca4d0d50f5c90ffefa31fc5c326c5f6352ab6f2d69efda09898d7fa2e899476fb98164baf5559806eee7fc6f92a8cd7641d9b208f848e51b143
"Paul smashed at the gamp. Is this good, bad, or neither?",3,5f12e05c2e694ca4d0d50f5c90ffefa31fc5c326c5f6352ab6f2d69efda09898d7fa2e899476fb98164baf5559806eee7fc6f92a8cd7641d9b208f848e51b143
"Paul smashed at the gamp. Is this good, bad, or neither?",3,5f12e05c2e694ca4d0d50f5c90ffefa31fc5c326c5f6352ab6f2d69efda09898d7fa2e899476fb98164baf5559806eee7fc6f92a8cd7641d9b208f848e51b143
"Paul smashed at the gamp. Is this good, bad, or neither?",3,5f12e05c2e694ca4d0d50f5c90ffefa31fc5c326c5f6352ab6f2d69efda09898d7fa2e899476fb98164baf5559806eee7fc6f92a8cd7641d9b208f848e51b143
"Paul smashed at the gamp. Is this good, bad, or neither?",3,5f12e05c2e694ca4d0d50f5c90ffefa31fc5c326c5f6352ab6f2d69efda09898d7fa2e899476fb98164baf5559806eee7fc6f92a8cd7641d9b208f848e51b143
"Paul smashed at the gamp. Is this good, bad, or neither?",4,419fe791f6dc2a4dec37224d431be16d433d3dfc0e1f3943c87a3bb09bc7b9a53724901da070023193b59b566c39c02eff80451b22ede98e279ca650097751af
"Paul smashed at the gamp. Is this good, bad, or neither?",1,936d0ed6b945163efa98a12f9ada206cf38e906fb0e64d7b871384882890f5300a21af0feaa11ef5e210e1be97add27020da2cfbdfd03955f7991a131402dcea
"Paul smashed at the gamp. Is this good, bad, or neither?",1,b6f2e1344ebdd16df984a569b364694e74d76b32cc3d59d2dffcc4d11ac6f38e551c9c180de2ef82243330ba19068b623902e0a25624aa0e128b8c46b7d589cb
"Paul smashed at the gamp. Is this good, bad, or neither?",2,3ce1c91573b49e76ae6d43c669a24733296314c25baffa84d6693179025159771a3c7b297e83491615fff176965dd211be78675095cfe008040fcf254df14810
"Paul smashed at the gamp. Is this good, bad, or neither?",1,819161aa2e764fd74ba60f02978d28b130e488d1f6ed613c48db286b68fe06ef24eeeb946d2af813bac598640b43342cd2b7a142eb31a6fff239faaae995f9f7
"Paul smashed at the gamp. Is this good, bad, or neither?",6,1d816d08028786c31e77f22cc46b2bf352c4ee1cdbd196a5040025077f68435a69a5bfb923a51ff5f182d02b5a4877f9b6d643837822b8d1270566ab2e159c3f
"Paul smashed at the gamp. Is this good, bad, or neither?",1,50aa0d086dd851849cd5a0886f2973d2a3890a8c58a57cda4dcc57a3e2c937d12bfb291a2b527534fdf3492d785729e551a00efe81e3c3ecc0a90205774f05bd
"Paul smashed at the gamp. Is this good, bad, or neither?",2,c2a35a9e3a4e63030e1b1467ea5c631724ace41aa9aab9a34f7eb3dea239079ba738fd4333a249f113a2423c2b23c3dc9bd99213f8a783d851527ee9cb86f84b
"Paul smashed at the gamp. Is this good, bad, or neither?",1,1f8a6b22caaddfbb343721e8e04400288709447dcc8d0f1b6c2a090dde0f46f10b7ee7275599d94eae76c6354d88ba874f6349019ffa4b14642676ff0c017ad8
"Paul smashed at the gamp. Is this good, bad, or neither?",1,a04441347c7a31798c34e1a297af024142381cfd06d1679184d6b0cf7ea8eda83518c819aaa67808a7238790be4a54c02324be8e270298ac207e0fa103ba2135
"Paul smashed at the gamp. Is this good, bad, or neither?",5,93c7036b79a7067a106c2cd4223276dd446c2c72895d509f80be5d6eee41883385bb69360c7da00f9264787a1a356ab846a84ec970d0be5d899ed01e316f758f
"Paul smashed at the gamp. Is this good, bad, or neither?",5,db5894e7704bd3e18456183db64f0bf6282068716ecee460b6eda88c8e306dd754810796ca807ac7eb2eac0c97e611c05ab6908ff5a7e26c64e444edcc05a200
"Paul smashed at the gamp. Is this good, bad, or neither?",4,7e0a26bcfdd51309d32c52c791b76fc90c64fdc073e1e8e81df697eb7a1b51437906a5d757c266bdd8a17b5a55501a565c6319e93b9230e5d7cfd6049241c781
"Paul smashed at the gamp. Is this good, bad, or neither?",1,531c667d4f67a26af45a5bfab6e20324aaa1acbcdbd2ac94f656bed1a4a854ed782760da32b1894db093d87f786a06b36748c4859a7d63a8ee897aa837aedc5e
"Paul smashed at the gamp. Is this good, bad, or neither?",3,83058b619fa34908cbcb0f305d6080a42dfd12ee23edc4f76a88c85f853e93408db80ef64b78ff4450c239379212f2f0312b5e9a2af096cedabf9e2748af2e6b
"Paul smashed at the gamp. Is this good, bad, or neither?",3,83058b619fa34908cbcb0f305d6080a42dfd12ee23edc4f76a88c85f853e93408db80ef64b78ff4450c239379212f2f0312b5e9a2af096cedabf9e2748af2e6b
"Paul smashed at the gamp. Is this good, bad, or neither?",3,83058b619fa34908cbcb0f305d6080a42dfd12ee23edc4f76a88c85f853e93408db80ef64b78ff4450c239379212f2f0312b5e9a2af096cedabf9e2748af2e6b
"Paul smashed at the gamp. Is this good, bad, or neither?",2,0ca87715be5df199ebada6867f7e0e75295c7ededa0fbd84664b9240578d42457d55abd66e8d40f24cae8c5c5c0a506eae9b839711a908d418039a14a0ca3135
"Paul smashed at the gamp. Is this good, bad, or neither?",5,0ca87715be5df199ebada6867f7e0e75295c7ededa0fbd84664b9240578d42457d55abd66e8d40f24cae8c5c5c0a506eae9b839711a908d418039a14a0ca3135
"Paul smashed at the gamp. Is this good, bad, or neither?",2,fa397b6498f37b2486c93b942859ab6761684709953bb9b06336fe536b3e6c2d0043a688e1a403ddc83f90029b00ccbc62362baf6394859c6c7acc269ea368b5
"Paul smashed at the gamp. Is this good, bad, or neither?",1,5d818587500e31ddd24f674f0d96e8036b1fbbdeff8f12716de7cf436031070adc160ac58c2058f70b7756b9758d4cc6c60cd86cb5fbac5b08e94434f347d5fc
"Paul smashed at the gamp. Is this good, bad, or neither?",1,305db2991f8bbe19a6cb543f13cac19330f6f7d5a07468ef28beed97abe3abdc6cf62f1f39b843ec032c22d18f1d1e81817e00614f9cb42dd2923a5d6411f502
"Paul smashed at the gamp. Is this good, bad, or neither?",2,9d8ddb67f662349a7f7a7c5a32fee73c457fd70d135ae4be6f17a68418102d35693b26415c8fd8c7bd26a5b5032587ac08aefd055994f62fcb3e9a44d5cb51b0
"Paul smashed at the gamp. Is this good, bad, or neither?",2,720bea532db6ed90a7bd855c056e2ccc32b0f2fe90eb490aa4d644afcc89620fb5f7c3bf4971d931a8aef22130fb8976bd9e83f534038e3c4e8421311520cb5d
"Paul smashed at the gamp. Is this good, bad, or neither?",1,ddaaf85b6ad92e5bd899125be0ee1d1e475cef85f10f7c86eb80b3e666aa2d27b9930efbf239779906809e3b49e9c42c65a28830cce2f7034e42c039095ac370
"Paul smashed at the gamp. Is this good, bad, or neither?",3,ab817809187642176d23d87932f87fb8cac29305dd69bd9c80c875e1418683baeb300a33a4ea303e96598aee641e58ffef6ed700b09ee5a77559e157e08d3320
"Paul smashed at the gamp. Is this good, bad, or neither?",1,949e348794c3e18581f7b55ecef851e605235f7c9cafa5c3b4d3e91106a8ea5851849ec1edc9cd0b8dbea5b628ab5f49181d508855ed809569304963bc219caa
"Paul smashed at the gamp. Is this good, bad, or neither?",3,3002cf418cc46b25d43f1ad9159d09eef6460fa2f207739147fbcaed98358862cf97ed858880b6f5b593a4b325c7408efc4cb1d987aff392dd201897c8177d9d
"Paul smashed at the gamp. Is this good, bad, or neither?",1,6442579b5017c978ac48004d53b31163b3763f309e6f3e0581e04c2aea211970cc33a63b0462acee00808e5c684e9c9445efbc52c93000c0cc6f7f2e7cc3b7f1
"Paul smashed at the gamp. Is this good, bad, or neither?",1,609868e2cf6de58a506a6731afe55c53d93510e3a34e58705479846aa7ccef2469a0081dc7ad92826b214afccaa96b3202ca07a32e7d6afd795c5776ef5511be
"Paul smashed at the gamp. Is this good, bad, or neither?",1,2531206edef94c461161d27b4fbc0c202c370b9d300bccd02239c652d3a45689081304d986f9604d6bfc06f4bba449dba5891d94061d04cc9f8f152b24e6ff67
"Paul smashed at the gamp. Is this good, bad, or neither?",1,305f2f29687fda8e291e598686a4a089cc57c27d26fc2dea3e28544183df6fdd4ce792399dcac730c7aa7109f82a09aace9c895bf9596d257e113393be774056
"Paul smashed at the gamp. Is this good, bad, or neither?",1,08ea6ea397537c84ac209f08bf3bec2c0ff500e94266cd17fa45d303b288126de192d25b7f3331a02fdcad8a68ce682fafad99f95ec45259d05ed65d6cd3505e
"Paul smashed at the gamp. Is this good, bad, or neither?",1,aeaead0bad2cd8cd8e00067df1d0ddd61b9ba6afec23c08f5c84f413ad2e263545b447c45633570fb4f2c9b3d3be895bc1e474eb157f9f9b4ac62955a36370ef
"Paul smashed at the gamp. Is this good, bad, or neither?",1,5ed859beff22cb7346bbd1bb520b4e40c6fd44610478d66cd057f78c274bfe00e0cfd791b7f2e25ec9b478d601bfa4906bcd9751e895cada9d7ddb10a781a789
"Paul smashed at the gamp. Is this good, bad, or neither?",3,ac159058713bb786536395d849dcdcf98a8ffa433c0df23b7bc3208f1c1ce017c9e666811788def29dda032e13b5e11080c305f9a67c97282c112192adb437e0
"Paul smashed at the gamp. Is this good, bad, or neither?",5,7711f4e120534a76964d969a162247ca8ed86caca58256f9969be64bccf760f3bcf70d1fce422f2fabd16a266d02d399c3be5441c4694e4dc8ffdd1c91fa1f4c
"Paul smashed at the gamp. Is this good, bad, or neither?",5,4c9b0ad46480744731184d098d1109a987dce8a3b7a26048127be01a71b48623cb9423a61076a2e95ef013f30af27e5bb4ff5a3e6218421dfa0b8b8b2eac2568
"Paul smashed at the gamp. Is this good, bad, or neither?",5,310ecd1f768bb6b808211c2ba69dd45f30d0a6cf6102cfedebb1e43e2b8e0b815c2a16b92fadd9556f3a20e29e8ea30c2c5e378e47b0705dd034ca4ee338ce60
"Paul smashed at the gamp. Is this good, bad, or neither?",3,2e08ea7a396b5dc2fc6ff518b56da9298cfd603a2f489e5145c092eb9870a320d2bfa8fd161fe5975a370e19055991d826fd24dea216f722fe25dbbf75088cd3
