"The quol smashed Gregory frimpy. Is this good, bad, or neither?",1,5d818587500e31ddd24f674f0d96e8036b1fbbdeff8f12716de7cf436031070adc160ac58c2058f70b7756b9758d4cc6c60cd86cb5fbac5b08e94434f347d5fc
"The quol smashed Gregory frimpy. Is this good, bad, or neither?",1,5cd49a816d389109ba1de471234af76714b514d25e6deb8ee8312e6ccc4ad6f8fb1090ea989df4adcd6fcdf54fd1b3b5001f883eaf1aa0d3324fcb4ec691aa30
"The quol smashed Gregory frimpy. Is this good, bad, or neither?",5,30606f8e98a0bcee757da1e043d90be8b99eadedcd615f42073de321f7cac52b276c746837817ac57abe806ae009898f8ad56e8d4fd98e0e5196145c47d6fea7
"The quol smashed Gregory frimpy. Is this good, bad, or neither?",4,aaa95c0664846be1d183b973a91ed74b1685e5e25ec9e68c82d19b353a324b47a68c74351d84d21e911a7cc42db0bd220fc29db5c10db1fce24a60559e550ef1
"The quol smashed Gregory frimpy. Is this good, bad, or neither?",1,ddaaf85b6ad92e5bd899125be0ee1d1e475cef85f10f7c86eb80b3e666aa2d27b9930efbf239779906809e3b49e9c42c65a28830cce2f7034e42c039095ac370
"The quol smashed Gregory frimpy. Is this good, bad, or neither?",4,6f5d3137f68645162d6754029499a9ec7ae5684f56847c76e1aed3915b42b3ec8caf636fecf4f90a32b0151ee5f9c6a1d6452b80a69f77275d541c9cea4cbff1
"The quol smashed Gregory frimpy. Is this good, bad, or neither?",5,ab817809187642176d23d87932f87fb8cac29305dd69bd9c80c875e1418683baeb300a33a4ea303e96598aee641e58ffef6ed700b09ee5a77559e157e08d3320
"The quol smashed Gregory frimpy. Is this good, bad, or neither?",1,949e348794c3e18581f7b55ecef851e605235f7c9cafa5c3b4d3e91106a8ea5851849ec1edc9cd0b8dbea5b628ab5f49181d508855ed809569304963bc219caa
"The quol smashed Gregory frimpy. Is this good, bad, or neither?",1,9fc9d3de7ddb83580fc430d2d5c6ee47e775cabd5a982d7012deb44dbf1042f8b3db8ea6b2c4ee7b39f82b84b6b071d6968393ccc6520a6870f0883ccc441cf9
"The quol smashed Gregory frimpy. Is this good, bad, or neither?",1,a2d9d2b53a64cc210c5d5ae513697dde98962d35ab23b7f1d01f7dbee0ab2bd758c58bb31ad6a0ab40ecb1fa916498f9711de450706865a35f42029ae3c0a523
"The quol smashed Gregory frimpy. Is this good, bad, or neither?",1,6442579b5017c978ac48004d53b31163b3763f309e6f3e0581e04c2aea211970cc33a63b0462acee00808e5c684e9c9445efbc52c93000c0cc6f7f2e7cc3b7f1
"The quol smashed Gregory frimpy. Is this good, bad, or neither?",4,3ba7f77ae10c38036b97eb26b741db3f51fb37d04dcd4811c66cee4d7e3bf096ad2dda7eb04c83b35f03ed05392281462198a2d33493d965414714644b302ba5
"The quol smashed Gregory frimpy. Is this good, bad, or neither?",1,3b824e27a37757b734ebdcf0410f404e1ec814e83c36573d6d889b5c279a02f82de58201b4d1d3129ec3bb46dc8ee1b978b4c78919cd63e3b018278c3c18fde0
"The quol smashed Gregory frimpy. Is this good, bad, or neither?",4,08ea6ea397537c84ac209f08bf3bec2c0ff500e94266cd17fa45d303b288126de192d25b7f3331a02fdcad8a68ce682fafad99f95ec45259d05ed65d6cd3505e
"The quol smashed Gregory frimpy. Is this good, bad, or neither?",1,aeaead0bad2cd8cd8e00067df1d0ddd61b9ba6afec23c08f5c84f413ad2e263545b447c45633570fb4f2c9b3d3be895bc1e474eb157f9f9b4ac62955a36370ef
"The quol smashed Gregory frimpy. Is this good, bad, or neither?",1,5ed859beff22cb7346bbd1bb520b4e40c6fd44610478d66cd057f78c274bfe00e0cfd791b7f2e25ec9b478d601bfa4906bcd9751e895cada9d7ddb10a781a789
"The quol smashed Gregory frimpy. Is this good, bad, or neither?",1,305f2f29687fda8e291e598686a4a089cc57c27d26fc2dea3e28544183df6fdd4ce792399dcac730c7aa7109f82a09aace9c895bf9596d257e113393be774056
"The quol smashed Gregory frimpy. Is this good, bad, or neither?",6,95fb527c5a1872b544573775725321e06da1419951e30256072166ac69da9e459059aa42414a1a6cd0c37261acde4df9b54556b500c39769c21173565ca15334
"The quol smashed Gregory frimpy. Is this good, bad, or neither?",1,0c0d4ed7870bc8c518df91880e50b28525d2828c5a2180ed8fec2dd30dacc28fcc6111342d6c279c3ef0a43013536ebd4c4b527b5463fa4e99454b347f551acb
"The quol smashed Gregory frimpy. Is this good, bad, or neither?",5,8085ae1b65659868a3c14b7fd665e65602299d5cd0aa39d6efb269aece845856fd28a972270fc73dc1642693776b160f08bc5063ca8e94a1ec0094f306fad840
"The quol smashed Gregory frimpy. Is this good, bad, or neither?",4,b9823f44a96a09bb0a39b059bc590571f243e6b4cae8f72f462a679bd66dd4a5df1300c501ee1ee59d2ef0b3924ec82649208ef3855c81f609b9a3b93dc2e442
"The quol smashed Gregory frimpy. Is this good, bad, or neither?",1,7f45982c84b0e62975c836530ebc5c20ed43e2aaac4d7f1c99d59dac30103bb0a2c7f0c3eb3c011244e3b29b96036757199959b8d8fbcc5cf995fee8253a05f5
"The quol smashed Gregory frimpy. Is this good, bad, or neither?",1,b58444df1aa20c5005f739d40601072c266d6fa43a16db0587813e3af15927101be624064ed344fe02d37256fea6921972c3b63cf04ab6073e02d07099a85c67
"The quol smashed Gregory frimpy. Is this good, bad, or neither?",1,fb3ee4e72eb582b2b2920acd3ac5a4ed00149c2560bf0255b9bc8237d80cbadd7b353ced6ab5662f69dfe00d362575b7da94144cd2374866a682e39b17cc3c0d
"The quol smashed Gregory frimpy. Is this good, bad, or neither?",1,2cb44008208d14c82cf8868fc09b67e721d51c1b25835a53ce5c75d4338141e971e3aad3228e19b641ecd4278d4576dc2f1af7702b6c5731e30d7d54f5a829a5
"The quol smashed Gregory frimpy. Is this good, bad, or neither?",1,28195e505193242d636c8cf88927e3353b64c1e9365b6d4fe6834ae467adb58cc661083c465cf575a9d4e6e6ea9daf2f4e5b8eaf892be186be05aa6b9c0519ec
"The quol smashed Gregory frimpy. Is this good, bad, or neither?",1,caff777a2303da77340521ef83945a07684b2612ccb93a9fe1e9e6b34d4e52177c4499982e59c5f493664f3123c4c9738867850e7445f494ca6c22600eb6e56a
"The quol smashed Gregory frimpy. Is this good, bad, or neither?",1,832b19ea4eb64ad4f6298c0933ec2f6ba994974bcbbda62a7a0088a00f6cd96bd27aca96187875bf07fe2c868f7cd9e74b39598b91c261fd45079e5150637de4
"The quol smashed Gregory frimpy. Is this good, bad, or neither?",3,0d19c982875c6e1039857c9e12d569d24a88f16afb8274468f683859c7fb1e8f625bea82d85acacf66faaeda9f4f894656a3ef87fab4ef398b355a0624ab70c2
"The quol smashed Gregory frimpy. Is this good, bad, or neither?",1,41628a0f8849c48d09c00e99c4a99cae8b10c5d31c76fc5043a816bea93afdb63771aa227c3fc1235d69b6c482ed4c1972716b6868be483c3ecaba9ca7efddc1
"The quol smashed Gregory frimpy. Is this good, bad, or neither?",1,b1398925dea14d74b483e31da9dae3bbca307ebad6d7ea073cf6760842ed77649a07d73875d68e3c69920c4aba1861a58d4822ac9f44bbf8b9cabe27b9889775
"The quol smashed Gregory frimpy. Is this good, bad, or neither?",1,5baa7d46ce987ef43ed4383d0b1a35d69dc63b0d6f14dce604037b55a8f09a07f2a1d542f39376a814f3fef3a63101b4fdbaf6bd3d94fdd034e0940263a70205
"The quol smashed Gregory frimpy. Is this good, bad, or neither?",1,1e7019267a5b9fb0c239414b1e225193cc46ec9d6c9a84692122a153d5af4e4bec36f2ece04c27828e7c811956744c4cdaf9b6e007fe5418441f79557bd2012a
"The quol smashed Gregory frimpy. Is this good, bad, or neither?",1,ecd12f5c7840150b6bf31f41cfe805fbb7f1e24d87bc7f9a7e4a26034d172ee611537c7e49e1951d513a1b63598bec45f4cf8d3fd4936ebe2747d7e8018937e5
"The quol smashed Gregory frimpy. Is this good, bad, or neither?",4,b0d9c2d8691f4316e1b262befbbf21875e54953ac94d958088ee327ec7e4b9a519987db3fe0c492b3c1bee962b256ef852d45c6ea7760841c756f9361c5f1c88
"The quol smashed Gregory frimpy. Is this good, bad, or neither?",1,9d8ddb67f662349a7f7a7c5a32fee73c457fd70d135ae4be6f17a68418102d35693b26415c8fd8c7bd26a5b5032587ac08aefd055994f62fcb3e9a44d5cb51b0
"The quol smashed Gregory frimpy. Is this good, bad, or neither?",5,7eac63dd734031a37e46a4e523aa6bfac9447229a7978f447e0dd64aaeb24d0d1a328b33c9c4f7113e04ffb0b3b9208c1ba47d96cd9c916cdf876f738fa5ae44
"The quol smashed Gregory frimpy. Is this good, bad, or neither?",1,bddab661b674206bd7cd56a842a33689a54dbb9a25cf6bf152c1aca723b16c3e727b6444bf708e3bc9922bbfa49a615c29b758531236f32b24ffab39c8e8a9c3
"The quol smashed Gregory frimpy. Is this good, bad, or neither?",1,9b2c7999e14c3454c4040c57630dd6dd9ee2554ec359ef309fbdfbc93ef663c89d8a48198c56c7bd2523781745f3782b5a9a2f990acbac42622758d8f239c95c
"The quol smashed Gregory frimpy. Is this good, bad, or neither?",7,fee6cfe6949e7ab904a311a24fb09c8b489a047523b2398574d35749fa19bbff877a3fd54e5123119f3ff2fce255ce646bf17e97ed2712b35c8558978d87b6e3
"The quol smashed Gregory frimpy. Is this good, bad, or neither?",1,a7dc9d4f184ea86b7b6e6869b9a53887f9af455a7a9b3f701cc20ec18e11435fdb90d9c3eed921996792de6c1628b7a27219b25f044ffe99d725092cbc88af6e
"The quol smashed Gregory frimpy. Is this good, bad, or neither?",1,88c1afa05f945c74e9ad9057dc7821c776be632f8d5625afe16f6ca957ca87355e4b858ce41f8943799dc98308fbd873aff10fe13198501acfd469af0955495a
"The quol smashed Gregory frimpy. Is this good, bad, or neither?",2,2732fe092190e5b795e7c7bab483d75b29f5341379c9dfb79750932da8aeef258e0670b85a4f50dd3e66366a2f217ccd2c6f0e723d9adfd8b7af5c897f9bfbd1
"The quol smashed Gregory frimpy. Is this good, bad, or neither?",1,3dd7ff53be07f8d72042472584bf379bcd78eb96940dcc6e0f4bcf0b8f7d5c5f679eaa10b4cc83a57202ef875263c59b04ef8d7d54e320694bea43a5a4c2bc99
"The quol smashed Gregory frimpy. Is this good, bad, or neither?",1,06286cebd86929ee6fdd2e111ba31907c4ee7e20a6c96185dcf8f3b3ce0d2b3b95d844fcee46cd522665aa81b46e9db3b5fb0d96d2cbc4515636fcd8ee662dd6
"The quol smashed Gregory frimpy. Is this good, bad, or neither?",3,fcde3889a1feff4cb158c73f72f7428193a8bc534d15e40e0abb71b6842a3f51f73de76972d12f50c1aac361955f7610a23967815bb2d3dfd207f852932924a0
"The quol smashed Gregory frimpy. Is this good, bad, or neither?",3,fcde3889a1feff4cb158c73f72f7428193a8bc534d15e40e0abb71b6842a3f51f73de76972d12f50c1aac361955f7610a23967815bb2d3dfd207f852932924a0
"The quol smashed Gregory frimpy. Is this good, bad, or neither?",1,e026cbf1f92ffcd63549ad9958fb5feeaed2d6b545677b809b1cafc3fc96349d27e28ef3da4919854a8b6d9ce320dc40b10f705c361b77a717ca1cc8d70dca1b
"The quol smashed Gregory frimpy. Is this good, bad, or neither?",4,a3fe48d172465fbb24a650eeb520bd4c4631496b6d9d7a38bf192e1566aa97e662f2b2e76290bf0e0a6c2a90ffb291b31ff1e75bb29714c834646a850ace5bf6
"The quol smashed Gregory frimpy. Is this good, bad, or neither?",1,0e94d256aa830f3911eb7045d4273aeecf5c0cf5f7d3390828bc406b709b5e3c33ae58dd680cd1eb5640eed2bd85361e2ddf53c5d5eb0fb35082e028e45772be
"The quol smashed Gregory frimpy. Is this good, bad, or neither?",1,e53c7c593c98147d72ddab8932637fe17e085db8158b333555f7aa47b1c508c8ebe1373dab0629e8de6b36de06fba179a7075dc0527495204375206328750a1f
"The quol smashed Gregory frimpy. Is this good, bad, or neither?",1,e4340041a84d5f58d27a71f4b2e549d7cba7112b07b0cf98b9af1f98f1c1deb16eac577ec01eeb2677ae98cf7dea090466c277041a1176f96e1fb298b91d48c4
"The quol smashed Gregory frimpy. Is this good, bad, or neither?",4,9faaac9be3dc69e05cc75061bafeca707f1a8983f2d888bed11d5872ba20e0c430dcf9f873136fbea90bcfabe5fb547e72d2e33778e2f660a52c0898e6df7277
"The quol smashed Gregory frimpy. Is this good, bad, or neither?",7,afffbe3ac15faef4189f785533443e90cb4450f826d074e93803dfb4fee96930a83b222a74e8880729ee12ff0540f0ea41379da774bef7e34c2d0844039cc913
"The quol smashed Gregory frimpy. Is this good, bad, or neither?",1,0a10cfbe96898e179a6989823d1b388e63fd11f48fd9bb0f118bf62cd7dfea5dd88a7b1d57cbd9606e10dc7e76ef4a52208822cd8d1992d9cbf67431ac76dda0
"The quol smashed Gregory frimpy. Is this good, bad, or neither?",4,ea1600cf1dc53b68eea126c5ac6616181c5d8213f362136144032e52d122c5d954f51d907fcc807ef4cd663d103eb306d2e9c896d0349afded83cc0fdbfe55ee
"The quol smashed Gregory frimpy. Is this good, bad, or neither?",5,ea1600cf1dc53b68eea126c5ac6616181c5d8213f362136144032e52d122c5d954f51d907fcc807ef4cd663d103eb306d2e9c896d0349afded83cc0fdbfe55ee
"The quol smashed Gregory frimpy. Is this good, bad, or neither?",6,ea1600cf1dc53b68eea126c5ac6616181c5d8213f362136144032e52d122c5d954f51d907fcc807ef4cd663d103eb306d2e9c896d0349afded83cc0fdbfe55ee
"The quol smashed Gregory frimpy. Is this good, bad, or neither?",1,dc1573fdf940f9fb09d57b0011d03c1c44d31b200b999056f3ba7a66f968fff14e39bb77a6b95cde426287b90f173b03c2bb7c514497e44276b0f589563d5728
"The quol smashed Gregory frimpy. Is this good, bad, or neither?",1,de6929073711cab55e2b2cdfac005d7f05a11fd82a4fec1edb6b894ebcd733ebbbf641b4751128625333255c0b8e62afaa19b61b398726759711630e2572adc3
"The quol smashed Gregory frimpy. Is this good, bad, or neither?",3,5f12e05c2e694ca4d0d50f5c90ffefa31fc5c326c5f6352ab6f2d69efda09898d7fa2e899476fb98164baf5559806eee7fc6f92a8cd7641d9b208f848e51b143
"The quol smashed Gregory frimpy. Is this good, bad, or neither?",3,5f12e05c2e694ca4d0d50f5c90ffefa31fc5c326c5f6352ab6f2d69efda09898d7fa2e899476fb98164baf5559806eee7fc6f92a8cd7641d9b208f848e51b143
"The quol smashed Gregory frimpy. Is this good, bad, or neither?",3,5f12e05c2e694ca4d0d50f5c90ffefa31fc5c326c5f6352ab6f2d69efda09898d7fa2e899476fb98164baf5559806eee7fc6f92a8cd7641d9b208f848e51b143
"The quol smashed Gregory frimpy. Is this good, bad, or neither?",3,5f12e05c2e694ca4d0d50f5c90ffefa31fc5c326c5f6352ab6f2d69efda09898d7fa2e899476fb98164baf5559806eee7fc6f92a8cd7641d9b208f848e51b143
"The quol smashed Gregory frimpy. Is this good, bad, or neither?",3,5f12e05c2e694ca4d0d50f5c90ffefa31fc5c326c5f6352ab6f2d69efda09898d7fa2e899476fb98164baf5559806eee7fc6f92a8cd7641d9b208f848e51b143
"The quol smashed Gregory frimpy. Is this good, bad, or neither?",3,5f12e05c2e694ca4d0d50f5c90ffefa31fc5c326c5f6352ab6f2d69efda09898d7fa2e899476fb98164baf5559806eee7fc6f92a8cd7641d9b208f848e51b143
"The quol smashed Gregory frimpy. Is this good, bad, or neither?",3,5f12e05c2e694ca4d0d50f5c90ffefa31fc5c326c5f6352ab6f2d69efda09898d7fa2e899476fb98164baf5559806eee7fc6f92a8cd7641d9b208f848e51b143
"The quol smashed Gregory frimpy. Is this good, bad, or neither?",3,5f12e05c2e694ca4d0d50f5c90ffefa31fc5c326c5f6352ab6f2d69efda09898d7fa2e899476fb98164baf5559806eee7fc6f92a8cd7641d9b208f848e51b143
"The quol smashed Gregory frimpy. Is this good, bad, or neither?",1,65742ec00905d9ad667185f5a7511d343df8df345ed0fef3db00fd29f3e4040f867eeef26a01c000f7ceca04ea07537add62b3f1ff8422adb173a9bd22ecf46d
"The quol smashed Gregory frimpy. Is this good, bad, or neither?",1,3ce1c91573b49e76ae6d43c669a24733296314c25baffa84d6693179025159771a3c7b297e83491615fff176965dd211be78675095cfe008040fcf254df14810
"The quol smashed Gregory frimpy. Is this good, bad, or neither?",1,21a65c15b3bbe24844899a284fb2239e80247056750510b98b004d6d5a236e73e581c1d7e033eb03d4649d2d009d6deaf5dba070dafb69aa762c6dae0ff06e3a
"The quol smashed Gregory frimpy. Is this good, bad, or neither?",3,b7f33448c32e3db77894d6f4680a470db6348d3e70d36cf729242551fb247ec26cb5e42b3f69f9c5e4c71011f1a09f6140984967e8f990a3261d549f18d0f333
"The quol smashed Gregory frimpy. Is this good, bad, or neither?",1,39785c4b4ba4de1a565cc689df76805c82ea6d027e63026bc4e60df1a3687e320e893f6e68ab5b189efb3097131e3b9ef068ba1e28699432fcb04c7450dc2870
"The quol smashed Gregory frimpy. Is this good, bad, or neither?",1,0c1e43ef5b2f9488f1f2f5d3bb698140bc0a814ccd0552a4d3b9bc7f4899fbd7f112dda7c2abe51111db2cd9354f7ed05e8023ddc9513e6797cd881f2b3a9c2c
"The quol smashed Gregory frimpy. Is this good, bad, or neither?",1,83e68bdb3c8d06734b9c63de2e996ad5203cfadd686bffeb5371242a53bd2562e4ee27b56455e36057ad2b7ff679b1bc0942e1b5e336f4762c4ed9cc49cb339a
"The quol smashed Gregory frimpy. Is this good, bad, or neither?",1,819161aa2e764fd74ba60f02978d28b130e488d1f6ed613c48db286b68fe06ef24eeeb946d2af813bac598640b43342cd2b7a142eb31a6fff239faaae995f9f7
"The quol smashed Gregory frimpy. Is this good, bad, or neither?",1,64c920623ab31436b5b4c22427a48558b7ec124dfae9a0406b46420dd8b1b842cc381b408af36bce712d7ed00749499374ac41eff341ac32483021553436031a
"The quol smashed Gregory frimpy. Is this good, bad, or neither?",1,8eb8eb9ee8a5dc5a76832099bd61e3988c8e01c2c58daae7a5a78563d2f5449d2ac146d6d35c79e2f33b7fe14c8d00f78deea59045dcb4570a6484c7fe7175f4
"The quol smashed Gregory frimpy. Is this good, bad, or neither?",4,07fa1ad6be7e3fa1bc2f25e4d168a1a331b855dd469adf8d2f6b8f3cba5ec0717234ea87ac2229a243aa5ad2c9749bb4e68b87df7871bbf76cea41d0043f47d0
"The quol smashed Gregory frimpy. Is this good, bad, or neither?",4,c2a35a9e3a4e63030e1b1467ea5c631724ace41aa9aab9a34f7eb3dea239079ba738fd4333a249f113a2423c2b23c3dc9bd99213f8a783d851527ee9cb86f84b
"The quol smashed Gregory frimpy. Is this good, bad, or neither?",4,bc519b108cb3b181697a45b38b621f4d3a1bdeb58c9b600882dbc3e707bf06daa50f8ed87c6b2086c519d7f6a5ffe9d84b09275db3130a602c38b70e6c4bfe64
"The quol smashed Gregory frimpy. Is this good, bad, or neither?",1,8fefa51249c1fe362ac198e32ba86f12d8f5e8444e37ce03b23b155c32b6ceb597a22710e49fbbe5cfae86eb951cbf2754789393c6ccb10e584ae2233cf198ce
"The quol smashed Gregory frimpy. Is this good, bad, or neither?",1,b4a89e063c479339463fe8a3755a45afdb72640d55ae6f8499866bdce35aea79532c96c386d3e305abf960bd172306159148a5dedc70fc0c191353ec94176ac4
"The quol smashed Gregory frimpy. Is this good, bad, or neither?",1,5d818587500e31ddd24f674f0d96e8036b1fbbdeff8f12716de7cf436031070adc160ac58c2058f70b7756b9758d4cc6c60cd86cb5fbac5b08e94434f347d5fc
"The quol smashed Gregory frimpy. Is this good, bad, or neither?",1,5cd49a816d389109ba1de471234af76714b514d25e6deb8ee8312e6ccc4ad6f8fb1090ea989df4adcd6fcdf54fd1b3b5001f883eaf1aa0d3324fcb4ec691aa30
"The quol smashed Gregory frimpy. Is this good, bad, or neither?",5,30606f8e98a0bcee757da1e043d90be8b99eadedcd615f42073de321f7cac52b276c746837817ac57abe806ae009898f8ad56e8d4fd98e0e5196145c47d6fea7
"The quol smashed Gregory frimpy. Is this good, bad, or neither?",4,aaa95c0664846be1d183b973a91ed74b1685e5e25ec9e68c82d19b353a324b47a68c74351d84d21e911a7cc42db0bd220fc29db5c10db1fce24a60559e550ef1
"The quol smashed Gregory frimpy. Is this good, bad, or neither?",1,ddaaf85b6ad92e5bd899125be0ee1d1e475cef85f10f7c86eb80b3e666aa2d27b9930efbf239779906809e3b49e9c42c65a28830cce2f7034e42c039095ac370
"The quol smashed Gregory frimpy. Is this good, bad, or neither?",4,6f5d3137f68645162d6754029499a9ec7ae5684f56847c76e1aed3915b42b3ec8caf636fecf4f90a32b0151ee5f9c6a1d6452b80a69f77275d541c9cea4cbff1
"The quol smashed Gregory frimpy. Is this good, bad, or neither?",5,ab817809187642176d23d87932f87fb8cac29305dd69bd9c80c875e1418683baeb300a33a4ea303e96598aee641e58ffef6ed700b09ee5a77559e157e08d3320
"The quol smashed Gregory frimpy. Is this good, bad, or neither?",1,949e348794c3e18581f7b55ecef851e605235f7c9cafa5c3b4d3e91106a8ea5851849ec1edc9cd0b8dbea5b628ab5f49181d508855ed809569304963bc219caa
"The quol smashed Gregory frimpy. Is this good, bad, or neither?",1,9fc9d3de7ddb83580fc430d2d5c6ee47e775cabd5a982d7012deb44dbf1042f8b3db8ea6b2c4ee7b39f82b84b6b071d6968393ccc6520a6870f0883ccc441cf9
"The quol smashed Gregory frimpy. Is this good, bad, or neither?",1,a2d9d2b53a64cc210c5d5ae513697dde98962d35ab23b7f1d01f7dbee0ab2bd758c58bb31ad6a0ab40ecb1fa916498f9711de450706865a35f42029ae3c0a523
"The quol smashed Gregory frimpy. Is this good, bad, or neither?",1,6442579b5017c978ac48004d53b31163b3763f309e6f3e0581e04c2aea211970cc33a63b0462acee00808e5c684e9c9445efbc52c93000c0cc6f7f2e7cc3b7f1
"The quol smashed Gregory frimpy. Is this good, bad, or neither?",4,3ba7f77ae10c38036b97eb26b741db3f51fb37d04dcd4811c66cee4d7e3bf096ad2dda7eb04c83b35f03ed05392281462198a2d33493d965414714644b302ba5
"The quol smashed Gregory frimpy. Is this good, bad, or neither?",1,3b824e27a37757b734ebdcf0410f404e1ec814e83c36573d6d889b5c279a02f82de58201b4d1d3129ec3bb46dc8ee1b978b4c78919cd63e3b018278c3c18fde0
"The quol smashed Gregory frimpy. Is this good, bad, or neither?",4,08ea6ea397537c84ac209f08bf3bec2c0ff500e94266cd17fa45d303b288126de192d25b7f3331a02fdcad8a68ce682fafad99f95ec45259d05ed65d6cd3505e
"The quol smashed Gregory frimpy. Is this good, bad, or neither?",1,aeaead0bad2cd8cd8e00067df1d0ddd61b9ba6afec23c08f5c84f413ad2e263545b447c45633570fb4f2c9b3d3be895bc1e474eb157f9f9b4ac62955a36370ef
"The quol smashed Gregory frimpy. Is this good, bad, or neither?",1,5ed859beff22cb7346bbd1bb520b4e40c6fd44610478d66cd057f78c274bfe00e0cfd791b7f2e25ec9b478d601bfa4906bcd9751e895cada9d7ddb10a781a789
"The quol smashed Gregory frimpy. Is this good, bad, or neither?",1,305f2f29687fda8e291e598686a4a089cc57c27d26fc2dea3e28544183df6fdd4ce792399dcac730c7aa7109f82a09aace9c895bf9596d257e113393be774056
"The quol smashed Gregory frimpy. Is this good, bad, or neither?",5,8085ae1b65659868a3c14b7fd665e65602299d5cd0aa39d6efb269aece845856fd28a972270fc73dc1642693776b160f08bc5063ca8e94a1ec0094f306fad840
"The quol smashed Gregory frimpy. Is this good, bad, or neither?",3,0d19c982875c6e1039857c9e12d569d24a88f16afb8274468f683859c7fb1e8f625bea82d85acacf66faaeda9f4f894656a3ef87fab4ef398b355a0624ab70c2
