"Andrew bounced Tyler across the zink. Is this good, bad, or neither?",2,5d818587500e31ddd24f674f0d96e8036b1fbbdeff8f12716de7cf436031070adc160ac58c2058f70b7756b9758d4cc6c60cd86cb5fbac5b08e94434f347d5fc
"Andrew bounced Tyler across the zink. Is this good, bad, or neither?",2,9d8ddb67f662349a7f7a7c5a32fee73c457fd70d135ae4be6f17a68418102d35693b26415c8fd8c7bd26a5b5032587ac08aefd055994f62fcb3e9a44d5cb51b0
"Andrew bounced Tyler across the zink. Is this good, bad, or neither?",0,e32acc3720de73ab257e923557ba791b4db98db203286f956cc7d117906e5547f3f7e338aaa78b9152b0dfd10ce0ae962b8dfa72e117028b43b70fce1d3ee9ca
"Andrew bounced Tyler across the zink. Is this good, bad, or neither?",2,928377da5ab212a9b8b353c5a7d674cdb97439ca059563d8fc5626218a700145bae435717959cdcd5ac2b5728016aa29a0a5049e69a7a7f7bc66c06a91546dc0
"Andrew bounced Tyler across the zink. Is this good, bad, or neither?",2,ddaaf85b6ad92e5bd899125be0ee1d1e475cef85f10f7c86eb80b3e666aa2d27b9930efbf239779906809e3b49e9c42c65a28830cce2f7034e42c039095ac370
"Andrew bounced Tyler across the zink. Is this good, bad, or neither?",3,8bbdd4b7da1f9d8297c04f175d21d6afdaa72eb55a954a5c04cfec77bd44caf4fb146a47105503e9da66c8a5ce78c99e363e8dc8d6a39280e5a0cf80b6b23e11
"Andrew bounced Tyler across the zink. Is this good, bad, or neither?",2,fdfcaf2d1ae8edcee44629d64f330bdf60091699195a8f3900d40187345e96a4f16c77e4b1e79f51712cc548304d2bcf4843c9747e96646bc5d359cf2d6ba81e
"Andrew bounced Tyler across the zink. Is this good, bad, or neither?",3,2a66dd525ba3d02d3a586a3269e34206790ef5b2d2a9e537ea0b5235f9b6a652fc7c77f8487981a0076a6b08b71dc3217021a13f4917b16b37c324a0b3257220
"Andrew bounced Tyler across the zink. Is this good, bad, or neither?",0,6f5d3137f68645162d6754029499a9ec7ae5684f56847c76e1aed3915b42b3ec8caf636fecf4f90a32b0151ee5f9c6a1d6452b80a69f77275d541c9cea4cbff1
"Andrew bounced Tyler across the zink. Is this good, bad, or neither?",4,247d016ad1965e185b284a032af50657ede03f4f6dfc65f402943ca2d27268dbc47a7ee39ad2eed9b24b64110dc50e8dd10ca6597e88d493637c358a9ba6470b
"Andrew bounced Tyler across the zink. Is this good, bad, or neither?",5,14789a601233b7e84205d6826547ebfa50e1cae2db82c330820f4064ece769b00516053ee8a41763b1cceae8079019638920d55e3bce6940b3029251a7abd20c
"Andrew bounced Tyler across the zink. Is this good, bad, or neither?",2,c05c20b19bfac736223d995201caec3443e1880034895de95b3cb59dd4346a6be7b45a13643ce08200ba740941e12766d4634f1629daa5e4e4eeb57e2a14915f
"Andrew bounced Tyler across the zink. Is this good, bad, or neither?",4,08ea6ea397537c84ac209f08bf3bec2c0ff500e94266cd17fa45d303b288126de192d25b7f3331a02fdcad8a68ce682fafad99f95ec45259d05ed65d6cd3505e
"Andrew bounced Tyler across the zink. Is this good, bad, or neither?",2,aeaead0bad2cd8cd8e00067df1d0ddd61b9ba6afec23c08f5c84f413ad2e263545b447c45633570fb4f2c9b3d3be895bc1e474eb157f9f9b4ac62955a36370ef
"Andrew bounced Tyler across the zink. Is this good, bad, or neither?",3,49dcb1441d32656cba9d11b70043b0c4d17712f6a50e97b4a50054f5ed2de2456bfaa95cc13099b9c4e56b3877f0d046a24ebafe7ba804cb86d78cf96ab92a6b
"Andrew bounced Tyler across the zink. Is this good, bad, or neither?",2,5ed859beff22cb7346bbd1bb520b4e40c6fd44610478d66cd057f78c274bfe00e0cfd791b7f2e25ec9b478d601bfa4906bcd9751e895cada9d7ddb10a781a789
"Andrew bounced Tyler across the zink. Is this good, bad, or neither?",2,305f2f29687fda8e291e598686a4a089cc57c27d26fc2dea3e28544183df6fdd4ce792399dcac730c7aa7109f82a09aace9c895bf9596d257e113393be774056
"Andrew bounced Tyler across the zink. Is this good, bad, or neither?",4,44ff1cf089bbf7211828a3fdb20b42438871616ec1673ead8a12f71d33cd02a9c9b6277f081d013d9f2ec7440ed01aff2b636ec53a25db5c848ae2217fd50870
"Andrew bounced Tyler across the zink. Is this good, bad, or neither?",5,f6cff6c818219cfa243192bf9e37d24a1463cee2b8ef369eee8f07fc27e760d451eb5bf0dd9fade17024e9ddc62c34ff07af117aef111cd129863b74685df3b2
"Andrew bounced Tyler across the zink. Is this good, bad, or neither?",4,1c59b9f5d650721508d85bf36e38d6104eab56daedef6b9214062fb115442e6366119677c3de1c5ee1112e88b2776fbad75aa01eee0a38ba3f9e9296edfbb8c4
"Andrew bounced Tyler across the zink. Is this good, bad, or neither?",4,ea4dbd7f03bb4a333233577dd57fdd1613870a381423bc653611b4e99d179ee38f63f2083ff5b8ca8901f3caea1bf131911228b2d4aed2ec891ff0b260c60a63
"Andrew bounced Tyler across the zink. Is this good, bad, or neither?",3,b2e4ef616f0e1cac30a4ca570ef5fcdd39f29c1d43a6f1aee2542fd1b0997436fa6ac58d4b97fa4b3ef9a0ae56b199c150a1682687603e5266cfc82b866b7ed2
"Andrew bounced Tyler across the zink. Is this good, bad, or neither?",4,5b56973b88ed7b736ff3966dd5900790af0d217684769981e05a869fd0482e4eb627fbc83ef164acdcc19dfee68958f3688d63269cfdc0cd3c3ec35969e3c934
"Andrew bounced Tyler across the zink. Is this good, bad, or neither?",2,7f45982c84b0e62975c836530ebc5c20ed43e2aaac4d7f1c99d59dac30103bb0a2c7f0c3eb3c011244e3b29b96036757199959b8d8fbcc5cf995fee8253a05f5
"Andrew bounced Tyler across the zink. Is this good, bad, or neither?",2,fb3ee4e72eb582b2b2920acd3ac5a4ed00149c2560bf0255b9bc8237d80cbadd7b353ced6ab5662f69dfe00d362575b7da94144cd2374866a682e39b17cc3c0d
"Andrew bounced Tyler across the zink. Is this good, bad, or neither?",2,28195e505193242d636c8cf88927e3353b64c1e9365b6d4fe6834ae467adb58cc661083c465cf575a9d4e6e6ea9daf2f4e5b8eaf892be186be05aa6b9c0519ec
"Andrew bounced Tyler across the zink. Is this good, bad, or neither?",2,caff777a2303da77340521ef83945a07684b2612ccb93a9fe1e9e6b34d4e52177c4499982e59c5f493664f3123c4c9738867850e7445f494ca6c22600eb6e56a
"Andrew bounced Tyler across the zink. Is this good, bad, or neither?",2,ecd12f5c7840150b6bf31f41cfe805fbb7f1e24d87bc7f9a7e4a26034d172ee611537c7e49e1951d513a1b63598bec45f4cf8d3fd4936ebe2747d7e8018937e5
"Andrew bounced Tyler across the zink. Is this good, bad, or neither?",1,1ea01966bc2646cf505948430346b109cd68ac4d744c3c0f933d8625d62b05a76deaba4a313e5bdfe75846468bf3bfbf4d9a03ac9fde9f57506d1b99e7f90da7
"Andrew bounced Tyler across the zink. Is this good, bad, or neither?",4,0cce9151698e5674daa0d80fe4efc4daa6c28de601e9af357d943b02c498a73578d8113eba388846a2ca22017c481f5d2b2a23aca606799dfa309a4c8d51c86e
"Andrew bounced Tyler across the zink. Is this good, bad, or neither?",6,6644fc9ab070e4736a427a595e13a4e1f4c65d0441d5f9c3763a0ca2bebe4b6d85ce49b24b0c9750114fd355a92383c10d3bd01ba7404d9b30775b04969a9a34
"Andrew bounced Tyler across the zink. Is this good, bad, or neither?",1,d8d36b556cb88089c396a1aa18d3b2fcc76975bf65b7c36c6bfdde6fb04622148a36cd6ddaf29b2df5b5d98328fadebc0d4a61203ea283c2a49ea9dc69cc2a86
"Andrew bounced Tyler across the zink. Is this good, bad, or neither?",4,0ddcb88c065e5bb7e1afc9bd53240b026d032edf884f6dc3fdb0ee2e584db539b52c8eea95c7301a71b6ab355e7a68e705591e1acbf64a7a7663044677d7f8b9
"Andrew bounced Tyler across the zink. Is this good, bad, or neither?",4,e816c25d00cf8e91122f1f3b229f41f298ddc4b6b47fcb5da8174bd83a0554271a821e737026ea6a344d4c078e1b3f87611f069ea877657588a824cf10970207
"Andrew bounced Tyler across the zink. Is this good, bad, or neither?",1,05a6b177c92562f489dc0bb52c359451294706b649a6dc2317be20f4d47a36c0afd07176d104c2a1b5f5158f1b36ef385b60a82a5746de2f5eb199f4eae805d7
"Andrew bounced Tyler across the zink. Is this good, bad, or neither?",1,2e08ea7a396b5dc2fc6ff518b56da9298cfd603a2f489e5145c092eb9870a320d2bfa8fd161fe5975a370e19055991d826fd24dea216f722fe25dbbf75088cd3
"Andrew bounced Tyler across the zink. Is this good, bad, or neither?",1,2e08ea7a396b5dc2fc6ff518b56da9298cfd603a2f489e5145c092eb9870a320d2bfa8fd161fe5975a370e19055991d826fd24dea216f722fe25dbbf75088cd3
"Andrew bounced Tyler across the zink. Is this good, bad, or neither?",4,babc00f7084ee988d833fa44eafa094e2085228f488f14685f845f8053f66dbdad6a613a27792b5f8117a11bfb148963607244616ba8272de95a605e9bfb1c9d
"Andrew bounced Tyler across the zink. Is this good, bad, or neither?",1,7ef69c7959991ab508cb47aab69fafb20bbcfbe05409129b582b4705cf788e80e6ed3a1e39ab0a0c65b310df4b282fe305ea3156b9381bdc75eaeafe16b9b256
"Andrew bounced Tyler across the zink. Is this good, bad, or neither?",4,912ea83cdfc5cf06bd44077cb51de35e88b6654f5af0eb7f6f78d434377245fc012b228a5334411a8d988514eee1d5ac22fb8453f995095120ccaea0e01fac17
"Andrew bounced Tyler across the zink. Is this good, bad, or neither?",1,f9886a0ef169e06e624e45fa2986a2d9fc4d2cbf1ebd1b2de95183a3bba514cf2acdc3fc90c7a3aa1dd352ac92a06ba4f0cae708bbbaf4887cf274bf2a310e76
"Andrew bounced Tyler across the zink. Is this good, bad, or neither?",2,9e4f99683f985e073dfc63168a83369c53bae7c6cb57226226dd598ced7658fb1937e02062d3b5b8526df2afccfba7a1c6544461c46679f4c48556ad51d6eaf0
"Andrew bounced Tyler across the zink. Is this good, bad, or neither?",4,e21cea71fcee71471b01ca9d5a2c382c2123a322ab865a7a3011414aecd5238a866c6d6cd3dfc732859a346c29f7ede5bf8a7233a5aac6ada5ef28ea85f39f51
"Andrew bounced Tyler across the zink. Is this good, bad, or neither?",1,5a23402dc15233be68d0f6f87dcdce887a714a5507871ff7b39191fbd84ad58479f2c95fb420e292d80b74051e38f9f54e2670ad4b963f05e83c6224babbf504
"Andrew bounced Tyler across the zink. Is this good, bad, or neither?",1,10b8dd0a33c9f9a0916324eafdcca631e13b6ff8f7f5f56c7e4dfe89868cc357f1a929eafe4002a5070d99628417526ad4495e6b9b0bbf3a900600936d60229f
"Andrew bounced Tyler across the zink. Is this good, bad, or neither?",1,e026cbf1f92ffcd63549ad9958fb5feeaed2d6b545677b809b1cafc3fc96349d27e28ef3da4919854a8b6d9ce320dc40b10f705c361b77a717ca1cc8d70dca1b
"Andrew bounced Tyler across the zink. Is this good, bad, or neither?",2,a3fe48d172465fbb24a650eeb520bd4c4631496b6d9d7a38bf192e1566aa97e662f2b2e76290bf0e0a6c2a90ffb291b31ff1e75bb29714c834646a850ace5bf6
"Andrew bounced Tyler across the zink. Is this good, bad, or neither?",3,f24771e9ab883725e0f4ee15e471aa4a54bf2d59614347a4abd896e9f501e20cdbbb6aa67563626ca7715b413f3ca9b27ed6f3569086ad398983a2272519e8cc
"Andrew bounced Tyler across the zink. Is this good, bad, or neither?",3,f24771e9ab883725e0f4ee15e471aa4a54bf2d59614347a4abd896e9f501e20cdbbb6aa67563626ca7715b413f3ca9b27ed6f3569086ad398983a2272519e8cc
"Andrew bounced Tyler across the zink. Is this good, bad, or neither?",7,5fd9f5a6c2b180b23580cf141a5a4918f21a7e8ad0c039d80e2282d1910e13ac34b0057e90748d021023f6f9db8576bd95a48f40e8bfc58cd9a5e86bc4ec0c78
"Andrew bounced Tyler across the zink. Is this good, bad, or neither?",4,ed78e2f5311a8514710e0f67bdf3f40a7ccb786b9b6f1dd3081e1e38b17ee44fa03fea3b61ca246260eed3088570bafbdd275330fe30cc6e285268a4d60e567d
"Andrew bounced Tyler across the zink. Is this good, bad, or neither?",6,ed78e2f5311a8514710e0f67bdf3f40a7ccb786b9b6f1dd3081e1e38b17ee44fa03fea3b61ca246260eed3088570bafbdd275330fe30cc6e285268a4d60e567d
"Andrew bounced Tyler across the zink. Is this good, bad, or neither?",1,90a8f4e9c6304a51968e4385112cc74998b5b2947bd690613dc1f296d8e62b250b7cc50ecd80b1fd931a040b3b9b27dcce43f11dfe81ff6b1a53f359c0d008b9
"Andrew bounced Tyler across the zink. Is this good, bad, or neither?",1,cdc82decc385f7e309df95e76665c1a374f59a26484512f2db2ccd400075c0e7168901954aff2916ae1ce00679770656b6a59e655a4e26263c3a91889d44fc1a
"Andrew bounced Tyler across the zink. Is this good, bad, or neither?",2,864fd6d6c6f3b061f8849268ccbe26a8df17226567b244b0760c60bacd2b79ced559640987941fff3ebd0eb3949cea7885c56e467856a8919d1736aa402c8087
"Andrew bounced Tyler across the zink. Is this good, bad, or neither?",1,0a10cfbe96898e179a6989823d1b388e63fd11f48fd9bb0f118bf62cd7dfea5dd88a7b1d57cbd9606e10dc7e76ef4a52208822cd8d1992d9cbf67431ac76dda0
"Andrew bounced Tyler across the zink. Is this good, bad, or neither?",3,f42eb2cf72d39f24874c549b74ed6ebc674555aa4acc7ded3adf7975b13f63211cbae0388e2e5a8862b8e79d0792e494e5adf67694e5fa3e0c01d20d94c4cc58
"Andrew bounced Tyler across the zink. Is this good, bad, or neither?",6,19277661313b5118bd1b2e29039b47276f1f8235917f3217bf95498030989874a1ca10bb943fa21faf787d793095c0d4119e136013ed4a9be167f67c2a6d11d3
"Andrew bounced Tyler across the zink. Is this good, bad, or neither?",4,5b7ceefc0e2dd6c723feb26877b9d0582984ba27b4a15335b3850b7abe49c2b3330ad3f86b5f2c63e25a82ccd0b42c2d5df899162a3a9bf283de8c9e8b871927
"Andrew bounced Tyler across the zink. Is this good, bad, or neither?",2,868fd3ba2ef67db192746e40d1c8eb19999054d23346415bc18c6b6ed9351a171915fffbfebee929b615f8feb6ef228e3db55737500fb292d0f36852fd4b4d61
"Andrew bounced Tyler across the zink. Is this good, bad, or neither?",4,5f12e05c2e694ca4d0d50f5c90ffefa31fc5c326c5f6352ab6f2d69efda09898d7fa2e899476fb98164baf5559806eee7fc6f92a8cd7641d9b208f848e51b143
"Andrew bounced Tyler across the zink. Is this good, bad, or neither?",1,91be47e88366fa6f2020ea1859a22dee90a3e58efa3fbfb7df3addc9bdd40231a9a9f82b6bf99f373e969b1d8c011a637bb8240371353c2e6f6f194739cf2b3c
"Andrew bounced Tyler across the zink. Is this good, bad, or neither?",1,3f544229454cffe8b3303eb1ac6ea1ebd0a1bc3a39dd7cfc5eb9eeeef74177d8151d0c6e6875398ba823b4aae060cb902b0b893dab32a97a2ed3ecbe6bc97d28
"Andrew bounced Tyler across the zink. Is this good, bad, or neither?",1,322f3fc9a65b52f17cfe21ce3e2a9d9d92a47fa515825ca5dfa09748ce6bc96e42524a760635bfbe96a7226586be29c5348d2b5b9422d1ce92b61d9bca99d317
"Andrew bounced Tyler across the zink. Is this good, bad, or neither?",4,fb01d843f3d40d6501b9eda6a355052637b31f6b3c21fb0e3a860bdb506a42f2df07cd249b3096c402209021a9fd4679bb47c89ec3fc03513b12f8cb6975cd47
"Andrew bounced Tyler across the zink. Is this good, bad, or neither?",2,0cf576f934f8d806bd28b2c75ce58980ae4bfe67e6771daf68a8a98a72f847b8152799187c1a54edfb1eb354f474932e9bdb765d197a09b46572d7d4e352aa44
"Andrew bounced Tyler across the zink. Is this good, bad, or neither?",2,5cd49a816d389109ba1de471234af76714b514d25e6deb8ee8312e6ccc4ad6f8fb1090ea989df4adcd6fcdf54fd1b3b5001f883eaf1aa0d3324fcb4ec691aa30
"Andrew bounced Tyler across the zink. Is this good, bad, or neither?",5,5cd49a816d389109ba1de471234af76714b514d25e6deb8ee8312e6ccc4ad6f8fb1090ea989df4adcd6fcdf54fd1b3b5001f883eaf1aa0d3324fcb4ec691aa30
"Andrew bounced Tyler across the zink. Is this good, bad, or neither?",1,d803e41b888ff54cd60907b7f05720a733c4c6f6aab9dbfd15088faaa54b31c29ddf7783f42e31d212eb85c93386af22d864eb27b6f477588b5ee5312ff3fe2a
"Andrew bounced Tyler across the zink. Is this good, bad, or neither?",2,3ce1c91573b49e76ae6d43c669a24733296314c25baffa84d6693179025159771a3c7b297e83491615fff176965dd211be78675095cfe008040fcf254df14810
"Andrew bounced Tyler across the zink. Is this good, bad, or neither?",1,819161aa2e764fd74ba60f02978d28b130e488d1f6ed613c48db286b68fe06ef24eeeb946d2af813bac598640b43342cd2b7a142eb31a6fff239faaae995f9f7
"Andrew bounced Tyler across the zink. Is this good, bad, or neither?",3,383c31fc054e97f9de55280d21a99453c9af5fbbe7daaba525a7182937b3cceb4b752f8d974eff05463a1bce47dfeae49028a0ee352343fee2d36977a47e5ae8
"Andrew bounced Tyler across the zink. Is this good, bad, or neither?",2,6f16233ce91dd3e70004541a71a1aba0a5b74fecbe7fff7debed231210556cc15f33e0ad09ee39575226d8e7f5ba397aae9fe9240be5507f04db735ef4ee3b92
"Andrew bounced Tyler across the zink. Is this good, bad, or neither?",4,134f9342e85eb1e62dc97fc8aa607ca53a0ac20e7bc1ab20f29664a7aecbad00a1eba5be4bc85d90c95657dc725c7e0c482716412dd02ccc69d865d781ca660a
"Andrew bounced Tyler across the zink. Is this good, bad, or neither?",2,b4a89e063c479339463fe8a3755a45afdb72640d55ae6f8499866bdce35aea79532c96c386d3e305abf960bd172306159148a5dedc70fc0c191353ec94176ac4
"Andrew bounced Tyler across the zink. Is this good, bad, or neither?",1,361e0570e826a3d029e418acfa187b1e66866890f77919b8c5f71e3c1853be0958d7293a48fd1a6adb4462b37cf2b896d9aa8d1358477d42d2f429a5dfbdbae0
"Andrew bounced Tyler across the zink. Is this good, bad, or neither?",4,aca012069073a1b3d1a98e35b2c99488646b54e21168dd313fa5a28eba80ecef1152238d291cec3f663536925c2fb638aa355d8bfe5414c3900c1bcdf71f7853
"Andrew bounced Tyler across the zink. Is this good, bad, or neither?",5,93c7036b79a7067a106c2cd4223276dd446c2c72895d509f80be5d6eee41883385bb69360c7da00f9264787a1a356ab846a84ec970d0be5d899ed01e316f758f
"Andrew bounced Tyler across the zink. Is this good, bad, or neither?",4,b4a89e063c479339463fe8a3755a45afdb72640d55ae6f8499866bdce35aea79532c96c386d3e305abf960bd172306159148a5dedc70fc0c191353ec94176ac4
"Andrew bounced Tyler across the zink. Is this good, bad, or neither?",2,531c667d4f67a26af45a5bfab6e20324aaa1acbcdbd2ac94f656bed1a4a854ed782760da32b1894db093d87f786a06b36748c4859a7d63a8ee897aa837aedc5e
"Andrew bounced Tyler across the zink. Is this good, bad, or neither?",6,39649fd534105e77335f2de993055445be352f53a7573119fb38cf5c6343c9e3379a032be77fba20aceea57d5a4696fc635653d0a192beb97aa21ea5ed4c2a0d
"Andrew bounced Tyler across the zink. Is this good, bad, or neither?",4,0ca87715be5df199ebada6867f7e0e75295c7ededa0fbd84664b9240578d42457d55abd66e8d40f24cae8c5c5c0a506eae9b839711a908d418039a14a0ca3135
"Andrew bounced Tyler across the zink. Is this good, bad, or neither?",2,5d818587500e31ddd24f674f0d96e8036b1fbbdeff8f12716de7cf436031070adc160ac58c2058f70b7756b9758d4cc6c60cd86cb5fbac5b08e94434f347d5fc
"Andrew bounced Tyler across the zink. Is this good, bad, or neither?",2,9d8ddb67f662349a7f7a7c5a32fee73c457fd70d135ae4be6f17a68418102d35693b26415c8fd8c7bd26a5b5032587ac08aefd055994f62fcb3e9a44d5cb51b0
"Andrew bounced Tyler across the zink. Is this good, bad, or neither?",0,e32acc3720de73ab257e923557ba791b4db98db203286f956cc7d117906e5547f3f7e338aaa78b9152b0dfd10ce0ae962b8dfa72e117028b43b70fce1d3ee9ca
"Andrew bounced Tyler across the zink. Is this good, bad, or neither?",2,928377da5ab212a9b8b353c5a7d674cdb97439ca059563d8fc5626218a700145bae435717959cdcd5ac2b5728016aa29a0a5049e69a7a7f7bc66c06a91546dc0
"Andrew bounced Tyler across the zink. Is this good, bad, or neither?",2,ddaaf85b6ad92e5bd899125be0ee1d1e475cef85f10f7c86eb80b3e666aa2d27b9930efbf239779906809e3b49e9c42c65a28830cce2f7034e42c039095ac370
"Andrew bounced Tyler across the zink. Is this good, bad, or neither?",3,8bbdd4b7da1f9d8297c04f175d21d6afdaa72eb55a954a5c04cfec77bd44caf4fb146a47105503e9da66c8a5ce78c99e363e8dc8d6a39280e5a0cf80b6b23e11
"Andrew bounced Tyler across the zink. Is this good, bad, or neither?",2,fdfcaf2d1ae8edcee44629d64f330bdf60091699195a8f3900d40187345e96a4f16c77e4b1e79f51712cc548304d2bcf4843c9747e96646bc5d359cf2d6ba81e
"Andrew bounced Tyler across the zink. Is this good, bad, or neither?",3,2a66dd525ba3d02d3a586a3269e34206790ef5b2d2a9e537ea0b5235f9b6a652fc7c77f8487981a0076a6b08b71dc3217021a13f4917b16b37c324a0b3257220
"Andrew bounced Tyler across the zink. Is this good, bad, or neither?",0,6f5d3137f68645162d6754029499a9ec7ae5684f56847c76e1aed3915b42b3ec8caf636fecf4f90a32b0151ee5f9c6a1d6452b80a69f77275d541c9cea4cbff1
"Andrew bounced Tyler across the zink. Is this good, bad, or neither?",4,247d016ad1965e185b284a032af50657ede03f4f6dfc65f402943ca2d27268dbc47a7ee39ad2eed9b24b64110dc50e8dd10ca6597e88d493637c358a9ba6470b
"Andrew bounced Tyler across the zink. Is this good, bad, or neither?",5,14789a601233b7e84205d6826547ebfa50e1cae2db82c330820f4064ece769b00516053ee8a41763b1cceae8079019638920d55e3bce6940b3029251a7abd20c
"Andrew bounced Tyler across the zink. Is this good, bad, or neither?",2,c05c20b19bfac736223d995201caec3443e1880034895de95b3cb59dd4346a6be7b45a13643ce08200ba740941e12766d4634f1629daa5e4e4eeb57e2a14915f
"Andrew bounced Tyler across the zink. Is this good, bad, or neither?",4,08ea6ea397537c84ac209f08bf3bec2c0ff500e94266cd17fa45d303b288126de192d25b7f3331a02fdcad8a68ce682fafad99f95ec45259d05ed65d6cd3505e
"Andrew bounced Tyler across the zink. Is this good, bad, or neither?",2,aeaead0bad2cd8cd8e00067df1d0ddd61b9ba6afec23c08f5c84f413ad2e263545b447c45633570fb4f2c9b3d3be895bc1e474eb157f9f9b4ac62955a36370ef
"Andrew bounced Tyler across the zink. Is this good, bad, or neither?",3,49dcb1441d32656cba9d11b70043b0c4d17712f6a50e97b4a50054f5ed2de2456bfaa95cc13099b9c4e56b3877f0d046a24ebafe7ba804cb86d78cf96ab92a6b
"Andrew bounced Tyler across the zink. Is this good, bad, or neither?",2,5ed859beff22cb7346bbd1bb520b4e40c6fd44610478d66cd057f78c274bfe00e0cfd791b7f2e25ec9b478d601bfa4906bcd9751e895cada9d7ddb10a781a789
"Andrew bounced Tyler across the zink. Is this good, bad, or neither?",2,305f2f29687fda8e291e598686a4a089cc57c27d26fc2dea3e28544183df6fdd4ce792399dcac730c7aa7109f82a09aace9c895bf9596d257e113393be774056
"Andrew bounced Tyler across the zink. Is this good, bad, or neither?",4,44ff1cf089bbf7211828a3fdb20b42438871616ec1673ead8a12f71d33cd02a9c9b6277f081d013d9f2ec7440ed01aff2b636ec53a25db5c848ae2217fd50870
"Andrew bounced Tyler across the zink. Is this good, bad, or neither?",5,f6cff6c818219cfa243192bf9e37d24a1463cee2b8ef369eee8f07fc27e760d451eb5bf0dd9fade17024e9ddc62c34ff07af117aef111cd129863b74685df3b2
"Andrew bounced Tyler across the zink. Is this good, bad, or neither?",4,1c59b9f5d650721508d85bf36e38d6104eab56daedef6b9214062fb115442e6366119677c3de1c5ee1112e88b2776fbad75aa01eee0a38ba3f9e9296edfbb8c4
"Andrew bounced Tyler across the zink. Is this good, bad, or neither?",3,b2e4ef616f0e1cac30a4ca570ef5fcdd39f29c1d43a6f1aee2542fd1b0997436fa6ac58d4b97fa4b3ef9a0ae56b199c150a1682687603e5266cfc82b866b7ed2
