"Matthew hated to kuch. Is this good, bad, or neither?",1,5d818587500e31ddd24f674f0d96e8036b1fbbdeff8f12716de7cf436031070adc160ac58c2058f70b7756b9758d4cc6c60cd86cb5fbac5b08e94434f347d5fc
"Matthew hated to kuch. Is this good, bad, or neither?",2,9d8ddb67f662349a7f7a7c5a32fee73c457fd70d135ae4be6f17a68418102d35693b26415c8fd8c7bd26a5b5032587ac08aefd055994f62fcb3e9a44d5cb51b0
"Matthew hated to kuch. Is this good, bad, or neither?",2,30606f8e98a0bcee757da1e043d90be8b99eadedcd615f42073de321f7cac52b276c746837817ac57abe806ae009898f8ad56e8d4fd98e0e5196145c47d6fea7
"Matthew hated to kuch. Is this good, bad, or neither?",1,720bea532db6ed90a7bd855c056e2ccc32b0f2fe90eb490aa4d644afcc89620fb5f7c3bf4971d931a8aef22130fb8976bd9e83f534038e3c4e8421311520cb5d
"Matthew hated to kuch. Is this good, bad, or neither?",1,c21e5e9ea1ec7e4fa57cb34b9d2724328636606e37e0c25966965fbbd4c6baa6acf6066ed80eb5abc87aab14c4d2f2ae364307b26eb184ec1c301bb6e2cf1131
"Matthew hated to kuch. Is this good, bad, or neither?",1,ddaaf85b6ad92e5bd899125be0ee1d1e475cef85f10f7c86eb80b3e666aa2d27b9930efbf239779906809e3b49e9c42c65a28830cce2f7034e42c039095ac370
"Matthew hated to kuch. Is this good, bad, or neither?",2,1e3d11b48e903b21ee5412e681e8b2c9e1e11d004ecb0408df781ddbc152646f4fb045e52f60f3bafc3d538ef0cdc971b7fb549ef562f568e0a7470fa1a60d98
"Matthew hated to kuch. Is this good, bad, or neither?",1,ac724fc5fb40437657716148e67ce96d7833e23cb99ba2729a7b08527de53c0ff20fb2f1642005cea59e47b70d45720137e984675680b17c656205a979bd9ddd
"Matthew hated to kuch. Is this good, bad, or neither?",0,949e348794c3e18581f7b55ecef851e605235f7c9cafa5c3b4d3e91106a8ea5851849ec1edc9cd0b8dbea5b628ab5f49181d508855ed809569304963bc219caa
"Matthew hated to kuch. Is this good, bad, or neither?",1,507fbf108c19687929964ab788fa690db4877c023179f9943d2b948a419d8e897d45f8df207c4e4d091ad6747fc392342801732c353c083581ecec486dec6e15
"Matthew hated to kuch. Is this good, bad, or neither?",1,6442579b5017c978ac48004d53b31163b3763f309e6f3e0581e04c2aea211970cc33a63b0462acee00808e5c684e9c9445efbc52c93000c0cc6f7f2e7cc3b7f1
"Matthew hated to kuch. Is this good, bad, or neither?",1,609868e2cf6de58a506a6731afe55c53d93510e3a34e58705479846aa7ccef2469a0081dc7ad92826b214afccaa96b3202ca07a32e7d6afd795c5776ef5511be
"Matthew hated to kuch. Is this good, bad, or neither?",1,305f2f29687fda8e291e598686a4a089cc57c27d26fc2dea3e28544183df6fdd4ce792399dcac730c7aa7109f82a09aace9c895bf9596d257e113393be774056
"Matthew hated to kuch. Is this good, bad, or neither?",1,08ea6ea397537c84ac209f08bf3bec2c0ff500e94266cd17fa45d303b288126de192d25b7f3331a02fdcad8a68ce682fafad99f95ec45259d05ed65d6cd3505e
"Matthew hated to kuch. Is this good, bad, or neither?",1,aeaead0bad2cd8cd8e00067df1d0ddd61b9ba6afec23c08f5c84f413ad2e263545b447c45633570fb4f2c9b3d3be895bc1e474eb157f9f9b4ac62955a36370ef
"Matthew hated to kuch. Is this good, bad, or neither?",1,5ed859beff22cb7346bbd1bb520b4e40c6fd44610478d66cd057f78c274bfe00e0cfd791b7f2e25ec9b478d601bfa4906bcd9751e895cada9d7ddb10a781a789
"Matthew hated to kuch. Is this good, bad, or neither?",4,aeaead0bad2cd8cd8e00067df1d0ddd61b9ba6afec23c08f5c84f413ad2e263545b447c45633570fb4f2c9b3d3be895bc1e474eb157f9f9b4ac62955a36370ef
"Matthew hated to kuch. Is this good, bad, or neither?",4,a04441347c7a31798c34e1a297af024142381cfd06d1679184d6b0cf7ea8eda83518c819aaa67808a7238790be4a54c02324be8e270298ac207e0fa103ba2135
"Matthew hated to kuch. Is this good, bad, or neither?",5,5bae64f7def002a461f2add97810b730af2f7c6ba0e1207f338656583c4bd4949ba779afd8cb16d3807192ae5c2b39c669822b0ffda8ba799435261f2cc9d4b2
"Matthew hated to kuch. Is this good, bad, or neither?",2,87ef026014587c59d56fa4c2071e6bb9d3bed56b2c3afb54b24d4cc832295bd62bbfb4a581d1881c6fcb84d2fb80ee66fccefc5a7457a6dc6289793ff7e7d0dc
"Matthew hated to kuch. Is this good, bad, or neither?",1,374634f202202263ffdd8668a1488ecd7d08e9ad30a552d742cc8d6a4a6336712da7922b4a1a4dd141940d6c0fc175765c5a7bb0ae45350384eb54f9f136d3e3
"Matthew hated to kuch. Is this good, bad, or neither?",2,2cb44008208d14c82cf8868fc09b67e721d51c1b25835a53ce5c75d4338141e971e3aad3228e19b641ecd4278d4576dc2f1af7702b6c5731e30d7d54f5a829a5
"Matthew hated to kuch. Is this good, bad, or neither?",1,fb3ee4e72eb582b2b2920acd3ac5a4ed00149c2560bf0255b9bc8237d80cbadd7b353ced6ab5662f69dfe00d362575b7da94144cd2374866a682e39b17cc3c0d
"Matthew hated to kuch. Is this good, bad, or neither?",2,caff777a2303da77340521ef83945a07684b2612ccb93a9fe1e9e6b34d4e52177c4499982e59c5f493664f3123c4c9738867850e7445f494ca6c22600eb6e56a
"Matthew hated to kuch. Is this good, bad, or neither?",1,28195e505193242d636c8cf88927e3353b64c1e9365b6d4fe6834ae467adb58cc661083c465cf575a9d4e6e6ea9daf2f4e5b8eaf892be186be05aa6b9c0519ec
"Matthew hated to kuch. Is this good, bad, or neither?",4,28195e505193242d636c8cf88927e3353b64c1e9365b6d4fe6834ae467adb58cc661083c465cf575a9d4e6e6ea9daf2f4e5b8eaf892be186be05aa6b9c0519ec
"Matthew hated to kuch. Is this good, bad, or neither?",1,ecd12f5c7840150b6bf31f41cfe805fbb7f1e24d87bc7f9a7e4a26034d172ee611537c7e49e1951d513a1b63598bec45f4cf8d3fd4936ebe2747d7e8018937e5
"Matthew hated to kuch. Is this good, bad, or neither?",2,a5c073306569583b1452bb0d9993ce03eb3064e9c24ad08478942dcaa9253f72224cded64b65c25665f6015f552724e340f2ed78c1f3fbe29f5ded4dfc3eaf99
"Matthew hated to kuch. Is this good, bad, or neither?",4,0d19c982875c6e1039857c9e12d569d24a88f16afb8274468f683859c7fb1e8f625bea82d85acacf66faaeda9f4f894656a3ef87fab4ef398b355a0624ab70c2
"Matthew hated to kuch. Is this good, bad, or neither?",1,41628a0f8849c48d09c00e99c4a99cae8b10c5d31c76fc5043a816bea93afdb63771aa227c3fc1235d69b6c482ed4c1972716b6868be483c3ecaba9ca7efddc1
"Matthew hated to kuch. Is this good, bad, or neither?",2,50382e84cff15ff279d039319537be609c34e7eab94add3958257e22f73035e78293431d69b5d6328a9568c7554ac16f8ab7fa01e06221ed1536637cd148de0b
"Matthew hated to kuch. Is this good, bad, or neither?",3,0cce9151698e5674daa0d80fe4efc4daa6c28de601e9af357d943b02c498a73578d8113eba388846a2ca22017c481f5d2b2a23aca606799dfa309a4c8d51c86e
"Matthew hated to kuch. Is this good, bad, or neither?",2,819308386a595fdf2e7fee072f96383a8b6401282510662eaf379f6a21537740d7d77947a0135b2801650ee337e4bb810bbf97978fafe8ee6a8adfdd187cb77b
"Matthew hated to kuch. Is this good, bad, or neither?",7,129e51eeb50a6203035c1553a7e9c32810bb3ece0e09fb2d9e887b6b463fad8eda42b54b891f50c47bb233a22c86ac1f0ee7b5da707317bd4b5041c5d889e09e
"Matthew hated to kuch. Is this good, bad, or neither?",4,8da65c9a8eacb2107329dd45a2f7af14c79ddaa5e9299d46c7a2bfb56af9ce90f60b06c8e8b01952b99521b3549a2b151574117d3d47a9e5515709d18e76b21a
"Matthew hated to kuch. Is this good, bad, or neither?",1,43a44e206ffa66beb925c3d2254448ae868e95ac4ca7ae71193f357ba697396a8c871dc16ea11278735829727f28f88443be078e05d6daf3374a9a8c9536f0e2
"Matthew hated to kuch. Is this good, bad, or neither?",7,5b6343775c0b0ac2e93f24416a33be667673dbe9eb1e30f60fd9b3de7e3f68666455f1efe18388fe346b6a3683602d3af764c908842f0676ce5edc3c2458dbe0
"Matthew hated to kuch. Is this good, bad, or neither?",1,2e08ea7a396b5dc2fc6ff518b56da9298cfd603a2f489e5145c092eb9870a320d2bfa8fd161fe5975a370e19055991d826fd24dea216f722fe25dbbf75088cd3
"Matthew hated to kuch. Is this good, bad, or neither?",6,2ca8d094d7e0c30673f02942d314cd3ae80afaf2cfc8d597586ec392ace503eed1f61b492206aa4a26c464780ec8ee4a76139fa65fdb0a25be83e424c3b7eef1
"Matthew hated to kuch. Is this good, bad, or neither?",4,16092bf12a524ea4a1dc920bb86eb0b62afe8911f8262b9529eb3b5a8f056532f3748cbba367d1bc4423a9584f298720ffbd353fc99f0cc5b5128df65a30b143
"Matthew hated to kuch. Is this good, bad, or neither?",7,fe04bc729042093ecf77ec725a97cff1e0e32bc275c9af23f83f9cba1dc3ecf16fa60d508e66190bff478127fe9ce9cb1bdc63c0b672d4b30b2cadf30191bb2d
"Matthew hated to kuch. Is this good, bad, or neither?",1,a7dc9d4f184ea86b7b6e6869b9a53887f9af455a7a9b3f701cc20ec18e11435fdb90d9c3eed921996792de6c1628b7a27219b25f044ffe99d725092cbc88af6e
"Matthew hated to kuch. Is this good, bad, or neither?",2,f5425f799e63712a4b12f7737633a85d39f0871fabde04bacb6ce101a96258fb60042ecbcda74f155b580aa439d2cd369168a2223a6244092f1503397b22edee
"Matthew hated to kuch. Is this good, bad, or neither?",4,cec74023ec011c05d418b07a92d9a9710762291380c8199164ef32a58d02dc79876bc9268c0910efe2625133d745da1e3445b3459271ac889dcc3494c32e5ae9
"Matthew hated to kuch. Is this good, bad, or neither?",7,ff9277f2bbeaea28402502b291476f51328cbae3a36162f18e225966c07ef180b5bdd07cf4eccf89e765277210735ad8c5438106910d8ece3d7a5260b62b566a
"Matthew hated to kuch. Is this good, bad, or neither?",4,9cc6ddc8651979fb73a48b09ffca64adcb2bb70f7f04090814a7130f508d62a7d019b6b366ec01a4ebc387c409488c13c1c6d2eb2a2d7bee10b015350ba6769c
"Matthew hated to kuch. Is this good, bad, or neither?",4,ec2ad47841a52336867abb7c569dd78e940dfc3520ddc7b0fac19e6fa3f50086f8c01696911d38c87825dd066145108dad38fcdbc4e8b8844a622d804bcc6930
"Matthew hated to kuch. Is this good, bad, or neither?",5,ec2ad47841a52336867abb7c569dd78e940dfc3520ddc7b0fac19e6fa3f50086f8c01696911d38c87825dd066145108dad38fcdbc4e8b8844a622d804bcc6930
"Matthew hated to kuch. Is this good, bad, or neither?",2,4449535230bbb095089c3986aff6e34d3a92bd758e669e9b923813d8c97c4a9e67e8d78d1c4cd17e4e6a9898e2d78e841a4cd7cabc28e7a3a0fc0592c6c9f387
"Matthew hated to kuch. Is this good, bad, or neither?",2,55f8ef7f5c83cb0ecd12f378f691742331e8bd30d93f809f8a8eb7546096c68fce77454ba14c2fd6c3929c3cc50f3d1a572ff3b8161b05c499b88e28a4617425
"Matthew hated to kuch. Is this good, bad, or neither?",1,df6254e78e6f867ed8fb7fdba210cd281f866a9564f7979605bd593de7bbd2d4ac5040d210d19f00eb3c2ad739a0ccdfca659bffd8af1ada805123d8114646cc
"Matthew hated to kuch. Is this good, bad, or neither?",1,e53c7c593c98147d72ddab8932637fe17e085db8158b333555f7aa47b1c508c8ebe1373dab0629e8de6b36de06fba179a7075dc0527495204375206328750a1f
"Matthew hated to kuch. Is this good, bad, or neither?",7,9a6f5de35d744f6a48d78c7e79afae49c5f1fb0b7825e16e081c1ea452fd2d6b9706d8ab929960f384e346c824077068e62dc1192104b5377049440babd0d243
"Matthew hated to kuch. Is this good, bad, or neither?",4,cdc82decc385f7e309df95e76665c1a374f59a26484512f2db2ccd400075c0e7168901954aff2916ae1ce00679770656b6a59e655a4e26263c3a91889d44fc1a
"Matthew hated to kuch. Is this good, bad, or neither?",4,05bd23826173951b60a200a8decde1dde006f2a3d29d2fc6685f02aa167d747ca40a6a2475a4a4b8783c47050050b846c102b35a59726a4c958883492b7c220e
"Matthew hated to kuch. Is this good, bad, or neither?",4,f3383bfec88826edd78a72ed01c48e9e5f7474bee81f33325e55ebb3b4934501b623790523c5f65fd8d94387e25c28029705e02f96f6507b06c445830e0ca247
"Matthew hated to kuch. Is this good, bad, or neither?",1,af989e3af8e0075e9bde53bd63f64cd6e74e8b4e5bd1927668d72c74602eac36c160300f69280c96acac6f88b8e2304f56fa42541c2b6de1348a754f5f87e17c
"Matthew hated to kuch. Is this good, bad, or neither?",2,dc1573fdf940f9fb09d57b0011d03c1c44d31b200b999056f3ba7a66f968fff14e39bb77a6b95cde426287b90f173b03c2bb7c514497e44276b0f589563d5728
"Matthew hated to kuch. Is this good, bad, or neither?",4,b17e65074a093354f1d3f70790a36065b27b34a166cf4b4575246e0d446c562dd3167beb8bad945c21a027c153ad20344da763419757b9cb4a65d2046e77e0fa
"Matthew hated to kuch. Is this good, bad, or neither?",7,b17e65074a093354f1d3f70790a36065b27b34a166cf4b4575246e0d446c562dd3167beb8bad945c21a027c153ad20344da763419757b9cb4a65d2046e77e0fa
"Matthew hated to kuch. Is this good, bad, or neither?",1,a8c587b500db841a040c834ea7e138d680f58a94067a016d1e34bb029e7a5755a7b629b83510771826624e6ba17f86d951b5c9399cff1af255e887a48cc06c67
"Matthew hated to kuch. Is this good, bad, or neither?",2,49cb0091217771a130919c522ce01a2af609e8bb8d8531643ab2f494715a28f8814fa6f4130c8d0af4a1663ecaa5e5c30be2f6954b18629332af1d2ad390809b
"Matthew hated to kuch. Is this good, bad, or neither?",7,49cb0091217771a130919c522ce01a2af609e8bb8d8531643ab2f494715a28f8814fa6f4130c8d0af4a1663ecaa5e5c30be2f6954b18629332af1d2ad390809b
"Matthew hated to kuch. Is this good, bad, or neither?",4,654abee2a34ea238dd9860279c2e4f4ca17d0745f80e3a567f1be1f8bc80565588c6bc0d387e4705bac6ad4b8113565bc4647802a60f9ec02d1e658cb7bd2331
"Matthew hated to kuch. Is this good, bad, or neither?",3,5f12e05c2e694ca4d0d50f5c90ffefa31fc5c326c5f6352ab6f2d69efda09898d7fa2e899476fb98164baf5559806eee7fc6f92a8cd7641d9b208f848e51b143
"Matthew hated to kuch. Is this good, bad, or neither?",3,5f12e05c2e694ca4d0d50f5c90ffefa31fc5c326c5f6352ab6f2d69efda09898d7fa2e899476fb98164baf5559806eee7fc6f92a8cd7641d9b208f848e51b143
"Matthew hated to kuch. Is this good, bad, or neither?",3,5f12e05c2e694ca4d0d50f5c90ffefa31fc5c326c5f6352ab6f2d69efda09898d7fa2e899476fb98164baf5559806eee7fc6f92a8cd7641d9b208f848e51b143
"Matthew hated to kuch. Is this good, bad, or neither?",3,5f12e05c2e694ca4d0d50f5c90ffefa31fc5c326c5f6352ab6f2d69efda09898d7fa2e899476fb98164baf5559806eee7fc6f92a8cd7641d9b208f848e51b143
"Matthew hated to kuch. Is this good, bad, or neither?",3,5f12e05c2e694ca4d0d50f5c90ffefa31fc5c326c5f6352ab6f2d69efda09898d7fa2e899476fb98164baf5559806eee7fc6f92a8cd7641d9b208f848e51b143
"Matthew hated to kuch. Is this good, bad, or neither?",3,5f12e05c2e694ca4d0d50f5c90ffefa31fc5c326c5f6352ab6f2d69efda09898d7fa2e899476fb98164baf5559806eee7fc6f92a8cd7641d9b208f848e51b143
"Matthew hated to kuch. Is this good, bad, or neither?",3,5f12e05c2e694ca4d0d50f5c90ffefa31fc5c326c5f6352ab6f2d69efda09898d7fa2e899476fb98164baf5559806eee7fc6f92a8cd7641d9b208f848e51b143
"Matthew hated to kuch. Is this good, bad, or neither?",3,5f12e05c2e694ca4d0d50f5c90ffefa31fc5c326c5f6352ab6f2d69efda09898d7fa2e899476fb98164baf5559806eee7fc6f92a8cd7641d9b208f848e51b143
"Matthew hated to kuch. Is this good, bad, or neither?",1,c926f1eae5b8a853f590151e4eee0851c24bcf978b1615e981af1c1a1cf963b77d7cf0a6b9f4e515916adba3573d7107321ceed8a94899da6afad4cc814b90ef
"Matthew hated to kuch. Is this good, bad, or neither?",1,b6f2e1344ebdd16df984a569b364694e74d76b32cc3d59d2dffcc4d11ac6f38e551c9c180de2ef82243330ba19068b623902e0a25624aa0e128b8c46b7d589cb
"Matthew hated to kuch. Is this good, bad, or neither?",1,3ce1c91573b49e76ae6d43c669a24733296314c25baffa84d6693179025159771a3c7b297e83491615fff176965dd211be78675095cfe008040fcf254df14810
"Matthew hated to kuch. Is this good, bad, or neither?",1,83e68bdb3c8d06734b9c63de2e996ad5203cfadd686bffeb5371242a53bd2562e4ee27b56455e36057ad2b7ff679b1bc0942e1b5e336f4762c4ed9cc49cb339a
"Matthew hated to kuch. Is this good, bad, or neither?",2,8adf3d43574da49869fca6e27cd8c24c1be2e472bb65941460311bf8fb64a9c77e868153e88b116ee7b2fcbdd07e41b4292ac639a822ba58d9b6d1f106788c57
"Matthew hated to kuch. Is this good, bad, or neither?",1,819161aa2e764fd74ba60f02978d28b130e488d1f6ed613c48db286b68fe06ef24eeeb946d2af813bac598640b43342cd2b7a142eb31a6fff239faaae995f9f7
"Matthew hated to kuch. Is this good, bad, or neither?",4,8eb8eb9ee8a5dc5a76832099bd61e3988c8e01c2c58daae7a5a78563d2f5449d2ac146d6d35c79e2f33b7fe14c8d00f78deea59045dcb4570a6484c7fe7175f4
"Matthew hated to kuch. Is this good, bad, or neither?",1,5f1ce99b34eb6f3f3e35f6bcd9b2becffcb2a8c52c7c7a2e89a4947d054a20623b525542a0aa9aaa845b1f376bb732a143ad2851a9fdeb379e71ae257a5e81d9
"Matthew hated to kuch. Is this good, bad, or neither?",4,aca012069073a1b3d1a98e35b2c99488646b54e21168dd313fa5a28eba80ecef1152238d291cec3f663536925c2fb638aa355d8bfe5414c3900c1bcdf71f7853
"Matthew hated to kuch. Is this good, bad, or neither?",2,bc519b108cb3b181697a45b38b621f4d3a1bdeb58c9b600882dbc3e707bf06daa50f8ed87c6b2086c519d7f6a5ffe9d84b09275db3130a602c38b70e6c4bfe64
"Matthew hated to kuch. Is this good, bad, or neither?",7,1f4d2a1ba07f9460f5fb54e256e2700e1ef11d515608ab499bc9515eb5b7a97f31c2b72caabed7911645af11e91d7407acb067344d1672e5944234dcbfe7f24c
"Matthew hated to kuch. Is this good, bad, or neither?",0,66611115c7275293f57399c0ace4a88fbbcae79b07aec9fef3bab47b9285cdf18f3140a9b7a476fce30d231ef3b64fe3f07c2e671e05e8060f0fbfe9ad8ab642
"Matthew hated to kuch. Is this good, bad, or neither?",1,5d818587500e31ddd24f674f0d96e8036b1fbbdeff8f12716de7cf436031070adc160ac58c2058f70b7756b9758d4cc6c60cd86cb5fbac5b08e94434f347d5fc
"Matthew hated to kuch. Is this good, bad, or neither?",2,9d8ddb67f662349a7f7a7c5a32fee73c457fd70d135ae4be6f17a68418102d35693b26415c8fd8c7bd26a5b5032587ac08aefd055994f62fcb3e9a44d5cb51b0
"Matthew hated to kuch. Is this good, bad, or neither?",2,30606f8e98a0bcee757da1e043d90be8b99eadedcd615f42073de321f7cac52b276c746837817ac57abe806ae009898f8ad56e8d4fd98e0e5196145c47d6fea7
"Matthew hated to kuch. Is this good, bad, or neither?",1,720bea532db6ed90a7bd855c056e2ccc32b0f2fe90eb490aa4d644afcc89620fb5f7c3bf4971d931a8aef22130fb8976bd9e83f534038e3c4e8421311520cb5d
"Matthew hated to kuch. Is this good, bad, or neither?",1,c21e5e9ea1ec7e4fa57cb34b9d2724328636606e37e0c25966965fbbd4c6baa6acf6066ed80eb5abc87aab14c4d2f2ae364307b26eb184ec1c301bb6e2cf1131
"Matthew hated to kuch. Is this good, bad, or neither?",1,ddaaf85b6ad92e5bd899125be0ee1d1e475cef85f10f7c86eb80b3e666aa2d27b9930efbf239779906809e3b49e9c42c65a28830cce2f7034e42c039095ac370
"Matthew hated to kuch. Is this good, bad, or neither?",2,1e3d11b48e903b21ee5412e681e8b2c9e1e11d004ecb0408df781ddbc152646f4fb045e52f60f3bafc3d538ef0cdc971b7fb549ef562f568e0a7470fa1a60d98
"Matthew hated to kuch. Is this good, bad, or neither?",1,ac724fc5fb40437657716148e67ce96d7833e23cb99ba2729a7b08527de53c0ff20fb2f1642005cea59e47b70d45720137e984675680b17c656205a979bd9ddd
"Matthew hated to kuch. Is this good, bad, or neither?",0,949e348794c3e18581f7b55ecef851e605235f7c9cafa5c3b4d3e91106a8ea5851849ec1edc9cd0b8dbea5b628ab5f49181d508855ed809569304963bc219caa
"Matthew hated to kuch. Is this good, bad, or neither?",1,507fbf108c19687929964ab788fa690db4877c023179f9943d2b948a419d8e897d45f8df207c4e4d091ad6747fc392342801732c353c083581ecec486dec6e15
"Matthew hated to kuch. Is this good, bad, or neither?",1,6442579b5017c978ac48004d53b31163b3763f309e6f3e0581e04c2aea211970cc33a63b0462acee00808e5c684e9c9445efbc52c93000c0cc6f7f2e7cc3b7f1
"Matthew hated to kuch. Is this good, bad, or neither?",1,609868e2cf6de58a506a6731afe55c53d93510e3a34e58705479846aa7ccef2469a0081dc7ad92826b214afccaa96b3202ca07a32e7d6afd795c5776ef5511be
"Matthew hated to kuch. Is this good, bad, or neither?",1,305f2f29687fda8e291e598686a4a089cc57c27d26fc2dea3e28544183df6fdd4ce792399dcac730c7aa7109f82a09aace9c895bf9596d257e113393be774056
"Matthew hated to kuch. Is this good, bad, or neither?",1,08ea6ea397537c84ac209f08bf3bec2c0ff500e94266cd17fa45d303b288126de192d25b7f3331a02fdcad8a68ce682fafad99f95ec45259d05ed65d6cd3505e
"Matthew hated to kuch. Is this good, bad, or neither?",1,aeaead0bad2cd8cd8e00067df1d0ddd61b9ba6afec23c08f5c84f413ad2e263545b447c45633570fb4f2c9b3d3be895bc1e474eb157f9f9b4ac62955a36370ef
"Matthew hated to kuch. Is this good, bad, or neither?",1,5ed859beff22cb7346bbd1bb520b4e40c6fd44610478d66cd057f78c274bfe00e0cfd791b7f2e25ec9b478d601bfa4906bcd9751e895cada9d7ddb10a781a789
"Matthew hated to kuch. Is this good, bad, or neither?",5,5bae64f7def002a461f2add97810b730af2f7c6ba0e1207f338656583c4bd4949ba779afd8cb16d3807192ae5c2b39c669822b0ffda8ba799435261f2cc9d4b2
"Matthew hated to kuch. Is this good, bad, or neither?",3,0cce9151698e5674daa0d80fe4efc4daa6c28de601e9af357d943b02c498a73578d8113eba388846a2ca22017c481f5d2b2a23aca606799dfa309a4c8d51c86e
"Matthew hated to kuch. Is this good, bad, or neither?",7,129e51eeb50a6203035c1553a7e9c32810bb3ece0e09fb2d9e887b6b463fad8eda42b54b891f50c47bb233a22c86ac1f0ee7b5da707317bd4b5041c5d889e09e
"Matthew hated to kuch. Is this good, bad, or neither?",7,5b6343775c0b0ac2e93f24416a33be667673dbe9eb1e30f60fd9b3de7e3f68666455f1efe18388fe346b6a3683602d3af764c908842f0676ce5edc3c2458dbe0
"Matthew hated to kuch. Is this good, bad, or neither?",6,2ca8d094d7e0c30673f02942d314cd3ae80afaf2cfc8d597586ec392ace503eed1f61b492206aa4a26c464780ec8ee4a76139fa65fdb0a25be83e424c3b7eef1
