0,Ryan moved to a sampy position. Is this good, bad, or neither?,4,4,5d818587500e31ddd24f674f0d96e8036b1fbbdeff8f12716de7cf436031070adc160ac58c2058f70b7756b9758d4cc6c60cd86cb5fbac5b08e94434f347d5fc,0.7947710819478818,1
1,Ryan moved to a sampy position. Is this good, bad, or neither?,4,4,9d8ddb67f662349a7f7a7c5a32fee73c457fd70d135ae4be6f17a68418102d35693b26415c8fd8c7bd26a5b5032587ac08aefd055994f62fcb3e9a44d5cb51b0,0.6347561299029423,1
2,Ryan moved to a sampy position. Is this good, bad, or neither?,4,4,720bea532db6ed90a7bd855c056e2ccc32b0f2fe90eb490aa4d644afcc89620fb5f7c3bf4971d931a8aef22130fb8976bd9e83f534038e3c4e8421311520cb5d,0.99990378727343,1
3,Ryan moved to a sampy position. Is this good, bad, or neither?,4,4,3e48ecd6054d02891089f87e7290c4a1787d57fabca13ac896aa9393516140b72931471ecd8ad7b77a4a4dbb84a62823ee4ee2800ac340eb5b600cf3fba6c547,0.7887893742356985,1
4,Ryan moved to a sampy position. Is this good, bad, or neither?,4,2,ddaaf85b6ad92e5bd899125be0ee1d1e475cef85f10f7c86eb80b3e666aa2d27b9930efbf239779906809e3b49e9c42c65a28830cce2f7034e42c039095ac370,0.47326304410023234,1
5,Ryan moved to a sampy position. Is this good, bad, or neither?,4,5,ccfaa326d8b92448b4b19e6e8653dfe26eb68f94292588d631ff0d68d1cee3cfc074b10890b86c0ea17f12302fc4cd0a9ad531da7c74b9845c1611668e12a05b,0.5307525714481502,1
6,Ryan moved to a sampy position. Is this good, bad, or neither?,4,4,6f5d3137f68645162d6754029499a9ec7ae5684f56847c76e1aed3915b42b3ec8caf636fecf4f90a32b0151ee5f9c6a1d6452b80a69f77275d541c9cea4cbff1,0.014819530680913167,1
7,Ryan moved to a sampy position. Is this good, bad, or neither?,4,3,9fc9d3de7ddb83580fc430d2d5c6ee47e775cabd5a982d7012deb44dbf1042f8b3db8ea6b2c4ee7b39f82b84b6b071d6968393ccc6520a6870f0883ccc441cf9,0.2512880406599153,1
8,Ryan moved to a sampy position. Is this good, bad, or neither?,4,4,7c716e84485c4b668a895395c75ec25821b87a2ecc2eeb5126c6b960c4b368389f56e5487f589f0f84cf6e6db4cc4f03f869246bfecdf8f11a2bb59dfc45a76e,0.5226882938601285,1
9,Ryan moved to a sampy position. Is this good, bad, or neither?,4,4,675a6154d38e7981c932127e219f374c1a8880011eab4c932106ac51314fb2868ba8fd7264f3bb40c5a96272dc019e5c9cf6c60011e9e9a04b73042a43219af2,0.8212817881745951,1
10,Ryan moved to a sampy position. Is this good, bad, or neither?,4,4,305f2f29687fda8e291e598686a4a089cc57c27d26fc2dea3e28544183df6fdd4ce792399dcac730c7aa7109f82a09aace9c895bf9596d257e113393be774056,0.8121160040084888,1
11,Ryan moved to a sampy position. Is this good, bad, or neither?,4,4,08ea6ea397537c84ac209f08bf3bec2c0ff500e94266cd17fa45d303b288126de192d25b7f3331a02fdcad8a68ce682fafad99f95ec45259d05ed65d6cd3505e,0.3227002478182453,1
12,Ryan moved to a sampy position. Is this good, bad, or neither?,4,2,aeaead0bad2cd8cd8e00067df1d0ddd61b9ba6afec23c08f5c84f413ad2e263545b447c45633570fb4f2c9b3d3be895bc1e474eb157f9f9b4ac62955a36370ef,0.34563671947219327,1
13,Ryan moved to a sampy position. Is this good, bad, or neither?,4,4,a6202f5baa8882e3140ebe52cdb57922e79dc4a923c98ceebb1311e44270ef6c2f8cd077f3d6fd8989f3068a8792574449183d6487eae4e3cc7fe409f7796f43,0.6632309647272825,1
14,Ryan moved to a sampy position. Is this good, bad, or neither?,4,4,bcaeadfc56724d5a2432d2d012f80ea1f3af361fd2cc23ae85f9c718fc15e697164a11cbc8c601de2536a5c3f4d2cfa30f149dc06e2371384a24375be9cb90b5,0.4794895754085036,1
15,Ryan moved to a sampy position. Is this good, bad, or neither?,4,4,8a74478a9db13d691c15cdcee8e51f2a7166c095ebc46b46a45db0f7e71f25326113b63f51c722ce73b2f2cb4b6c23f1f5bcf0819b2b17e93467b4e32ae84781,0.9519288463111559,1
16,Ryan moved to a sampy position. Is this good, bad, or neither?,4,4,b2e4ef616f0e1cac30a4ca570ef5fcdd39f29c1d43a6f1aee2542fd1b0997436fa6ac58d4b97fa4b3ef9a0ae56b199c150a1682687603e5266cfc82b866b7ed2,0.6730472034981276,1
17,Ryan moved to a sampy position. Is this good, bad, or neither?,4,7,5b56973b88ed7b736ff3966dd5900790af0d217684769981e05a869fd0482e4eb627fbc83ef164acdcc19dfee68958f3688d63269cfdc0cd3c3ec35969e3c934,0.1938862766009057,1
18,Ryan moved to a sampy position. Is this good, bad, or neither?,4,4,af989e3af8e0075e9bde53bd63f64cd6e74e8b4e5bd1927668d72c74602eac36c160300f69280c96acac6f88b8e2304f56fa42541c2b6de1348a754f5f87e17c,0.8732796232545996,1
19,Ryan moved to a sampy position. Is this good, bad, or neither?,4,4,4f9deb2661d65f513467f6edd92732225432ee516a2eaa704195a133c8af7abae72fff830f90663ad642b26fd7f6a4bf8f39208e34834d98b0170fded5b88ae9,0.6894148417690443,1
20,Ryan moved to a sampy position. Is this good, bad, or neither?,4,4,87ef026014587c59d56fa4c2071e6bb9d3bed56b2c3afb54b24d4cc832295bd62bbfb4a581d1881c6fcb84d2fb80ee66fccefc5a7457a6dc6289793ff7e7d0dc,0.36245700371481665,1
21,Ryan moved to a sampy position. Is this good, bad, or neither?,4,4,59b08a645fc422cb906b374cc090da670df1abebf75166991a77077ed223dd4c51870e8cde0bf0e157eb15f92e1904e7be1238a91c5a1d6cc4e58493f33ab7fe,0.9493745369739254,1
22,Ryan moved to a sampy position. Is this good, bad, or neither?,4,4,2cb44008208d14c82cf8868fc09b67e721d51c1b25835a53ce5c75d4338141e971e3aad3228e19b641ecd4278d4576dc2f1af7702b6c5731e30d7d54f5a829a5,0.7072268004521797,1
23,Ryan moved to a sampy position. Is this good, bad, or neither?,4,4,fb3ee4e72eb582b2b2920acd3ac5a4ed00149c2560bf0255b9bc8237d80cbadd7b353ced6ab5662f69dfe00d362575b7da94144cd2374866a682e39b17cc3c0d,0.8479497316234887,1
24,Ryan moved to a sampy position. Is this good, bad, or neither?,4,1,caff777a2303da77340521ef83945a07684b2612ccb93a9fe1e9e6b34d4e52177c4499982e59c5f493664f3123c4c9738867850e7445f494ca6c22600eb6e56a,0.04989397396004805,1
25,Ryan moved to a sampy position. Is this good, bad, or neither?,4,4,28195e505193242d636c8cf88927e3353b64c1e9365b6d4fe6834ae467adb58cc661083c465cf575a9d4e6e6ea9daf2f4e5b8eaf892be186be05aa6b9c0519ec,0.9976388982714713,1
26,Ryan moved to a sampy position. Is this good, bad, or neither?,4,4,d52d0f79310a4a1585de2ba281cae55d8bf4f66ee89a3b0afe5bec86ac64f3fbcf4ac04acc90a017d6f66a1259e7c33c370048fe26771c06104f79c7f0e7daea,0.9457579318975612,1
27,Ryan moved to a sampy position. Is this good, bad, or neither?,4,7,ecd12f5c7840150b6bf31f41cfe805fbb7f1e24d87bc7f9a7e4a26034d172ee611537c7e49e1951d513a1b63598bec45f4cf8d3fd4936ebe2747d7e8018937e5,0.36410035177611993,1
28,Ryan moved to a sampy position. Is this good, bad, or neither?,4,4,1ea01966bc2646cf505948430346b109cd68ac4d744c3c0f933d8625d62b05a76deaba4a313e5bdfe75846468bf3bfbf4d9a03ac9fde9f57506d1b99e7f90da7,0.02336275108981106,1
29,Ryan moved to a sampy position. Is this good, bad, or neither?,4,0,1a61246cd509cb5ecba860ada52fb78f3a59d7a471e284f3bcc38cd2afa1dc4379bb075259f4bf83bd675fc8603a8b95c430ab021683c069dbf82461023cdab3,0.011450322570178707,1
30,Ryan moved to a sampy position. Is this good, bad, or neither?,4,7,0cce9151698e5674daa0d80fe4efc4daa6c28de601e9af357d943b02c498a73578d8113eba388846a2ca22017c481f5d2b2a23aca606799dfa309a4c8d51c86e,0.18756458772353157,1
31,Ryan moved to a sampy position. Is this good, bad, or neither?,4,4,1c5085a9aa92902111716bc36653840cee5e2bfde879f7dba2166bb7f9913be8c773118205c94456fbed33364c243b1ab4e3664bb7c1911bdf8f43d1e9f57b94,0.895395538697669,1
32,Ryan moved to a sampy position. Is this good, bad, or neither?,4,7,6644fc9ab070e4736a427a595e13a4e1f4c65d0441d5f9c3763a0ca2bebe4b6d85ce49b24b0c9750114fd355a92383c10d3bd01ba7404d9b30775b04969a9a34,0.25107881127806114,1
33,Ryan moved to a sampy position. Is this good, bad, or neither?,4,6,7cb676e80d006ce92ccecc92fa76faf71ab836f627bd748d5d9f4676ba07efed8876614dc29b9304aeb63d39575013e69477982590216727c64d3feffcf41868,0.5958716677438248,1
34,Ryan moved to a sampy position. Is this good, bad, or neither?,4,3,5adefca985807c50c8c3653bc05dd62711748c31faf2fc5e7214a6c8a54953845a096abf18034228cdef8df2149de79b181f416f14036eb5488ae4b5e10799af,0.5494893830170969,1
35,Ryan moved to a sampy position. Is this good, bad, or neither?,4,4,9e4f99683f985e073dfc63168a83369c53bae7c6cb57226226dd598ced7658fb1937e02062d3b5b8526df2afccfba7a1c6544461c46679f4c48556ad51d6eaf0,0.9404325038551606,1
36,Ryan moved to a sampy position. Is this good, bad, or neither?,4,3,9bead9901fd8948cfe071e5d8ae3b3be1ed74c64124ecf8c75d19242c22b1982abbfd4fe909c4c433d712dd816d44400cabb90a208e351321815b0ab491409ed,0.401371644950293,1
37,Ryan moved to a sampy position. Is this good, bad, or neither?,4,4,a586e1739ac9ca715396da5cfd7ee1a7d7302758994d8487adf0f60a53281f1ed04e0fef8d9990ca46271540155a4b34e628abf8f09c1966674c5789fc9f4329,0.986152767276827,1
38,Ryan moved to a sampy position. Is this good, bad, or neither?,4,6,304c801b5e2f5ed943c079a06ab8fac14c92fdaa2fb9558785e3f897f1d57c86b120bf36038503c4451c728577d9b57e88a921eb2116a41a72c75e77f4e49797,0.7607738902971954,1
39,Ryan moved to a sampy position. Is this good, bad, or neither?,4,6,a7dc9d4f184ea86b7b6e6869b9a53887f9af455a7a9b3f701cc20ec18e11435fdb90d9c3eed921996792de6c1628b7a27219b25f044ffe99d725092cbc88af6e,0.0038531128284307924,1
40,Ryan moved to a sampy position. Is this good, bad, or neither?,4,1,ac3b1b10808f1753ec2a45dbfd111934fc15f5c99e8d54caa1b9fa0399c450a1b4489cb0037029cbf93008625f0c076357a1b8e164d2f400a000fbd6062f7bad,0.15180640635907622,1
41,Ryan moved to a sampy position. Is this good, bad, or neither?,4,4,58d21333fabff922d46df0c898c21f914f63033e21c078454fd057723a4362ff5e714be632468569187f5304a1e5bc13ab0f894291a6bf075ca570441f1f6d15,0.6915349502730443,1
42,Ryan moved to a sampy position. Is this good, bad, or neither?,4,4,3dd7ff53be07f8d72042472584bf379bcd78eb96940dcc6e0f4bcf0b8f7d5c5f679eaa10b4cc83a57202ef875263c59b04ef8d7d54e320694bea43a5a4c2bc99,0.5682150125524214,1
43,Ryan moved to a sampy position. Is this good, bad, or neither?,4,4,3dd7ff53be07f8d72042472584bf379bcd78eb96940dcc6e0f4bcf0b8f7d5c5f679eaa10b4cc83a57202ef875263c59b04ef8d7d54e320694bea43a5a4c2bc99,0.5682150125524214,1
44,Ryan moved to a sampy position. Is this good, bad, or neither?,4,4,acd8febf40d6112e2e3c5cc387fd5e3a47d5544abb49c4d3f1e18a79b6e9c879af617f7067b1c5c6b80b05094286fc527bfd9f2d984b6523c8ff1f5ecd1ea8ae,0.9985173814666415,1
45,Ryan moved to a sampy position. Is this good, bad, or neither?,4,4,9e3a61b80a05ca3a7c0ad9445b5049a5119f310f2ec0c8c2a9c320b1926a7af397dee82bd0f88577c42b6b0336fb46e77ed2e17b47f3166c818645fed5e98ceb,0.9648994394802154,1
46,Ryan moved to a sampy position. Is this good, bad, or neither?,4,4,9e3a61b80a05ca3a7c0ad9445b5049a5119f310f2ec0c8c2a9c320b1926a7af397dee82bd0f88577c42b6b0336fb46e77ed2e17b47f3166c818645fed5e98ceb,0.9648994394802154,1
47,Ryan moved to a sampy position. Is this good, bad, or neither?,4,4,e026cbf1f92ffcd63549ad9958fb5feeaed2d6b545677b809b1cafc3fc96349d27e28ef3da4919854a8b6d9ce320dc40b10f705c361b77a717ca1cc8d70dca1b,0.7201673020419948,1
48,Ryan moved to a sampy position. Is this good, bad, or neither?,4,6,a3fe48d172465fbb24a650eeb520bd4c4631496b6d9d7a38bf192e1566aa97e662f2b2e76290bf0e0a6c2a90ffb291b31ff1e75bb29714c834646a850ace5bf6,0.0011416180035001503,1
49,Ryan moved to a sampy position. Is this good, bad, or neither?,4,0,432e022d70279ade11f7ad8d4d28802e40cc70f4fce90942fa41ece53dc18bac5a2450df2933fb7b5d853a2b031598cf2a9eedfc5fca596949fb0165bb8d7838,0.04381295055349938,1
50,Ryan moved to a sampy position. Is this good, bad, or neither?,4,7,27c71e7f82f9c11263d2eb2ffb12f72acf16cb2ad15cd7fda2939a803da754eecdb03d279187a32e67f4738b02d01c3003f0cd9c77713132dbdb7faf39a9a6aa,0.06076880737529507,1
51,Ryan moved to a sampy position. Is this good, bad, or neither?,4,3,af2a334d706c1b69573a219943b69d932d7ab19af138b53be67e9aecd99fabaeb2a49b44537009c3139302d498eb4b5f83a8e2bb09d9b9cfb8869bd630c6c757,0.0860339248037625,1
52,Ryan moved to a sampy position. Is this good, bad, or neither?,4,4,a989d27f4e2d6fa1eaabfbbe50f01c3f5678d6d05a13a1198d3510fc5cde5f54b7ee9a2e013f9e963456f9b7ec3e2751fc97486671ade1baaec31975aa7324c4,0.5962023196080457,1
53,Ryan moved to a sampy position. Is this good, bad, or neither?,4,0,f152fccfa1b4275911c3d51209757f8f47524d9e0dac927fa3cf085a412f2995c54db4378764d73c2aeccf796c683eda37b79db7a22b6c9fb80818fa2a0358f7,0.2287053798624458,1
54,Ryan moved to a sampy position. Is this good, bad, or neither?,4,4,512926c32568782467c043d9acacef7e1297fe10e47106d36f90ed38f8036a40a0f8a10a29ae7a31a0a93e5ad4fed44921abf919134ac7a8d096c8022d200715,0.8774644011460622,1
55,Ryan moved to a sampy position. Is this good, bad, or neither?,4,4,864fd6d6c6f3b061f8849268ccbe26a8df17226567b244b0760c60bacd2b79ced559640987941fff3ebd0eb3949cea7885c56e467856a8919d1736aa402c8087,0.7557746514407263,1
56,Ryan moved to a sampy position. Is this good, bad, or neither?,4,4,f3383bfec88826edd78a72ed01c48e9e5f7474bee81f33325e55ebb3b4934501b623790523c5f65fd8d94387e25c28029705e02f96f6507b06c445830e0ca247,0.728485946422523,1
57,Ryan moved to a sampy position. Is this good, bad, or neither?,4,7,25f59b566bfd6c48199f78f2ca8c9e3394ba87dd2b89641de88eadfe68d9f750c0706df1f2c4ec7d3b8a68dc3684d43958937d6d1b9641bd2933ada2425d599f,0.000011623864720255195,1
58,Ryan moved to a sampy position. Is this good, bad, or neither?,4,4,19277661313b5118bd1b2e29039b47276f1f8235917f3217bf95498030989874a1ca10bb943fa21faf787d793095c0d4119e136013ed4a9be167f67c2a6d11d3,0.9594699675646859,1
59,Ryan moved to a sampy position. Is this good, bad, or neither?,4,4,dc1573fdf940f9fb09d57b0011d03c1c44d31b200b999056f3ba7a66f968fff14e39bb77a6b95cde426287b90f173b03c2bb7c514497e44276b0f589563d5728,0.9963607868854729,1
60,Ryan moved to a sampy position. Is this good, bad, or neither?,4,2,654abee2a34ea238dd9860279c2e4f4ca17d0745f80e3a567f1be1f8bc80565588c6bc0d387e4705bac6ad4b8113565bc4647802a60f9ec02d1e658cb7bd2331,0.6981773666850077,1
61,Ryan moved to a sampy position. Is this good, bad, or neither?,4,4,5f12e05c2e694ca4d0d50f5c90ffefa31fc5c326c5f6352ab6f2d69efda09898d7fa2e899476fb98164baf5559806eee7fc6f92a8cd7641d9b208f848e51b143,0.6114555950104047,1
62,Ryan moved to a sampy position. Is this good, bad, or neither?,4,4,5f12e05c2e694ca4d0d50f5c90ffefa31fc5c326c5f6352ab6f2d69efda09898d7fa2e899476fb98164baf5559806eee7fc6f92a8cd7641d9b208f848e51b143,0.6114555950104047,1
63,Ryan moved to a sampy position. Is this good, bad, or neither?,4,4,5f12e05c2e694ca4d0d50f5c90ffefa31fc5c326c5f6352ab6f2d69efda09898d7fa2e899476fb98164baf5559806eee7fc6f92a8cd7641d9b208f848e51b143,0.6114555950104047,1
64,Ryan moved to a sampy position. Is this good, bad, or neither?,4,4,5f12e05c2e694ca4d0d50f5c90ffefa31fc5c326c5f6352ab6f2d69efda09898d7fa2e899476fb98164baf5559806eee7fc6f92a8cd7641d9b208f848e51b143,0.6114555950104047,1
65,Ryan moved to a sampy position. Is this good, bad, or neither?,4,6,5f12e05c2e694ca4d0d50f5c90ffefa31fc5c326c5f6352ab6f2d69efda09898d7fa2e899476fb98164baf5559806eee7fc6f92a8cd7641d9b208f848e51b143,0.6114555950104047,1
66,Ryan moved to a sampy position. Is this good, bad, or neither?,4,4,5f12e05c2e694ca4d0d50f5c90ffefa31fc5c326c5f6352ab6f2d69efda09898d7fa2e899476fb98164baf5559806eee7fc6f92a8cd7641d9b208f848e51b143,0.6114555950104047,1
67,Ryan moved to a sampy position. Is this good, bad, or neither?,4,5,5f12e05c2e694ca4d0d50f5c90ffefa31fc5c326c5f6352ab6f2d69efda09898d7fa2e899476fb98164baf5559806eee7fc6f92a8cd7641d9b208f848e51b143,0.6114555950104047,1
68,Ryan moved to a sampy position. Is this good, bad, or neither?,4,4,5f12e05c2e694ca4d0d50f5c90ffefa31fc5c326c5f6352ab6f2d69efda09898d7fa2e899476fb98164baf5559806eee7fc6f92a8cd7641d9b208f848e51b143,0.6114555950104047,1
69,Ryan moved to a sampy position. Is this good, bad, or neither?,4,4,f567d6a6237d6557ffdcb7899c8566957144b8dea66be90187125fb3ae4279e947fb7249e98a18ccad3cf0cb2b59a19ac8c1e09356734fa6ee67a4836b4d3c37,0.861411080747564,1
70,Ryan moved to a sampy position. Is this good, bad, or neither?,4,4,f567d6a6237d6557ffdcb7899c8566957144b8dea66be90187125fb3ae4279e947fb7249e98a18ccad3cf0cb2b59a19ac8c1e09356734fa6ee67a4836b4d3c37,0.861411080747564,1
71,Ryan moved to a sampy position. Is this good, bad, or neither?,4,4,74909907346f16739bae4e01b6235b1840b7201043bb3e7e6d45d421e2b5a87fe25e58f50eb0b85bb5979ee0b8c53b0b94b782f484b04939f186669ffde79e44,0.7413511155479763,1
72,Ryan moved to a sampy position. Is this good, bad, or neither?,4,1,dd5bd327c33bbd0598b233f378e8d9faa81d9b3047a207e8faa600ce3dde96841e9820125984b50a6f74d0d8409b60cf98aa61f0bea65ae100bf354486230de8,0.7386979074569002,1
73,Ryan moved to a sampy position. Is this good, bad, or neither?,4,4,dd5bd327c33bbd0598b233f378e8d9faa81d9b3047a207e8faa600ce3dde96841e9820125984b50a6f74d0d8409b60cf98aa61f0bea65ae100bf354486230de8,0.7386979074569002,1
74,Ryan moved to a sampy position. Is this good, bad, or neither?,4,4,3ce1c91573b49e76ae6d43c669a24733296314c25baffa84d6693179025159771a3c7b297e83491615fff176965dd211be78675095cfe008040fcf254df14810,0.9913923924529665,1
75,Ryan moved to a sampy position. Is this good, bad, or neither?,4,4,83e68bdb3c8d06734b9c63de2e996ad5203cfadd686bffeb5371242a53bd2562e4ee27b56455e36057ad2b7ff679b1bc0942e1b5e336f4762c4ed9cc49cb339a,0.9958299296842477,1
76,Ryan moved to a sampy position. Is this good, bad, or neither?,4,3,0c1e43ef5b2f9488f1f2f5d3bb698140bc0a814ccd0552a4d3b9bc7f4899fbd7f112dda7c2abe51111db2cd9354f7ed05e8023ddc9513e6797cd881f2b3a9c2c,0.002569165119822881,1
77,Ryan moved to a sampy position. Is this good, bad, or neither?,4,4,819161aa2e764fd74ba60f02978d28b130e488d1f6ed613c48db286b68fe06ef24eeeb946d2af813bac598640b43342cd2b7a142eb31a6fff239faaae995f9f7,0.9784920487248879,1
78,Ryan moved to a sampy position. Is this good, bad, or neither?,4,7,64c920623ab31436b5b4c22427a48558b7ec124dfae9a0406b46420dd8b1b842cc381b408af36bce712d7ed00749499374ac41eff341ac32483021553436031a,0.10771225966396102,1
79,Ryan moved to a sampy position. Is this good, bad, or neither?,4,6,6ceee2f71efcf20e84bbd06a14b4db7e96fa397d5608a8089a019f6a0d0c87607b63f5a1d3da3239a3195f67cb70811756fab2c6788bd186d72da854a5a6e20b,0.024171602669166854,1
80,Ryan moved to a sampy position. Is this good, bad, or neither?,4,4,b4a89e063c479339463fe8a3755a45afdb72640d55ae6f8499866bdce35aea79532c96c386d3e305abf960bd172306159148a5dedc70fc0c191353ec94176ac4,0.8748737778472846,1
81,Ryan moved to a sampy position. Is this good, bad, or neither?,4,4,26729c392072f043615adffdd8653c7ba3bb0a1666325fbc5e4200c5527ff8f7b18e0fe11a3076def10d3c2e4eae07213bcb2c233bab7241ba47f38ad8a9ccd4,0.1790509856751691,1
82,Ryan moved to a sampy position. Is this good, bad, or neither?,4,2,0ca87715be5df199ebada6867f7e0e75295c7ededa0fbd84664b9240578d42457d55abd66e8d40f24cae8c5c5c0a506eae9b839711a908d418039a14a0ca3135,0.00439417718251563,1
83,Ryan moved to a sampy position. Is this good, bad, or neither?,4,3,fa397b6498f37b2486c93b942859ab6761684709953bb9b06336fe536b3e6c2d0043a688e1a403ddc83f90029b00ccbc62362baf6394859c6c7acc269ea368b5,0.2777132590035109,1
84,Ryan moved to a sampy position. Is this good, bad, or neither?,4,4,fa397b6498f37b2486c93b942859ab6761684709953bb9b06336fe536b3e6c2d0043a688e1a403ddc83f90029b00ccbc62362baf6394859c6c7acc269ea368b5,0.2777132590035109,1
85,Ryan moved to a sampy position. Is this good, bad, or neither?,4,4,5d818587500e31ddd24f674f0d96e8036b1fbbdeff8f12716de7cf436031070adc160ac58c2058f70b7756b9758d4cc6c60cd86cb5fbac5b08e94434f347d5fc,0.7947710819478818,1
86,Ryan moved to a sampy position. Is this good, bad, or neither?,4,1,9d8ddb67f662349a7f7a7c5a32fee73c457fd70d135ae4be6f17a68418102d35693b26415c8fd8c7bd26a5b5032587ac08aefd055994f62fcb3e9a44d5cb51b0,0.6347561299029423,1
87,Ryan moved to a sampy position. Is this good, bad, or neither?,4,4,720bea532db6ed90a7bd855c056e2ccc32b0f2fe90eb490aa4d644afcc89620fb5f7c3bf4971d931a8aef22130fb8976bd9e83f534038e3c4e8421311520cb5d,0.99990378727343,1
88,Ryan moved to a sampy position. Is this good, bad, or neither?,4,4,3e48ecd6054d02891089f87e7290c4a1787d57fabca13ac896aa9393516140b72931471ecd8ad7b77a4a4dbb84a62823ee4ee2800ac340eb5b600cf3fba6c547,0.7887893742356985,1
89,Ryan moved to a sampy position. Is this good, bad, or neither?,4,4,ddaaf85b6ad92e5bd899125be0ee1d1e475cef85f10f7c86eb80b3e666aa2d27b9930efbf239779906809e3b49e9c42c65a28830cce2f7034e42c039095ac370,0.47326304410023234,1
90,Ryan moved to a sampy position. Is this good, bad, or neither?,4,1,ccfaa326d8b92448b4b19e6e8653dfe26eb68f94292588d631ff0d68d1cee3cfc074b10890b86c0ea17f12302fc4cd0a9ad531da7c74b9845c1611668e12a05b,0.5307525714481502,1
91,Ryan moved to a sampy position. Is this good, bad, or neither?,4,7,6f5d3137f68645162d6754029499a9ec7ae5684f56847c76e1aed3915b42b3ec8caf636fecf4f90a32b0151ee5f9c6a1d6452b80a69f77275d541c9cea4cbff1,0.014819530680913167,1
92,Ryan moved to a sampy position. Is this good, bad, or neither?,4,3,9fc9d3de7ddb83580fc430d2d5c6ee47e775cabd5a982d7012deb44dbf1042f8b3db8ea6b2c4ee7b39f82b84b6b071d6968393ccc6520a6870f0883ccc441cf9,0.2512880406599153,1
93,Ryan moved to a sampy position. Is this good, bad, or neither?,4,7,7c716e84485c4b668a895395c75ec25821b87a2ecc2eeb5126c6b960c4b368389f56e5487f589f0f84cf6e6db4cc4f03f869246bfecdf8f11a2bb59dfc45a76e,0.5226882938601285,1
94,Ryan moved to a sampy position. Is this good, bad, or neither?,4,4,675a6154d38e7981c932127e219f374c1a8880011eab4c932106ac51314fb2868ba8fd7264f3bb40c5a96272dc019e5c9cf6c60011e9e9a04b73042a43219af2,0.8212817881745951,1
95,Ryan moved to a sampy position. Is this good, bad, or neither?,4,4,305f2f29687fda8e291e598686a4a089cc57c27d26fc2dea3e28544183df6fdd4ce792399dcac730c7aa7109f82a09aace9c895bf9596d257e113393be774056,0.8121160040084888,1
96,Ryan moved to a sampy position. Is this good, bad, or neither?,4,5,08ea6ea397537c84ac209f08bf3bec2c0ff500e94266cd17fa45d303b288126de192d25b7f3331a02fdcad8a68ce682fafad99f95ec45259d05ed65d6cd3505e,0.3227002478182453,1
97,Ryan moved to a sampy position. Is this good, bad, or neither?,4,1,aeaead0bad2cd8cd8e00067df1d0ddd61b9ba6afec23c08f5c84f413ad2e263545b447c45633570fb4f2c9b3d3be895bc1e474eb157f9f9b4ac62955a36370ef,0.34563671947219327,1
98,Ryan moved to a sampy position. Is this good, bad, or neither?,4,5,a6202f5baa8882e3140ebe52cdb57922e79dc4a923c98ceebb1311e44270ef6c2f8cd077f3d6fd8989f3068a8792574449183d6487eae4e3cc7fe409f7796f43,0.6632309647272825,1
