0,There floated Amanda out of the pord. Is this good, bad, or neither?,2,2,9d8ddb67f662349a7f7a7c5a32fee73c457fd70d135ae4be6f17a68418102d35693b26415c8fd8c7bd26a5b5032587ac08aefd055994f62fcb3e9a44d5cb51b0,0.30062064729145943,1
1,There floated Amanda out of the pord. Is this good, bad, or neither?,2,5,5d818587500e31ddd24f674f0d96e8036b1fbbdeff8f12716de7cf436031070adc160ac58c2058f70b7756b9758d4cc6c60cd86cb5fbac5b08e94434f347d5fc,0.24493547330862334,1
2,There floated Amanda out of the pord. Is this good, bad, or neither?,2,3,ddaaf85b6ad92e5bd899125be0ee1d1e475cef85f10f7c86eb80b3e666aa2d27b9930efbf239779906809e3b49e9c42c65a28830cce2f7034e42c039095ac370,0.9364110753604948,1
3,There floated Amanda out of the pord. Is this good, bad, or neither?,2,2,d53a3853a701c0b2c6f59ecd154f16c81f913ab177c92d983b7f485f248ad8e3d2c917c73c67b45bfb8b646f5401330409d7a70104a1e853cdb47c89d1ab7624,0.9324514419889146,1
4,There floated Amanda out of the pord. Is this good, bad, or neither?,2,3,a6e3e5fadd18f91cf3b98367d61e458d833818fc25f28852fb2a5782720689df8ca05957c6d0a4610da5640485522b4cbefe1b6672ef13ea57f87fb371760066,0.17126844765771873,1
5,There floated Amanda out of the pord. Is this good, bad, or neither?,2,6,afc8519f3e8ec827aa95c2ab8596ba6a577ddb0938d1296c1e5e26069b6a5cb0efbbb575b892191b57e943c875a994be71292879124f2b98da628ad376b8d1a9,0.24728007716195902,1
6,There floated Amanda out of the pord. Is this good, bad, or neither?,2,2,e6b4887e60c9a9f61270335f1a765cea5e2de4f9bd5c8679d463718729ffd1c834479d1bd0d6f92c8aabdcaabb0fc7f7c4a236e0d23015adf1f49241e28f25ab,0.9035191876163015,1
7,There floated Amanda out of the pord. Is this good, bad, or neither?,2,2,ab817809187642176d23d87932f87fb8cac29305dd69bd9c80c875e1418683baeb300a33a4ea303e96598aee641e58ffef6ed700b09ee5a77559e157e08d3320,0.5736247867945159,1
8,There floated Amanda out of the pord. Is this good, bad, or neither?,2,7,949e348794c3e18581f7b55ecef851e605235f7c9cafa5c3b4d3e91106a8ea5851849ec1edc9cd0b8dbea5b628ab5f49181d508855ed809569304963bc219caa,0.03803008613325274,1
9,There floated Amanda out of the pord. Is this good, bad, or neither?,2,1,6442579b5017c978ac48004d53b31163b3763f309e6f3e0581e04c2aea211970cc33a63b0462acee00808e5c684e9c9445efbc52c93000c0cc6f7f2e7cc3b7f1,0.3957586536928521,1
10,There floated Amanda out of the pord. Is this good, bad, or neither?,2,2,609868e2cf6de58a506a6731afe55c53d93510e3a34e58705479846aa7ccef2469a0081dc7ad92826b214afccaa96b3202ca07a32e7d6afd795c5776ef5511be,0.8065353322204714,1
11,There floated Amanda out of the pord. Is this good, bad, or neither?,2,7,08ea6ea397537c84ac209f08bf3bec2c0ff500e94266cd17fa45d303b288126de192d25b7f3331a02fdcad8a68ce682fafad99f95ec45259d05ed65d6cd3505e,0.005547793964518179,1
12,There floated Amanda out of the pord. Is this good, bad, or neither?,2,0,aeaead0bad2cd8cd8e00067df1d0ddd61b9ba6afec23c08f5c84f413ad2e263545b447c45633570fb4f2c9b3d3be895bc1e474eb157f9f9b4ac62955a36370ef,0.4361639518411734,1
13,There floated Amanda out of the pord. Is this good, bad, or neither?,2,2,c4ed94657e69e8d0ab2fc62ae827e33b39befc4999fffa6f5fd6cc66b82427202a7aa870b5327b553f62a9c69474930cded1869d86d079f9aed5650135c1c560,0.796371671624391,1
14,There floated Amanda out of the pord. Is this good, bad, or neither?,2,2,de8d0510f675c2ae2b83a16b0ccbb5c010cff47cf8fe6de6c24cae0313982ca37997f74d578d9b52c6525387b1bd57c91752e5a52dcb740312dd784a58da61af,0.8451401020208655,1
15,There floated Amanda out of the pord. Is this good, bad, or neither?,2,2,305f2f29687fda8e291e598686a4a089cc57c27d26fc2dea3e28544183df6fdd4ce792399dcac730c7aa7109f82a09aace9c895bf9596d257e113393be774056,0.8575421676267354,1
16,There floated Amanda out of the pord. Is this good, bad, or neither?,2,6,b57e6944a7f1cc6dfbfb5f19290d78629407851ccc0ed62e99ad91b56b9a0289ce66292c99e08f9f97f73e5607d085b86ae6f072fce59ab0809e150affa9cfab,0.16953805940389657,1
17,There floated Amanda out of the pord. Is this good, bad, or neither?,2,2,8a74478a9db13d691c15cdcee8e51f2a7166c095ebc46b46a45db0f7e71f25326113b63f51c722ce73b2f2cb4b6c23f1f5bcf0819b2b17e93467b4e32ae84781,0.8874237752666736,1
18,There floated Amanda out of the pord. Is this good, bad, or neither?,2,2,ac159058713bb786536395d849dcdcf98a8ffa433c0df23b7bc3208f1c1ce017c9e666811788def29dda032e13b5e11080c305f9a67c97282c112192adb437e0,0.057780604055188416,1
19,There floated Amanda out of the pord. Is this good, bad, or neither?,2,3,0c0d4ed7870bc8c518df91880e50b28525d2828c5a2180ed8fec2dd30dacc28fcc6111342d6c279c3ef0a43013536ebd4c4b527b5463fa4e99454b347f551acb,0.5665737497984871,1
20,There floated Amanda out of the pord. Is this good, bad, or neither?,2,2,c7a93a1a31d259cbb634d580334bbade3ce106ee969a90e587caf773a032d589ff5b759885e1c6b6263eedcc4340eb250a485471beb78180478fae5199e93485,0.2611561971154389,1
21,There floated Amanda out of the pord. Is this good, bad, or neither?,2,2,7f45982c84b0e62975c836530ebc5c20ed43e2aaac4d7f1c99d59dac30103bb0a2c7f0c3eb3c011244e3b29b96036757199959b8d8fbcc5cf995fee8253a05f5,0.9601885147797238,1
22,There floated Amanda out of the pord. Is this good, bad, or neither?,2,2,5de7b886a8e9d03160145a2c857e7a513d279c1afda8a15e2f3b842b220911a0db6d8f73ebf2fa9d9628aa86f669ca60c7bb844f3535032c2078a13a63bb8b6e,0.9860941610748999,1
23,There floated Amanda out of the pord. Is this good, bad, or neither?,2,7,146ddd00d74bad540111bc0427f872cee82f3ccab1176591d438ba9aa820825afed1feebab2c07246395c35cc7c23f6f1be5275890ddcf38612a2583bdfe337e,0.37054783984662526,1
24,There floated Amanda out of the pord. Is this good, bad, or neither?,2,7,fb3ee4e72eb582b2b2920acd3ac5a4ed00149c2560bf0255b9bc8237d80cbadd7b353ced6ab5662f69dfe00d362575b7da94144cd2374866a682e39b17cc3c0d,0.37887202107501217,1
25,There floated Amanda out of the pord. Is this good, bad, or neither?,2,2,948b1546ab23598285d2f77f39e4276a3a82e5d340295aa6760c9fc6f36b7437bb3a495a3ba88d447f3fe661e3d3dc2ca10e32b8b5eb3feb6619e793bc050ef2,0.6590079499695168,1
26,There floated Amanda out of the pord. Is this good, bad, or neither?,2,2,86176b5e48f64b6f25629a896860702d0f08b590cf95ae63771736a73dffea920ed966b550f9245ef9b64994aecc388426f5c084afb696eca8d0fb0f335761d6,0.9497885393605751,1
27,There floated Amanda out of the pord. Is this good, bad, or neither?,2,2,caff777a2303da77340521ef83945a07684b2612ccb93a9fe1e9e6b34d4e52177c4499982e59c5f493664f3123c4c9738867850e7445f494ca6c22600eb6e56a,0.7363612940417326,1
28,There floated Amanda out of the pord. Is this good, bad, or neither?,2,2,28195e505193242d636c8cf88927e3353b64c1e9365b6d4fe6834ae467adb58cc661083c465cf575a9d4e6e6ea9daf2f4e5b8eaf892be186be05aa6b9c0519ec,0.9247717210854348,1
29,There floated Amanda out of the pord. Is this good, bad, or neither?,2,0,832b19ea4eb64ad4f6298c0933ec2f6ba994974bcbbda62a7a0088a00f6cd96bd27aca96187875bf07fe2c868f7cd9e74b39598b91c261fd45079e5150637de4,0.03781354199788764,1
30,There floated Amanda out of the pord. Is this good, bad, or neither?,2,0,d52d0f79310a4a1585de2ba281cae55d8bf4f66ee89a3b0afe5bec86ac64f3fbcf4ac04acc90a017d6f66a1259e7c33c370048fe26771c06104f79c7f0e7daea,0.6035235113940821,1
31,There floated Amanda out of the pord. Is this good, bad, or neither?,2,2,e77caff9eb162055b441a87362379461113618c628aafb278e20fd212121ac21d22ea253a902456466d5912f7b529e848e7bf7738fbf7cdaf865552c14fb25b7,0.901852035444478,1
32,There floated Amanda out of the pord. Is this good, bad, or neither?,2,2,69bf71a23950a19d51588205bb33b43a6c847df0a5e564427b2d61a5489a3d037dcf472674ab77e4abb6133e088ce98f278ad721e939562236b4f32ab79e07e7,0.5538531081141879,1
33,There floated Amanda out of the pord. Is this good, bad, or neither?,2,2,7b021613f177c945df688daa349600384c1cd6f411d5c5c4fee8aba46cab2816e9adaedb44acae3810cdf46a0b93f8a0fee7b55d8ce86a71451a693e47a71fec,0.9709285946379546,1
34,There floated Amanda out of the pord. Is this good, bad, or neither?,2,7,ecd12f5c7840150b6bf31f41cfe805fbb7f1e24d87bc7f9a7e4a26034d172ee611537c7e49e1951d513a1b63598bec45f4cf8d3fd4936ebe2747d7e8018937e5,0.00007470853693945148,1
35,There floated Amanda out of the pord. Is this good, bad, or neither?,2,2,0d19c982875c6e1039857c9e12d569d24a88f16afb8274468f683859c7fb1e8f625bea82d85acacf66faaeda9f4f894656a3ef87fab4ef398b355a0624ab70c2,0.11970677412404258,1
36,There floated Amanda out of the pord. Is this good, bad, or neither?,2,0,41628a0f8849c48d09c00e99c4a99cae8b10c5d31c76fc5043a816bea93afdb63771aa227c3fc1235d69b6c482ed4c1972716b6868be483c3ecaba9ca7efddc1,0.43897296255782375,1
37,There floated Amanda out of the pord. Is this good, bad, or neither?,2,5,71ed47c3c3cf8d9290e9c545d9034bad3ff7fa79cfabc23d71f6fb674f3f14f79df3866666f29bf735c7105f6bb369a4a0b5f13fc9c095b8946efceee7e674ce,0.6923499499338291,1
38,There floated Amanda out of the pord. Is this good, bad, or neither?,2,2,019db9849fbccf5726490ab64aa3a38725f0fbff3fa674ebccc5ad8eb2545a58b021ff9df8cf7fdc3d7dd52831ffdbf674953f8c6fae23d9d327dd9784d28ef5,0.8304965628066047,1
39,There floated Amanda out of the pord. Is this good, bad, or neither?,2,3,0186acbb27a10327ea6ddf84ac0152a92a571a1acc56e7a689831c4fbcdef1812f32929e15f2390ff6948ecb2723d0419d966c0187165609b5828f014e7632c4,0.001343526788764014,1
40,There floated Amanda out of the pord. Is this good, bad, or neither?,2,2,1c5085a9aa92902111716bc36653840cee5e2bfde879f7dba2166bb7f9913be8c773118205c94456fbed33364c243b1ab4e3664bb7c1911bdf8f43d1e9f57b94,0.993724797251346,1
41,There floated Amanda out of the pord. Is this good, bad, or neither?,2,2,2affe66e78ed0fdb8662d48e9de768393c88ec5e667c71326bc9ac141e2742f64028489e0a9dbbd820ca7d777483a05f81c195e5a46d9c595e8003584f94b06f,0.9196974375483289,1
42,There floated Amanda out of the pord. Is this good, bad, or neither?,2,1,d8d36b556cb88089c396a1aa18d3b2fcc76975bf65b7c36c6bfdde6fb04622148a36cd6ddaf29b2df5b5d98328fadebc0d4a61203ea283c2a49ea9dc69cc2a86,0.06041702510155625,1
43,There floated Amanda out of the pord. Is this good, bad, or neither?,2,5,2e08ea7a396b5dc2fc6ff518b56da9298cfd603a2f489e5145c092eb9870a320d2bfa8fd161fe5975a370e19055991d826fd24dea216f722fe25dbbf75088cd3,0.24209461084711437,1
44,There floated Amanda out of the pord. Is this good, bad, or neither?,2,2,ab90d46be97b55e5c076acbf9362c1eb121601d8029f0b6ea74d04c4f14783438a55f2d86c92305bc2e06eed27c440ab0e49471ab0cbe983214cb8cec7051698,0.7502656430958046,1
45,There floated Amanda out of the pord. Is this good, bad, or neither?,2,2,3827c59e4e3d463e1ac3df21dac15e489ecb1ca290fc74a7e1d09c06c77da44454efa27af51152eecbf3ac38e902779fe27be263101bc68744a4f89ff459fbc0,0.6975402932725795,1
46,There floated Amanda out of the pord. Is this good, bad, or neither?,2,2,443cde5c52d94cce57843f2568bae097063b70de79eff7331ceb5facf21365a8057ca845ada906a7fc615363f8a1791fe61ed2a0c2d66abc8b359174d68760b3,0.6520947838657277,1
47,There floated Amanda out of the pord. Is this good, bad, or neither?,2,7,a7dc9d4f184ea86b7b6e6869b9a53887f9af455a7a9b3f701cc20ec18e11435fdb90d9c3eed921996792de6c1628b7a27219b25f044ffe99d725092cbc88af6e,0.5308606371184034,1
48,There floated Amanda out of the pord. Is this good, bad, or neither?,2,2,ac3b1b10808f1753ec2a45dbfd111934fc15f5c99e8d54caa1b9fa0399c450a1b4489cb0037029cbf93008625f0c076357a1b8e164d2f400a000fbd6062f7bad,0.9578943519711697,1
49,There floated Amanda out of the pord. Is this good, bad, or neither?,2,2,5a23402dc15233be68d0f6f87dcdce887a714a5507871ff7b39191fbd84ad58479f2c95fb420e292d80b74051e38f9f54e2670ad4b963f05e83c6224babbf504,0.7008436340953125,1
50,There floated Amanda out of the pord. Is this good, bad, or neither?,2,2,f01784af74a83b8e4c2d61799385b28fd491da04b0e6e8e6bba46ec92dc99861f7b3381f70e7f81b64bb3042424d19c2402c6927b1d90d5fe8747fb1e3424fc5,0.5833778122409692,1
51,There floated Amanda out of the pord. Is this good, bad, or neither?,2,1,3dd7ff53be07f8d72042472584bf379bcd78eb96940dcc6e0f4bcf0b8f7d5c5f679eaa10b4cc83a57202ef875263c59b04ef8d7d54e320694bea43a5a4c2bc99,0.05311472191069402,1
52,There floated Amanda out of the pord. Is this good, bad, or neither?,2,4,3dd7ff53be07f8d72042472584bf379bcd78eb96940dcc6e0f4bcf0b8f7d5c5f679eaa10b4cc83a57202ef875263c59b04ef8d7d54e320694bea43a5a4c2bc99,0.05311472191069402,1
53,There floated Amanda out of the pord. Is this good, bad, or neither?,2,2,4449535230bbb095089c3986aff6e34d3a92bd758e669e9b923813d8c97c4a9e67e8d78d1c4cd17e4e6a9898e2d78e841a4cd7cabc28e7a3a0fc0592c6c9f387,0.7134178321107297,1
54,There floated Amanda out of the pord. Is this good, bad, or neither?,2,0,e026cbf1f92ffcd63549ad9958fb5feeaed2d6b545677b809b1cafc3fc96349d27e28ef3da4919854a8b6d9ce320dc40b10f705c361b77a717ca1cc8d70dca1b,0.05925857003115779,1
55,There floated Amanda out of the pord. Is this good, bad, or neither?,2,5,c5c7a359614b5a4a3081ea3fcad30ceb637d07f997531b3a5d7df5a3b7c21d6c3ea95af67e1163a07272fc0f0f99ad4ec8fa6aee59c5d52b6fc8e01d88cbb67a,0.005750186024057829,1
56,There floated Amanda out of the pord. Is this good, bad, or neither?,2,7,3567d4aa7e374b8b9f887b36bf2da7e510d78a82d8846d345d67f2452d0b6503657b7bcec1b151a742cdbc2530708c858982bb40f94f35c59e68014205d7b044,0.18999957896966024,1
57,There floated Amanda out of the pord. Is this good, bad, or neither?,2,2,9fe2a1f263a2315f047e38de04f06545dcb36aa8e9bd3e464cad9531498eadca17e2a9e48ae2d7642f5ad51b833626821016bdd84ab6e6df4c31e50d11b22ced,0.3199784900994468,1
58,There floated Amanda out of the pord. Is this good, bad, or neither?,2,1,a0cb13fb7cd6bf4a38ca9fde643c20a245bb39735fe21e5dbf649f44b5858ce36272c4614dd436f807541e8c9e99d314dd3088f97438e770b60715dcb9196b22,0.16246385923564838,1
59,There floated Amanda out of the pord. Is this good, bad, or neither?,2,4,512926c32568782467c043d9acacef7e1297fe10e47106d36f90ed38f8036a40a0f8a10a29ae7a31a0a93e5ad4fed44921abf919134ac7a8d096c8022d200715,0.000086907245930097,1
60,There floated Amanda out of the pord. Is this good, bad, or neither?,2,2,0a10cfbe96898e179a6989823d1b388e63fd11f48fd9bb0f118bf62cd7dfea5dd88a7b1d57cbd9606e10dc7e76ef4a52208822cd8d1992d9cbf67431ac76dda0,0.8462005462260039,1
61,There floated Amanda out of the pord. Is this good, bad, or neither?,2,2,b9a4f02c7efc90d3d81ce3c3a24ed6211862c500cd72c328edabb4a1aafac18c5e1e3187af1abec974c5d43df73f79454f0ba529ad554fcb5d22779bc35745ca,0.7372605950299996,1
62,There floated Amanda out of the pord. Is this good, bad, or neither?,2,2,37805ee1b41c781e6b817afc72031a1f1835c0a0d72be46238fe34898913ac47a840d4c391f835e42277def943f95cb3ffc89b1bc79669615995d531f0a9cc63,0.36471236891537046,1
63,There floated Amanda out of the pord. Is this good, bad, or neither?,2,5,4e30d2bd1334653671e9772d1067a7d25dced29c175de42ad5318675965bdc716bc65f08355bf2b196b683f86a7269a32a9ab6696ab94757d3bf0f4ed6ed8157,0.9024396712301536,1
64,There floated Amanda out of the pord. Is this good, bad, or neither?,2,2,8ded77a21fe05c7756085556cca8f98f5eb31dedfed36a6e262cb8adc9034cd291306beab7fc461a490aca5e434bd7146b3069946e787af0ebac1f4361b7c52a,0.0073219076687678795,1
65,There floated Amanda out of the pord. Is this good, bad, or neither?,2,1,5f12e05c2e694ca4d0d50f5c90ffefa31fc5c326c5f6352ab6f2d69efda09898d7fa2e899476fb98164baf5559806eee7fc6f92a8cd7641d9b208f848e51b143,0.1329238917433459,1
66,There floated Amanda out of the pord. Is this good, bad, or neither?,2,1,5f12e05c2e694ca4d0d50f5c90ffefa31fc5c326c5f6352ab6f2d69efda09898d7fa2e899476fb98164baf5559806eee7fc6f92a8cd7641d9b208f848e51b143,0.1329238917433459,1
67,There floated Amanda out of the pord. Is this good, bad, or neither?,2,2,5f12e05c2e694ca4d0d50f5c90ffefa31fc5c326c5f6352ab6f2d69efda09898d7fa2e899476fb98164baf5559806eee7fc6f92a8cd7641d9b208f848e51b143,0.1329238917433459,1
68,There floated Amanda out of the pord. Is this good, bad, or neither?,2,1,5f12e05c2e694ca4d0d50f5c90ffefa31fc5c326c5f6352ab6f2d69efda09898d7fa2e899476fb98164baf5559806eee7fc6f92a8cd7641d9b208f848e51b143,0.1329238917433459,1
69,There floated Amanda out of the pord. Is this good, bad, or neither?,2,0,5f12e05c2e694ca4d0d50f5c90ffefa31fc5c326c5f6352ab6f2d69efda09898d7fa2e899476fb98164baf5559806eee7fc6f92a8cd7641d9b208f848e51b143,0.1329238917433459,1
70,There floated Amanda out of the pord. Is this good, bad, or neither?,2,2,5f12e05c2e694ca4d0d50f5c90ffefa31fc5c326c5f6352ab6f2d69efda09898d7fa2e899476fb98164baf5559806eee7fc6f92a8cd7641d9b208f848e51b143,0.1329238917433459,1
71,There floated Amanda out of the pord. Is this good, bad, or neither?,2,7,5f12e05c2e694ca4d0d50f5c90ffefa31fc5c326c5f6352ab6f2d69efda09898d7fa2e899476fb98164baf5559806eee7fc6f92a8cd7641d9b208f848e51b143,0.1329238917433459,1
72,There floated Amanda out of the pord. Is this good, bad, or neither?,2,2,5f12e05c2e694ca4d0d50f5c90ffefa31fc5c326c5f6352ab6f2d69efda09898d7fa2e899476fb98164baf5559806eee7fc6f92a8cd7641d9b208f848e51b143,0.1329238917433459,1
73,There floated Amanda out of the pord. Is this good, bad, or neither?,2,3,5cd49a816d389109ba1de471234af76714b514d25e6deb8ee8312e6ccc4ad6f8fb1090ea989df4adcd6fcdf54fd1b3b5001f883eaf1aa0d3324fcb4ec691aa30,0.2725019626275539,1
74,There floated Amanda out of the pord. Is this good, bad, or neither?,2,7,936d0ed6b945163efa98a12f9ada206cf38e906fb0e64d7b871384882890f5300a21af0feaa11ef5e210e1be97add27020da2cfbdfd03955f7991a131402dcea,0.44529990736628533,1
75,There floated Amanda out of the pord. Is this good, bad, or neither?,2,4,b6f2e1344ebdd16df984a569b364694e74d76b32cc3d59d2dffcc4d11ac6f38e551c9c180de2ef82243330ba19068b623902e0a25624aa0e128b8c46b7d589cb,0.504336017959062,1
76,There floated Amanda out of the pord. Is this good, bad, or neither?,2,2,2ccf32988a8f71f31a8c3163073551efd766cf444849d381dc329025d82098de35131444641fc3f31a2fe1235d7ab9bf7bef278f2fd41bae3abe3a3a45252df4,0.9928592875599779,1
77,There floated Amanda out of the pord. Is this good, bad, or neither?,2,4,3ce1c91573b49e76ae6d43c669a24733296314c25baffa84d6693179025159771a3c7b297e83491615fff176965dd211be78675095cfe008040fcf254df14810,0.350531503258824,1
78,There floated Amanda out of the pord. Is this good, bad, or neither?,2,2,2baf4ad815ff7d036c8b4b75f3d570c5e8f377b61f72b05d74e51c898f150f6812d3099f48b5ea74e2513723eedbf93db8d61c00447b1d75a2d994948928a88d,0.5813385339883211,1
79,There floated Amanda out of the pord. Is this good, bad, or neither?,2,2,0c1e43ef5b2f9488f1f2f5d3bb698140bc0a814ccd0552a4d3b9bc7f4899fbd7f112dda7c2abe51111db2cd9354f7ed05e8023ddc9513e6797cd881f2b3a9c2c,0.611929708554143,1
80,There floated Amanda out of the pord. Is this good, bad, or neither?,2,2,14eb565eedde22f189e9030cd0c7cd886b6df6e2cde268d7ed6f9b078c5752ce6298555ff660d9d73e9729ca916be556f84b0566ed82bbb57e045672723ec649,0.4552141228388293,1
81,There floated Amanda out of the pord. Is this good, bad, or neither?,2,2,819161aa2e764fd74ba60f02978d28b130e488d1f6ed613c48db286b68fe06ef24eeeb946d2af813bac598640b43342cd2b7a142eb31a6fff239faaae995f9f7,0.7024620108121994,1
82,There floated Amanda out of the pord. Is this good, bad, or neither?,2,3,83e68bdb3c8d06734b9c63de2e996ad5203cfadd686bffeb5371242a53bd2562e4ee27b56455e36057ad2b7ff679b1bc0942e1b5e336f4762c4ed9cc49cb339a,0.2876016940650685,1
83,There floated Amanda out of the pord. Is this good, bad, or neither?,2,3,531c667d4f67a26af45a5bfab6e20324aaa1acbcdbd2ac94f656bed1a4a854ed782760da32b1894db093d87f786a06b36748c4859a7d63a8ee897aa837aedc5e,0.4925991830100184,1
84,There floated Amanda out of the pord. Is this good, bad, or neither?,2,2,3af29ca0677df5eefd2bd80b677b59c4c65102a000fdf1d749fc78223a707a6b9677d972859bcf5619f2e37407172bdca7b9e54c777cd024dc3675171a5b0043,0.670352920825145,1
85,There floated Amanda out of the pord. Is this good, bad, or neither?,2,2,3af29ca0677df5eefd2bd80b677b59c4c65102a000fdf1d749fc78223a707a6b9677d972859bcf5619f2e37407172bdca7b9e54c777cd024dc3675171a5b0043,0.670352920825145,1
86,There floated Amanda out of the pord. Is this good, bad, or neither?,2,2,40b909e69a4f1ba86ad1de0a8a9a828171d4a818421ccf1db0d0374fb6bcbb97cf2eaafd5249862154d58999599bbfa86c1ce2833ceea52bc99c832391cb0357,0.9937762407645998,1
87,There floated Amanda out of the pord. Is this good, bad, or neither?,2,2,d7891981bd23572d2feb633fd1a58b9ed6dc3e4ac7d092aeb23e6717992663d0b9a8191beebd812db6ce7ef616929ee1dde8c2e0da3183f1a5bbd318ce71daae,0.8459117254777223,1
88,There floated Amanda out of the pord. Is this good, bad, or neither?,2,4,93c7036b79a7067a106c2cd4223276dd446c2c72895d509f80be5d6eee41883385bb69360c7da00f9264787a1a356ab846a84ec970d0be5d899ed01e316f758f,0.1176642987944433,1
89,There floated Amanda out of the pord. Is this good, bad, or neither?,2,2,b4a89e063c479339463fe8a3755a45afdb72640d55ae6f8499866bdce35aea79532c96c386d3e305abf960bd172306159148a5dedc70fc0c191353ec94176ac4,0.15375041218664587,1
90,There floated Amanda out of the pord. Is this good, bad, or neither?,2,3,2df884a0fab5e56a218b340190e8ce6ce49b91b728270f17e282efed6b42abdf177d8be2b4b64724598506e8afcbd3f5326b610cb65c28ea39333d0ab985ec51,0.28402380797953003,1
91,There floated Amanda out of the pord. Is this good, bad, or neither?,2,2,99cce8dee7a406636d6fe7e300e2704a13fa5ce1c3b18dd5f134736c075a0b54eb0db79c82c1e55388375429ed6e9dd6b95cbdc19ede24fa6a96e83de3f5220a,0.5625908191668921,1
92,There floated Amanda out of the pord. Is this good, bad, or neither?,2,2,0c84abd4571c460891577b19a2e12760ca08a41556b10c1de1746e4314ea7235ac628418c6354448cc2bec282eefc0ec464cb9ed8117d20b97a686b7d5213357,0.9521939574819644,1
93,There floated Amanda out of the pord. Is this good, bad, or neither?,2,2,0c84abd4571c460891577b19a2e12760ca08a41556b10c1de1746e4314ea7235ac628418c6354448cc2bec282eefc0ec464cb9ed8117d20b97a686b7d5213357,0.9521939574819644,1
94,There floated Amanda out of the pord. Is this good, bad, or neither?,2,3,f2d6b51dfd20eed1bd0330fdb2930840694538c9582d2b3d8d8d239cc9a74436f22cc405cafa0585ee0ba12957a0a33ac29e60434f30ce312df3202bb9c7906d,0.4903776078579161,1
95,There floated Amanda out of the pord. Is this good, bad, or neither?,2,3,b4a89e063c479339463fe8a3755a45afdb72640d55ae6f8499866bdce35aea79532c96c386d3e305abf960bd172306159148a5dedc70fc0c191353ec94176ac4,0.15375041218664587,1
96,There floated Amanda out of the pord. Is this good, bad, or neither?,2,2,66611115c7275293f57399c0ace4a88fbbcae79b07aec9fef3bab47b9285cdf18f3140a9b7a476fce30d231ef3b64fe3f07c2e671e05e8060f0fbfe9ad8ab642,0.9772236351928876,1
97,There floated Amanda out of the pord. Is this good, bad, or neither?,2,5,0ca87715be5df199ebada6867f7e0e75295c7ededa0fbd84664b9240578d42457d55abd66e8d40f24cae8c5c5c0a506eae9b839711a908d418039a14a0ca3135,0.08964562079973433,1
98,There floated Amanda out of the pord. Is this good, bad, or neither?,2,2,fa397b6498f37b2486c93b942859ab6761684709953bb9b06336fe536b3e6c2d0043a688e1a403ddc83f90029b00ccbc62362baf6394859c6c7acc269ea368b5,0.9989759259516467,1
99,There floated Amanda out of the pord. Is this good, bad, or neither?,2,0,64b0b383abef7422d0ae1d374180558f9cd4a3b0e91ed813b32c93202f31411e1af4445cc49c3e7a5e27274da047d27abc1a040400096e04e1c3e039548aed58,0.0012263522992573023,1
100,There floated Amanda out of the pord. Is this good, bad, or neither?,2,2,64b0b383abef7422d0ae1d374180558f9cd4a3b0e91ed813b32c93202f31411e1af4445cc49c3e7a5e27274da047d27abc1a040400096e04e1c3e039548aed58,0.0012263522992573023,1
101,There floated Amanda out of the pord. Is this good, bad, or neither?,2,1,9d8ddb67f662349a7f7a7c5a32fee73c457fd70d135ae4be6f17a68418102d35693b26415c8fd8c7bd26a5b5032587ac08aefd055994f62fcb3e9a44d5cb51b0,0.30062064729145943,1
102,There floated Amanda out of the pord. Is this good, bad, or neither?,2,7,5d818587500e31ddd24f674f0d96e8036b1fbbdeff8f12716de7cf436031070adc160ac58c2058f70b7756b9758d4cc6c60cd86cb5fbac5b08e94434f347d5fc,0.24493547330862334,1
103,There floated Amanda out of the pord. Is this good, bad, or neither?,2,2,ddaaf85b6ad92e5bd899125be0ee1d1e475cef85f10f7c86eb80b3e666aa2d27b9930efbf239779906809e3b49e9c42c65a28830cce2f7034e42c039095ac370,0.9364110753604948,1
104,There floated Amanda out of the pord. Is this good, bad, or neither?,2,2,d53a3853a701c0b2c6f59ecd154f16c81f913ab177c92d983b7f485f248ad8e3d2c917c73c67b45bfb8b646f5401330409d7a70104a1e853cdb47c89d1ab7624,0.9324514419889146,1
105,There floated Amanda out of the pord. Is this good, bad, or neither?,2,0,a6e3e5fadd18f91cf3b98367d61e458d833818fc25f28852fb2a5782720689df8ca05957c6d0a4610da5640485522b4cbefe1b6672ef13ea57f87fb371760066,0.17126844765771873,1
106,There floated Amanda out of the pord. Is this good, bad, or neither?,2,3,afc8519f3e8ec827aa95c2ab8596ba6a577ddb0938d1296c1e5e26069b6a5cb0efbbb575b892191b57e943c875a994be71292879124f2b98da628ad376b8d1a9,0.24728007716195902,1
107,There floated Amanda out of the pord. Is this good, bad, or neither?,2,2,e6b4887e60c9a9f61270335f1a765cea5e2de4f9bd5c8679d463718729ffd1c834479d1bd0d6f92c8aabdcaabb0fc7f7c4a236e0d23015adf1f49241e28f25ab,0.9035191876163015,1
108,There floated Amanda out of the pord. Is this good, bad, or neither?,2,6,ab817809187642176d23d87932f87fb8cac29305dd69bd9c80c875e1418683baeb300a33a4ea303e96598aee641e58ffef6ed700b09ee5a77559e157e08d3320,0.5736247867945159,1
109,There floated Amanda out of the pord. Is this good, bad, or neither?,2,6,949e348794c3e18581f7b55ecef851e605235f7c9cafa5c3b4d3e91106a8ea5851849ec1edc9cd0b8dbea5b628ab5f49181d508855ed809569304963bc219caa,0.03803008613325274,1
110,There floated Amanda out of the pord. Is this good, bad, or neither?,2,2,6442579b5017c978ac48004d53b31163b3763f309e6f3e0581e04c2aea211970cc33a63b0462acee00808e5c684e9c9445efbc52c93000c0cc6f7f2e7cc3b7f1,0.3957586536928521,1
111,There floated Amanda out of the pord. Is this good, bad, or neither?,2,2,609868e2cf6de58a506a6731afe55c53d93510e3a34e58705479846aa7ccef2469a0081dc7ad92826b214afccaa96b3202ca07a32e7d6afd795c5776ef5511be,0.8065353322204714,1
112,There floated Amanda out of the pord. Is this good, bad, or neither?,2,6,08ea6ea397537c84ac209f08bf3bec2c0ff500e94266cd17fa45d303b288126de192d25b7f3331a02fdcad8a68ce682fafad99f95ec45259d05ed65d6cd3505e,0.005547793964518179,1
113,There floated Amanda out of the pord. Is this good, bad, or neither?,2,2,aeaead0bad2cd8cd8e00067df1d0ddd61b9ba6afec23c08f5c84f413ad2e263545b447c45633570fb4f2c9b3d3be895bc1e474eb157f9f9b4ac62955a36370ef,0.4361639518411734,1
114,There floated Amanda out of the pord. Is this good, bad, or neither?,2,4,c4ed94657e69e8d0ab2fc62ae827e33b39befc4999fffa6f5fd6cc66b82427202a7aa870b5327b553f62a9c69474930cded1869d86d079f9aed5650135c1c560,0.796371671624391,1
115,There floated Amanda out of the pord. Is this good, bad, or neither?,2,2,de8d0510f675c2ae2b83a16b0ccbb5c010cff47cf8fe6de6c24cae0313982ca37997f74d578d9b52c6525387b1bd57c91752e5a52dcb740312dd784a58da61af,0.8451401020208655,1
116,There floated Amanda out of the pord. Is this good, bad, or neither?,2,2,305f2f29687fda8e291e598686a4a089cc57c27d26fc2dea3e28544183df6fdd4ce792399dcac730c7aa7109f82a09aace9c895bf9596d257e113393be774056,0.8575421676267354,1
117,There floated Amanda out of the pord. Is this good, bad, or neither?,2,2,b57e6944a7f1cc6dfbfb5f19290d78629407851ccc0ed62e99ad91b56b9a0289ce66292c99e08f9f97f73e5607d085b86ae6f072fce59ab0809e150affa9cfab,0.16953805940389657,1
118,There floated Amanda out of the pord. Is this good, bad, or neither?,2,5,948b1546ab23598285d2f77f39e4276a3a82e5d340295aa6760c9fc6f36b7437bb3a495a3ba88d447f3fe661e3d3dc2ca10e32b8b5eb3feb6619e793bc050ef2,0.6590079499695168,1
0,Ryan moved to a sampy position. Is this good, bad, or neither?,4,4,5d818587500e31ddd24f674f0d96e8036b1fbbdeff8f12716de7cf436031070adc160ac58c2058f70b7756b9758d4cc6c60cd86cb5fbac5b08e94434f347d5fc,0.7947710819478818,1
1,Ryan moved to a sampy position. Is this good, bad, or neither?,4,4,9d8ddb67f662349a7f7a7c5a32fee73c457fd70d135ae4be6f17a68418102d35693b26415c8fd8c7bd26a5b5032587ac08aefd055994f62fcb3e9a44d5cb51b0,0.6347561299029423,1
2,Ryan moved to a sampy position. Is this good, bad, or neither?,4,4,720bea532db6ed90a7bd855c056e2ccc32b0f2fe90eb490aa4d644afcc89620fb5f7c3bf4971d931a8aef22130fb8976bd9e83f534038e3c4e8421311520cb5d,0.99990378727343,1
3,Ryan moved to a sampy position. Is this good, bad, or neither?,4,4,3e48ecd6054d02891089f87e7290c4a1787d57fabca13ac896aa9393516140b72931471ecd8ad7b77a4a4dbb84a62823ee4ee2800ac340eb5b600cf3fba6c547,0.7887893742356985,1
4,Ryan moved to a sampy position. Is this good, bad, or neither?,4,2,ddaaf85b6ad92e5bd899125be0ee1d1e475cef85f10f7c86eb80b3e666aa2d27b9930efbf239779906809e3b49e9c42c65a28830cce2f7034e42c039095ac370,0.47326304410023234,1
5,Ryan moved to a sampy position. Is this good, bad, or neither?,4,5,ccfaa326d8b92448b4b19e6e8653dfe26eb68f94292588d631ff0d68d1cee3cfc074b10890b86c0ea17f12302fc4cd0a9ad531da7c74b9845c1611668e12a05b,0.5307525714481502,1
6,Ryan moved to a sampy position. Is this good, bad, or neither?,4,4,6f5d3137f68645162d6754029499a9ec7ae5684f56847c76e1aed3915b42b3ec8caf636fecf4f90a32b0151ee5f9c6a1d6452b80a69f77275d541c9cea4cbff1,0.014819530680913167,1
7,Ryan moved to a sampy position. Is this good, bad, or neither?,4,3,9fc9d3de7ddb83580fc430d2d5c6ee47e775cabd5a982d7012deb44dbf1042f8b3db8ea6b2c4ee7b39f82b84b6b071d6968393ccc6520a6870f0883ccc441cf9,0.2512880406599153,1
8,Ryan moved to a sampy position. Is this good, bad, or neither?,4,4,7c716e84485c4b668a895395c75ec25821b87a2ecc2eeb5126c6b960c4b368389f56e5487f589f0f84cf6e6db4cc4f03f869246bfecdf8f11a2bb59dfc45a76e,0.5226882938601285,1
9,Ryan moved to a sampy position. Is this good, bad, or neither?,4,4,675a6154d38e7981c932127e219f374c1a8880011eab4c932106ac51314fb2868ba8fd7264f3bb40c5a96272dc019e5c9cf6c60011e9e9a04b73042a43219af2,0.8212817881745951,1
10,Ryan moved to a sampy position. Is this good, bad, or neither?,4,4,305f2f29687fda8e291e598686a4a089cc57c27d26fc2dea3e28544183df6fdd4ce792399dcac730c7aa7109f82a09aace9c895bf9596d257e113393be774056,0.8121160040084888,1
11,Ryan moved to a sampy position. Is this good, bad, or neither?,4,4,08ea6ea397537c84ac209f08bf3bec2c0ff500e94266cd17fa45d303b288126de192d25b7f3331a02fdcad8a68ce682fafad99f95ec45259d05ed65d6cd3505e,0.3227002478182453,1
12,Ryan moved to a sampy position. Is this good, bad, or neither?,4,2,aeaead0bad2cd8cd8e00067df1d0ddd61b9ba6afec23c08f5c84f413ad2e263545b447c45633570fb4f2c9b3d3be895bc1e474eb157f9f9b4ac62955a36370ef,0.34563671947219327,1
13,Ryan moved to a sampy position. Is this good, bad, or neither?,4,4,a6202f5baa8882e3140ebe52cdb57922e79dc4a923c98ceebb1311e44270ef6c2f8cd077f3d6fd8989f3068a8792574449183d6487eae4e3cc7fe409f7796f43,0.6632309647272825,1
14,Ryan moved to a sampy position. Is this good, bad, or neither?,4,4,bcaeadfc56724d5a2432d2d012f80ea1f3af361fd2cc23ae85f9c718fc15e697164a11cbc8c601de2536a5c3f4d2cfa30f149dc06e2371384a24375be9cb90b5,0.4794895754085036,1
15,Ryan moved to a sampy position. Is this good, bad, or neither?,4,4,8a74478a9db13d691c15cdcee8e51f2a7166c095ebc46b46a45db0f7e71f25326113b63f51c722ce73b2f2cb4b6c23f1f5bcf0819b2b17e93467b4e32ae84781,0.9519288463111559,1
16,Ryan moved to a sampy position. Is this good, bad, or neither?,4,4,b2e4ef616f0e1cac30a4ca570ef5fcdd39f29c1d43a6f1aee2542fd1b0997436fa6ac58d4b97fa4b3ef9a0ae56b199c150a1682687603e5266cfc82b866b7ed2,0.6730472034981276,1
17,Ryan moved to a sampy position. Is this good, bad, or neither?,4,7,5b56973b88ed7b736ff3966dd5900790af0d217684769981e05a869fd0482e4eb627fbc83ef164acdcc19dfee68958f3688d63269cfdc0cd3c3ec35969e3c934,0.1938862766009057,1
18,Ryan moved to a sampy position. Is this good, bad, or neither?,4,4,af989e3af8e0075e9bde53bd63f64cd6e74e8b4e5bd1927668d72c74602eac36c160300f69280c96acac6f88b8e2304f56fa42541c2b6de1348a754f5f87e17c,0.8732796232545996,1
19,Ryan moved to a sampy position. Is this good, bad, or neither?,4,4,4f9deb2661d65f513467f6edd92732225432ee516a2eaa704195a133c8af7abae72fff830f90663ad642b26fd7f6a4bf8f39208e34834d98b0170fded5b88ae9,0.6894148417690443,1
20,Ryan moved to a sampy position. Is this good, bad, or neither?,4,4,87ef026014587c59d56fa4c2071e6bb9d3bed56b2c3afb54b24d4cc832295bd62bbfb4a581d1881c6fcb84d2fb80ee66fccefc5a7457a6dc6289793ff7e7d0dc,0.36245700371481665,1
21,Ryan moved to a sampy position. Is this good, bad, or neither?,4,4,59b08a645fc422cb906b374cc090da670df1abebf75166991a77077ed223dd4c51870e8cde0bf0e157eb15f92e1904e7be1238a91c5a1d6cc4e58493f33ab7fe,0.9493745369739254,1
22,Ryan moved to a sampy position. Is this good, bad, or neither?,4,4,2cb44008208d14c82cf8868fc09b67e721d51c1b25835a53ce5c75d4338141e971e3aad3228e19b641ecd4278d4576dc2f1af7702b6c5731e30d7d54f5a829a5,0.7072268004521797,1
23,Ryan moved to a sampy position. Is this good, bad, or neither?,4,4,fb3ee4e72eb582b2b2920acd3ac5a4ed00149c2560bf0255b9bc8237d80cbadd7b353ced6ab5662f69dfe00d362575b7da94144cd2374866a682e39b17cc3c0d,0.8479497316234887,1
24,Ryan moved to a sampy position. Is this good, bad, or neither?,4,1,caff777a2303da77340521ef83945a07684b2612ccb93a9fe1e9e6b34d4e52177c4499982e59c5f493664f3123c4c9738867850e7445f494ca6c22600eb6e56a,0.04989397396004805,1
25,Ryan moved to a sampy position. Is this good, bad, or neither?,4,4,28195e505193242d636c8cf88927e3353b64c1e9365b6d4fe6834ae467adb58cc661083c465cf575a9d4e6e6ea9daf2f4e5b8eaf892be186be05aa6b9c0519ec,0.9976388982714713,1
26,Ryan moved to a sampy position. Is this good, bad, or neither?,4,4,d52d0f79310a4a1585de2ba281cae55d8bf4f66ee89a3b0afe5bec86ac64f3fbcf4ac04acc90a017d6f66a1259e7c33c370048fe26771c06104f79c7f0e7daea,0.9457579318975612,1
27,Ryan moved to a sampy position. Is this good, bad, or neither?,4,7,ecd12f5c7840150b6bf31f41cfe805fbb7f1e24d87bc7f9a7e4a26034d172ee611537c7e49e1951d513a1b63598bec45f4cf8d3fd4936ebe2747d7e8018937e5,0.36410035177611993,1
28,Ryan moved to a sampy position. Is this good, bad, or neither?,4,4,1ea01966bc2646cf505948430346b109cd68ac4d744c3c0f933d8625d62b05a76deaba4a313e5bdfe75846468bf3bfbf4d9a03ac9fde9f57506d1b99e7f90da7,0.02336275108981106,1
29,Ryan moved to a sampy position. Is this good, bad, or neither?,4,0,1a61246cd509cb5ecba860ada52fb78f3a59d7a471e284f3bcc38cd2afa1dc4379bb075259f4bf83bd675fc8603a8b95c430ab021683c069dbf82461023cdab3,0.011450322570178707,1
30,Ryan moved to a sampy position. Is this good, bad, or neither?,4,7,0cce9151698e5674daa0d80fe4efc4daa6c28de601e9af357d943b02c498a73578d8113eba388846a2ca22017c481f5d2b2a23aca606799dfa309a4c8d51c86e,0.18756458772353157,1
31,Ryan moved to a sampy position. Is this good, bad, or neither?,4,4,1c5085a9aa92902111716bc36653840cee5e2bfde879f7dba2166bb7f9913be8c773118205c94456fbed33364c243b1ab4e3664bb7c1911bdf8f43d1e9f57b94,0.895395538697669,1
32,Ryan moved to a sampy position. Is this good, bad, or neither?,4,7,6644fc9ab070e4736a427a595e13a4e1f4c65d0441d5f9c3763a0ca2bebe4b6d85ce49b24b0c9750114fd355a92383c10d3bd01ba7404d9b30775b04969a9a34,0.25107881127806114,1
33,Ryan moved to a sampy position. Is this good, bad, or neither?,4,6,7cb676e80d006ce92ccecc92fa76faf71ab836f627bd748d5d9f4676ba07efed8876614dc29b9304aeb63d39575013e69477982590216727c64d3feffcf41868,0.5958716677438248,1
34,Ryan moved to a sampy position. Is this good, bad, or neither?,4,3,5adefca985807c50c8c3653bc05dd62711748c31faf2fc5e7214a6c8a54953845a096abf18034228cdef8df2149de79b181f416f14036eb5488ae4b5e10799af,0.5494893830170969,1
35,Ryan moved to a sampy position. Is this good, bad, or neither?,4,4,9e4f99683f985e073dfc63168a83369c53bae7c6cb57226226dd598ced7658fb1937e02062d3b5b8526df2afccfba7a1c6544461c46679f4c48556ad51d6eaf0,0.9404325038551606,1
36,Ryan moved to a sampy position. Is this good, bad, or neither?,4,3,9bead9901fd8948cfe071e5d8ae3b3be1ed74c64124ecf8c75d19242c22b1982abbfd4fe909c4c433d712dd816d44400cabb90a208e351321815b0ab491409ed,0.401371644950293,1
37,Ryan moved to a sampy position. Is this good, bad, or neither?,4,4,a586e1739ac9ca715396da5cfd7ee1a7d7302758994d8487adf0f60a53281f1ed04e0fef8d9990ca46271540155a4b34e628abf8f09c1966674c5789fc9f4329,0.986152767276827,1
38,Ryan moved to a sampy position. Is this good, bad, or neither?,4,6,304c801b5e2f5ed943c079a06ab8fac14c92fdaa2fb9558785e3f897f1d57c86b120bf36038503c4451c728577d9b57e88a921eb2116a41a72c75e77f4e49797,0.7607738902971954,1
39,Ryan moved to a sampy position. Is this good, bad, or neither?,4,6,a7dc9d4f184ea86b7b6e6869b9a53887f9af455a7a9b3f701cc20ec18e11435fdb90d9c3eed921996792de6c1628b7a27219b25f044ffe99d725092cbc88af6e,0.0038531128284307924,1
40,Ryan moved to a sampy position. Is this good, bad, or neither?,4,1,ac3b1b10808f1753ec2a45dbfd111934fc15f5c99e8d54caa1b9fa0399c450a1b4489cb0037029cbf93008625f0c076357a1b8e164d2f400a000fbd6062f7bad,0.15180640635907622,1
41,Ryan moved to a sampy position. Is this good, bad, or neither?,4,4,58d21333fabff922d46df0c898c21f914f63033e21c078454fd057723a4362ff5e714be632468569187f5304a1e5bc13ab0f894291a6bf075ca570441f1f6d15,0.6915349502730443,1
42,Ryan moved to a sampy position. Is this good, bad, or neither?,4,4,3dd7ff53be07f8d72042472584bf379bcd78eb96940dcc6e0f4bcf0b8f7d5c5f679eaa10b4cc83a57202ef875263c59b04ef8d7d54e320694bea43a5a4c2bc99,0.5682150125524214,1
43,Ryan moved to a sampy position. Is this good, bad, or neither?,4,4,3dd7ff53be07f8d72042472584bf379bcd78eb96940dcc6e0f4bcf0b8f7d5c5f679eaa10b4cc83a57202ef875263c59b04ef8d7d54e320694bea43a5a4c2bc99,0.5682150125524214,1
44,Ryan moved to a sampy position. Is this good, bad, or neither?,4,4,acd8febf40d6112e2e3c5cc387fd5e3a47d5544abb49c4d3f1e18a79b6e9c879af617f7067b1c5c6b80b05094286fc527bfd9f2d984b6523c8ff1f5ecd1ea8ae,0.9985173814666415,1
45,Ryan moved to a sampy position. Is this good, bad, or neither?,4,4,9e3a61b80a05ca3a7c0ad9445b5049a5119f310f2ec0c8c2a9c320b1926a7af397dee82bd0f88577c42b6b0336fb46e77ed2e17b47f3166c818645fed5e98ceb,0.9648994394802154,1
46,Ryan moved to a sampy position. Is this good, bad, or neither?,4,4,9e3a61b80a05ca3a7c0ad9445b5049a5119f310f2ec0c8c2a9c320b1926a7af397dee82bd0f88577c42b6b0336fb46e77ed2e17b47f3166c818645fed5e98ceb,0.9648994394802154,1
47,Ryan moved to a sampy position. Is this good, bad, or neither?,4,4,e026cbf1f92ffcd63549ad9958fb5feeaed2d6b545677b809b1cafc3fc96349d27e28ef3da4919854a8b6d9ce320dc40b10f705c361b77a717ca1cc8d70dca1b,0.7201673020419948,1
48,Ryan moved to a sampy position. Is this good, bad, or neither?,4,6,a3fe48d172465fbb24a650eeb520bd4c4631496b6d9d7a38bf192e1566aa97e662f2b2e76290bf0e0a6c2a90ffb291b31ff1e75bb29714c834646a850ace5bf6,0.0011416180035001503,1
49,Ryan moved to a sampy position. Is this good, bad, or neither?,4,0,432e022d70279ade11f7ad8d4d28802e40cc70f4fce90942fa41ece53dc18bac5a2450df2933fb7b5d853a2b031598cf2a9eedfc5fca596949fb0165bb8d7838,0.04381295055349938,1
50,Ryan moved to a sampy position. Is this good, bad, or neither?,4,7,27c71e7f82f9c11263d2eb2ffb12f72acf16cb2ad15cd7fda2939a803da754eecdb03d279187a32e67f4738b02d01c3003f0cd9c77713132dbdb7faf39a9a6aa,0.06076880737529507,1
51,Ryan moved to a sampy position. Is this good, bad, or neither?,4,3,af2a334d706c1b69573a219943b69d932d7ab19af138b53be67e9aecd99fabaeb2a49b44537009c3139302d498eb4b5f83a8e2bb09d9b9cfb8869bd630c6c757,0.0860339248037625,1
52,Ryan moved to a sampy position. Is this good, bad, or neither?,4,4,a989d27f4e2d6fa1eaabfbbe50f01c3f5678d6d05a13a1198d3510fc5cde5f54b7ee9a2e013f9e963456f9b7ec3e2751fc97486671ade1baaec31975aa7324c4,0.5962023196080457,1
53,Ryan moved to a sampy position. Is this good, bad, or neither?,4,0,f152fccfa1b4275911c3d51209757f8f47524d9e0dac927fa3cf085a412f2995c54db4378764d73c2aeccf796c683eda37b79db7a22b6c9fb80818fa2a0358f7,0.2287053798624458,1
54,Ryan moved to a sampy position. Is this good, bad, or neither?,4,4,512926c32568782467c043d9acacef7e1297fe10e47106d36f90ed38f8036a40a0f8a10a29ae7a31a0a93e5ad4fed44921abf919134ac7a8d096c8022d200715,0.8774644011460622,1
55,Ryan moved to a sampy position. Is this good, bad, or neither?,4,4,864fd6d6c6f3b061f8849268ccbe26a8df17226567b244b0760c60bacd2b79ced559640987941fff3ebd0eb3949cea7885c56e467856a8919d1736aa402c8087,0.7557746514407263,1
56,Ryan moved to a sampy position. Is this good, bad, or neither?,4,4,f3383bfec88826edd78a72ed01c48e9e5f7474bee81f33325e55ebb3b4934501b623790523c5f65fd8d94387e25c28029705e02f96f6507b06c445830e0ca247,0.728485946422523,1
57,Ryan moved to a sampy position. Is this good, bad, or neither?,4,7,25f59b566bfd6c48199f78f2ca8c9e3394ba87dd2b89641de88eadfe68d9f750c0706df1f2c4ec7d3b8a68dc3684d43958937d6d1b9641bd2933ada2425d599f,0.000011623864720255195,1
58,Ryan moved to a sampy position. Is this good, bad, or neither?,4,4,19277661313b5118bd1b2e29039b47276f1f8235917f3217bf95498030989874a1ca10bb943fa21faf787d793095c0d4119e136013ed4a9be167f67c2a6d11d3,0.9594699675646859,1
59,Ryan moved to a sampy position. Is this good, bad, or neither?,4,4,dc1573fdf940f9fb09d57b0011d03c1c44d31b200b999056f3ba7a66f968fff14e39bb77a6b95cde426287b90f173b03c2bb7c514497e44276b0f589563d5728,0.9963607868854729,1
60,Ryan moved to a sampy position. Is this good, bad, or neither?,4,2,654abee2a34ea238dd9860279c2e4f4ca17d0745f80e3a567f1be1f8bc80565588c6bc0d387e4705bac6ad4b8113565bc4647802a60f9ec02d1e658cb7bd2331,0.6981773666850077,1
61,Ryan moved to a sampy position. Is this good, bad, or neither?,4,4,5f12e05c2e694ca4d0d50f5c90ffefa31fc5c326c5f6352ab6f2d69efda09898d7fa2e899476fb98164baf5559806eee7fc6f92a8cd7641d9b208f848e51b143,0.6114555950104047,1
62,Ryan moved to a sampy position. Is this good, bad, or neither?,4,4,5f12e05c2e694ca4d0d50f5c90ffefa31fc5c326c5f6352ab6f2d69efda09898d7fa2e899476fb98164baf5559806eee7fc6f92a8cd7641d9b208f848e51b143,0.6114555950104047,1
63,Ryan moved to a sampy position. Is this good, bad, or neither?,4,4,5f12e05c2e694ca4d0d50f5c90ffefa31fc5c326c5f6352ab6f2d69efda09898d7fa2e899476fb98164baf5559806eee7fc6f92a8cd7641d9b208f848e51b143,0.6114555950104047,1
64,Ryan moved to a sampy position. Is this good, bad, or neither?,4,4,5f12e05c2e694ca4d0d50f5c90ffefa31fc5c326c5f6352ab6f2d69efda09898d7fa2e899476fb98164baf5559806eee7fc6f92a8cd7641d9b208f848e51b143,0.6114555950104047,1
65,Ryan moved to a sampy position. Is this good, bad, or neither?,4,6,5f12e05c2e694ca4d0d50f5c90ffefa31fc5c326c5f6352ab6f2d69efda09898d7fa2e899476fb98164baf5559806eee7fc6f92a8cd7641d9b208f848e51b143,0.6114555950104047,1
66,Ryan moved to a sampy position. Is this good, bad, or neither?,4,4,5f12e05c2e694ca4d0d50f5c90ffefa31fc5c326c5f6352ab6f2d69efda09898d7fa2e899476fb98164baf5559806eee7fc6f92a8cd7641d9b208f848e51b143,0.6114555950104047,1
67,Ryan moved to a sampy position. Is this good, bad, or neither?,4,5,5f12e05c2e694ca4d0d50f5c90ffefa31fc5c326c5f6352ab6f2d69efda09898d7fa2e899476fb98164baf5559806eee7fc6f92a8cd7641d9b208f848e51b143,0.6114555950104047,1
68,Ryan moved to a sampy position. Is this good, bad, or neither?,4,4,5f12e05c2e694ca4d0d50f5c90ffefa31fc5c326c5f6352ab6f2d69efda09898d7fa2e899476fb98164baf5559806eee7fc6f92a8cd7641d9b208f848e51b143,0.6114555950104047,1
69,Ryan moved to a sampy position. Is this good, bad, or neither?,4,4,f567d6a6237d6557ffdcb7899c8566957144b8dea66be90187125fb3ae4279e947fb7249e98a18ccad3cf0cb2b59a19ac8c1e09356734fa6ee67a4836b4d3c37,0.861411080747564,1
70,Ryan moved to a sampy position. Is this good, bad, or neither?,4,4,f567d6a6237d6557ffdcb7899c8566957144b8dea66be90187125fb3ae4279e947fb7249e98a18ccad3cf0cb2b59a19ac8c1e09356734fa6ee67a4836b4d3c37,0.861411080747564,1
71,Ryan moved to a sampy position. Is this good, bad, or neither?,4,4,74909907346f16739bae4e01b6235b1840b7201043bb3e7e6d45d421e2b5a87fe25e58f50eb0b85bb5979ee0b8c53b0b94b782f484b04939f186669ffde79e44,0.7413511155479763,1
72,Ryan moved to a sampy position. Is this good, bad, or neither?,4,1,dd5bd327c33bbd0598b233f378e8d9faa81d9b3047a207e8faa600ce3dde96841e9820125984b50a6f74d0d8409b60cf98aa61f0bea65ae100bf354486230de8,0.7386979074569002,1
73,Ryan moved to a sampy position. Is this good, bad, or neither?,4,4,dd5bd327c33bbd0598b233f378e8d9faa81d9b3047a207e8faa600ce3dde96841e9820125984b50a6f74d0d8409b60cf98aa61f0bea65ae100bf354486230de8,0.7386979074569002,1
74,Ryan moved to a sampy position. Is this good, bad, or neither?,4,4,3ce1c91573b49e76ae6d43c669a24733296314c25baffa84d6693179025159771a3c7b297e83491615fff176965dd211be78675095cfe008040fcf254df14810,0.9913923924529665,1
75,Ryan moved to a sampy position. Is this good, bad, or neither?,4,4,83e68bdb3c8d06734b9c63de2e996ad5203cfadd686bffeb5371242a53bd2562e4ee27b56455e36057ad2b7ff679b1bc0942e1b5e336f4762c4ed9cc49cb339a,0.9958299296842477,1
76,Ryan moved to a sampy position. Is this good, bad, or neither?,4,3,0c1e43ef5b2f9488f1f2f5d3bb698140bc0a814ccd0552a4d3b9bc7f4899fbd7f112dda7c2abe51111db2cd9354f7ed05e8023ddc9513e6797cd881f2b3a9c2c,0.002569165119822881,1
77,Ryan moved to a sampy position. Is this good, bad, or neither?,4,4,819161aa2e764fd74ba60f02978d28b130e488d1f6ed613c48db286b68fe06ef24eeeb946d2af813bac598640b43342cd2b7a142eb31a6fff239faaae995f9f7,0.9784920487248879,1
78,Ryan moved to a sampy position. Is this good, bad, or neither?,4,7,64c920623ab31436b5b4c22427a48558b7ec124dfae9a0406b46420dd8b1b842cc381b408af36bce712d7ed00749499374ac41eff341ac32483021553436031a,0.10771225966396102,1
79,Ryan moved to a sampy position. Is this good, bad, or neither?,4,6,6ceee2f71efcf20e84bbd06a14b4db7e96fa397d5608a8089a019f6a0d0c87607b63f5a1d3da3239a3195f67cb70811756fab2c6788bd186d72da854a5a6e20b,0.024171602669166854,1
80,Ryan moved to a sampy position. Is this good, bad, or neither?,4,4,b4a89e063c479339463fe8a3755a45afdb72640d55ae6f8499866bdce35aea79532c96c386d3e305abf960bd172306159148a5dedc70fc0c191353ec94176ac4,0.8748737778472846,1
81,Ryan moved to a sampy position. Is this good, bad, or neither?,4,4,26729c392072f043615adffdd8653c7ba3bb0a1666325fbc5e4200c5527ff8f7b18e0fe11a3076def10d3c2e4eae07213bcb2c233bab7241ba47f38ad8a9ccd4,0.1790509856751691,1
82,Ryan moved to a sampy position. Is this good, bad, or neither?,4,2,0ca87715be5df199ebada6867f7e0e75295c7ededa0fbd84664b9240578d42457d55abd66e8d40f24cae8c5c5c0a506eae9b839711a908d418039a14a0ca3135,0.00439417718251563,1
83,Ryan moved to a sampy position. Is this good, bad, or neither?,4,3,fa397b6498f37b2486c93b942859ab6761684709953bb9b06336fe536b3e6c2d0043a688e1a403ddc83f90029b00ccbc62362baf6394859c6c7acc269ea368b5,0.2777132590035109,1
84,Ryan moved to a sampy position. Is this good, bad, or neither?,4,4,fa397b6498f37b2486c93b942859ab6761684709953bb9b06336fe536b3e6c2d0043a688e1a403ddc83f90029b00ccbc62362baf6394859c6c7acc269ea368b5,0.2777132590035109,1
85,Ryan moved to a sampy position. Is this good, bad, or neither?,4,4,5d818587500e31ddd24f674f0d96e8036b1fbbdeff8f12716de7cf436031070adc160ac58c2058f70b7756b9758d4cc6c60cd86cb5fbac5b08e94434f347d5fc,0.7947710819478818,1
86,Ryan moved to a sampy position. Is this good, bad, or neither?,4,1,9d8ddb67f662349a7f7a7c5a32fee73c457fd70d135ae4be6f17a68418102d35693b26415c8fd8c7bd26a5b5032587ac08aefd055994f62fcb3e9a44d5cb51b0,0.6347561299029423,1
87,Ryan moved to a sampy position. Is this good, bad, or neither?,4,4,720bea532db6ed90a7bd855c056e2ccc32b0f2fe90eb490aa4d644afcc89620fb5f7c3bf4971d931a8aef22130fb8976bd9e83f534038e3c4e8421311520cb5d,0.99990378727343,1
88,Ryan moved to a sampy position. Is this good, bad, or neither?,4,4,3e48ecd6054d02891089f87e7290c4a1787d57fabca13ac896aa9393516140b72931471ecd8ad7b77a4a4dbb84a62823ee4ee2800ac340eb5b600cf3fba6c547,0.7887893742356985,1
89,Ryan moved to a sampy position. Is this good, bad, or neither?,4,4,ddaaf85b6ad92e5bd899125be0ee1d1e475cef85f10f7c86eb80b3e666aa2d27b9930efbf239779906809e3b49e9c42c65a28830cce2f7034e42c039095ac370,0.47326304410023234,1
90,Ryan moved to a sampy position. Is this good, bad, or neither?,4,1,ccfaa326d8b92448b4b19e6e8653dfe26eb68f94292588d631ff0d68d1cee3cfc074b10890b86c0ea17f12302fc4cd0a9ad531da7c74b9845c1611668e12a05b,0.5307525714481502,1
91,Ryan moved to a sampy position. Is this good, bad, or neither?,4,7,6f5d3137f68645162d6754029499a9ec7ae5684f56847c76e1aed3915b42b3ec8caf636fecf4f90a32b0151ee5f9c6a1d6452b80a69f77275d541c9cea4cbff1,0.014819530680913167,1
92,Ryan moved to a sampy position. Is this good, bad, or neither?,4,3,9fc9d3de7ddb83580fc430d2d5c6ee47e775cabd5a982d7012deb44dbf1042f8b3db8ea6b2c4ee7b39f82b84b6b071d6968393ccc6520a6870f0883ccc441cf9,0.2512880406599153,1
93,Ryan moved to a sampy position. Is this good, bad, or neither?,4,7,7c716e84485c4b668a895395c75ec25821b87a2ecc2eeb5126c6b960c4b368389f56e5487f589f0f84cf6e6db4cc4f03f869246bfecdf8f11a2bb59dfc45a76e,0.5226882938601285,1
94,Ryan moved to a sampy position. Is this good, bad, or neither?,4,4,675a6154d38e7981c932127e219f374c1a8880011eab4c932106ac51314fb2868ba8fd7264f3bb40c5a96272dc019e5c9cf6c60011e9e9a04b73042a43219af2,0.8212817881745951,1
95,Ryan moved to a sampy position. Is this good, bad, or neither?,4,4,305f2f29687fda8e291e598686a4a089cc57c27d26fc2dea3e28544183df6fdd4ce792399dcac730c7aa7109f82a09aace9c895bf9596d257e113393be774056,0.8121160040084888,1
96,Ryan moved to a sampy position. Is this good, bad, or neither?,4,5,08ea6ea397537c84ac209f08bf3bec2c0ff500e94266cd17fa45d303b288126de192d25b7f3331a02fdcad8a68ce682fafad99f95ec45259d05ed65d6cd3505e,0.3227002478182453,1
97,Ryan moved to a sampy position. Is this good, bad, or neither?,4,1,aeaead0bad2cd8cd8e00067df1d0ddd61b9ba6afec23c08f5c84f413ad2e263545b447c45633570fb4f2c9b3d3be895bc1e474eb157f9f9b4ac62955a36370ef,0.34563671947219327,1
98,Ryan moved to a sampy position. Is this good, bad, or neither?,4,5,a6202f5baa8882e3140ebe52cdb57922e79dc4a923c98ceebb1311e44270ef6c2f8cd077f3d6fd8989f3068a8792574449183d6487eae4e3cc7fe409f7796f43,0.6632309647272825,1
0,Jeffrey moved Christopher duppy. Is this good, bad, or neither?,2,2,5d818587500e31ddd24f674f0d96e8036b1fbbdeff8f12716de7cf436031070adc160ac58c2058f70b7756b9758d4cc6c60cd86cb5fbac5b08e94434f347d5fc,0.8039143103051012,1
1,Jeffrey moved Christopher duppy. Is this good, bad, or neither?,2,7,9d8ddb67f662349a7f7a7c5a32fee73c457fd70d135ae4be6f17a68418102d35693b26415c8fd8c7bd26a5b5032587ac08aefd055994f62fcb3e9a44d5cb51b0,0.22178313378285058,1
2,Jeffrey moved Christopher duppy. Is this good, bad, or neither?,2,5,ddaaf85b6ad92e5bd899125be0ee1d1e475cef85f10f7c86eb80b3e666aa2d27b9930efbf239779906809e3b49e9c42c65a28830cce2f7034e42c039095ac370,0.1782833144228507,1
3,Jeffrey moved Christopher duppy. Is this good, bad, or neither?,2,2,720bea532db6ed90a7bd855c056e2ccc32b0f2fe90eb490aa4d644afcc89620fb5f7c3bf4971d931a8aef22130fb8976bd9e83f534038e3c4e8421311520cb5d,0.8972957187846884,1
4,Jeffrey moved Christopher duppy. Is this good, bad, or neither?,2,2,ee73e2d6a49779a190508b7a5527d0462073c375d343559179a9a3c9a876fe63d85396cc2a1603d54d62e5f098e4dd2df3bc3a84be9e80db20aa6a63b0997915,0.16158952825273598,1
5,Jeffrey moved Christopher duppy. Is this good, bad, or neither?,2,2,eb4b6b706a0f89e14a2d8d16dfc7aa9c87a7d0595820e60b0d5dec6c005f0197619f954c3c62e433d7c45a2749d03a361351da7118319f5edfc5ea8c0c918e14,0.2758123861690135,1
6,Jeffrey moved Christopher duppy. Is this good, bad, or neither?,2,2,ab817809187642176d23d87932f87fb8cac29305dd69bd9c80c875e1418683baeb300a33a4ea303e96598aee641e58ffef6ed700b09ee5a77559e157e08d3320,0.9785815869768236,1
7,Jeffrey moved Christopher duppy. Is this good, bad, or neither?,2,3,9fc9d3de7ddb83580fc430d2d5c6ee47e775cabd5a982d7012deb44dbf1042f8b3db8ea6b2c4ee7b39f82b84b6b071d6968393ccc6520a6870f0883ccc441cf9,0.06408888162062311,1
8,Jeffrey moved Christopher duppy. Is this good, bad, or neither?,2,6,bff104426b6a4d67b64d646f66d943b31f0d8e7c3bcca5ec8c3599ea5d5a1c4945bd0c9e9676073295cee600e9d4ba91a6ff9ffb5526ba342ca3c2750e58ddfb,0.0007157218740629872,1
9,Jeffrey moved Christopher duppy. Is this good, bad, or neither?,2,2,5769eef71c212f93c1a538a7ec3ea7855d2bbb3697e22ce6f2addbfeec146cbb31d2c242f75500c441e9afb75343338f0ea25b13cd0990dae576e3c783599dc5,0.9356657167680216,1
10,Jeffrey moved Christopher duppy. Is this good, bad, or neither?,2,2,a36b43bd789ef341914e784ff830963bac3b6bad0211de9ca706eb1013daab7c00b75359bb7c07515d48907ceecd41f54b7469a8c480913ff97cf3b110e345b8,0.9673997472057713,1
11,Jeffrey moved Christopher duppy. Is this good, bad, or neither?,2,2,76d65c514babf33db0d830e8738f1b07bc5a36e67febe7d745b7a4f151628a92d48a5bd59f62081f76445026c830cf00084e705db5b8ff68fc7f65219da0c504,0.347584769746846,1
12,Jeffrey moved Christopher duppy. Is this good, bad, or neither?,2,7,08ea6ea397537c84ac209f08bf3bec2c0ff500e94266cd17fa45d303b288126de192d25b7f3331a02fdcad8a68ce682fafad99f95ec45259d05ed65d6cd3505e,0.3343646516231439,1
13,Jeffrey moved Christopher duppy. Is this good, bad, or neither?,2,2,08ea6ea397537c84ac209f08bf3bec2c0ff500e94266cd17fa45d303b288126de192d25b7f3331a02fdcad8a68ce682fafad99f95ec45259d05ed65d6cd3505e,0.3343646516231439,1
14,Jeffrey moved Christopher duppy. Is this good, bad, or neither?,2,2,aeaead0bad2cd8cd8e00067df1d0ddd61b9ba6afec23c08f5c84f413ad2e263545b447c45633570fb4f2c9b3d3be895bc1e474eb157f9f9b4ac62955a36370ef,0.6984733143883043,1
15,Jeffrey moved Christopher duppy. Is this good, bad, or neither?,2,2,5ed859beff22cb7346bbd1bb520b4e40c6fd44610478d66cd057f78c274bfe00e0cfd791b7f2e25ec9b478d601bfa4906bcd9751e895cada9d7ddb10a781a789,0.710362374526165,1
16,Jeffrey moved Christopher duppy. Is this good, bad, or neither?,2,5,305f2f29687fda8e291e598686a4a089cc57c27d26fc2dea3e28544183df6fdd4ce792399dcac730c7aa7109f82a09aace9c895bf9596d257e113393be774056,0.0008764072295158509,1
17,Jeffrey moved Christopher duppy. Is this good, bad, or neither?,2,2,44ff1cf089bbf7211828a3fdb20b42438871616ec1673ead8a12f71d33cd02a9c9b6277f081d013d9f2ec7440ed01aff2b636ec53a25db5c848ae2217fd50870,0.95842266420126,1
18,Jeffrey moved Christopher duppy. Is this good, bad, or neither?,2,2,6c66f8d1cb79f83e2d8b91024b3a9ca482019683b414926463b3e904cf0f9c4ed281967b81a4f11df07a41e5cfdffde8fde4684d77da4ddbd12bd26426785698,0.9960744902699562,1
19,Jeffrey moved Christopher duppy. Is this good, bad, or neither?,2,2,2cb44008208d14c82cf8868fc09b67e721d51c1b25835a53ce5c75d4338141e971e3aad3228e19b641ecd4278d4576dc2f1af7702b6c5731e30d7d54f5a829a5,0.9211883722443257,1
20,Jeffrey moved Christopher duppy. Is this good, bad, or neither?,2,2,fb3ee4e72eb582b2b2920acd3ac5a4ed00149c2560bf0255b9bc8237d80cbadd7b353ced6ab5662f69dfe00d362575b7da94144cd2374866a682e39b17cc3c0d,0.13942368091259538,1
21,Jeffrey moved Christopher duppy. Is this good, bad, or neither?,2,2,caff777a2303da77340521ef83945a07684b2612ccb93a9fe1e9e6b34d4e52177c4499982e59c5f493664f3123c4c9738867850e7445f494ca6c22600eb6e56a,0.8071651276874745,1
22,Jeffrey moved Christopher duppy. Is this good, bad, or neither?,2,6,28195e505193242d636c8cf88927e3353b64c1e9365b6d4fe6834ae467adb58cc661083c465cf575a9d4e6e6ea9daf2f4e5b8eaf892be186be05aa6b9c0519ec,0.06613787938521348,1
23,Jeffrey moved Christopher duppy. Is this good, bad, or neither?,2,2,d52d0f79310a4a1585de2ba281cae55d8bf4f66ee89a3b0afe5bec86ac64f3fbcf4ac04acc90a017d6f66a1259e7c33c370048fe26771c06104f79c7f0e7daea,0.6131812664910893,1
24,Jeffrey moved Christopher duppy. Is this good, bad, or neither?,2,1,28195e505193242d636c8cf88927e3353b64c1e9365b6d4fe6834ae467adb58cc661083c465cf575a9d4e6e6ea9daf2f4e5b8eaf892be186be05aa6b9c0519ec,0.06613787938521348,1
25,Jeffrey moved Christopher duppy. Is this good, bad, or neither?,2,2,ecd12f5c7840150b6bf31f41cfe805fbb7f1e24d87bc7f9a7e4a26034d172ee611537c7e49e1951d513a1b63598bec45f4cf8d3fd4936ebe2747d7e8018937e5,0.6731161588463941,1
26,Jeffrey moved Christopher duppy. Is this good, bad, or neither?,2,4,1d6e25166a8b6d9220341b9777943f8f9207f6570ab6c8945b52785b99a53dd40db80a3523ca48d4ad74c2c963ef178eac19a5fa416cfaad04b8d26c00a35ca2,0.5111283653523585,1
27,Jeffrey moved Christopher duppy. Is this good, bad, or neither?,2,3,41628a0f8849c48d09c00e99c4a99cae8b10c5d31c76fc5043a816bea93afdb63771aa227c3fc1235d69b6c482ed4c1972716b6868be483c3ecaba9ca7efddc1,0.09859396374696278,1
28,Jeffrey moved Christopher duppy. Is this good, bad, or neither?,2,4,019db9849fbccf5726490ab64aa3a38725f0fbff3fa674ebccc5ad8eb2545a58b021ff9df8cf7fdc3d7dd52831ffdbf674953f8c6fae23d9d327dd9784d28ef5,0.02193014022336169,1
29,Jeffrey moved Christopher duppy. Is this good, bad, or neither?,2,2,2affe66e78ed0fdb8662d48e9de768393c88ec5e667c71326bc9ac141e2742f64028489e0a9dbbd820ca7d777483a05f81c195e5a46d9c595e8003584f94b06f,0.0037519846916667303,1
30,Jeffrey moved Christopher duppy. Is this good, bad, or neither?,2,2,d8d36b556cb88089c396a1aa18d3b2fcc76975bf65b7c36c6bfdde6fb04622148a36cd6ddaf29b2df5b5d98328fadebc0d4a61203ea283c2a49ea9dc69cc2a86,0.9858814720161273,1
31,Jeffrey moved Christopher duppy. Is this good, bad, or neither?,2,2,1e7019267a5b9fb0c239414b1e225193cc46ec9d6c9a84692122a153d5af4e4bec36f2ece04c27828e7c811956744c4cdaf9b6e007fe5418441f79557bd2012a,0.9272811322110195,1
32,Jeffrey moved Christopher duppy. Is this good, bad, or neither?,2,2,2e08ea7a396b5dc2fc6ff518b56da9298cfd603a2f489e5145c092eb9870a320d2bfa8fd161fe5975a370e19055991d826fd24dea216f722fe25dbbf75088cd3,0.3209768084135599,1
33,Jeffrey moved Christopher duppy. Is this good, bad, or neither?,2,2,2a48146bf0c56f5a0f8768b5717669f863b5d0d699748f83dc57fa18ebebcc77e09889b83c6506b8726d57fdadb07ae40ae4578d3763a0505c8f10148052319c,0.9524039417603536,1
34,Jeffrey moved Christopher duppy. Is this good, bad, or neither?,2,1,5adefca985807c50c8c3653bc05dd62711748c31faf2fc5e7214a6c8a54953845a096abf18034228cdef8df2149de79b181f416f14036eb5488ae4b5e10799af,0.003796605470793249,1
35,Jeffrey moved Christopher duppy. Is this good, bad, or neither?,2,5,87d20b91bd4e4d749ce2b5e4414c28a7cef02c7c2e5311c42906d9854ec9b2ff96f0a731cbb7fb8815395b3cf83911614f2e723355f2998ea39b9d17e27ba0ef,0.46281511664634384,1
36,Jeffrey moved Christopher duppy. Is this good, bad, or neither?,2,2,44ab43de92d7d045d35a268ff21728fe8251a8d679c4620135757e996ecd1b0d37600baedaa7423719286090fda88c0f64d18215c67d3cb9c52687c7d8457143,0.9731178263537046,1
37,Jeffrey moved Christopher duppy. Is this good, bad, or neither?,2,5,0e65e98cc7f50655fb7e6ee4eb89625a49859e292f6a78922498cb13bdc91f50940e0f37574664eb953519012e5cb54a76e1d3eecb807abc26a538480c28a8db,0.18186422892421455,1
38,Jeffrey moved Christopher duppy. Is this good, bad, or neither?,2,2,e026cbf1f92ffcd63549ad9958fb5feeaed2d6b545677b809b1cafc3fc96349d27e28ef3da4919854a8b6d9ce320dc40b10f705c361b77a717ca1cc8d70dca1b,0.2063939406616005,1
39,Jeffrey moved Christopher duppy. Is this good, bad, or neither?,2,2,432e022d70279ade11f7ad8d4d28802e40cc70f4fce90942fa41ece53dc18bac5a2450df2933fb7b5d853a2b031598cf2a9eedfc5fca596949fb0165bb8d7838,0.7115094209584321,1
40,Jeffrey moved Christopher duppy. Is this good, bad, or neither?,2,7,b4c66c5d89026ff9b94fd9e0d6551295f9af3e283539a0fbf69f20975d144a76ea50bc8d5ec1d8fec715ee7b7bad74483cc69714d5f9d7d0da47fd524fcef80c,0.03450937206838439,1
41,Jeffrey moved Christopher duppy. Is this good, bad, or neither?,2,1,f152fccfa1b4275911c3d51209757f8f47524d9e0dac927fa3cf085a412f2995c54db4378764d73c2aeccf796c683eda37b79db7a22b6c9fb80818fa2a0358f7,0.46213301150435127,1
42,Jeffrey moved Christopher duppy. Is this good, bad, or neither?,2,4,19277661313b5118bd1b2e29039b47276f1f8235917f3217bf95498030989874a1ca10bb943fa21faf787d793095c0d4119e136013ed4a9be167f67c2a6d11d3,0.4776900714259611,1
43,Jeffrey moved Christopher duppy. Is this good, bad, or neither?,2,0,78947e18120243b940b705bd059e692b5f7e55dc473e479262f545b7fb6b21b603555aa71a9eef57088ae61e66e9d945ac839f2584bfa716582f16d6d8832de4,0.6471097398807389,1
44,Jeffrey moved Christopher duppy. Is this good, bad, or neither?,2,2,654abee2a34ea238dd9860279c2e4f4ca17d0745f80e3a567f1be1f8bc80565588c6bc0d387e4705bac6ad4b8113565bc4647802a60f9ec02d1e658cb7bd2331,0.9930845077185062,1
45,Jeffrey moved Christopher duppy. Is this good, bad, or neither?,2,2,5f12e05c2e694ca4d0d50f5c90ffefa31fc5c326c5f6352ab6f2d69efda09898d7fa2e899476fb98164baf5559806eee7fc6f92a8cd7641d9b208f848e51b143,0.9578202018523793,1
46,Jeffrey moved Christopher duppy. Is this good, bad, or neither?,2,2,5f12e05c2e694ca4d0d50f5c90ffefa31fc5c326c5f6352ab6f2d69efda09898d7fa2e899476fb98164baf5559806eee7fc6f92a8cd7641d9b208f848e51b143,0.9578202018523793,1
47,Jeffrey moved Christopher duppy. Is this good, bad, or neither?,2,2,5f12e05c2e694ca4d0d50f5c90ffefa31fc5c326c5f6352ab6f2d69efda09898d7fa2e899476fb98164baf5559806eee7fc6f92a8cd7641d9b208f848e51b143,0.9578202018523793,1
48,Jeffrey moved Christopher duppy. Is this good, bad, or neither?,2,2,5f12e05c2e694ca4d0d50f5c90ffefa31fc5c326c5f6352ab6f2d69efda09898d7fa2e899476fb98164baf5559806eee7fc6f92a8cd7641d9b208f848e51b143,0.9578202018523793,1
49,Jeffrey moved Christopher duppy. Is this good, bad, or neither?,2,2,5f12e05c2e694ca4d0d50f5c90ffefa31fc5c326c5f6352ab6f2d69efda09898d7fa2e899476fb98164baf5559806eee7fc6f92a8cd7641d9b208f848e51b143,0.9578202018523793,1
50,Jeffrey moved Christopher duppy. Is this good, bad, or neither?,2,2,5f12e05c2e694ca4d0d50f5c90ffefa31fc5c326c5f6352ab6f2d69efda09898d7fa2e899476fb98164baf5559806eee7fc6f92a8cd7641d9b208f848e51b143,0.9578202018523793,1
51,Jeffrey moved Christopher duppy. Is this good, bad, or neither?,2,2,5f12e05c2e694ca4d0d50f5c90ffefa31fc5c326c5f6352ab6f2d69efda09898d7fa2e899476fb98164baf5559806eee7fc6f92a8cd7641d9b208f848e51b143,0.9578202018523793,1
52,Jeffrey moved Christopher duppy. Is this good, bad, or neither?,2,2,5f12e05c2e694ca4d0d50f5c90ffefa31fc5c326c5f6352ab6f2d69efda09898d7fa2e899476fb98164baf5559806eee7fc6f92a8cd7641d9b208f848e51b143,0.9578202018523793,1
53,Jeffrey moved Christopher duppy. Is this good, bad, or neither?,2,2,052ff460e516b3b07b0ce03ae8d2528329275d0339c168fe3b83b30558c6f3b713cdfe6c81546ff39947a35305d5161bc46ae68518486bfbd3ceeec254f237d4,0.461199871746321,1
54,Jeffrey moved Christopher duppy. Is this good, bad, or neither?,2,4,e7071d603d000b9ae40280673e176247b9dfa7157b46021d3ae8666cec356b285366025414f5dae4b0134b61bb246b75d5bf85b6582298ebb0aef2ead4d9a641,0.03798624483341832,1
55,Jeffrey moved Christopher duppy. Is this good, bad, or neither?,2,2,3ce1c91573b49e76ae6d43c669a24733296314c25baffa84d6693179025159771a3c7b297e83491615fff176965dd211be78675095cfe008040fcf254df14810,0.8824233081170766,1
56,Jeffrey moved Christopher duppy. Is this good, bad, or neither?,2,2,b4a89e063c479339463fe8a3755a45afdb72640d55ae6f8499866bdce35aea79532c96c386d3e305abf960bd172306159148a5dedc70fc0c191353ec94176ac4,0.699129401656926,1
57,Jeffrey moved Christopher duppy. Is this good, bad, or neither?,2,1,819161aa2e764fd74ba60f02978d28b130e488d1f6ed613c48db286b68fe06ef24eeeb946d2af813bac598640b43342cd2b7a142eb31a6fff239faaae995f9f7,0.10378067237285772,1
58,Jeffrey moved Christopher duppy. Is this good, bad, or neither?,2,2,f74a189a696ebb5d3833d4b89b0f94733b24c099235b93e38989b213817f3f6c519b8f67d99e68d2aae2d8cec42afe0dc9936b8765108818964591269daa19f6,0.9741439456001028,1
59,Jeffrey moved Christopher duppy. Is this good, bad, or neither?,2,2,b4a89e063c479339463fe8a3755a45afdb72640d55ae6f8499866bdce35aea79532c96c386d3e305abf960bd172306159148a5dedc70fc0c191353ec94176ac4,0.699129401656926,1
60,Jeffrey moved Christopher duppy. Is this good, bad, or neither?,2,2,c2a35a9e3a4e63030e1b1467ea5c631724ace41aa9aab9a34f7eb3dea239079ba738fd4333a249f113a2423c2b23c3dc9bd99213f8a783d851527ee9cb86f84b,0.9738066676921444,1
61,Jeffrey moved Christopher duppy. Is this good, bad, or neither?,2,2,fa397b6498f37b2486c93b942859ab6761684709953bb9b06336fe536b3e6c2d0043a688e1a403ddc83f90029b00ccbc62362baf6394859c6c7acc269ea368b5,0.3834023789719211,1
62,Jeffrey moved Christopher duppy. Is this good, bad, or neither?,2,2,5d818587500e31ddd24f674f0d96e8036b1fbbdeff8f12716de7cf436031070adc160ac58c2058f70b7756b9758d4cc6c60cd86cb5fbac5b08e94434f347d5fc,0.8039143103051012,1
63,Jeffrey moved Christopher duppy. Is this good, bad, or neither?,2,6,9d8ddb67f662349a7f7a7c5a32fee73c457fd70d135ae4be6f17a68418102d35693b26415c8fd8c7bd26a5b5032587ac08aefd055994f62fcb3e9a44d5cb51b0,0.22178313378285058,1
64,Jeffrey moved Christopher duppy. Is this good, bad, or neither?,2,6,ddaaf85b6ad92e5bd899125be0ee1d1e475cef85f10f7c86eb80b3e666aa2d27b9930efbf239779906809e3b49e9c42c65a28830cce2f7034e42c039095ac370,0.1782833144228507,1
65,Jeffrey moved Christopher duppy. Is this good, bad, or neither?,2,2,720bea532db6ed90a7bd855c056e2ccc32b0f2fe90eb490aa4d644afcc89620fb5f7c3bf4971d931a8aef22130fb8976bd9e83f534038e3c4e8421311520cb5d,0.8972957187846884,1
66,Jeffrey moved Christopher duppy. Is this good, bad, or neither?,2,2,ee73e2d6a49779a190508b7a5527d0462073c375d343559179a9a3c9a876fe63d85396cc2a1603d54d62e5f098e4dd2df3bc3a84be9e80db20aa6a63b0997915,0.16158952825273598,1
67,Jeffrey moved Christopher duppy. Is this good, bad, or neither?,2,3,eb4b6b706a0f89e14a2d8d16dfc7aa9c87a7d0595820e60b0d5dec6c005f0197619f954c3c62e433d7c45a2749d03a361351da7118319f5edfc5ea8c0c918e14,0.2758123861690135,1
68,Jeffrey moved Christopher duppy. Is this good, bad, or neither?,2,2,ab817809187642176d23d87932f87fb8cac29305dd69bd9c80c875e1418683baeb300a33a4ea303e96598aee641e58ffef6ed700b09ee5a77559e157e08d3320,0.9785815869768236,1
69,Jeffrey moved Christopher duppy. Is this good, bad, or neither?,2,3,9fc9d3de7ddb83580fc430d2d5c6ee47e775cabd5a982d7012deb44dbf1042f8b3db8ea6b2c4ee7b39f82b84b6b071d6968393ccc6520a6870f0883ccc441cf9,0.06408888162062311,1
70,Jeffrey moved Christopher duppy. Is this good, bad, or neither?,2,0,bff104426b6a4d67b64d646f66d943b31f0d8e7c3bcca5ec8c3599ea5d5a1c4945bd0c9e9676073295cee600e9d4ba91a6ff9ffb5526ba342ca3c2750e58ddfb,0.0007157218740629872,1
71,Jeffrey moved Christopher duppy. Is this good, bad, or neither?,2,2,5769eef71c212f93c1a538a7ec3ea7855d2bbb3697e22ce6f2addbfeec146cbb31d2c242f75500c441e9afb75343338f0ea25b13cd0990dae576e3c783599dc5,0.9356657167680216,1
72,Jeffrey moved Christopher duppy. Is this good, bad, or neither?,2,2,a36b43bd789ef341914e784ff830963bac3b6bad0211de9ca706eb1013daab7c00b75359bb7c07515d48907ceecd41f54b7469a8c480913ff97cf3b110e345b8,0.9673997472057713,1
73,Jeffrey moved Christopher duppy. Is this good, bad, or neither?,2,2,76d65c514babf33db0d830e8738f1b07bc5a36e67febe7d745b7a4f151628a92d48a5bd59f62081f76445026c830cf00084e705db5b8ff68fc7f65219da0c504,0.347584769746846,1
74,Jeffrey moved Christopher duppy. Is this good, bad, or neither?,2,0,08ea6ea397537c84ac209f08bf3bec2c0ff500e94266cd17fa45d303b288126de192d25b7f3331a02fdcad8a68ce682fafad99f95ec45259d05ed65d6cd3505e,0.3343646516231439,1
75,Jeffrey moved Christopher duppy. Is this good, bad, or neither?,2,5,08ea6ea397537c84ac209f08bf3bec2c0ff500e94266cd17fa45d303b288126de192d25b7f3331a02fdcad8a68ce682fafad99f95ec45259d05ed65d6cd3505e,0.3343646516231439,1
76,Jeffrey moved Christopher duppy. Is this good, bad, or neither?,2,1,aeaead0bad2cd8cd8e00067df1d0ddd61b9ba6afec23c08f5c84f413ad2e263545b447c45633570fb4f2c9b3d3be895bc1e474eb157f9f9b4ac62955a36370ef,0.6984733143883043,1
77,Jeffrey moved Christopher duppy. Is this good, bad, or neither?,2,6,5ed859beff22cb7346bbd1bb520b4e40c6fd44610478d66cd057f78c274bfe00e0cfd791b7f2e25ec9b478d601bfa4906bcd9751e895cada9d7ddb10a781a789,0.710362374526165,1
78,Jeffrey moved Christopher duppy. Is this good, bad, or neither?,2,2,305f2f29687fda8e291e598686a4a089cc57c27d26fc2dea3e28544183df6fdd4ce792399dcac730c7aa7109f82a09aace9c895bf9596d257e113393be774056,0.0008764072295158509,1
79,Jeffrey moved Christopher duppy. Is this good, bad, or neither?,2,2,44ff1cf089bbf7211828a3fdb20b42438871616ec1673ead8a12f71d33cd02a9c9b6277f081d013d9f2ec7440ed01aff2b636ec53a25db5c848ae2217fd50870,0.95842266420126,1
80,Jeffrey moved Christopher duppy. Is this good, bad, or neither?,2,2,2cb44008208d14c82cf8868fc09b67e721d51c1b25835a53ce5c75d4338141e971e3aad3228e19b641ecd4278d4576dc2f1af7702b6c5731e30d7d54f5a829a5,0.9211883722443257,1
81,Jeffrey moved Christopher duppy. Is this good, bad, or neither?,2,6,41628a0f8849c48d09c00e99c4a99cae8b10c5d31c76fc5043a816bea93afdb63771aa227c3fc1235d69b6c482ed4c1972716b6868be483c3ecaba9ca7efddc1,0.09859396374696278,1
