Question,Good,Bad,Neutral,Don't Know Meaning,Depends,Ungrammatical,Other,Do not know verb
"There floated Amanda out of the pord. Is this good, bad, or neither?",15,7,64,1,14,12,4,2
"Ryan moved to a sampy position. Is this good, bad, or neither?",12,6,49,3,18,3,7,1
"Jeffrey moved Christopher duppy. Is this good, bad, or neither?",6,5,40,9,7,8,4,3
"The gamp smashed Angela. Is this good, bad, or neither?",2,84,2,8,3,1,1,5
"Thomas bounced the vatter. Is this good, bad, or neither?",8,2,54,5,10,2,4,3
"Kevin bounced Samuel. Is this good, bad, or neither?",6,18,30,14,26,6,2,4
"Jeremy floated the gauble crompy. Is this good, bad, or neither?",6,3,56,11,13,5,5,1
"Andrew bounced the zink to a crompy position. Is this good, bad, or neither?",3,7,60,3,12,3,9,1
"Paul smashed at the gamp. Is this good, bad, or neither?",2,56,10,13,17,12,5,2
"Adam entertained. Is this good, bad, or neither?",68,1,11,4,5,8,2,2
"Matthew broke the quol. Is this good, bad, or neither?",3,46,12,7,28,1,7,2
"The sevel smashed the treem. Is this good, bad, or neither?",3,42,11,6,23,2,7,2
"Lisa expected the gink to be a duppy crose. Is this good, bad, or neither?",2,7,61,4,11,2,6,4
"Gregory floated the quol over the ferf. Is this good, bad, or neither?",11,3,62,2,16,6,3,7
"Nicholas moved the yab across the zurk. Is this good, bad, or neither?",7,3,72,1,7,2,5,3
"Nicholas moved Anthony across the yab. Is this good, bad, or neither?",7,1,60,3,19,3,6,2
"Andrew bounced the zink across the quol. Is this good, bad, or neither?",4,4,68,2,18,3,6,2
"The trab smashed into ferfs. Is this good, bad, or neither?",1,75,5,4,14,1,1,3
"Kyle enjoyed the gink for its yab. Is this good, bad, or neither?",62,3,5,2,10,4,2,5
"The verp moved Lisa. Is this good, bad, or neither?",14,3,37,28,21,1,1,2
"Rebecca smashed the sevel. Is this good, bad, or neither?",2,54,8,3,18,1,4,1
"Tiffany moved crompy. Is this good, bad, or neither?",3,2,52,10,16,3,8,4
"Steven bounced to a frimpy position. Is this good, bad, or neither?",17,4,46,2,12,2,6,1
"The nork smashed easily. Is this good, bad, or neither?",11,35,23,6,22,2,7,3
"Kyle floated. Is this good, bad, or neither?",19,2,60,5,6,1,2,2
"There bounced Christina out of the kach. Is this good, bad, or neither?",8,10,50,2,8,13,4,1
"Nicholas enjoyed that Jeremy lached. Is this good, bad, or neither?",57,3,9,1,15,3,2,16
"Paul entertained easily. Is this good, bad, or neither?",81,1,15,4,6,2,1,1
"The zog entertained Jacob. Is this good, bad, or neither?",79,4,12,6,3,1,3,1
"Gregory floated Thomas over the quol. Is this good, bad, or neither?",15,5,41,2,17,3,2,3
"The crose floated to a fracky position. Is this good, bad, or neither?",2,6,62,1,9,2,7,2
"Thomas bounced Michael. Is this good, bad, or neither?",1,25,32,12,24,5,2,2
"The argend moved. Is this good, bad, or neither?",3,1,60,4,11,3,2,6
"The zink bounced. Is this good, bad, or neither?",6,5,63,5,12,1,6,1
"Amy hated Emily laching kaches. Is this good, bad, or neither?",1,52,11,1,16,2,7,14
"The nork smashed. Is this good, bad, or neither?",1,47,9,8,17,8,6,3
"Sarah moved Elizabeth fracky. Is this good, bad, or neither?",7,4,32,7,16,23,3,3
"Eric hated cheruffing. Is this good, bad, or neither?",1,38,32,1,13,3,6,6
"Jacob smashed Tyler with the gauble. Is this good, bad, or neither?",1,70,2,1,5,1,1,1
"The sevel moved Sarah fracky. Is this good, bad, or neither?",8,4,37,22,27,7,4,5
"Andrew bounced Tyler to a crompy position. Is this good, bad, or neither?",5,20,43,5,14,5,6,5
"Jeffrey moved the zog duppy. Is this good, bad, or neither?",2,2,64,4,19,1,5,2
"Andrea hated that Lisa elnoed. Is this good, bad, or neither?",2,68,8,3,14,1,3,23
"Andrew expected that Corey rished. Is this good, bad, or neither?",5,5,49,4,18,7,3,15
"Jacob smashed the gauble with the ferf. Is this good, bad, or neither?",4,44,11,2,35,1,5,1
"The kach floated across the zurk. Is this good, bad, or neither?",4,3,64,1,4,1,4,2
"Rachel hated Lauren. Is this good, bad, or neither?",3,89,2,2,8,1,3,1
"Stephanie floated quooky. Is this good, bad, or neither?",8,5,66,8,18,9,7,6
"Tyler floated the verp across the gink. Is this good, bad, or neither?",11,3,78,2,5,4,1,3
"Kyle broke the gauble into zeens with a gamp. Is this good, bad, or neither?",5,44,21,3,29,1,7,2
"Jennifer trusted the gauble. Is this good, bad, or neither?",54,3,12,4,14,3,6,1
"Angela smashed the gamp. Is this good, bad, or neither?",4,54,7,7,22,3,8,6
"Tyler floated the verp to a fracky position. Is this good, bad, or neither?",5,10,52,3,16,4,4,8
"Hannah bounced the soch over the gamp. Is this good, bad, or neither?",7,3,53,3,11,5,6,3
"The gamp smashed the zog. Is this good, bad, or neither?",3,55,10,12,15,1,7,3
"Jacob's envorving moved Corey. Is this good, bad, or neither?",35,3,17,26,11,1,2,16
"Heather floated across the kach. Is this good, bad, or neither?",10,2,77,2,6,3,12,2
"The zog moved. Is this good, bad, or neither?",4,5,66,4,14,1,5,4
"The alkop floated. Is this good, bad, or neither?",9,3,58,2,9,4,8,1
"The gamp broke the quap into ginks. Is this good, bad, or neither?",2,29,22,4,27,3,2,2
"The quol broke the alkop. Is this good, bad, or neither?",1,48,6,4,19,3,3,2
"Brian trusted that Thomas rilted. Is this good, bad, or neither?",53,4,21,3,11,4,3,8
"Angela trusted that Christina kuched. Is this good, bad, or neither?",53,5,15,2,11,4,2,5
"Michael trusted the argend to be a splompy blinch. Is this good, bad, or neither?",56,6,6,4,20,1,5,1
"Kyle enjoyed Michael for his gink. Is this good, bad, or neither?",71,6,10,4,10,5,1,8
"Kevin smashed the zink with a zeen. Is this good, bad, or neither?",3,48,6,6,25,1,7,2
"Ryan floated Andrew to moopation. Is this good, bad, or neither?",7,5,54,8,17,6,7,3
"Samuel respected the zink. Is this good, bad, or neither?",77,1,14,5,9,1,2,2
"Stephanie bounced Amanda duppy. Is this good, bad, or neither?",6,13,34,3,22,11,10,1
"There floated out of the abine Andrea. Is this good, bad, or neither?",8,3,42,3,7,21,2,2
"Molly trusted the quol. Is this good, bad, or neither?",56,6,15,1,12,1,3,1
"The gink broke. Is this good, bad, or neither?",1,56,8,1,13,2,3,3
"The sevel broke the blinch frimpy. Is this good, bad, or neither?",2,42,7,4,13,3,6,2
"Gregory smashed the quol frimpy. Is this good, bad, or neither?",3,55,11,6,19,4,3,1
"The zeen smashed the ferf into verps. Is this good, bad, or neither?",3,54,5,8,27,3,5,1
"Tyler floated Daniel to a fracky position. Is this good, bad, or neither?",4,10,42,4,28,5,3,3
"Elizabeth bounced across the vatter. Is this good, bad, or neither?",10,4,52,2,14,3,4,5
"Samuel respected Tyler. Is this good, bad, or neither?",69,0,3,0,3,1,1,0
"The gamp smashed the zog moopy. Is this good, bad, or neither?",3,67,12,6,22,5,4,1
"Hannah moved the sevel. Is this good, bad, or neither?",4,2,71,4,7,2,6,2
"Michael trusted Zachary to be a splompy blinch. Is this good, bad, or neither?",45,10,17,1,19,2,7,2
"Nicholas moved Anthony to a moopy position. Is this good, bad, or neither?",7,10,41,4,25,1,5,2
"Angela smashed Amy. Is this good, bad, or neither?",4,70,1,13,8,1,3,1
"Hannah bounced yenty. Is this good, bad, or neither?",10,4,57,10,16,7,6,4
"Tyler floated Daniel across the verp. Is this good, bad, or neither?",12,3,48,3,14,5,5,2
"Rachel moved easily. Is this good, bad, or neither?",43,1,33,12,4,1,1,2
"Rebecca smashed the harrents together. Is this good, bad, or neither?",7,33,27,4,28,2,7,4
"Jeremy bounced. Is this good, bad, or neither?",12,2,71,10,11,1,1,2
"The quol smashed the pord frimpy. Is this good, bad, or neither?",1,55,8,4,17,3,6,1
"Tiffany broke the sevel frimpy. Is this good, bad, or neither?",1,48,4,5,16,3,4,2
"Jacob entertained Brandon moopy. Is this good, bad, or neither?",58,1,5,4,9,16,1,2
"Mark enjoyed laching. Is this good, bad, or neither?",60,3,14,1,24,1,7,14
"The quol smashed Gregory frimpy. Is this good, bad, or neither?",1,61,2,5,18,9,3,3
"Molly smashed the crose crompy with a verp. Is this good, bad, or neither?",3,47,5,5,25,3,9,1
"Chelsea's eginopping entertained Michelle. Is this good, bad, or neither?",61,1,9,4,7,1,2,9
"Andrew bounced Tyler across the zink. Is this good, bad, or neither?",4,19,33,11,25,6,4,1
"Matthew hated to kuch. Is this good, bad, or neither?",4,43,20,3,17,4,3,11
"Jeremy floated Andrew crompy. Is this good, bad, or neither?",10,7,41,11,12,20,7,9
"Hannah moved Amber. Is this good, bad, or neither?",9,1,44,25,20,1,1,2
"Jacob entertained Jeremy. Is this good, bad, or neither?",83,2,12,3,1,1,1,1
"Lisa expected Nicole to be a duppy crose. Is this good, bad, or neither?",2,12,56,3,17,3,7,3
"Steven moved. Is this good, bad, or neither?",8,2,61,5,13,2,1,1
"Nicole floated the gamp. Is this good, bad, or neither?",5,3,63,3,8,1,1,2
"Chelsea floated to a fracky position. Is this good, bad, or neither?",5,10,47,2,14,3,9,6
"Robert broke the gamp into ginks. Is this good, bad, or neither?",6,34,22,4,28,1,3,2
"Zachary respected Jacob eginopping ginks. Is this good, bad, or neither?",62,1,11,1,2,3,4,7
"Andrew expected that the sevel rished. Is this good, bad, or neither?",6,2,58,5,10,8,2,9
"Catherine bounced over the shink. Is this good, bad, or neither?",11,3,63,4,10,2,6,2
"The zog entertained. Is this good, bad, or neither?",63,2,8,2,7,9,3,1
"The yab moved to a sampy position. Is this good, bad, or neither?",6,6,63,1,18,1,6,3
"Out of the sevel bounced Melissa. Is this good, bad, or neither?",16,6,39,4,11,6,5,2
"Hannah floated the quap. Is this good, bad, or neither?",10,7,57,5,15,6,3,4
"Gregory floated the quol. Is this good, bad, or neither?",5,3,61,8,15,5,8,3
"Megan trusted Nicole rilting harrents. Is this good, bad, or neither?",55,4,8,1,15,8,2,5
"Elizabeth enjoyed to rilt. Is this good, bad, or neither?",56,5,12,1,12,14,4,10
"Samantha enjoyed the blinch. Is this good, bad, or neither?",65,3,6,1,4,3,3,5
"Christopher hated the quap for its trab. Is this good, bad, or neither?",3,58,14,3,20,1,2,2
"Jacob smashed the zeen into verps. Is this good, bad, or neither?",3,55,7,3,23,1,7,3
"Hannah bounced the soch. Is this good, bad, or neither?",4,1,69,11,16,2,4,3
"Emily floated. Is this good, bad, or neither?",23,2,60,5,8,2,2,1
"Samuel respected rishing. Is this good, bad, or neither?",59,2,10,1,10,2,4,8
"Adam trusted the soch in him. Is this good, bad, or neither?",52,2,11,3,14,3,3,3
"Stephanie bounced the verp duppy. Is this good, bad, or neither?",7,7,62,7,13,2,5,4
"Kevin bounced the quol. Is this good, bad, or neither?",8,4,54,9,11,1,7,5
"The crose bounced yenty. Is this good, bad, or neither?",7,3,50,5,17,8,4,2
"Lauren bounced Hannah to quookation. Is this good, bad, or neither?",7,15,42,12,27,3,4,2
"Alyssa moved across the zurk. Is this good, bad, or neither?",5,4,80,3,5,1,5,3
"Anthony broke the gauble sampy with a verp. Is this good, bad, or neither?",5,59,14,8,28,2,3,4
"The ferf smashed the gink into trabs. Is this good, bad, or neither?",2,46,11,4,23,2,2,4
"Catherine respected the argend in her. Is this good, bad, or neither?",78,4,7,1,4,7,6,2
"The shink broke into gaubles. Is this good, bad, or neither?",5,37,13,5,25,2,6,1
"Paul smashed at Christopher. Is this good, bad, or neither?",1,54,7,6,9,16,3,1
"Nicholas moved the yab to a moopy position. Is this good, bad, or neither?",3,8,58,1,18,2,3,2
"Nicole floated Hannah. Is this good, bad, or neither?",18,1,45,12,14,17,2,7
"Lisa moved Catherine. Is this good, bad, or neither?",11,1,37,28,14,3,1,1
"The crose moved crompy. Is this good, bad, or neither?",1,4,69,8,13,3,4,6
"Andrea moved. Is this good, bad, or neither?",5,1,78,4,11,2,4,2
"Nicole respected the kach for its sevel. Is this good, bad, or neither?",62,2,9,4,3,2,3,4
"Mark smashed at the nork with the sevel. Is this good, bad, or neither?",4,50,7,3,11,2,5,1
"The shink's eginopping entertained Michelle. Is this good, bad, or neither?",74,3,9,1,4,1,3,8
"Thomas bounced. Is this good, bad, or neither?",13,2,55,4,10,1,4,1
"The vatter bounced across the gamp. Is this good, bad, or neither?",11,5,70,2,6,1,5,2
"Kelly floated over the blinch. Is this good, bad, or neither?",11,2,63,2,8,1,4,5
"Angela trusted that the gamp kuched. Is this good, bad, or neither?",55,3,19,2,14,4,2,10
"Amanda smashed the ferf into trabs. Is this good, bad, or neither?",5,64,12,4,22,1,9,3
"The zurk moved across the quap. Is this good, bad, or neither?",5,2,78,2,13,2,6,2
"Anthony hated the harrent in him. Is this good, bad, or neither?",3,55,10,0,11,0,7,6
"The gink bounced to a frimpy position. Is this good, bad, or neither?",6,9,46,6,15,2,2,1
"Molly expected the vatter. Is this good, bad, or neither?",10,2,66,1,15,1,8,1
"Nicole respected Alyssa for her kach. Is this good, bad, or neither?",75,2,4,1,13,1,5,1
"The nork broke easily. Is this good, bad, or neither?",6,38,15,10,23,1,3,8
"Ryan smashed the zog into trabs with a verp. Is this good, bad, or neither?",4,53,13,3,16,2,3,6
"Steven trusted elorring. Is this good, bad, or neither?",43,4,14,2,19,4,5,2
"Samantha enjoyed Alyssa. Is this good, bad, or neither?",67,5,4,6,5,3,0,0
"Samuel trusted the crose for its zurk. Is this good, bad, or neither?",61,2,16,0,7,4,3,1
"Out of the kach floated Amy. Is this good, bad, or neither?",8,1,65,8,10,3,4,2
"The pord entertained Jacob moopy. Is this good, bad, or neither?",54,1,20,3,9,6,2,5
"The zink's envorving moved Corey. Is this good, bad, or neither?",24,2,21,17,12,2,2,21
"The verp floated quooky. Is this good, bad, or neither?",4,3,63,5,16,8,9,7
"Rebecca enjoyed Lisa laching blinches. Is this good, bad, or neither?",61,2,10,2,11,3,3,5
"Hannah bounced Kelly over the soch. Is this good, bad, or neither?",5,18,36,13,23,3,5,5
"Emily broke the gamp with a treem. Is this good, bad, or neither?",2,44,15,5,26,2,7,4
"Alyssa smashed the sevel into zeens with a shink. Is this good, bad, or neither?",3,51,7,3,30,1,6,3
"Adam smashed the gamp moopy. Is this good, bad, or neither?",1,60,6,7,21,1,7,1
"Andrew respected that Robert efmotted. Is this good, bad, or neither?",68,2,3,0,5,3,5,11
"Samuel trusted Zachary for his crose. Is this good, bad, or neither?",60,3,8,1,15,6,3,3
"Christopher hated Steven for his quap. Is this good, bad, or neither?",4,71,4,1,9,1,4,3
"Gregory smashed James frimpy. Is this good, bad, or neither?",2,76,5,1,7,7,3,1
"Rachel hated the zink. Is this good, bad, or neither?",5,52,17,1,15,1,5,2
"Jennifer trusted Sarah. Is this good, bad, or neither?",67,4,4,4,12,1,3,1
"Victoria enjoyed the gink in her. Is this good, bad, or neither?",89,1,12,1,16,1,2,9
"Mark smashed at Matthew with the nork. Is this good, bad, or neither?",3,73,4,2,9,12,1,2
"There bounced out of the sevel Andrea. Is this good, bad, or neither?",11,2,46,1,5,23,3,5
"Hannah floated Melissa. Is this good, bad, or neither?",13,4,48,10,13,11,1,6
"Ryan broke Christopher. Is this good, bad, or neither?",1,44,1,4,7,9,3,1
"Mark swindled the argend from Tyler. Is this good, bad, or neither?",1,48,3,1,4,3,2,1
"Corey murdered Daniel with the harrent. Is this good, bad, or neither?",1,56,1,2,4,1,1,2
"Tyler murdered Brian. Is this good, bad, or neither?",2,57,1,3,3,1,2,2
"The soch killed Matthew. Is this good, bad, or neither?",1,52,1,9,2,1,2,1
"Sarah broke Tiffany out of her gink. Is this good, bad, or neither?",24,6,9,5,12,4,8,3
"Lauren killed Nicole with the blinch. Is this good, bad, or neither?",1,53,1,3,3,2,3,1
"Peter married Christina. Is this good, bad, or neither?",38,1,14,2,7,1,6,1
"Thomas and Melissa married. Is this good, bad, or neither?",37,1,7,1,3,2,4,1
"Samantha swindled Lauren of treem. Is this good, bad, or neither?",1,40,0,0,1,2,0,1
"Samuel swindled Corey out of his zeen. Is this good, bad, or neither?",2,45,2,1,1,1,1,2
"Steven killed Zachary. Is this good, bad, or neither?",2,53,2,6,2,1,1,1
"Amber killed Melissa with the soch. Is this good, bad, or neither?",1,45,1,6,3,1,2,3
"Andrea broke Chelsea of alkop. Is this good, bad, or neither?",6,20,3,3,16,16,7,4
"Amanda killed Tiffany. Is this good, bad, or neither?",2,47,1,3,3,1,3,2
"Andrea swindled Nicole. Is this good, bad, or neither?",3,53,1,1,4,1,2,6
